0. Min. 6 - Accumulated Learning Time : 1 - Best. 12 Accumulated Learning Time: 5 Total time: 46 Sols: 4164 NonEq. 38

1. Min. 1 - Accumulated Learning Time : 0 - Best. 9 Accumulated Learning Time: 2 Total time: 34 Sols: 4624 NonEq. 12

2. Min. 3 - Accumulated Learning Time : 0 - Best. 14 Accumulated Learning Time: 4 Total time: 50 Sols: 4391 NonEq. 16

3. Min. 2 - Accumulated Learning Time : 0 - Best. 3 Accumulated Learning Time: 0 Total time: 22 Sols: 4509 NonEq. 18

4. Min. 6 - Accumulated Learning Time : 1 - Best. 15 Accumulated Learning Time: 4 Total time: 21 Sols: 4144 NonEq. 15

5. Min. 5 - Accumulated Learning Time : 1 - Best. 8 Accumulated Learning Time: 2 Total time: 23 Sols: 4165 NonEq. 18

6. Min. 8 - Accumulated Learning Time : 2 - Best. 26 Accumulated Learning Time: 11 Total time: 57 Sols: 3887 NonEq. 27

7. Min. 2 - Accumulated Learning Time : 0 - Best. 13 Accumulated Learning Time: 4 Total time: 32 Sols: 4454 NonEq. 20

8. Min. 5 - Accumulated Learning Time : 1 - Best. 17 Accumulated Learning Time: 9 Total time: 76 Sols: 4189 NonEq. 30

9. Min. 3 - Accumulated Learning Time : 0 - Best. 14 Accumulated Learning Time: 4 Total time: 53 Sols: 4489 NonEq. 22
