DOM: [[] (q -> s)]
GOALS: [[] (r -> [](!s)), [] (p -> <>(q))]
Initial population size: 32
Total population size: 100

GENERATION 1/50
....m.m.<;....m.m.<;....m.m.<;....m.m.<;....m.m.<;....m.m.<;....m.m.<;...i..m.<;....m.m.<;....m.m.<;....m.m.<;....m.m.<;....m.m.<;....m.m.<;....m.m.<;...i...<;....m.m.<;...i.m..<;....m.m.<;...i.m..<;....m.m.<;...i...<;....m.m.<;...i..m.<;.......m.m.<;......m.m.<;.....i.m..<;...i.m.m.<;....m.m.<;....m.m.<;....m.m.<;....m.m.<;....m.m.<;...i.m..<;....m.m.<;....m.m.<;......m.m.<;
Fittest value: 2.75 for chromosome ( ( p ) /\ ( [] ( r ) ) )
Solutions (1): ( ( p ) /\ ( [] ( r ) ) ) | 
Learning Time :1
CALLs: 231    TIMEOUTs: 0    ERRORs: 0
REEVALUATIONS: 24 OF 66

GENERATION 2/50
....m.m.<;....m.m.<;....m.m.<;....m.m.<;...i.m.m.<;....m.m.<;....m.m.<;....m.m.<;......m.m.<;....m.m.<;....m.m.<;......m.m.<;....m.m.<;.......m.m.<;....m.m.<;.....i...<;...i..m.<;........m.m.<;.....m.m.<;....m.m.<;.....m.m.<;....m.m.<;....m.m.<;......m.m.<;......m.m.<;...i.m..<;....m.m.<;.....m.m.<;
Fittest value: 2.75 for chromosome ( ( r ) /\ ( <> ( p ) ) )
Solutions (2): ( ( p ) /\ ( [] ( r ) ) ) | ( ( r ) /\ ( <> ( p ) ) ) | 
Learning Time :0
CALLs: 188    TIMEOUTs: 0    ERRORs: 0
REEVALUATIONS: 81 OF 164

GENERATION 3/50
....m.m.<;...i.m..<;....m.m.<;....m.m.<;....m.m.<;...i.m..<;....m.m.<;.....m.m.<;....m.m.<;....m.m.<;....m.m.<;........m.m.<;....m.m.<;....m.m.<;....m.m.<;....m.m.<;....m.m.<;....m.m.<;......m.m.<;....m.m.<;......m.m.<;....m.m.<;.....m.m.<;........m.m.<;....m.m.<;.....m.m.<;...i..m.<;....m.m.<;....m.m.<;...i.m.m.<;
Fittest value: 2.75 for chromosome ( ( p ) /\ ( [] ( r ) ) )
Solutions (3): ( ( p ) /\ ( [] ( r ) ) ) | ( ( r ) /\ ( <> ( p ) ) ) | ( X ( ( p ) /\ ( [] ( r ) ) ) ) | 
Learning Time :1
CALLs: 195    TIMEOUTs: 0    ERRORs: 0
REEVALUATIONS: 128 OF 251

GENERATION 4/50
.....m.m.<;...i.m.m.<;....m.m.<;....m.m.<;...i..m.<;...i.m.m.<;....i.m..<;....m.m.<;...i.m..<;...i.m..<;......m.m.<;......m.m.<;.....m.m.<;....m.m.<;...i.m..<;....m.m.<;....m.m.<;....m.m.<;....m.m.<;....m.m.<;....m.m.<;....m.m.<;.......m.m.<;....m.m.<;......m.m.<;....m.m.<;.....m.m.<;......m.m.<;.....m.m.<;....m.m.<;....m.m.<;....m.m.<;....m.m.<;....m.m.<;....m.m.<;....m.m.<;....m.m.<;....m.m.<;....m.m.<;....m.m.<;....m.m.<;...i.m..<;......m.m.<;....m.m.<;....m.m.<;...i.m..<;...i.m.m.<;....m.m.<;...i.m.m.<;....m.m.<;
Fittest value: 2.75 for chromosome ( ( r ) /\ ( <> ( p ) ) )
Solutions (6): ( ( p ) /\ ( [] ( r ) ) ) | ( ( r ) /\ ( <> ( p ) ) ) | ( X ( ( p ) /\ ( [] ( r ) ) ) ) | ( ( r ) /\ ( [] ( p ) ) ) | ( ( ( r ) /\ ( <> ( s ) ) ) \/ ( ( p ) /\ ( [] ( r ) ) ) ) | ( ( ( p ) /\ ( [] ( r ) ) ) \/ ( ( [] ( ! ( q ) ) ) /\ ( p ) ) ) | 
Learning Time :1
CALLs: 318    TIMEOUTs: 0    ERRORs: 0
REEVALUATIONS: 162 OF 347

GENERATION 5/50
....m.m.<;....m.m.<;....m.m.<;....m.m.<;....m.m.<;....m.m.<;....m.m.<;....m.m.<;....m.m.<;....m.m.<;....m.m.<;...i.m..<;....m.m.<;....m.m.<;....m.m.<;....m.m.<;....m.m.<;......m.m.<;...i.m..<;....m.m.<;....m.m.<;...i.m..<;....m.m.<;...i.m..<;....m.m.<;...i..m.<;....m.m.<;....m.m.<;......m.m.<;....m.m.<;....m.m.<;....m.m.<;....m.m.<;.......m.m.<;....m.m.<;....m.m.<;....m.m.<;....m.m.<;.....m.m.<;.....m.m.<;....m.m.<;....m.m.<;....m.m.<;......m.m.<;....m.m.<;....m.m.<;....m.m.<;....m.m.<;....m.m.<;....m.m.<;....m.m.<;....m.m.<;....m.m.<;...i.m.m.<;...i.m.m.<;.....m.m.<;
Fittest value: 2.75 for chromosome ( ( p ) /\ ( [] ( r ) ) )
Solutions (8): ( ( p ) /\ ( [] ( r ) ) ) | ( ( r ) /\ ( <> ( p ) ) ) | ( X ( ( p ) /\ ( [] ( r ) ) ) ) | ( ( r ) /\ ( [] ( p ) ) ) | ( ( ( r ) /\ ( <> ( s ) ) ) \/ ( ( p ) /\ ( [] ( r ) ) ) ) | ( ( ( p ) /\ ( [] ( r ) ) ) \/ ( ( [] ( ! ( q ) ) ) /\ ( p ) ) ) | ( X ( ( r ) /\ ( <> ( p ) ) ) ) | ( ( ( p ) /\ ( [] ( r ) ) ) U ( ( p ) /\ ( [] ( r ) ) ) ) | 
Learning Time :1
CALLs: 348    TIMEOUTs: 0    ERRORs: 0
REEVALUATIONS: 181 OF 431

GENERATION 6/50
....m.m.<;....m.m.<;....m.m.<;...i..m.<;......m.m.<;....m.m.<;....m.m.<;.....m.m.<;....m.m.<;.....m.m.<;....m.m.<;...i.m..<;....m.m.<;...i.m..<;....i.m..<;...i.m..<;.....m.m.<;....m.m.<;....m.m.<;....i.m..<;....m.m.<;....m.m.<;.......m.m.<;....m.m.<;....m.m.<;...i.m..<;....m.m.<;....m.m.<;....m.m.<;....m.m.<;....m.m.<;....m.m.<;....m.m.<;....m.m.<;.......m.m.<;....m.m.<;.....m.m.<;....m.m.<;....m.m.<;...i.m..<;...i.m.m.<;...i.m.m.<;...i.m..<;...i.m.m.<;....m.m.<;....m.m.<;....m.m.<;
Fittest value: 2.75 for chromosome ( ( r ) /\ ( <> ( p ) ) )
Solutions (11): ( ( p ) /\ ( [] ( r ) ) ) | ( ( r ) /\ ( <> ( p ) ) ) | ( X ( ( p ) /\ ( [] ( r ) ) ) ) | ( ( r ) /\ ( [] ( p ) ) ) | ( ( ( r ) /\ ( <> ( s ) ) ) \/ ( ( p ) /\ ( [] ( r ) ) ) ) | ( ( ( p ) /\ ( [] ( r ) ) ) \/ ( ( [] ( ! ( q ) ) ) /\ ( p ) ) ) | ( X ( ( r ) /\ ( <> ( p ) ) ) ) | ( ( ( p ) /\ ( [] ( r ) ) ) U ( ( p ) /\ ( [] ( r ) ) ) ) | ( [] ( ( p ) /\ ( [] ( r ) ) ) ) | ( <> ( ( p ) /\ ( [] ( r ) ) ) ) | ( ( <> ( ( r ) /\ ( <> ( s ) ) ) ) W ( ( r ) /\ ( <> ( p ) ) ) ) | 
Learning Time :1
CALLs: 296    TIMEOUTs: 0    ERRORs: 0
REEVALUATIONS: 190 OF 499

GENERATION 7/50
....m.m.<;....m.m.<;....m.m.<;....m.m.<;....m.m.<;.....m.m.<;...i.m.m.<;....m.m.<;....m.m.<;....m.m.<;.....m.m.<;....m.m.<;....m.m.<;....m.m.<;....m.m.<;....m.m.<;....m.m.<;....m.m.<;.....m.m.<;.....m.m.<;...i.m..<;....m.m.<;...i.m..<;....m.m.<;....m.m.<;....m.m.<;....m.m.<;....m.m.<;...i.m.m.<;....m.m.<;....i.m..<;....m.m.<;....m.m.<;....m.m.<;....m.m.<;...i.m..<;....m.m.<;...i.m..<;...i.m..<;....m.m.<;...i.m..<;......m.m.<;....m.m.<;....m.m.<;....m.m.<;....m.m.<;....m.m.<;....m.m.<;....m.m.<;...i.m..<;...i.m..<;...i.m.m.<;
Fittest value: 2.75 for chromosome ( ( p ) /\ ( [] ( r ) ) )
Solutions (14): ( ( p ) /\ ( [] ( r ) ) ) | ( ( r ) /\ ( <> ( p ) ) ) | ( X ( ( p ) /\ ( [] ( r ) ) ) ) | ( ( r ) /\ ( [] ( p ) ) ) | ( ( ( r ) /\ ( <> ( s ) ) ) \/ ( ( p ) /\ ( [] ( r ) ) ) ) | ( ( ( p ) /\ ( [] ( r ) ) ) \/ ( ( [] ( ! ( q ) ) ) /\ ( p ) ) ) | ( X ( ( r ) /\ ( <> ( p ) ) ) ) | ( ( ( p ) /\ ( [] ( r ) ) ) U ( ( p ) /\ ( [] ( r ) ) ) ) | ( [] ( ( p ) /\ ( [] ( r ) ) ) ) | ( <> ( ( p ) /\ ( [] ( r ) ) ) ) | ( ( <> ( ( r ) /\ ( <> ( s ) ) ) ) W ( ( r ) /\ ( <> ( p ) ) ) ) | ( ( p ) /\ ( r ) ) | ( <> ( ( r ) /\ ( <> ( p ) ) ) ) | ( [] ( ( r ) /\ ( <> ( p ) ) ) ) | 
Learning Time :1
CALLs: 319    TIMEOUTs: 0    ERRORs: 0
REEVALUATIONS: 218 OF 585

GENERATION 8/50
....m.m.<;......m.m.<;....m.m.<;....m.m.<;......m.m.<;....m.m.<;......m.m.<;.....m.m.<;.....m.m.<;....m.m.<;....m.m.<;....m.m.<;......m.m.<;....m.m.<;....m.m.<;....i.m.m.<;.....i..m.<;...i.m..<;...i.m..<;...i.m..<;.....m.m.<;....i.m..<;....m.m.<;...i.m..<;...i.m..<;.....m.m.<;...i.m..<;....m.m.<;....m.m.<;....m.m.<;....m.m.<;....m.m.<;...i.m.m.<;....m.m.<;...i.m.m.<;...i.m..<;....m.m.<;...i.m.m.<;...i.m.m.<;...i.m..<;
Fittest value: 2.75 for chromosome ( ( r ) /\ ( <> ( p ) ) )
Solutions (19): ( ( p ) /\ ( [] ( r ) ) ) | ( ( r ) /\ ( <> ( p ) ) ) | ( X ( ( p ) /\ ( [] ( r ) ) ) ) | ( ( r ) /\ ( [] ( p ) ) ) | ( ( ( r ) /\ ( <> ( s ) ) ) \/ ( ( p ) /\ ( [] ( r ) ) ) ) | ( ( ( p ) /\ ( [] ( r ) ) ) \/ ( ( [] ( ! ( q ) ) ) /\ ( p ) ) ) | ( X ( ( r ) /\ ( <> ( p ) ) ) ) | ( ( ( p ) /\ ( [] ( r ) ) ) U ( ( p ) /\ ( [] ( r ) ) ) ) | ( [] ( ( p ) /\ ( [] ( r ) ) ) ) | ( <> ( ( p ) /\ ( [] ( r ) ) ) ) | ( ( <> ( ( r ) /\ ( <> ( s ) ) ) ) W ( ( r ) /\ ( <> ( p ) ) ) ) | ( ( p ) /\ ( r ) ) | ( <> ( ( r ) /\ ( <> ( p ) ) ) ) | ( [] ( ( r ) /\ ( <> ( p ) ) ) ) | ( ( r ) /\ ( X ( p ) ) ) | ( <> ( ( p ) /\ ( r ) ) ) | ( ( <> ( ( p ) /\ ( [] ( r ) ) ) ) U ( ( p ) /\ ( [] ( r ) ) ) ) | ( ( p ) /\ ( [] ( <> ( ( r ) /\ ( <> ( p ) ) ) ) ) ) | ( ( ( r ) /\ ( [] ( s ) ) ) W ( ( p ) /\ ( [] ( r ) ) ) ) | 
Learning Time :1
CALLs: 256    TIMEOUTs: 0    ERRORs: 0
REEVALUATIONS: 249 OF 668

GENERATION 9/50
....m.m.<;....m.m.<;....m.m.<;.....m.m.<;....m.m.<;......m.m.<;...i.m.m.<;....m.m.<;....m.m.<;....m.m.<;....m.m.<;....m.m.<;....m.m.<;....m.m.<;....m.m.<;...i.m.m.<;....m.m.<;....m.m.<;....m.m.<;....m.m.<;....m.m.<;....m.m.<;....m.m.<;....m.m.<;....m.m.<;....m.m.<;....m.m.<;....m.m.<;....m.m.<;....m.m.<;....m.m.<;......m.m.<;....m.m.<;...i.m.m.<;....m.m.<;...i.m.m.<;....m.m.<;...i.m.m.<;...i.m.m.<;
Fittest value: 2.75 for chromosome ( ( p ) /\ ( [] ( r ) ) )
Solutions (21): ( ( p ) /\ ( [] ( r ) ) ) | ( ( r ) /\ ( <> ( p ) ) ) | ( X ( ( p ) /\ ( [] ( r ) ) ) ) | ( ( r ) /\ ( [] ( p ) ) ) | ( ( ( r ) /\ ( <> ( s ) ) ) \/ ( ( p ) /\ ( [] ( r ) ) ) ) | ( ( ( p ) /\ ( [] ( r ) ) ) \/ ( ( [] ( ! ( q ) ) ) /\ ( p ) ) ) | ( X ( ( r ) /\ ( <> ( p ) ) ) ) | ( ( ( p ) /\ ( [] ( r ) ) ) U ( ( p ) /\ ( [] ( r ) ) ) ) | ( [] ( ( p ) /\ ( [] ( r ) ) ) ) | ( <> ( ( p ) /\ ( [] ( r ) ) ) ) | ( ( <> ( ( r ) /\ ( <> ( s ) ) ) ) W ( ( r ) /\ ( <> ( p ) ) ) ) | ( ( p ) /\ ( r ) ) | ( <> ( ( r ) /\ ( <> ( p ) ) ) ) | ( [] ( ( r ) /\ ( <> ( p ) ) ) ) | ( ( r ) /\ ( X ( p ) ) ) | ( <> ( ( p ) /\ ( r ) ) ) | ( ( <> ( ( p ) /\ ( [] ( r ) ) ) ) U ( ( p ) /\ ( [] ( r ) ) ) ) | ( ( p ) /\ ( [] ( <> ( ( r ) /\ ( <> ( p ) ) ) ) ) ) | ( ( ( r ) /\ ( [] ( s ) ) ) W ( ( p ) /\ ( [] ( r ) ) ) ) | ( [] ( ( p ) /\ ( r ) ) ) | ( ( ( p ) /\ ( r ) ) W ( ( p ) /\ ( r ) ) ) | 
Learning Time :1
CALLs: 239    TIMEOUTs: 0    ERRORs: 0
REEVALUATIONS: 280 OF 742

GENERATION 10/50
....m.m.<;....m.m.<;....m.m.<;....m.m.<;......m.m.<;....m.m.<;...i..m.<;....m.m.<;...i..m.<;....m.m.<;....m.m.<;......m.m.<;....m.m.<;....m.m.<;....m.m.<;...i..m.<;.....i.m.m.<;....m.m.<;....m.m.<;.....m.m.<;......m.m.<;....m.m.<;.....m.m.<;.....m.m.<;......m.m.<;......i.m.m.<;...i.m.m.<;...i.m.m.<;
Fittest value: 2.75 for chromosome ( ( r ) /\ ( <> ( p ) ) )
Solutions (22): ( ( p ) /\ ( [] ( r ) ) ) | ( ( r ) /\ ( <> ( p ) ) ) | ( X ( ( p ) /\ ( [] ( r ) ) ) ) | ( ( r ) /\ ( [] ( p ) ) ) | ( ( ( r ) /\ ( <> ( s ) ) ) \/ ( ( p ) /\ ( [] ( r ) ) ) ) | ( ( ( p ) /\ ( [] ( r ) ) ) \/ ( ( [] ( ! ( q ) ) ) /\ ( p ) ) ) | ( X ( ( r ) /\ ( <> ( p ) ) ) ) | ( ( ( p ) /\ ( [] ( r ) ) ) U ( ( p ) /\ ( [] ( r ) ) ) ) | ( [] ( ( p ) /\ ( [] ( r ) ) ) ) | ( <> ( ( p ) /\ ( [] ( r ) ) ) ) | ( ( <> ( ( r ) /\ ( <> ( s ) ) ) ) W ( ( r ) /\ ( <> ( p ) ) ) ) | ( ( p ) /\ ( r ) ) | ( <> ( ( r ) /\ ( <> ( p ) ) ) ) | ( [] ( ( r ) /\ ( <> ( p ) ) ) ) | ( ( r ) /\ ( X ( p ) ) ) | ( <> ( ( p ) /\ ( r ) ) ) | ( ( <> ( ( p ) /\ ( [] ( r ) ) ) ) U ( ( p ) /\ ( [] ( r ) ) ) ) | ( ( p ) /\ ( [] ( <> ( ( r ) /\ ( <> ( p ) ) ) ) ) ) | ( ( ( r ) /\ ( [] ( s ) ) ) W ( ( p ) /\ ( [] ( r ) ) ) ) | ( [] ( ( p ) /\ ( r ) ) ) | ( ( ( p ) /\ ( r ) ) W ( ( p ) /\ ( r ) ) ) | ( ( r ) /\ ( p ) ) | 
Learning Time :0
CALLs: 184    TIMEOUTs: 0    ERRORs: 0
REEVALUATIONS: 319 OF 821

GENERATION 11/50
....i..m.<;....m.m.<;....m.m.<;....m.m.<;....m.m.<;....m.m.<;.....m.m.<;......m.m.<;....m.m.<;....m.m.<;....m.m.<;....m.m.<;....m.m.<;...i..m.<;....m.m.<;......m.m.<;...i..m.<;....m.m.<;....m.m.<;.....m.m.<;...i..m.<;....m.m.<;....m.m.<;....m.m.<;...i.m.m.<;...i.m.m.<;...i.m.m.<;
Fittest value: 2.8333333333333335 for chromosome ( ( p ) /\ ( r ) )
Solutions (22): ( ( p ) /\ ( [] ( r ) ) ) | ( ( r ) /\ ( <> ( p ) ) ) | ( X ( ( p ) /\ ( [] ( r ) ) ) ) | ( ( r ) /\ ( [] ( p ) ) ) | ( ( ( r ) /\ ( <> ( s ) ) ) \/ ( ( p ) /\ ( [] ( r ) ) ) ) | ( ( ( p ) /\ ( [] ( r ) ) ) \/ ( ( [] ( ! ( q ) ) ) /\ ( p ) ) ) | ( X ( ( r ) /\ ( <> ( p ) ) ) ) | ( ( ( p ) /\ ( [] ( r ) ) ) U ( ( p ) /\ ( [] ( r ) ) ) ) | ( [] ( ( p ) /\ ( [] ( r ) ) ) ) | ( <> ( ( p ) /\ ( [] ( r ) ) ) ) | ( ( <> ( ( r ) /\ ( <> ( s ) ) ) ) W ( ( r ) /\ ( <> ( p ) ) ) ) | ( ( p ) /\ ( r ) ) | ( <> ( ( r ) /\ ( <> ( p ) ) ) ) | ( [] ( ( r ) /\ ( <> ( p ) ) ) ) | ( ( r ) /\ ( X ( p ) ) ) | ( <> ( ( p ) /\ ( r ) ) ) | ( ( <> ( ( p ) /\ ( [] ( r ) ) ) ) U ( ( p ) /\ ( [] ( r ) ) ) ) | ( ( p ) /\ ( [] ( <> ( ( r ) /\ ( <> ( p ) ) ) ) ) ) | ( ( ( r ) /\ ( [] ( s ) ) ) W ( ( p ) /\ ( [] ( r ) ) ) ) | ( [] ( ( p ) /\ ( r ) ) ) | ( ( ( p ) /\ ( r ) ) W ( ( p ) /\ ( r ) ) ) | ( ( r ) /\ ( p ) ) | 
Learning Time :0
CALLs: 169    TIMEOUTs: 0    ERRORs: 0
REEVALUATIONS: 363 OF 897

GENERATION 12/50
.....m.m.<;...i..m.<;........m.m.<;....m.m.<;....m.m.<;.....m.m.<;....m.m.<;....m.m.<;....m.m.<;....m.m.<;.....m.m.<;....m.m.<;....m.m.<;......m.m.<;....m.m.<;....m.m.<;....m.m.<;.....m.m.<;....m.m.<;.....m.m.<;...i.m.m.<;...i.m.m.<;....m.m.<;...i.m.m.<;...i.m.m.<;
Fittest value: 2.8333333333333335 for chromosome ( ( p ) /\ ( r ) )
Solutions (23): ( ( p ) /\ ( [] ( r ) ) ) | ( ( r ) /\ ( <> ( p ) ) ) | ( X ( ( p ) /\ ( [] ( r ) ) ) ) | ( ( r ) /\ ( [] ( p ) ) ) | ( ( ( r ) /\ ( <> ( s ) ) ) \/ ( ( p ) /\ ( [] ( r ) ) ) ) | ( ( ( p ) /\ ( [] ( r ) ) ) \/ ( ( [] ( ! ( q ) ) ) /\ ( p ) ) ) | ( X ( ( r ) /\ ( <> ( p ) ) ) ) | ( ( ( p ) /\ ( [] ( r ) ) ) U ( ( p ) /\ ( [] ( r ) ) ) ) | ( [] ( ( p ) /\ ( [] ( r ) ) ) ) | ( <> ( ( p ) /\ ( [] ( r ) ) ) ) | ( ( <> ( ( r ) /\ ( <> ( s ) ) ) ) W ( ( r ) /\ ( <> ( p ) ) ) ) | ( ( p ) /\ ( r ) ) | ( <> ( ( r ) /\ ( <> ( p ) ) ) ) | ( [] ( ( r ) /\ ( <> ( p ) ) ) ) | ( ( r ) /\ ( X ( p ) ) ) | ( <> ( ( p ) /\ ( r ) ) ) | ( ( <> ( ( p ) /\ ( [] ( r ) ) ) ) U ( ( p ) /\ ( [] ( r ) ) ) ) | ( ( p ) /\ ( [] ( <> ( ( r ) /\ ( <> ( p ) ) ) ) ) ) | ( ( ( r ) /\ ( [] ( s ) ) ) W ( ( p ) /\ ( [] ( r ) ) ) ) | ( [] ( ( p ) /\ ( r ) ) ) | ( ( ( p ) /\ ( r ) ) W ( ( p ) /\ ( r ) ) ) | ( ( r ) /\ ( p ) ) | ( [] ( ( r ) /\ ( p ) ) ) | 
Learning Time :0
CALLs: 161    TIMEOUTs: 0    ERRORs: 0
REEVALUATIONS: 410 OF 978

GENERATION 13/50
....m.m.<;....m.m.<;....m.m.<;....m.m.<;....m.m.<;.....m.m.<;.....m.m.<;......m.m.<;...i..m.<;....m.m.<;....i.m.m.<;.....m.m.<;...i.m.m.<;....m.m.<;....m.m.<;....m.m.<;....m.m.<;....m.m.<;....m.m.<;........m.m.<;.....m.m.<;.....m.m.<;....m.m.<;....m.m.<;...i.m.m.<;...i.m.m.<;...i.m.m.<;
Fittest value: 2.8333333333333335 for chromosome ( ( p ) /\ ( r ) )
Solutions (23): ( ( p ) /\ ( [] ( r ) ) ) | ( ( r ) /\ ( <> ( p ) ) ) | ( X ( ( p ) /\ ( [] ( r ) ) ) ) | ( ( r ) /\ ( [] ( p ) ) ) | ( ( ( r ) /\ ( <> ( s ) ) ) \/ ( ( p ) /\ ( [] ( r ) ) ) ) | ( ( ( p ) /\ ( [] ( r ) ) ) \/ ( ( [] ( ! ( q ) ) ) /\ ( p ) ) ) | ( X ( ( r ) /\ ( <> ( p ) ) ) ) | ( ( ( p ) /\ ( [] ( r ) ) ) U ( ( p ) /\ ( [] ( r ) ) ) ) | ( [] ( ( p ) /\ ( [] ( r ) ) ) ) | ( <> ( ( p ) /\ ( [] ( r ) ) ) ) | ( ( <> ( ( r ) /\ ( <> ( s ) ) ) ) W ( ( r ) /\ ( <> ( p ) ) ) ) | ( ( p ) /\ ( r ) ) | ( <> ( ( r ) /\ ( <> ( p ) ) ) ) | ( [] ( ( r ) /\ ( <> ( p ) ) ) ) | ( ( r ) /\ ( X ( p ) ) ) | ( <> ( ( p ) /\ ( r ) ) ) | ( ( <> ( ( p ) /\ ( [] ( r ) ) ) ) U ( ( p ) /\ ( [] ( r ) ) ) ) | ( ( p ) /\ ( [] ( <> ( ( r ) /\ ( <> ( p ) ) ) ) ) ) | ( ( ( r ) /\ ( [] ( s ) ) ) W ( ( p ) /\ ( [] ( r ) ) ) ) | ( [] ( ( p ) /\ ( r ) ) ) | ( ( ( p ) /\ ( r ) ) W ( ( p ) /\ ( r ) ) ) | ( ( r ) /\ ( p ) ) | ( [] ( ( r ) /\ ( p ) ) ) | 
Learning Time :0
CALLs: 174    TIMEOUTs: 0    ERRORs: 0
REEVALUATIONS: 455 OF 1061

GENERATION 14/50
...i..m.<;....m.m.<;....m.m.<;...i.m.m.<;....m.m.<;....m.m.<;....m.m.<;....m.m.<;.....m.m.<;....m.m.<;....m.m.<;....m.m.<;...i.m.m.<;.....m.m.<;.....m.m.<;....m.m.<;....m.m.<;.....m.m.<;....m.m.<;.....m.m.<;.....m.m.<;....m.m.<;....m.m.<;........m.m.<;....m.m.<;....m.m.<;....m.m.<;....m.m.<;...i.m.m.<;...i.m.m.<;...i.m.m.<;
Fittest value: 2.8333333333333335 for chromosome ( ( p ) /\ ( r ) )
Solutions (23): ( ( p ) /\ ( [] ( r ) ) ) | ( ( r ) /\ ( <> ( p ) ) ) | ( X ( ( p ) /\ ( [] ( r ) ) ) ) | ( ( r ) /\ ( [] ( p ) ) ) | ( ( ( r ) /\ ( <> ( s ) ) ) \/ ( ( p ) /\ ( [] ( r ) ) ) ) | ( ( ( p ) /\ ( [] ( r ) ) ) \/ ( ( [] ( ! ( q ) ) ) /\ ( p ) ) ) | ( X ( ( r ) /\ ( <> ( p ) ) ) ) | ( ( ( p ) /\ ( [] ( r ) ) ) U ( ( p ) /\ ( [] ( r ) ) ) ) | ( [] ( ( p ) /\ ( [] ( r ) ) ) ) | ( <> ( ( p ) /\ ( [] ( r ) ) ) ) | ( ( <> ( ( r ) /\ ( <> ( s ) ) ) ) W ( ( r ) /\ ( <> ( p ) ) ) ) | ( ( p ) /\ ( r ) ) | ( <> ( ( r ) /\ ( <> ( p ) ) ) ) | ( [] ( ( r ) /\ ( <> ( p ) ) ) ) | ( ( r ) /\ ( X ( p ) ) ) | ( <> ( ( p ) /\ ( r ) ) ) | ( ( <> ( ( p ) /\ ( [] ( r ) ) ) ) U ( ( p ) /\ ( [] ( r ) ) ) ) | ( ( p ) /\ ( [] ( <> ( ( r ) /\ ( <> ( p ) ) ) ) ) ) | ( ( ( r ) /\ ( [] ( s ) ) ) W ( ( p ) /\ ( [] ( r ) ) ) ) | ( [] ( ( p ) /\ ( r ) ) ) | ( ( ( p ) /\ ( r ) ) W ( ( p ) /\ ( r ) ) ) | ( ( r ) /\ ( p ) ) | ( [] ( ( r ) /\ ( p ) ) ) | 
Learning Time :0
CALLs: 196    TIMEOUTs: 0    ERRORs: 0
REEVALUATIONS: 497 OF 1142

GENERATION 15/50
...i..m.<;....m.m.<;....m.m.<;.....m.m.<;....m.m.<;.......m.m.<;....m.m.<;....m.m.<;...i.m.m.<;.....m.m.<;......m.m.<;....m.m.<;....m.m.<;....m.m.<;....m.m.<;....m.m.<;....m.m.<;....m.m.<;....m.m.<;.......m.m.<;....m.m.<;....m.m.<;....m.m.<;....m.m.<;....m.m.<;....m.m.<;.....m.m.<;....m.m.<;....m.m.<;....m.m.<;......m.m.<;....i.m.m.<;...i.m.m.<;...i.m.m.<;...i.m.m.<;...i.m.m.<;...i.m.m.<;
Fittest value: 2.8333333333333335 for chromosome ( ( p ) /\ ( r ) )
Solutions (24): ( ( p ) /\ ( [] ( r ) ) ) | ( ( r ) /\ ( <> ( p ) ) ) | ( X ( ( p ) /\ ( [] ( r ) ) ) ) | ( ( r ) /\ ( [] ( p ) ) ) | ( ( ( r ) /\ ( <> ( s ) ) ) \/ ( ( p ) /\ ( [] ( r ) ) ) ) | ( ( ( p ) /\ ( [] ( r ) ) ) \/ ( ( [] ( ! ( q ) ) ) /\ ( p ) ) ) | ( X ( ( r ) /\ ( <> ( p ) ) ) ) | ( ( ( p ) /\ ( [] ( r ) ) ) U ( ( p ) /\ ( [] ( r ) ) ) ) | ( [] ( ( p ) /\ ( [] ( r ) ) ) ) | ( <> ( ( p ) /\ ( [] ( r ) ) ) ) | ( ( <> ( ( r ) /\ ( <> ( s ) ) ) ) W ( ( r ) /\ ( <> ( p ) ) ) ) | ( ( p ) /\ ( r ) ) | ( <> ( ( r ) /\ ( <> ( p ) ) ) ) | ( [] ( ( r ) /\ ( <> ( p ) ) ) ) | ( ( r ) /\ ( X ( p ) ) ) | ( <> ( ( p ) /\ ( r ) ) ) | ( ( <> ( ( p ) /\ ( [] ( r ) ) ) ) U ( ( p ) /\ ( [] ( r ) ) ) ) | ( ( p ) /\ ( [] ( <> ( ( r ) /\ ( <> ( p ) ) ) ) ) ) | ( ( ( r ) /\ ( [] ( s ) ) ) W ( ( p ) /\ ( [] ( r ) ) ) ) | ( [] ( ( p ) /\ ( r ) ) ) | ( ( ( p ) /\ ( r ) ) W ( ( p ) /\ ( r ) ) ) | ( ( r ) /\ ( p ) ) | ( [] ( ( r ) /\ ( p ) ) ) | ( <> ( ( r ) /\ ( p ) ) ) | 
Learning Time :1
CALLs: 236    TIMEOUTs: 0    ERRORs: 0
REEVALUATIONS: 538 OF 1231

GENERATION 16/50
....m.m.<;.....m.m.<;....m.m.<;......m.m.<;.......m.m.<;.....m.m.<;....m.m.<;....m.m.<;.....m.m.<;......m.m.<;....m.m.<;....m.m.<;....m.m.<;....m.m.<;....m.m.<;....m.m.<;.......m.m.<;....m.m.<;....m.m.<;...i.m.m.<;...i.m.m.<;...i.m.m.<;
Fittest value: 2.8333333333333335 for chromosome ( ( p ) /\ ( r ) )
Solutions (25): ( ( p ) /\ ( [] ( r ) ) ) | ( ( r ) /\ ( <> ( p ) ) ) | ( X ( ( p ) /\ ( [] ( r ) ) ) ) | ( ( r ) /\ ( [] ( p ) ) ) | ( ( ( r ) /\ ( <> ( s ) ) ) \/ ( ( p ) /\ ( [] ( r ) ) ) ) | ( ( ( p ) /\ ( [] ( r ) ) ) \/ ( ( [] ( ! ( q ) ) ) /\ ( p ) ) ) | ( X ( ( r ) /\ ( <> ( p ) ) ) ) | ( ( ( p ) /\ ( [] ( r ) ) ) U ( ( p ) /\ ( [] ( r ) ) ) ) | ( [] ( ( p ) /\ ( [] ( r ) ) ) ) | ( <> ( ( p ) /\ ( [] ( r ) ) ) ) | ( ( <> ( ( r ) /\ ( <> ( s ) ) ) ) W ( ( r ) /\ ( <> ( p ) ) ) ) | ( ( p ) /\ ( r ) ) | ( <> ( ( r ) /\ ( <> ( p ) ) ) ) | ( [] ( ( r ) /\ ( <> ( p ) ) ) ) | ( ( r ) /\ ( X ( p ) ) ) | ( <> ( ( p ) /\ ( r ) ) ) | ( ( <> ( ( p ) /\ ( [] ( r ) ) ) ) U ( ( p ) /\ ( [] ( r ) ) ) ) | ( ( p ) /\ ( [] ( <> ( ( r ) /\ ( <> ( p ) ) ) ) ) ) | ( ( ( r ) /\ ( [] ( s ) ) ) W ( ( p ) /\ ( [] ( r ) ) ) ) | ( [] ( ( p ) /\ ( r ) ) ) | ( ( ( p ) /\ ( r ) ) W ( ( p ) /\ ( r ) ) ) | ( ( r ) /\ ( p ) ) | ( [] ( ( r ) /\ ( p ) ) ) | ( <> ( ( r ) /\ ( p ) ) ) | ( ( ( p ) /\ ( r ) ) /\ ( ( p ) /\ ( r ) ) ) | 
Learning Time :0
CALLs: 145    TIMEOUTs: 0    ERRORs: 0
REEVALUATIONS: 591 OF 1315

GENERATION 17/50
......m.m.<;....m.m.<;....m.m.<;....m.m.<;....m.m.<;.....m.m.<;....m.m.<;....m.m.<;....i..m.<;....m.m.<;....m.m.<;...i.m.m.<;....m.m.<;....m.m.<;......m.m.<;.....m.m.<;....m.m.<;....m.m.<;......m.m.<;.....m.m.<;....m.m.<;...i.m.m.<;....m.m.<;...i.m.m.<;
Fittest value: 2.8333333333333335 for chromosome ( ( p ) /\ ( r ) )
Solutions (25): ( ( p ) /\ ( [] ( r ) ) ) | ( ( r ) /\ ( <> ( p ) ) ) | ( X ( ( p ) /\ ( [] ( r ) ) ) ) | ( ( r ) /\ ( [] ( p ) ) ) | ( ( ( r ) /\ ( <> ( s ) ) ) \/ ( ( p ) /\ ( [] ( r ) ) ) ) | ( ( ( p ) /\ ( [] ( r ) ) ) \/ ( ( [] ( ! ( q ) ) ) /\ ( p ) ) ) | ( X ( ( r ) /\ ( <> ( p ) ) ) ) | ( ( ( p ) /\ ( [] ( r ) ) ) U ( ( p ) /\ ( [] ( r ) ) ) ) | ( [] ( ( p ) /\ ( [] ( r ) ) ) ) | ( <> ( ( p ) /\ ( [] ( r ) ) ) ) | ( ( <> ( ( r ) /\ ( <> ( s ) ) ) ) W ( ( r ) /\ ( <> ( p ) ) ) ) | ( ( p ) /\ ( r ) ) | ( <> ( ( r ) /\ ( <> ( p ) ) ) ) | ( [] ( ( r ) /\ ( <> ( p ) ) ) ) | ( ( r ) /\ ( X ( p ) ) ) | ( <> ( ( p ) /\ ( r ) ) ) | ( ( <> ( ( p ) /\ ( [] ( r ) ) ) ) U ( ( p ) /\ ( [] ( r ) ) ) ) | ( ( p ) /\ ( [] ( <> ( ( r ) /\ ( <> ( p ) ) ) ) ) ) | ( ( ( r ) /\ ( [] ( s ) ) ) W ( ( p ) /\ ( [] ( r ) ) ) ) | ( [] ( ( p ) /\ ( r ) ) ) | ( ( ( p ) /\ ( r ) ) W ( ( p ) /\ ( r ) ) ) | ( ( r ) /\ ( p ) ) | ( [] ( ( r ) /\ ( p ) ) ) | ( <> ( ( r ) /\ ( p ) ) ) | ( ( ( p ) /\ ( r ) ) /\ ( ( p ) /\ ( r ) ) ) | 
Learning Time :0
CALLs: 154    TIMEOUTs: 0    ERRORs: 0
REEVALUATIONS: 642 OF 1397

GENERATION 18/50
........m.m.<;....m.m.<;....m.m.<;....m.m.<;......m.m.<;....m.m.<;...i.m.m.<;...i.m.m.<;....m.m.<;......m.m.<;....m.m.<;....m.m.<;.....m.m.<;...i.m.m.<;....m.m.<;.....m.m.<;....m.m.<;...i.m.m.<;....m.m.<;...i.m.m.<;
Fittest value: 2.8333333333333335 for chromosome ( ( p ) /\ ( r ) )
Solutions (27): ( ( p ) /\ ( [] ( r ) ) ) | ( ( r ) /\ ( <> ( p ) ) ) | ( X ( ( p ) /\ ( [] ( r ) ) ) ) | ( ( r ) /\ ( [] ( p ) ) ) | ( ( ( r ) /\ ( <> ( s ) ) ) \/ ( ( p ) /\ ( [] ( r ) ) ) ) | ( ( ( p ) /\ ( [] ( r ) ) ) \/ ( ( [] ( ! ( q ) ) ) /\ ( p ) ) ) | ( X ( ( r ) /\ ( <> ( p ) ) ) ) | ( ( ( p ) /\ ( [] ( r ) ) ) U ( ( p ) /\ ( [] ( r ) ) ) ) | ( [] ( ( p ) /\ ( [] ( r ) ) ) ) | ( <> ( ( p ) /\ ( [] ( r ) ) ) ) | ( ( <> ( ( r ) /\ ( <> ( s ) ) ) ) W ( ( r ) /\ ( <> ( p ) ) ) ) | ( ( p ) /\ ( r ) ) | ( <> ( ( r ) /\ ( <> ( p ) ) ) ) | ( [] ( ( r ) /\ ( <> ( p ) ) ) ) | ( ( r ) /\ ( X ( p ) ) ) | ( <> ( ( p ) /\ ( r ) ) ) | ( ( <> ( ( p ) /\ ( [] ( r ) ) ) ) U ( ( p ) /\ ( [] ( r ) ) ) ) | ( ( p ) /\ ( [] ( <> ( ( r ) /\ ( <> ( p ) ) ) ) ) ) | ( ( ( r ) /\ ( [] ( s ) ) ) W ( ( p ) /\ ( [] ( r ) ) ) ) | ( [] ( ( p ) /\ ( r ) ) ) | ( ( ( p ) /\ ( r ) ) W ( ( p ) /\ ( r ) ) ) | ( ( r ) /\ ( p ) ) | ( [] ( ( r ) /\ ( p ) ) ) | ( <> ( ( r ) /\ ( p ) ) ) | ( ( ( p ) /\ ( r ) ) /\ ( ( p ) /\ ( r ) ) ) | ( X ( ( p ) /\ ( r ) ) ) | ( ( ( p ) /\ ( r ) ) /\ ( r ) ) | 
Learning Time :0
CALLs: 130    TIMEOUTs: 0    ERRORs: 0
REEVALUATIONS: 689 OF 1471

GENERATION 19/50
......m.m.<;....m.m.<;....m.m.<;....m.m.<;....m.m.<;....m.m.<;....m.m.<;....m.m.<;....m.m.<;....m.m.<;....m.m.<;.....m.m.<;....m.m.<;....m.m.<;....m.m.<;...i.m.m.<;....m.m.<;........m.m.<;...i.m.m.<;....m.m.<;...i.m.m.<;...i.m.m.<;...i.m.m.<;
Fittest value: 2.8333333333333335 for chromosome ( ( p ) /\ ( r ) )
Solutions (28): ( ( p ) /\ ( [] ( r ) ) ) | ( ( r ) /\ ( <> ( p ) ) ) | ( X ( ( p ) /\ ( [] ( r ) ) ) ) | ( ( r ) /\ ( [] ( p ) ) ) | ( ( ( r ) /\ ( <> ( s ) ) ) \/ ( ( p ) /\ ( [] ( r ) ) ) ) | ( ( ( p ) /\ ( [] ( r ) ) ) \/ ( ( [] ( ! ( q ) ) ) /\ ( p ) ) ) | ( X ( ( r ) /\ ( <> ( p ) ) ) ) | ( ( ( p ) /\ ( [] ( r ) ) ) U ( ( p ) /\ ( [] ( r ) ) ) ) | ( [] ( ( p ) /\ ( [] ( r ) ) ) ) | ( <> ( ( p ) /\ ( [] ( r ) ) ) ) | ( ( <> ( ( r ) /\ ( <> ( s ) ) ) ) W ( ( r ) /\ ( <> ( p ) ) ) ) | ( ( p ) /\ ( r ) ) | ( <> ( ( r ) /\ ( <> ( p ) ) ) ) | ( [] ( ( r ) /\ ( <> ( p ) ) ) ) | ( ( r ) /\ ( X ( p ) ) ) | ( <> ( ( p ) /\ ( r ) ) ) | ( ( <> ( ( p ) /\ ( [] ( r ) ) ) ) U ( ( p ) /\ ( [] ( r ) ) ) ) | ( ( p ) /\ ( [] ( <> ( ( r ) /\ ( <> ( p ) ) ) ) ) ) | ( ( ( r ) /\ ( [] ( s ) ) ) W ( ( p ) /\ ( [] ( r ) ) ) ) | ( [] ( ( p ) /\ ( r ) ) ) | ( ( ( p ) /\ ( r ) ) W ( ( p ) /\ ( r ) ) ) | ( ( r ) /\ ( p ) ) | ( [] ( ( r ) /\ ( p ) ) ) | ( <> ( ( r ) /\ ( p ) ) ) | ( ( ( p ) /\ ( r ) ) /\ ( ( p ) /\ ( r ) ) ) | ( X ( ( p ) /\ ( r ) ) ) | ( ( ( p ) /\ ( r ) ) /\ ( r ) ) | ( ( p ) /\ ( ( p ) /\ ( r ) ) ) | 
Learning Time :0
CALLs: 145    TIMEOUTs: 0    ERRORs: 0
REEVALUATIONS: 740 OF 1550

GENERATION 20/50
....m.m.<;....m.m.<;......m.m.<;......m.m.<;....m.m.<;....m.m.<;......m.m.<;....m.m.<;....i.m.m.<;....m.m.<;....m.m.<;....m.m.<;....m.m.<;....m.m.<;....m.m.<;....m.m.<;.....m.m.<;...i.m.m.<;...i.m.m.<;...i.m.m.<;...i.m.m.<;
Fittest value: 2.8333333333333335 for chromosome ( ( p ) /\ ( r ) )
Solutions (30): ( ( p ) /\ ( [] ( r ) ) ) | ( ( r ) /\ ( <> ( p ) ) ) | ( X ( ( p ) /\ ( [] ( r ) ) ) ) | ( ( r ) /\ ( [] ( p ) ) ) | ( ( ( r ) /\ ( <> ( s ) ) ) \/ ( ( p ) /\ ( [] ( r ) ) ) ) | ( ( ( p ) /\ ( [] ( r ) ) ) \/ ( ( [] ( ! ( q ) ) ) /\ ( p ) ) ) | ( X ( ( r ) /\ ( <> ( p ) ) ) ) | ( ( ( p ) /\ ( [] ( r ) ) ) U ( ( p ) /\ ( [] ( r ) ) ) ) | ( [] ( ( p ) /\ ( [] ( r ) ) ) ) | ( <> ( ( p ) /\ ( [] ( r ) ) ) ) | ( ( <> ( ( r ) /\ ( <> ( s ) ) ) ) W ( ( r ) /\ ( <> ( p ) ) ) ) | ( ( p ) /\ ( r ) ) | ( <> ( ( r ) /\ ( <> ( p ) ) ) ) | ( [] ( ( r ) /\ ( <> ( p ) ) ) ) | ( ( r ) /\ ( X ( p ) ) ) | ( <> ( ( p ) /\ ( r ) ) ) | ( ( <> ( ( p ) /\ ( [] ( r ) ) ) ) U ( ( p ) /\ ( [] ( r ) ) ) ) | ( ( p ) /\ ( [] ( <> ( ( r ) /\ ( <> ( p ) ) ) ) ) ) | ( ( ( r ) /\ ( [] ( s ) ) ) W ( ( p ) /\ ( [] ( r ) ) ) ) | ( [] ( ( p ) /\ ( r ) ) ) | ( ( ( p ) /\ ( r ) ) W ( ( p ) /\ ( r ) ) ) | ( ( r ) /\ ( p ) ) | ( [] ( ( r ) /\ ( p ) ) ) | ( <> ( ( r ) /\ ( p ) ) ) | ( ( ( p ) /\ ( r ) ) /\ ( ( p ) /\ ( r ) ) ) | ( X ( ( p ) /\ ( r ) ) ) | ( ( ( p ) /\ ( r ) ) /\ ( r ) ) | ( ( p ) /\ ( ( p ) /\ ( r ) ) ) | ( ( ( p ) /\ ( r ) ) \/ ( ( p ) /\ ( r ) ) ) | ( ( ( p ) /\ ( r ) ) U ( ( p ) /\ ( r ) ) ) | 
Learning Time :0
CALLs: 134    TIMEOUTs: 0    ERRORs: 0
REEVALUATIONS: 794 OF 1630

GENERATION 21/50
....m.m.<;....m.m.<;....m.m.<;....m.m.<;....m.m.<;.......m.m.<;....m.m.<;......m.m.<;....m.m.<;.....m.m.<;...i.m.m.<;....m.m.<;....m.m.<;......m.m.<;
Fittest value: 2.8333333333333335 for chromosome ( ( p ) /\ ( r ) )
Solutions (30): ( ( p ) /\ ( [] ( r ) ) ) | ( ( r ) /\ ( <> ( p ) ) ) | ( X ( ( p ) /\ ( [] ( r ) ) ) ) | ( ( r ) /\ ( [] ( p ) ) ) | ( ( ( r ) /\ ( <> ( s ) ) ) \/ ( ( p ) /\ ( [] ( r ) ) ) ) | ( ( ( p ) /\ ( [] ( r ) ) ) \/ ( ( [] ( ! ( q ) ) ) /\ ( p ) ) ) | ( X ( ( r ) /\ ( <> ( p ) ) ) ) | ( ( ( p ) /\ ( [] ( r ) ) ) U ( ( p ) /\ ( [] ( r ) ) ) ) | ( [] ( ( p ) /\ ( [] ( r ) ) ) ) | ( <> ( ( p ) /\ ( [] ( r ) ) ) ) | ( ( <> ( ( r ) /\ ( <> ( s ) ) ) ) W ( ( r ) /\ ( <> ( p ) ) ) ) | ( ( p ) /\ ( r ) ) | ( <> ( ( r ) /\ ( <> ( p ) ) ) ) | ( [] ( ( r ) /\ ( <> ( p ) ) ) ) | ( ( r ) /\ ( X ( p ) ) ) | ( <> ( ( p ) /\ ( r ) ) ) | ( ( <> ( ( p ) /\ ( [] ( r ) ) ) ) U ( ( p ) /\ ( [] ( r ) ) ) ) | ( ( p ) /\ ( [] ( <> ( ( r ) /\ ( <> ( p ) ) ) ) ) ) | ( ( ( r ) /\ ( [] ( s ) ) ) W ( ( p ) /\ ( [] ( r ) ) ) ) | ( [] ( ( p ) /\ ( r ) ) ) | ( ( ( p ) /\ ( r ) ) W ( ( p ) /\ ( r ) ) ) | ( ( r ) /\ ( p ) ) | ( [] ( ( r ) /\ ( p ) ) ) | ( <> ( ( r ) /\ ( p ) ) ) | ( ( ( p ) /\ ( r ) ) /\ ( ( p ) /\ ( r ) ) ) | ( X ( ( p ) /\ ( r ) ) ) | ( ( ( p ) /\ ( r ) ) /\ ( r ) ) | ( ( p ) /\ ( ( p ) /\ ( r ) ) ) | ( ( ( p ) /\ ( r ) ) \/ ( ( p ) /\ ( r ) ) ) | ( ( ( p ) /\ ( r ) ) U ( ( p ) /\ ( r ) ) ) | 
Learning Time :0
CALLs: 92    TIMEOUTs: 0    ERRORs: 0
REEVALUATIONS: 858 OF 1713

GENERATION 22/50
....m.m.<;......m.m.<;....m.m.<;....m.m.<;....m.m.<;....m.m.<;....m.m.<;....m.m.<;....m.m.<;......m.m.<;....m.m.<;....m.m.<;
Fittest value: 2.8333333333333335 for chromosome ( ( p ) /\ ( r ) )
Solutions (30): ( ( p ) /\ ( [] ( r ) ) ) | ( ( r ) /\ ( <> ( p ) ) ) | ( X ( ( p ) /\ ( [] ( r ) ) ) ) | ( ( r ) /\ ( [] ( p ) ) ) | ( ( ( r ) /\ ( <> ( s ) ) ) \/ ( ( p ) /\ ( [] ( r ) ) ) ) | ( ( ( p ) /\ ( [] ( r ) ) ) \/ ( ( [] ( ! ( q ) ) ) /\ ( p ) ) ) | ( X ( ( r ) /\ ( <> ( p ) ) ) ) | ( ( ( p ) /\ ( [] ( r ) ) ) U ( ( p ) /\ ( [] ( r ) ) ) ) | ( [] ( ( p ) /\ ( [] ( r ) ) ) ) | ( <> ( ( p ) /\ ( [] ( r ) ) ) ) | ( ( <> ( ( r ) /\ ( <> ( s ) ) ) ) W ( ( r ) /\ ( <> ( p ) ) ) ) | ( ( p ) /\ ( r ) ) | ( <> ( ( r ) /\ ( <> ( p ) ) ) ) | ( [] ( ( r ) /\ ( <> ( p ) ) ) ) | ( ( r ) /\ ( X ( p ) ) ) | ( <> ( ( p ) /\ ( r ) ) ) | ( ( <> ( ( p ) /\ ( [] ( r ) ) ) ) U ( ( p ) /\ ( [] ( r ) ) ) ) | ( ( p ) /\ ( [] ( <> ( ( r ) /\ ( <> ( p ) ) ) ) ) ) | ( ( ( r ) /\ ( [] ( s ) ) ) W ( ( p ) /\ ( [] ( r ) ) ) ) | ( [] ( ( p ) /\ ( r ) ) ) | ( ( ( p ) /\ ( r ) ) W ( ( p ) /\ ( r ) ) ) | ( ( r ) /\ ( p ) ) | ( [] ( ( r ) /\ ( p ) ) ) | ( <> ( ( r ) /\ ( p ) ) ) | ( ( ( p ) /\ ( r ) ) /\ ( ( p ) /\ ( r ) ) ) | ( X ( ( p ) /\ ( r ) ) ) | ( ( ( p ) /\ ( r ) ) /\ ( r ) ) | ( ( p ) /\ ( ( p ) /\ ( r ) ) ) | ( ( ( p ) /\ ( r ) ) \/ ( ( p ) /\ ( r ) ) ) | ( ( ( p ) /\ ( r ) ) U ( ( p ) /\ ( r ) ) ) | 
Learning Time :0
CALLs: 76    TIMEOUTs: 0    ERRORs: 0
REEVALUATIONS: 924 OF 1795

GENERATION 23/50
........m.m.<;...i..m.<;....m.m.<;....m.m.<;...i..m.<;....m.m.<;....m.m.<;
Fittest value: 2.8333333333333335 for chromosome ( ( p ) /\ ( r ) )
Solutions (30): ( ( p ) /\ ( [] ( r ) ) ) | ( ( r ) /\ ( <> ( p ) ) ) | ( X ( ( p ) /\ ( [] ( r ) ) ) ) | ( ( r ) /\ ( [] ( p ) ) ) | ( ( ( r ) /\ ( <> ( s ) ) ) \/ ( ( p ) /\ ( [] ( r ) ) ) ) | ( ( ( p ) /\ ( [] ( r ) ) ) \/ ( ( [] ( ! ( q ) ) ) /\ ( p ) ) ) | ( X ( ( r ) /\ ( <> ( p ) ) ) ) | ( ( ( p ) /\ ( [] ( r ) ) ) U ( ( p ) /\ ( [] ( r ) ) ) ) | ( [] ( ( p ) /\ ( [] ( r ) ) ) ) | ( <> ( ( p ) /\ ( [] ( r ) ) ) ) | ( ( <> ( ( r ) /\ ( <> ( s ) ) ) ) W ( ( r ) /\ ( <> ( p ) ) ) ) | ( ( p ) /\ ( r ) ) | ( <> ( ( r ) /\ ( <> ( p ) ) ) ) | ( [] ( ( r ) /\ ( <> ( p ) ) ) ) | ( ( r ) /\ ( X ( p ) ) ) | ( <> ( ( p ) /\ ( r ) ) ) | ( ( <> ( ( p ) /\ ( [] ( r ) ) ) ) U ( ( p ) /\ ( [] ( r ) ) ) ) | ( ( p ) /\ ( [] ( <> ( ( r ) /\ ( <> ( p ) ) ) ) ) ) | ( ( ( r ) /\ ( [] ( s ) ) ) W ( ( p ) /\ ( [] ( r ) ) ) ) | ( [] ( ( p ) /\ ( r ) ) ) | ( ( ( p ) /\ ( r ) ) W ( ( p ) /\ ( r ) ) ) | ( ( r ) /\ ( p ) ) | ( [] ( ( r ) /\ ( p ) ) ) | ( <> ( ( r ) /\ ( p ) ) ) | ( ( ( p ) /\ ( r ) ) /\ ( ( p ) /\ ( r ) ) ) | ( X ( ( p ) /\ ( r ) ) ) | ( ( ( p ) /\ ( r ) ) /\ ( r ) ) | ( ( p ) /\ ( ( p ) /\ ( r ) ) ) | ( ( ( p ) /\ ( r ) ) \/ ( ( p ) /\ ( r ) ) ) | ( ( ( p ) /\ ( r ) ) U ( ( p ) /\ ( r ) ) ) | 
Learning Time :0
CALLs: 46    TIMEOUTs: 0    ERRORs: 0
REEVALUATIONS: 997 OF 1878

GENERATION 24/50
....m.m.<;......m.m.<;........m.m.<;....m.m.<;....m.m.<;.....m.m.<;.....m.m.<;..
Fittest value: 2.8333333333333335 for chromosome ( ( p ) /\ ( r ) )
Solutions (30): ( ( p ) /\ ( [] ( r ) ) ) | ( ( r ) /\ ( <> ( p ) ) ) | ( X ( ( p ) /\ ( [] ( r ) ) ) ) | ( ( r ) /\ ( [] ( p ) ) ) | ( ( ( r ) /\ ( <> ( s ) ) ) \/ ( ( p ) /\ ( [] ( r ) ) ) ) | ( ( ( p ) /\ ( [] ( r ) ) ) \/ ( ( [] ( ! ( q ) ) ) /\ ( p ) ) ) | ( X ( ( r ) /\ ( <> ( p ) ) ) ) | ( ( ( p ) /\ ( [] ( r ) ) ) U ( ( p ) /\ ( [] ( r ) ) ) ) | ( [] ( ( p ) /\ ( [] ( r ) ) ) ) | ( <> ( ( p ) /\ ( [] ( r ) ) ) ) | ( ( <> ( ( r ) /\ ( <> ( s ) ) ) ) W ( ( r ) /\ ( <> ( p ) ) ) ) | ( ( p ) /\ ( r ) ) | ( <> ( ( r ) /\ ( <> ( p ) ) ) ) | ( [] ( ( r ) /\ ( <> ( p ) ) ) ) | ( ( r ) /\ ( X ( p ) ) ) | ( <> ( ( p ) /\ ( r ) ) ) | ( ( <> ( ( p ) /\ ( [] ( r ) ) ) ) U ( ( p ) /\ ( [] ( r ) ) ) ) | ( ( p ) /\ ( [] ( <> ( ( r ) /\ ( <> ( p ) ) ) ) ) ) | ( ( ( r ) /\ ( [] ( s ) ) ) W ( ( p ) /\ ( [] ( r ) ) ) ) | ( [] ( ( p ) /\ ( r ) ) ) | ( ( ( p ) /\ ( r ) ) W ( ( p ) /\ ( r ) ) ) | ( ( r ) /\ ( p ) ) | ( [] ( ( r ) /\ ( p ) ) ) | ( <> ( ( r ) /\ ( p ) ) ) | ( ( ( p ) /\ ( r ) ) /\ ( ( p ) /\ ( r ) ) ) | ( X ( ( p ) /\ ( r ) ) ) | ( ( ( p ) /\ ( r ) ) /\ ( r ) ) | ( ( p ) /\ ( ( p ) /\ ( r ) ) ) | ( ( ( p ) /\ ( r ) ) \/ ( ( p ) /\ ( r ) ) ) | ( ( ( p ) /\ ( r ) ) U ( ( p ) /\ ( r ) ) ) | 
Learning Time :0
CALLs: 52    TIMEOUTs: 0    ERRORs: 0
REEVALUATIONS: 1072 OF 1966

GENERATION 25/50
....m.m.<;....m.m.<;......m.m.<;....m.m.<;....m.m.<;....m.m.<;....m.m.<;
Fittest value: 2.8333333333333335 for chromosome ( ( p ) /\ ( r ) )
Solutions (30): ( ( p ) /\ ( [] ( r ) ) ) | ( ( r ) /\ ( <> ( p ) ) ) | ( X ( ( p ) /\ ( [] ( r ) ) ) ) | ( ( r ) /\ ( [] ( p ) ) ) | ( ( ( r ) /\ ( <> ( s ) ) ) \/ ( ( p ) /\ ( [] ( r ) ) ) ) | ( ( ( p ) /\ ( [] ( r ) ) ) \/ ( ( [] ( ! ( q ) ) ) /\ ( p ) ) ) | ( X ( ( r ) /\ ( <> ( p ) ) ) ) | ( ( ( p ) /\ ( [] ( r ) ) ) U ( ( p ) /\ ( [] ( r ) ) ) ) | ( [] ( ( p ) /\ ( [] ( r ) ) ) ) | ( <> ( ( p ) /\ ( [] ( r ) ) ) ) | ( ( <> ( ( r ) /\ ( <> ( s ) ) ) ) W ( ( r ) /\ ( <> ( p ) ) ) ) | ( ( p ) /\ ( r ) ) | ( <> ( ( r ) /\ ( <> ( p ) ) ) ) | ( [] ( ( r ) /\ ( <> ( p ) ) ) ) | ( ( r ) /\ ( X ( p ) ) ) | ( <> ( ( p ) /\ ( r ) ) ) | ( ( <> ( ( p ) /\ ( [] ( r ) ) ) ) U ( ( p ) /\ ( [] ( r ) ) ) ) | ( ( p ) /\ ( [] ( <> ( ( r ) /\ ( <> ( p ) ) ) ) ) ) | ( ( ( r ) /\ ( [] ( s ) ) ) W ( ( p ) /\ ( [] ( r ) ) ) ) | ( [] ( ( p ) /\ ( r ) ) ) | ( ( ( p ) /\ ( r ) ) W ( ( p ) /\ ( r ) ) ) | ( ( r ) /\ ( p ) ) | ( [] ( ( r ) /\ ( p ) ) ) | ( <> ( ( r ) /\ ( p ) ) ) | ( ( ( p ) /\ ( r ) ) /\ ( ( p ) /\ ( r ) ) ) | ( X ( ( p ) /\ ( r ) ) ) | ( ( ( p ) /\ ( r ) ) /\ ( r ) ) | ( ( p ) /\ ( ( p ) /\ ( r ) ) ) | ( ( ( p ) /\ ( r ) ) \/ ( ( p ) /\ ( r ) ) ) | ( ( ( p ) /\ ( r ) ) U ( ( p ) /\ ( r ) ) ) | 
Learning Time :0
CALLs: 44    TIMEOUTs: 0    ERRORs: 0
REEVALUATIONS: 1152 OF 2054

GENERATION 26/50
....m.m.<;....m.m.<;.....m.m.<;......m.m.<;....m.m.<;
Fittest value: 2.8333333333333335 for chromosome ( ( p ) /\ ( r ) )
Solutions (30): ( ( p ) /\ ( [] ( r ) ) ) | ( ( r ) /\ ( <> ( p ) ) ) | ( X ( ( p ) /\ ( [] ( r ) ) ) ) | ( ( r ) /\ ( [] ( p ) ) ) | ( ( ( r ) /\ ( <> ( s ) ) ) \/ ( ( p ) /\ ( [] ( r ) ) ) ) | ( ( ( p ) /\ ( [] ( r ) ) ) \/ ( ( [] ( ! ( q ) ) ) /\ ( p ) ) ) | ( X ( ( r ) /\ ( <> ( p ) ) ) ) | ( ( ( p ) /\ ( [] ( r ) ) ) U ( ( p ) /\ ( [] ( r ) ) ) ) | ( [] ( ( p ) /\ ( [] ( r ) ) ) ) | ( <> ( ( p ) /\ ( [] ( r ) ) ) ) | ( ( <> ( ( r ) /\ ( <> ( s ) ) ) ) W ( ( r ) /\ ( <> ( p ) ) ) ) | ( ( p ) /\ ( r ) ) | ( <> ( ( r ) /\ ( <> ( p ) ) ) ) | ( [] ( ( r ) /\ ( <> ( p ) ) ) ) | ( ( r ) /\ ( X ( p ) ) ) | ( <> ( ( p ) /\ ( r ) ) ) | ( ( <> ( ( p ) /\ ( [] ( r ) ) ) ) U ( ( p ) /\ ( [] ( r ) ) ) ) | ( ( p ) /\ ( [] ( <> ( ( r ) /\ ( <> ( p ) ) ) ) ) ) | ( ( ( r ) /\ ( [] ( s ) ) ) W ( ( p ) /\ ( [] ( r ) ) ) ) | ( [] ( ( p ) /\ ( r ) ) ) | ( ( ( p ) /\ ( r ) ) W ( ( p ) /\ ( r ) ) ) | ( ( r ) /\ ( p ) ) | ( [] ( ( r ) /\ ( p ) ) ) | ( <> ( ( r ) /\ ( p ) ) ) | ( ( ( p ) /\ ( r ) ) /\ ( ( p ) /\ ( r ) ) ) | ( X ( ( p ) /\ ( r ) ) ) | ( ( ( p ) /\ ( r ) ) /\ ( r ) ) | ( ( p ) /\ ( ( p ) /\ ( r ) ) ) | ( ( ( p ) /\ ( r ) ) \/ ( ( p ) /\ ( r ) ) ) | ( ( ( p ) /\ ( r ) ) U ( ( p ) /\ ( r ) ) ) | 
Learning Time :0
CALLs: 33    TIMEOUTs: 0    ERRORs: 0
REEVALUATIONS: 1224 OF 2134

GENERATION 27/50
....m.m.<;...
Fittest value: 2.8333333333333335 for chromosome ( ( p ) /\ ( r ) )
Solutions (30): ( ( p ) /\ ( [] ( r ) ) ) | ( ( r ) /\ ( <> ( p ) ) ) | ( X ( ( p ) /\ ( [] ( r ) ) ) ) | ( ( r ) /\ ( [] ( p ) ) ) | ( ( ( r ) /\ ( <> ( s ) ) ) \/ ( ( p ) /\ ( [] ( r ) ) ) ) | ( ( ( p ) /\ ( [] ( r ) ) ) \/ ( ( [] ( ! ( q ) ) ) /\ ( p ) ) ) | ( X ( ( r ) /\ ( <> ( p ) ) ) ) | ( ( ( p ) /\ ( [] ( r ) ) ) U ( ( p ) /\ ( [] ( r ) ) ) ) | ( [] ( ( p ) /\ ( [] ( r ) ) ) ) | ( <> ( ( p ) /\ ( [] ( r ) ) ) ) | ( ( <> ( ( r ) /\ ( <> ( s ) ) ) ) W ( ( r ) /\ ( <> ( p ) ) ) ) | ( ( p ) /\ ( r ) ) | ( <> ( ( r ) /\ ( <> ( p ) ) ) ) | ( [] ( ( r ) /\ ( <> ( p ) ) ) ) | ( ( r ) /\ ( X ( p ) ) ) | ( <> ( ( p ) /\ ( r ) ) ) | ( ( <> ( ( p ) /\ ( [] ( r ) ) ) ) U ( ( p ) /\ ( [] ( r ) ) ) ) | ( ( p ) /\ ( [] ( <> ( ( r ) /\ ( <> ( p ) ) ) ) ) ) | ( ( ( r ) /\ ( [] ( s ) ) ) W ( ( p ) /\ ( [] ( r ) ) ) ) | ( [] ( ( p ) /\ ( r ) ) ) | ( ( ( p ) /\ ( r ) ) W ( ( p ) /\ ( r ) ) ) | ( ( r ) /\ ( p ) ) | ( [] ( ( r ) /\ ( p ) ) ) | ( <> ( ( r ) /\ ( p ) ) ) | ( ( ( p ) /\ ( r ) ) /\ ( ( p ) /\ ( r ) ) ) | ( X ( ( p ) /\ ( r ) ) ) | ( ( ( p ) /\ ( r ) ) /\ ( r ) ) | ( ( p ) /\ ( ( p ) /\ ( r ) ) ) | ( ( ( p ) /\ ( r ) ) \/ ( ( p ) /\ ( r ) ) ) | ( ( ( p ) /\ ( r ) ) U ( ( p ) /\ ( r ) ) ) | 
Learning Time :0
CALLs: 9    TIMEOUTs: 0    ERRORs: 0
REEVALUATIONS: 1307 OF 2220

GENERATION 28/50
....m.m.<;....m.m.<;....m.m.<;....m.m.<;....m.m.<;.
Fittest value: 2.8333333333333335 for chromosome ( ( p ) /\ ( r ) )
Solutions (30): ( ( p ) /\ ( [] ( r ) ) ) | ( ( r ) /\ ( <> ( p ) ) ) | ( X ( ( p ) /\ ( [] ( r ) ) ) ) | ( ( r ) /\ ( [] ( p ) ) ) | ( ( ( r ) /\ ( <> ( s ) ) ) \/ ( ( p ) /\ ( [] ( r ) ) ) ) | ( ( ( p ) /\ ( [] ( r ) ) ) \/ ( ( [] ( ! ( q ) ) ) /\ ( p ) ) ) | ( X ( ( r ) /\ ( <> ( p ) ) ) ) | ( ( ( p ) /\ ( [] ( r ) ) ) U ( ( p ) /\ ( [] ( r ) ) ) ) | ( [] ( ( p ) /\ ( [] ( r ) ) ) ) | ( <> ( ( p ) /\ ( [] ( r ) ) ) ) | ( ( <> ( ( r ) /\ ( <> ( s ) ) ) ) W ( ( r ) /\ ( <> ( p ) ) ) ) | ( ( p ) /\ ( r ) ) | ( <> ( ( r ) /\ ( <> ( p ) ) ) ) | ( [] ( ( r ) /\ ( <> ( p ) ) ) ) | ( ( r ) /\ ( X ( p ) ) ) | ( <> ( ( p ) /\ ( r ) ) ) | ( ( <> ( ( p ) /\ ( [] ( r ) ) ) ) U ( ( p ) /\ ( [] ( r ) ) ) ) | ( ( p ) /\ ( [] ( <> ( ( r ) /\ ( <> ( p ) ) ) ) ) ) | ( ( ( r ) /\ ( [] ( s ) ) ) W ( ( p ) /\ ( [] ( r ) ) ) ) | ( [] ( ( p ) /\ ( r ) ) ) | ( ( ( p ) /\ ( r ) ) W ( ( p ) /\ ( r ) ) ) | ( ( r ) /\ ( p ) ) | ( [] ( ( r ) /\ ( p ) ) ) | ( <> ( ( r ) /\ ( p ) ) ) | ( ( ( p ) /\ ( r ) ) /\ ( ( p ) /\ ( r ) ) ) | ( X ( ( p ) /\ ( r ) ) ) | ( ( ( p ) /\ ( r ) ) /\ ( r ) ) | ( ( p ) /\ ( ( p ) /\ ( r ) ) ) | ( ( ( p ) /\ ( r ) ) \/ ( ( p ) /\ ( r ) ) ) | ( ( ( p ) /\ ( r ) ) U ( ( p ) /\ ( r ) ) ) | 
Learning Time :0
CALLs: 31    TIMEOUTs: 0    ERRORs: 0
REEVALUATIONS: 1384 OF 2303

GENERATION 29/50

Fittest value: 2.8333333333333335 for chromosome ( ( p ) /\ ( r ) )
Solutions (30): ( ( p ) /\ ( [] ( r ) ) ) | ( ( r ) /\ ( <> ( p ) ) ) | ( X ( ( p ) /\ ( [] ( r ) ) ) ) | ( ( r ) /\ ( [] ( p ) ) ) | ( ( ( r ) /\ ( <> ( s ) ) ) \/ ( ( p ) /\ ( [] ( r ) ) ) ) | ( ( ( p ) /\ ( [] ( r ) ) ) \/ ( ( [] ( ! ( q ) ) ) /\ ( p ) ) ) | ( X ( ( r ) /\ ( <> ( p ) ) ) ) | ( ( ( p ) /\ ( [] ( r ) ) ) U ( ( p ) /\ ( [] ( r ) ) ) ) | ( [] ( ( p ) /\ ( [] ( r ) ) ) ) | ( <> ( ( p ) /\ ( [] ( r ) ) ) ) | ( ( <> ( ( r ) /\ ( <> ( s ) ) ) ) W ( ( r ) /\ ( <> ( p ) ) ) ) | ( ( p ) /\ ( r ) ) | ( <> ( ( r ) /\ ( <> ( p ) ) ) ) | ( [] ( ( r ) /\ ( <> ( p ) ) ) ) | ( ( r ) /\ ( X ( p ) ) ) | ( <> ( ( p ) /\ ( r ) ) ) | ( ( <> ( ( p ) /\ ( [] ( r ) ) ) ) U ( ( p ) /\ ( [] ( r ) ) ) ) | ( ( p ) /\ ( [] ( <> ( ( r ) /\ ( <> ( p ) ) ) ) ) ) | ( ( ( r ) /\ ( [] ( s ) ) ) W ( ( p ) /\ ( [] ( r ) ) ) ) | ( [] ( ( p ) /\ ( r ) ) ) | ( ( ( p ) /\ ( r ) ) W ( ( p ) /\ ( r ) ) ) | ( ( r ) /\ ( p ) ) | ( [] ( ( r ) /\ ( p ) ) ) | ( <> ( ( r ) /\ ( p ) ) ) | ( ( ( p ) /\ ( r ) ) /\ ( ( p ) /\ ( r ) ) ) | ( X ( ( p ) /\ ( r ) ) ) | ( ( ( p ) /\ ( r ) ) /\ ( r ) ) | ( ( p ) /\ ( ( p ) /\ ( r ) ) ) | ( ( ( p ) /\ ( r ) ) \/ ( ( p ) /\ ( r ) ) ) | ( ( ( p ) /\ ( r ) ) U ( ( p ) /\ ( r ) ) ) | 
Learning Time :0
CALLs: 0    TIMEOUTs: 0    ERRORs: 0
REEVALUATIONS: 1460 OF 2379

GENERATION 30/50
....m.m.<;....m.m.<;.
Fittest value: 2.8333333333333335 for chromosome ( ( p ) /\ ( r ) )
Solutions (30): ( ( p ) /\ ( [] ( r ) ) ) | ( ( r ) /\ ( <> ( p ) ) ) | ( X ( ( p ) /\ ( [] ( r ) ) ) ) | ( ( r ) /\ ( [] ( p ) ) ) | ( ( ( r ) /\ ( <> ( s ) ) ) \/ ( ( p ) /\ ( [] ( r ) ) ) ) | ( ( ( p ) /\ ( [] ( r ) ) ) \/ ( ( [] ( ! ( q ) ) ) /\ ( p ) ) ) | ( X ( ( r ) /\ ( <> ( p ) ) ) ) | ( ( ( p ) /\ ( [] ( r ) ) ) U ( ( p ) /\ ( [] ( r ) ) ) ) | ( [] ( ( p ) /\ ( [] ( r ) ) ) ) | ( <> ( ( p ) /\ ( [] ( r ) ) ) ) | ( ( <> ( ( r ) /\ ( <> ( s ) ) ) ) W ( ( r ) /\ ( <> ( p ) ) ) ) | ( ( p ) /\ ( r ) ) | ( <> ( ( r ) /\ ( <> ( p ) ) ) ) | ( [] ( ( r ) /\ ( <> ( p ) ) ) ) | ( ( r ) /\ ( X ( p ) ) ) | ( <> ( ( p ) /\ ( r ) ) ) | ( ( <> ( ( p ) /\ ( [] ( r ) ) ) ) U ( ( p ) /\ ( [] ( r ) ) ) ) | ( ( p ) /\ ( [] ( <> ( ( r ) /\ ( <> ( p ) ) ) ) ) ) | ( ( ( r ) /\ ( [] ( s ) ) ) W ( ( p ) /\ ( [] ( r ) ) ) ) | ( [] ( ( p ) /\ ( r ) ) ) | ( ( ( p ) /\ ( r ) ) W ( ( p ) /\ ( r ) ) ) | ( ( r ) /\ ( p ) ) | ( [] ( ( r ) /\ ( p ) ) ) | ( <> ( ( r ) /\ ( p ) ) ) | ( ( ( p ) /\ ( r ) ) /\ ( ( p ) /\ ( r ) ) ) | ( X ( ( p ) /\ ( r ) ) ) | ( ( ( p ) /\ ( r ) ) /\ ( r ) ) | ( ( p ) /\ ( ( p ) /\ ( r ) ) ) | ( ( ( p ) /\ ( r ) ) \/ ( ( p ) /\ ( r ) ) ) | ( ( ( p ) /\ ( r ) ) U ( ( p ) /\ ( r ) ) ) | 
Learning Time :0
CALLs: 13    TIMEOUTs: 0    ERRORs: 0
REEVALUATIONS: 1534 OF 2456

GENERATION 31/50
....m.m.<;
Fittest value: 2.8333333333333335 for chromosome ( ( p ) /\ ( r ) )
Solutions (30): ( ( p ) /\ ( [] ( r ) ) ) | ( ( r ) /\ ( <> ( p ) ) ) | ( X ( ( p ) /\ ( [] ( r ) ) ) ) | ( ( r ) /\ ( [] ( p ) ) ) | ( ( ( r ) /\ ( <> ( s ) ) ) \/ ( ( p ) /\ ( [] ( r ) ) ) ) | ( ( ( p ) /\ ( [] ( r ) ) ) \/ ( ( [] ( ! ( q ) ) ) /\ ( p ) ) ) | ( X ( ( r ) /\ ( <> ( p ) ) ) ) | ( ( ( p ) /\ ( [] ( r ) ) ) U ( ( p ) /\ ( [] ( r ) ) ) ) | ( [] ( ( p ) /\ ( [] ( r ) ) ) ) | ( <> ( ( p ) /\ ( [] ( r ) ) ) ) | ( ( <> ( ( r ) /\ ( <> ( s ) ) ) ) W ( ( r ) /\ ( <> ( p ) ) ) ) | ( ( p ) /\ ( r ) ) | ( <> ( ( r ) /\ ( <> ( p ) ) ) ) | ( [] ( ( r ) /\ ( <> ( p ) ) ) ) | ( ( r ) /\ ( X ( p ) ) ) | ( <> ( ( p ) /\ ( r ) ) ) | ( ( <> ( ( p ) /\ ( [] ( r ) ) ) ) U ( ( p ) /\ ( [] ( r ) ) ) ) | ( ( p ) /\ ( [] ( <> ( ( r ) /\ ( <> ( p ) ) ) ) ) ) | ( ( ( r ) /\ ( [] ( s ) ) ) W ( ( p ) /\ ( [] ( r ) ) ) ) | ( [] ( ( p ) /\ ( r ) ) ) | ( ( ( p ) /\ ( r ) ) W ( ( p ) /\ ( r ) ) ) | ( ( r ) /\ ( p ) ) | ( [] ( ( r ) /\ ( p ) ) ) | ( <> ( ( r ) /\ ( p ) ) ) | ( ( ( p ) /\ ( r ) ) /\ ( ( p ) /\ ( r ) ) ) | ( X ( ( p ) /\ ( r ) ) ) | ( ( ( p ) /\ ( r ) ) /\ ( r ) ) | ( ( p ) /\ ( ( p ) /\ ( r ) ) ) | ( ( ( p ) /\ ( r ) ) \/ ( ( p ) /\ ( r ) ) ) | ( ( ( p ) /\ ( r ) ) U ( ( p ) /\ ( r ) ) ) | 
Learning Time :0
CALLs: 6    TIMEOUTs: 0    ERRORs: 0
REEVALUATIONS: 1609 OF 2532

GENERATION 32/50
....m.m.<;....m.m.<;....m.m.<;......m.m.<;
Fittest value: 2.8333333333333335 for chromosome ( ( p ) /\ ( r ) )
Solutions (30): ( ( p ) /\ ( [] ( r ) ) ) | ( ( r ) /\ ( <> ( p ) ) ) | ( X ( ( p ) /\ ( [] ( r ) ) ) ) | ( ( r ) /\ ( [] ( p ) ) ) | ( ( ( r ) /\ ( <> ( s ) ) ) \/ ( ( p ) /\ ( [] ( r ) ) ) ) | ( ( ( p ) /\ ( [] ( r ) ) ) \/ ( ( [] ( ! ( q ) ) ) /\ ( p ) ) ) | ( X ( ( r ) /\ ( <> ( p ) ) ) ) | ( ( ( p ) /\ ( [] ( r ) ) ) U ( ( p ) /\ ( [] ( r ) ) ) ) | ( [] ( ( p ) /\ ( [] ( r ) ) ) ) | ( <> ( ( p ) /\ ( [] ( r ) ) ) ) | ( ( <> ( ( r ) /\ ( <> ( s ) ) ) ) W ( ( r ) /\ ( <> ( p ) ) ) ) | ( ( p ) /\ ( r ) ) | ( <> ( ( r ) /\ ( <> ( p ) ) ) ) | ( [] ( ( r ) /\ ( <> ( p ) ) ) ) | ( ( r ) /\ ( X ( p ) ) ) | ( <> ( ( p ) /\ ( r ) ) ) | ( ( <> ( ( p ) /\ ( [] ( r ) ) ) ) U ( ( p ) /\ ( [] ( r ) ) ) ) | ( ( p ) /\ ( [] ( <> ( ( r ) /\ ( <> ( p ) ) ) ) ) ) | ( ( ( r ) /\ ( [] ( s ) ) ) W ( ( p ) /\ ( [] ( r ) ) ) ) | ( [] ( ( p ) /\ ( r ) ) ) | ( ( ( p ) /\ ( r ) ) W ( ( p ) /\ ( r ) ) ) | ( ( r ) /\ ( p ) ) | ( [] ( ( r ) /\ ( p ) ) ) | ( <> ( ( r ) /\ ( p ) ) ) | ( ( ( p ) /\ ( r ) ) /\ ( ( p ) /\ ( r ) ) ) | ( X ( ( p ) /\ ( r ) ) ) | ( ( ( p ) /\ ( r ) ) /\ ( r ) ) | ( ( p ) /\ ( ( p ) /\ ( r ) ) ) | ( ( ( p ) /\ ( r ) ) \/ ( ( p ) /\ ( r ) ) ) | ( ( ( p ) /\ ( r ) ) U ( ( p ) /\ ( r ) ) ) | 
Learning Time :0
CALLs: 26    TIMEOUTs: 0    ERRORs: 0
REEVALUATIONS: 1687 OF 2615

GENERATION 33/50
....m.m.<;....m.m.<;......m.m.<;
Fittest value: 2.8333333333333335 for chromosome ( ( p ) /\ ( r ) )
Solutions (30): ( ( p ) /\ ( [] ( r ) ) ) | ( ( r ) /\ ( <> ( p ) ) ) | ( X ( ( p ) /\ ( [] ( r ) ) ) ) | ( ( r ) /\ ( [] ( p ) ) ) | ( ( ( r ) /\ ( <> ( s ) ) ) \/ ( ( p ) /\ ( [] ( r ) ) ) ) | ( ( ( p ) /\ ( [] ( r ) ) ) \/ ( ( [] ( ! ( q ) ) ) /\ ( p ) ) ) | ( X ( ( r ) /\ ( <> ( p ) ) ) ) | ( ( ( p ) /\ ( [] ( r ) ) ) U ( ( p ) /\ ( [] ( r ) ) ) ) | ( [] ( ( p ) /\ ( [] ( r ) ) ) ) | ( <> ( ( p ) /\ ( [] ( r ) ) ) ) | ( ( <> ( ( r ) /\ ( <> ( s ) ) ) ) W ( ( r ) /\ ( <> ( p ) ) ) ) | ( ( p ) /\ ( r ) ) | ( <> ( ( r ) /\ ( <> ( p ) ) ) ) | ( [] ( ( r ) /\ ( <> ( p ) ) ) ) | ( ( r ) /\ ( X ( p ) ) ) | ( <> ( ( p ) /\ ( r ) ) ) | ( ( <> ( ( p ) /\ ( [] ( r ) ) ) ) U ( ( p ) /\ ( [] ( r ) ) ) ) | ( ( p ) /\ ( [] ( <> ( ( r ) /\ ( <> ( p ) ) ) ) ) ) | ( ( ( r ) /\ ( [] ( s ) ) ) W ( ( p ) /\ ( [] ( r ) ) ) ) | ( [] ( ( p ) /\ ( r ) ) ) | ( ( ( p ) /\ ( r ) ) W ( ( p ) /\ ( r ) ) ) | ( ( r ) /\ ( p ) ) | ( [] ( ( r ) /\ ( p ) ) ) | ( <> ( ( r ) /\ ( p ) ) ) | ( ( ( p ) /\ ( r ) ) /\ ( ( p ) /\ ( r ) ) ) | ( X ( ( p ) /\ ( r ) ) ) | ( ( ( p ) /\ ( r ) ) /\ ( r ) ) | ( ( p ) /\ ( ( p ) /\ ( r ) ) ) | ( ( ( p ) /\ ( r ) ) \/ ( ( p ) /\ ( r ) ) ) | ( ( ( p ) /\ ( r ) ) U ( ( p ) /\ ( r ) ) ) | 
Learning Time :0
CALLs: 20    TIMEOUTs: 0    ERRORs: 0
REEVALUATIONS: 1764 OF 2696

GENERATION 34/50
.....m.m.<;......m.m.<;....m.m.<;
Fittest value: 2.8333333333333335 for chromosome ( ( p ) /\ ( r ) )
Solutions (30): ( ( p ) /\ ( [] ( r ) ) ) | ( ( r ) /\ ( <> ( p ) ) ) | ( X ( ( p ) /\ ( [] ( r ) ) ) ) | ( ( r ) /\ ( [] ( p ) ) ) | ( ( ( r ) /\ ( <> ( s ) ) ) \/ ( ( p ) /\ ( [] ( r ) ) ) ) | ( ( ( p ) /\ ( [] ( r ) ) ) \/ ( ( [] ( ! ( q ) ) ) /\ ( p ) ) ) | ( X ( ( r ) /\ ( <> ( p ) ) ) ) | ( ( ( p ) /\ ( [] ( r ) ) ) U ( ( p ) /\ ( [] ( r ) ) ) ) | ( [] ( ( p ) /\ ( [] ( r ) ) ) ) | ( <> ( ( p ) /\ ( [] ( r ) ) ) ) | ( ( <> ( ( r ) /\ ( <> ( s ) ) ) ) W ( ( r ) /\ ( <> ( p ) ) ) ) | ( ( p ) /\ ( r ) ) | ( <> ( ( r ) /\ ( <> ( p ) ) ) ) | ( [] ( ( r ) /\ ( <> ( p ) ) ) ) | ( ( r ) /\ ( X ( p ) ) ) | ( <> ( ( p ) /\ ( r ) ) ) | ( ( <> ( ( p ) /\ ( [] ( r ) ) ) ) U ( ( p ) /\ ( [] ( r ) ) ) ) | ( ( p ) /\ ( [] ( <> ( ( r ) /\ ( <> ( p ) ) ) ) ) ) | ( ( ( r ) /\ ( [] ( s ) ) ) W ( ( p ) /\ ( [] ( r ) ) ) ) | ( [] ( ( p ) /\ ( r ) ) ) | ( ( ( p ) /\ ( r ) ) W ( ( p ) /\ ( r ) ) ) | ( ( r ) /\ ( p ) ) | ( [] ( ( r ) /\ ( p ) ) ) | ( <> ( ( r ) /\ ( p ) ) ) | ( ( ( p ) /\ ( r ) ) /\ ( ( p ) /\ ( r ) ) ) | ( X ( ( p ) /\ ( r ) ) ) | ( ( ( p ) /\ ( r ) ) /\ ( r ) ) | ( ( p ) /\ ( ( p ) /\ ( r ) ) ) | ( ( ( p ) /\ ( r ) ) \/ ( ( p ) /\ ( r ) ) ) | ( ( ( p ) /\ ( r ) ) U ( ( p ) /\ ( r ) ) ) | 
Learning Time :0
CALLs: 21    TIMEOUTs: 0    ERRORs: 0
REEVALUATIONS: 1835 OF 2772

GENERATION 35/50
....m.m.<;....m.m.<;....m.m.<;.
Fittest value: 2.8333333333333335 for chromosome ( ( p ) /\ ( r ) )
Solutions (30): ( ( p ) /\ ( [] ( r ) ) ) | ( ( r ) /\ ( <> ( p ) ) ) | ( X ( ( p ) /\ ( [] ( r ) ) ) ) | ( ( r ) /\ ( [] ( p ) ) ) | ( ( ( r ) /\ ( <> ( s ) ) ) \/ ( ( p ) /\ ( [] ( r ) ) ) ) | ( ( ( p ) /\ ( [] ( r ) ) ) \/ ( ( [] ( ! ( q ) ) ) /\ ( p ) ) ) | ( X ( ( r ) /\ ( <> ( p ) ) ) ) | ( ( ( p ) /\ ( [] ( r ) ) ) U ( ( p ) /\ ( [] ( r ) ) ) ) | ( [] ( ( p ) /\ ( [] ( r ) ) ) ) | ( <> ( ( p ) /\ ( [] ( r ) ) ) ) | ( ( <> ( ( r ) /\ ( <> ( s ) ) ) ) W ( ( r ) /\ ( <> ( p ) ) ) ) | ( ( p ) /\ ( r ) ) | ( <> ( ( r ) /\ ( <> ( p ) ) ) ) | ( [] ( ( r ) /\ ( <> ( p ) ) ) ) | ( ( r ) /\ ( X ( p ) ) ) | ( <> ( ( p ) /\ ( r ) ) ) | ( ( <> ( ( p ) /\ ( [] ( r ) ) ) ) U ( ( p ) /\ ( [] ( r ) ) ) ) | ( ( p ) /\ ( [] ( <> ( ( r ) /\ ( <> ( p ) ) ) ) ) ) | ( ( ( r ) /\ ( [] ( s ) ) ) W ( ( p ) /\ ( [] ( r ) ) ) ) | ( [] ( ( p ) /\ ( r ) ) ) | ( ( ( p ) /\ ( r ) ) W ( ( p ) /\ ( r ) ) ) | ( ( r ) /\ ( p ) ) | ( [] ( ( r ) /\ ( p ) ) ) | ( <> ( ( r ) /\ ( p ) ) ) | ( ( ( p ) /\ ( r ) ) /\ ( ( p ) /\ ( r ) ) ) | ( X ( ( p ) /\ ( r ) ) ) | ( ( ( p ) /\ ( r ) ) /\ ( r ) ) | ( ( p ) /\ ( ( p ) /\ ( r ) ) ) | ( ( ( p ) /\ ( r ) ) \/ ( ( p ) /\ ( r ) ) ) | ( ( ( p ) /\ ( r ) ) U ( ( p ) /\ ( r ) ) ) | 
Learning Time :0
CALLs: 19    TIMEOUTs: 0    ERRORs: 0
REEVALUATIONS: 1920 OF 2861

GENERATION 36/50
....m.m.<;......m.m.<;
Fittest value: 2.8333333333333335 for chromosome ( ( p ) /\ ( r ) )
Solutions (30): ( ( p ) /\ ( [] ( r ) ) ) | ( ( r ) /\ ( <> ( p ) ) ) | ( X ( ( p ) /\ ( [] ( r ) ) ) ) | ( ( r ) /\ ( [] ( p ) ) ) | ( ( ( r ) /\ ( <> ( s ) ) ) \/ ( ( p ) /\ ( [] ( r ) ) ) ) | ( ( ( p ) /\ ( [] ( r ) ) ) \/ ( ( [] ( ! ( q ) ) ) /\ ( p ) ) ) | ( X ( ( r ) /\ ( <> ( p ) ) ) ) | ( ( ( p ) /\ ( [] ( r ) ) ) U ( ( p ) /\ ( [] ( r ) ) ) ) | ( [] ( ( p ) /\ ( [] ( r ) ) ) ) | ( <> ( ( p ) /\ ( [] ( r ) ) ) ) | ( ( <> ( ( r ) /\ ( <> ( s ) ) ) ) W ( ( r ) /\ ( <> ( p ) ) ) ) | ( ( p ) /\ ( r ) ) | ( <> ( ( r ) /\ ( <> ( p ) ) ) ) | ( [] ( ( r ) /\ ( <> ( p ) ) ) ) | ( ( r ) /\ ( X ( p ) ) ) | ( <> ( ( p ) /\ ( r ) ) ) | ( ( <> ( ( p ) /\ ( [] ( r ) ) ) ) U ( ( p ) /\ ( [] ( r ) ) ) ) | ( ( p ) /\ ( [] ( <> ( ( r ) /\ ( <> ( p ) ) ) ) ) ) | ( ( ( r ) /\ ( [] ( s ) ) ) W ( ( p ) /\ ( [] ( r ) ) ) ) | ( [] ( ( p ) /\ ( r ) ) ) | ( ( ( p ) /\ ( r ) ) W ( ( p ) /\ ( r ) ) ) | ( ( r ) /\ ( p ) ) | ( [] ( ( r ) /\ ( p ) ) ) | ( <> ( ( r ) /\ ( p ) ) ) | ( ( ( p ) /\ ( r ) ) /\ ( ( p ) /\ ( r ) ) ) | ( X ( ( p ) /\ ( r ) ) ) | ( ( ( p ) /\ ( r ) ) /\ ( r ) ) | ( ( p ) /\ ( ( p ) /\ ( r ) ) ) | ( ( ( p ) /\ ( r ) ) \/ ( ( p ) /\ ( r ) ) ) | ( ( ( p ) /\ ( r ) ) U ( ( p ) /\ ( r ) ) ) | 
Learning Time :0
CALLs: 14    TIMEOUTs: 0    ERRORs: 0
REEVALUATIONS: 2005 OF 2949

GENERATION 37/50
......m.m.<;
Fittest value: 2.8333333333333335 for chromosome ( ( p ) /\ ( r ) )
Solutions (30): ( ( p ) /\ ( [] ( r ) ) ) | ( ( r ) /\ ( <> ( p ) ) ) | ( X ( ( p ) /\ ( [] ( r ) ) ) ) | ( ( r ) /\ ( [] ( p ) ) ) | ( ( ( r ) /\ ( <> ( s ) ) ) \/ ( ( p ) /\ ( [] ( r ) ) ) ) | ( ( ( p ) /\ ( [] ( r ) ) ) \/ ( ( [] ( ! ( q ) ) ) /\ ( p ) ) ) | ( X ( ( r ) /\ ( <> ( p ) ) ) ) | ( ( ( p ) /\ ( [] ( r ) ) ) U ( ( p ) /\ ( [] ( r ) ) ) ) | ( [] ( ( p ) /\ ( [] ( r ) ) ) ) | ( <> ( ( p ) /\ ( [] ( r ) ) ) ) | ( ( <> ( ( r ) /\ ( <> ( s ) ) ) ) W ( ( r ) /\ ( <> ( p ) ) ) ) | ( ( p ) /\ ( r ) ) | ( <> ( ( r ) /\ ( <> ( p ) ) ) ) | ( [] ( ( r ) /\ ( <> ( p ) ) ) ) | ( ( r ) /\ ( X ( p ) ) ) | ( <> ( ( p ) /\ ( r ) ) ) | ( ( <> ( ( p ) /\ ( [] ( r ) ) ) ) U ( ( p ) /\ ( [] ( r ) ) ) ) | ( ( p ) /\ ( [] ( <> ( ( r ) /\ ( <> ( p ) ) ) ) ) ) | ( ( ( r ) /\ ( [] ( s ) ) ) W ( ( p ) /\ ( [] ( r ) ) ) ) | ( [] ( ( p ) /\ ( r ) ) ) | ( ( ( p ) /\ ( r ) ) W ( ( p ) /\ ( r ) ) ) | ( ( r ) /\ ( p ) ) | ( [] ( ( r ) /\ ( p ) ) ) | ( <> ( ( r ) /\ ( p ) ) ) | ( ( ( p ) /\ ( r ) ) /\ ( ( p ) /\ ( r ) ) ) | ( X ( ( p ) /\ ( r ) ) ) | ( ( ( p ) /\ ( r ) ) /\ ( r ) ) | ( ( p ) /\ ( ( p ) /\ ( r ) ) ) | ( ( ( p ) /\ ( r ) ) \/ ( ( p ) /\ ( r ) ) ) | ( ( ( p ) /\ ( r ) ) U ( ( p ) /\ ( r ) ) ) | 
Learning Time :0
CALLs: 8    TIMEOUTs: 0    ERRORs: 0
REEVALUATIONS: 2084 OF 3030

GENERATION 38/50
....m.m.<;....m.m.<;..
Fittest value: 2.8333333333333335 for chromosome ( ( p ) /\ ( r ) )
Solutions (30): ( ( p ) /\ ( [] ( r ) ) ) | ( ( r ) /\ ( <> ( p ) ) ) | ( X ( ( p ) /\ ( [] ( r ) ) ) ) | ( ( r ) /\ ( [] ( p ) ) ) | ( ( ( r ) /\ ( <> ( s ) ) ) \/ ( ( p ) /\ ( [] ( r ) ) ) ) | ( ( ( p ) /\ ( [] ( r ) ) ) \/ ( ( [] ( ! ( q ) ) ) /\ ( p ) ) ) | ( X ( ( r ) /\ ( <> ( p ) ) ) ) | ( ( ( p ) /\ ( [] ( r ) ) ) U ( ( p ) /\ ( [] ( r ) ) ) ) | ( [] ( ( p ) /\ ( [] ( r ) ) ) ) | ( <> ( ( p ) /\ ( [] ( r ) ) ) ) | ( ( <> ( ( r ) /\ ( <> ( s ) ) ) ) W ( ( r ) /\ ( <> ( p ) ) ) ) | ( ( p ) /\ ( r ) ) | ( <> ( ( r ) /\ ( <> ( p ) ) ) ) | ( [] ( ( r ) /\ ( <> ( p ) ) ) ) | ( ( r ) /\ ( X ( p ) ) ) | ( <> ( ( p ) /\ ( r ) ) ) | ( ( <> ( ( p ) /\ ( [] ( r ) ) ) ) U ( ( p ) /\ ( [] ( r ) ) ) ) | ( ( p ) /\ ( [] ( <> ( ( r ) /\ ( <> ( p ) ) ) ) ) ) | ( ( ( r ) /\ ( [] ( s ) ) ) W ( ( p ) /\ ( [] ( r ) ) ) ) | ( [] ( ( p ) /\ ( r ) ) ) | ( ( ( p ) /\ ( r ) ) W ( ( p ) /\ ( r ) ) ) | ( ( r ) /\ ( p ) ) | ( [] ( ( r ) /\ ( p ) ) ) | ( <> ( ( r ) /\ ( p ) ) ) | ( ( ( p ) /\ ( r ) ) /\ ( ( p ) /\ ( r ) ) ) | ( X ( ( p ) /\ ( r ) ) ) | ( ( ( p ) /\ ( r ) ) /\ ( r ) ) | ( ( p ) /\ ( ( p ) /\ ( r ) ) ) | ( ( ( p ) /\ ( r ) ) \/ ( ( p ) /\ ( r ) ) ) | ( ( ( p ) /\ ( r ) ) U ( ( p ) /\ ( r ) ) ) | 
Learning Time :0
CALLs: 14    TIMEOUTs: 0    ERRORs: 0
REEVALUATIONS: 2157 OF 3106

GENERATION 39/50
.......m.m.<;
Fittest value: 2.8333333333333335 for chromosome ( ( p ) /\ ( r ) )
Solutions (30): ( ( p ) /\ ( [] ( r ) ) ) | ( ( r ) /\ ( <> ( p ) ) ) | ( X ( ( p ) /\ ( [] ( r ) ) ) ) | ( ( r ) /\ ( [] ( p ) ) ) | ( ( ( r ) /\ ( <> ( s ) ) ) \/ ( ( p ) /\ ( [] ( r ) ) ) ) | ( ( ( p ) /\ ( [] ( r ) ) ) \/ ( ( [] ( ! ( q ) ) ) /\ ( p ) ) ) | ( X ( ( r ) /\ ( <> ( p ) ) ) ) | ( ( ( p ) /\ ( [] ( r ) ) ) U ( ( p ) /\ ( [] ( r ) ) ) ) | ( [] ( ( p ) /\ ( [] ( r ) ) ) ) | ( <> ( ( p ) /\ ( [] ( r ) ) ) ) | ( ( <> ( ( r ) /\ ( <> ( s ) ) ) ) W ( ( r ) /\ ( <> ( p ) ) ) ) | ( ( p ) /\ ( r ) ) | ( <> ( ( r ) /\ ( <> ( p ) ) ) ) | ( [] ( ( r ) /\ ( <> ( p ) ) ) ) | ( ( r ) /\ ( X ( p ) ) ) | ( <> ( ( p ) /\ ( r ) ) ) | ( ( <> ( ( p ) /\ ( [] ( r ) ) ) ) U ( ( p ) /\ ( [] ( r ) ) ) ) | ( ( p ) /\ ( [] ( <> ( ( r ) /\ ( <> ( p ) ) ) ) ) ) | ( ( ( r ) /\ ( [] ( s ) ) ) W ( ( p ) /\ ( [] ( r ) ) ) ) | ( [] ( ( p ) /\ ( r ) ) ) | ( ( ( p ) /\ ( r ) ) W ( ( p ) /\ ( r ) ) ) | ( ( r ) /\ ( p ) ) | ( [] ( ( r ) /\ ( p ) ) ) | ( <> ( ( r ) /\ ( p ) ) ) | ( ( ( p ) /\ ( r ) ) /\ ( ( p ) /\ ( r ) ) ) | ( X ( ( p ) /\ ( r ) ) ) | ( ( ( p ) /\ ( r ) ) /\ ( r ) ) | ( ( p ) /\ ( ( p ) /\ ( r ) ) ) | ( ( ( p ) /\ ( r ) ) \/ ( ( p ) /\ ( r ) ) ) | ( ( ( p ) /\ ( r ) ) U ( ( p ) /\ ( r ) ) ) | 
Learning Time :0
CALLs: 9    TIMEOUTs: 0    ERRORs: 0
REEVALUATIONS: 2239 OF 3191

GENERATION 40/50
.....
Fittest value: 2.8333333333333335 for chromosome ( ( p ) /\ ( r ) )
Solutions (30): ( ( p ) /\ ( [] ( r ) ) ) | ( ( r ) /\ ( <> ( p ) ) ) | ( X ( ( p ) /\ ( [] ( r ) ) ) ) | ( ( r ) /\ ( [] ( p ) ) ) | ( ( ( r ) /\ ( <> ( s ) ) ) \/ ( ( p ) /\ ( [] ( r ) ) ) ) | ( ( ( p ) /\ ( [] ( r ) ) ) \/ ( ( [] ( ! ( q ) ) ) /\ ( p ) ) ) | ( X ( ( r ) /\ ( <> ( p ) ) ) ) | ( ( ( p ) /\ ( [] ( r ) ) ) U ( ( p ) /\ ( [] ( r ) ) ) ) | ( [] ( ( p ) /\ ( [] ( r ) ) ) ) | ( <> ( ( p ) /\ ( [] ( r ) ) ) ) | ( ( <> ( ( r ) /\ ( <> ( s ) ) ) ) W ( ( r ) /\ ( <> ( p ) ) ) ) | ( ( p ) /\ ( r ) ) | ( <> ( ( r ) /\ ( <> ( p ) ) ) ) | ( [] ( ( r ) /\ ( <> ( p ) ) ) ) | ( ( r ) /\ ( X ( p ) ) ) | ( <> ( ( p ) /\ ( r ) ) ) | ( ( <> ( ( p ) /\ ( [] ( r ) ) ) ) U ( ( p ) /\ ( [] ( r ) ) ) ) | ( ( p ) /\ ( [] ( <> ( ( r ) /\ ( <> ( p ) ) ) ) ) ) | ( ( ( r ) /\ ( [] ( s ) ) ) W ( ( p ) /\ ( [] ( r ) ) ) ) | ( [] ( ( p ) /\ ( r ) ) ) | ( ( ( p ) /\ ( r ) ) W ( ( p ) /\ ( r ) ) ) | ( ( r ) /\ ( p ) ) | ( [] ( ( r ) /\ ( p ) ) ) | ( <> ( ( r ) /\ ( p ) ) ) | ( ( ( p ) /\ ( r ) ) /\ ( ( p ) /\ ( r ) ) ) | ( X ( ( p ) /\ ( r ) ) ) | ( ( ( p ) /\ ( r ) ) /\ ( r ) ) | ( ( p ) /\ ( ( p ) /\ ( r ) ) ) | ( ( ( p ) /\ ( r ) ) \/ ( ( p ) /\ ( r ) ) ) | ( ( ( p ) /\ ( r ) ) U ( ( p ) /\ ( r ) ) ) | 
Learning Time :0
CALLs: 5    TIMEOUTs: 0    ERRORs: 0
REEVALUATIONS: 2326 OF 3281

GENERATION 41/50
....m.m.<;....m.m.<;......m.m.<;
Fittest value: 2.8333333333333335 for chromosome ( ( p ) /\ ( r ) )
Solutions (30): ( ( p ) /\ ( [] ( r ) ) ) | ( ( r ) /\ ( <> ( p ) ) ) | ( X ( ( p ) /\ ( [] ( r ) ) ) ) | ( ( r ) /\ ( [] ( p ) ) ) | ( ( ( r ) /\ ( <> ( s ) ) ) \/ ( ( p ) /\ ( [] ( r ) ) ) ) | ( ( ( p ) /\ ( [] ( r ) ) ) \/ ( ( [] ( ! ( q ) ) ) /\ ( p ) ) ) | ( X ( ( r ) /\ ( <> ( p ) ) ) ) | ( ( ( p ) /\ ( [] ( r ) ) ) U ( ( p ) /\ ( [] ( r ) ) ) ) | ( [] ( ( p ) /\ ( [] ( r ) ) ) ) | ( <> ( ( p ) /\ ( [] ( r ) ) ) ) | ( ( <> ( ( r ) /\ ( <> ( s ) ) ) ) W ( ( r ) /\ ( <> ( p ) ) ) ) | ( ( p ) /\ ( r ) ) | ( <> ( ( r ) /\ ( <> ( p ) ) ) ) | ( [] ( ( r ) /\ ( <> ( p ) ) ) ) | ( ( r ) /\ ( X ( p ) ) ) | ( <> ( ( p ) /\ ( r ) ) ) | ( ( <> ( ( p ) /\ ( [] ( r ) ) ) ) U ( ( p ) /\ ( [] ( r ) ) ) ) | ( ( p ) /\ ( [] ( <> ( ( r ) /\ ( <> ( p ) ) ) ) ) ) | ( ( ( r ) /\ ( [] ( s ) ) ) W ( ( p ) /\ ( [] ( r ) ) ) ) | ( [] ( ( p ) /\ ( r ) ) ) | ( ( ( p ) /\ ( r ) ) W ( ( p ) /\ ( r ) ) ) | ( ( r ) /\ ( p ) ) | ( [] ( ( r ) /\ ( p ) ) ) | ( <> ( ( r ) /\ ( p ) ) ) | ( ( ( p ) /\ ( r ) ) /\ ( ( p ) /\ ( r ) ) ) | ( X ( ( p ) /\ ( r ) ) ) | ( ( ( p ) /\ ( r ) ) /\ ( r ) ) | ( ( p ) /\ ( ( p ) /\ ( r ) ) ) | ( ( ( p ) /\ ( r ) ) \/ ( ( p ) /\ ( r ) ) ) | ( ( ( p ) /\ ( r ) ) U ( ( p ) /\ ( r ) ) ) | 
Learning Time :0
CALLs: 20    TIMEOUTs: 0    ERRORs: 0
REEVALUATIONS: 2412 OF 3371

GENERATION 42/50
.....
Fittest value: 2.8333333333333335 for chromosome ( ( p ) /\ ( r ) )
Solutions (30): ( ( p ) /\ ( [] ( r ) ) ) | ( ( r ) /\ ( <> ( p ) ) ) | ( X ( ( p ) /\ ( [] ( r ) ) ) ) | ( ( r ) /\ ( [] ( p ) ) ) | ( ( ( r ) /\ ( <> ( s ) ) ) \/ ( ( p ) /\ ( [] ( r ) ) ) ) | ( ( ( p ) /\ ( [] ( r ) ) ) \/ ( ( [] ( ! ( q ) ) ) /\ ( p ) ) ) | ( X ( ( r ) /\ ( <> ( p ) ) ) ) | ( ( ( p ) /\ ( [] ( r ) ) ) U ( ( p ) /\ ( [] ( r ) ) ) ) | ( [] ( ( p ) /\ ( [] ( r ) ) ) ) | ( <> ( ( p ) /\ ( [] ( r ) ) ) ) | ( ( <> ( ( r ) /\ ( <> ( s ) ) ) ) W ( ( r ) /\ ( <> ( p ) ) ) ) | ( ( p ) /\ ( r ) ) | ( <> ( ( r ) /\ ( <> ( p ) ) ) ) | ( [] ( ( r ) /\ ( <> ( p ) ) ) ) | ( ( r ) /\ ( X ( p ) ) ) | ( <> ( ( p ) /\ ( r ) ) ) | ( ( <> ( ( p ) /\ ( [] ( r ) ) ) ) U ( ( p ) /\ ( [] ( r ) ) ) ) | ( ( p ) /\ ( [] ( <> ( ( r ) /\ ( <> ( p ) ) ) ) ) ) | ( ( ( r ) /\ ( [] ( s ) ) ) W ( ( p ) /\ ( [] ( r ) ) ) ) | ( [] ( ( p ) /\ ( r ) ) ) | ( ( ( p ) /\ ( r ) ) W ( ( p ) /\ ( r ) ) ) | ( ( r ) /\ ( p ) ) | ( [] ( ( r ) /\ ( p ) ) ) | ( <> ( ( r ) /\ ( p ) ) ) | ( ( ( p ) /\ ( r ) ) /\ ( ( p ) /\ ( r ) ) ) | ( X ( ( p ) /\ ( r ) ) ) | ( ( ( p ) /\ ( r ) ) /\ ( r ) ) | ( ( p ) /\ ( ( p ) /\ ( r ) ) ) | ( ( ( p ) /\ ( r ) ) \/ ( ( p ) /\ ( r ) ) ) | ( ( ( p ) /\ ( r ) ) U ( ( p ) /\ ( r ) ) ) | 
Learning Time :0
CALLs: 5    TIMEOUTs: 0    ERRORs: 0
REEVALUATIONS: 2494 OF 3456

GENERATION 43/50
....m.m.<;....m.m.<;
Fittest value: 2.8333333333333335 for chromosome ( ( p ) /\ ( r ) )
Solutions (30): ( ( p ) /\ ( [] ( r ) ) ) | ( ( r ) /\ ( <> ( p ) ) ) | ( X ( ( p ) /\ ( [] ( r ) ) ) ) | ( ( r ) /\ ( [] ( p ) ) ) | ( ( ( r ) /\ ( <> ( s ) ) ) \/ ( ( p ) /\ ( [] ( r ) ) ) ) | ( ( ( p ) /\ ( [] ( r ) ) ) \/ ( ( [] ( ! ( q ) ) ) /\ ( p ) ) ) | ( X ( ( r ) /\ ( <> ( p ) ) ) ) | ( ( ( p ) /\ ( [] ( r ) ) ) U ( ( p ) /\ ( [] ( r ) ) ) ) | ( [] ( ( p ) /\ ( [] ( r ) ) ) ) | ( <> ( ( p ) /\ ( [] ( r ) ) ) ) | ( ( <> ( ( r ) /\ ( <> ( s ) ) ) ) W ( ( r ) /\ ( <> ( p ) ) ) ) | ( ( p ) /\ ( r ) ) | ( <> ( ( r ) /\ ( <> ( p ) ) ) ) | ( [] ( ( r ) /\ ( <> ( p ) ) ) ) | ( ( r ) /\ ( X ( p ) ) ) | ( <> ( ( p ) /\ ( r ) ) ) | ( ( <> ( ( p ) /\ ( [] ( r ) ) ) ) U ( ( p ) /\ ( [] ( r ) ) ) ) | ( ( p ) /\ ( [] ( <> ( ( r ) /\ ( <> ( p ) ) ) ) ) ) | ( ( ( r ) /\ ( [] ( s ) ) ) W ( ( p ) /\ ( [] ( r ) ) ) ) | ( [] ( ( p ) /\ ( r ) ) ) | ( ( ( p ) /\ ( r ) ) W ( ( p ) /\ ( r ) ) ) | ( ( r ) /\ ( p ) ) | ( [] ( ( r ) /\ ( p ) ) ) | ( <> ( ( r ) /\ ( p ) ) ) | ( ( ( p ) /\ ( r ) ) /\ ( ( p ) /\ ( r ) ) ) | ( X ( ( p ) /\ ( r ) ) ) | ( ( ( p ) /\ ( r ) ) /\ ( r ) ) | ( ( p ) /\ ( ( p ) /\ ( r ) ) ) | ( ( ( p ) /\ ( r ) ) \/ ( ( p ) /\ ( r ) ) ) | ( ( ( p ) /\ ( r ) ) U ( ( p ) /\ ( r ) ) ) | 
Learning Time :0
CALLs: 12    TIMEOUTs: 0    ERRORs: 0
REEVALUATIONS: 2570 OF 3534

GENERATION 44/50
....m.m.<;....m.m.<;......m.m.<;
Fittest value: 2.8333333333333335 for chromosome ( ( p ) /\ ( r ) )
Solutions (30): ( ( p ) /\ ( [] ( r ) ) ) | ( ( r ) /\ ( <> ( p ) ) ) | ( X ( ( p ) /\ ( [] ( r ) ) ) ) | ( ( r ) /\ ( [] ( p ) ) ) | ( ( ( r ) /\ ( <> ( s ) ) ) \/ ( ( p ) /\ ( [] ( r ) ) ) ) | ( ( ( p ) /\ ( [] ( r ) ) ) \/ ( ( [] ( ! ( q ) ) ) /\ ( p ) ) ) | ( X ( ( r ) /\ ( <> ( p ) ) ) ) | ( ( ( p ) /\ ( [] ( r ) ) ) U ( ( p ) /\ ( [] ( r ) ) ) ) | ( [] ( ( p ) /\ ( [] ( r ) ) ) ) | ( <> ( ( p ) /\ ( [] ( r ) ) ) ) | ( ( <> ( ( r ) /\ ( <> ( s ) ) ) ) W ( ( r ) /\ ( <> ( p ) ) ) ) | ( ( p ) /\ ( r ) ) | ( <> ( ( r ) /\ ( <> ( p ) ) ) ) | ( [] ( ( r ) /\ ( <> ( p ) ) ) ) | ( ( r ) /\ ( X ( p ) ) ) | ( <> ( ( p ) /\ ( r ) ) ) | ( ( <> ( ( p ) /\ ( [] ( r ) ) ) ) U ( ( p ) /\ ( [] ( r ) ) ) ) | ( ( p ) /\ ( [] ( <> ( ( r ) /\ ( <> ( p ) ) ) ) ) ) | ( ( ( r ) /\ ( [] ( s ) ) ) W ( ( p ) /\ ( [] ( r ) ) ) ) | ( [] ( ( p ) /\ ( r ) ) ) | ( ( ( p ) /\ ( r ) ) W ( ( p ) /\ ( r ) ) ) | ( ( r ) /\ ( p ) ) | ( [] ( ( r ) /\ ( p ) ) ) | ( <> ( ( r ) /\ ( p ) ) ) | ( ( ( p ) /\ ( r ) ) /\ ( ( p ) /\ ( r ) ) ) | ( X ( ( p ) /\ ( r ) ) ) | ( ( ( p ) /\ ( r ) ) /\ ( r ) ) | ( ( p ) /\ ( ( p ) /\ ( r ) ) ) | ( ( ( p ) /\ ( r ) ) \/ ( ( p ) /\ ( r ) ) ) | ( ( ( p ) /\ ( r ) ) U ( ( p ) /\ ( r ) ) ) | 
Learning Time :0
CALLs: 20    TIMEOUTs: 0    ERRORs: 0
REEVALUATIONS: 2654 OF 3622

GENERATION 45/50
......m.m.<;
Fittest value: 2.8333333333333335 for chromosome ( ( p ) /\ ( r ) )
Solutions (30): ( ( p ) /\ ( [] ( r ) ) ) | ( ( r ) /\ ( <> ( p ) ) ) | ( X ( ( p ) /\ ( [] ( r ) ) ) ) | ( ( r ) /\ ( [] ( p ) ) ) | ( ( ( r ) /\ ( <> ( s ) ) ) \/ ( ( p ) /\ ( [] ( r ) ) ) ) | ( ( ( p ) /\ ( [] ( r ) ) ) \/ ( ( [] ( ! ( q ) ) ) /\ ( p ) ) ) | ( X ( ( r ) /\ ( <> ( p ) ) ) ) | ( ( ( p ) /\ ( [] ( r ) ) ) U ( ( p ) /\ ( [] ( r ) ) ) ) | ( [] ( ( p ) /\ ( [] ( r ) ) ) ) | ( <> ( ( p ) /\ ( [] ( r ) ) ) ) | ( ( <> ( ( r ) /\ ( <> ( s ) ) ) ) W ( ( r ) /\ ( <> ( p ) ) ) ) | ( ( p ) /\ ( r ) ) | ( <> ( ( r ) /\ ( <> ( p ) ) ) ) | ( [] ( ( r ) /\ ( <> ( p ) ) ) ) | ( ( r ) /\ ( X ( p ) ) ) | ( <> ( ( p ) /\ ( r ) ) ) | ( ( <> ( ( p ) /\ ( [] ( r ) ) ) ) U ( ( p ) /\ ( [] ( r ) ) ) ) | ( ( p ) /\ ( [] ( <> ( ( r ) /\ ( <> ( p ) ) ) ) ) ) | ( ( ( r ) /\ ( [] ( s ) ) ) W ( ( p ) /\ ( [] ( r ) ) ) ) | ( [] ( ( p ) /\ ( r ) ) ) | ( ( ( p ) /\ ( r ) ) W ( ( p ) /\ ( r ) ) ) | ( ( r ) /\ ( p ) ) | ( [] ( ( r ) /\ ( p ) ) ) | ( <> ( ( r ) /\ ( p ) ) ) | ( ( ( p ) /\ ( r ) ) /\ ( ( p ) /\ ( r ) ) ) | ( X ( ( p ) /\ ( r ) ) ) | ( ( ( p ) /\ ( r ) ) /\ ( r ) ) | ( ( p ) /\ ( ( p ) /\ ( r ) ) ) | ( ( ( p ) /\ ( r ) ) \/ ( ( p ) /\ ( r ) ) ) | ( ( ( p ) /\ ( r ) ) U ( ( p ) /\ ( r ) ) ) | 
Learning Time :0
CALLs: 8    TIMEOUTs: 0    ERRORs: 0
REEVALUATIONS: 2730 OF 3700

GENERATION 46/50
....m.m.<;.
Fittest value: 2.8333333333333335 for chromosome ( ( p ) /\ ( r ) )
Solutions (30): ( ( p ) /\ ( [] ( r ) ) ) | ( ( r ) /\ ( <> ( p ) ) ) | ( X ( ( p ) /\ ( [] ( r ) ) ) ) | ( ( r ) /\ ( [] ( p ) ) ) | ( ( ( r ) /\ ( <> ( s ) ) ) \/ ( ( p ) /\ ( [] ( r ) ) ) ) | ( ( ( p ) /\ ( [] ( r ) ) ) \/ ( ( [] ( ! ( q ) ) ) /\ ( p ) ) ) | ( X ( ( r ) /\ ( <> ( p ) ) ) ) | ( ( ( p ) /\ ( [] ( r ) ) ) U ( ( p ) /\ ( [] ( r ) ) ) ) | ( [] ( ( p ) /\ ( [] ( r ) ) ) ) | ( <> ( ( p ) /\ ( [] ( r ) ) ) ) | ( ( <> ( ( r ) /\ ( <> ( s ) ) ) ) W ( ( r ) /\ ( <> ( p ) ) ) ) | ( ( p ) /\ ( r ) ) | ( <> ( ( r ) /\ ( <> ( p ) ) ) ) | ( [] ( ( r ) /\ ( <> ( p ) ) ) ) | ( ( r ) /\ ( X ( p ) ) ) | ( <> ( ( p ) /\ ( r ) ) ) | ( ( <> ( ( p ) /\ ( [] ( r ) ) ) ) U ( ( p ) /\ ( [] ( r ) ) ) ) | ( ( p ) /\ ( [] ( <> ( ( r ) /\ ( <> ( p ) ) ) ) ) ) | ( ( ( r ) /\ ( [] ( s ) ) ) W ( ( p ) /\ ( [] ( r ) ) ) ) | ( [] ( ( p ) /\ ( r ) ) ) | ( ( ( p ) /\ ( r ) ) W ( ( p ) /\ ( r ) ) ) | ( ( r ) /\ ( p ) ) | ( [] ( ( r ) /\ ( p ) ) ) | ( <> ( ( r ) /\ ( p ) ) ) | ( ( ( p ) /\ ( r ) ) /\ ( ( p ) /\ ( r ) ) ) | ( X ( ( p ) /\ ( r ) ) ) | ( ( ( p ) /\ ( r ) ) /\ ( r ) ) | ( ( p ) /\ ( ( p ) /\ ( r ) ) ) | ( ( ( p ) /\ ( r ) ) \/ ( ( p ) /\ ( r ) ) ) | ( ( ( p ) /\ ( r ) ) U ( ( p ) /\ ( r ) ) ) | 
Learning Time :0
CALLs: 7    TIMEOUTs: 0    ERRORs: 0
REEVALUATIONS: 2812 OF 3784

GENERATION 47/50
....m.m.<;....m.m.<;
Fittest value: 2.8333333333333335 for chromosome ( ( p ) /\ ( r ) )
Solutions (30): ( ( p ) /\ ( [] ( r ) ) ) | ( ( r ) /\ ( <> ( p ) ) ) | ( X ( ( p ) /\ ( [] ( r ) ) ) ) | ( ( r ) /\ ( [] ( p ) ) ) | ( ( ( r ) /\ ( <> ( s ) ) ) \/ ( ( p ) /\ ( [] ( r ) ) ) ) | ( ( ( p ) /\ ( [] ( r ) ) ) \/ ( ( [] ( ! ( q ) ) ) /\ ( p ) ) ) | ( X ( ( r ) /\ ( <> ( p ) ) ) ) | ( ( ( p ) /\ ( [] ( r ) ) ) U ( ( p ) /\ ( [] ( r ) ) ) ) | ( [] ( ( p ) /\ ( [] ( r ) ) ) ) | ( <> ( ( p ) /\ ( [] ( r ) ) ) ) | ( ( <> ( ( r ) /\ ( <> ( s ) ) ) ) W ( ( r ) /\ ( <> ( p ) ) ) ) | ( ( p ) /\ ( r ) ) | ( <> ( ( r ) /\ ( <> ( p ) ) ) ) | ( [] ( ( r ) /\ ( <> ( p ) ) ) ) | ( ( r ) /\ ( X ( p ) ) ) | ( <> ( ( p ) /\ ( r ) ) ) | ( ( <> ( ( p ) /\ ( [] ( r ) ) ) ) U ( ( p ) /\ ( [] ( r ) ) ) ) | ( ( p ) /\ ( [] ( <> ( ( r ) /\ ( <> ( p ) ) ) ) ) ) | ( ( ( r ) /\ ( [] ( s ) ) ) W ( ( p ) /\ ( [] ( r ) ) ) ) | ( [] ( ( p ) /\ ( r ) ) ) | ( ( ( p ) /\ ( r ) ) W ( ( p ) /\ ( r ) ) ) | ( ( r ) /\ ( p ) ) | ( [] ( ( r ) /\ ( p ) ) ) | ( <> ( ( r ) /\ ( p ) ) ) | ( ( ( p ) /\ ( r ) ) /\ ( ( p ) /\ ( r ) ) ) | ( X ( ( p ) /\ ( r ) ) ) | ( ( ( p ) /\ ( r ) ) /\ ( r ) ) | ( ( p ) /\ ( ( p ) /\ ( r ) ) ) | ( ( ( p ) /\ ( r ) ) \/ ( ( p ) /\ ( r ) ) ) | ( ( ( p ) /\ ( r ) ) U ( ( p ) /\ ( r ) ) ) | 
Learning Time :0
CALLs: 12    TIMEOUTs: 0    ERRORs: 0
REEVALUATIONS: 2880 OF 3854

GENERATION 48/50

Fittest value: 2.8333333333333335 for chromosome ( ( p ) /\ ( r ) )
Solutions (30): ( ( p ) /\ ( [] ( r ) ) ) | ( ( r ) /\ ( <> ( p ) ) ) | ( X ( ( p ) /\ ( [] ( r ) ) ) ) | ( ( r ) /\ ( [] ( p ) ) ) | ( ( ( r ) /\ ( <> ( s ) ) ) \/ ( ( p ) /\ ( [] ( r ) ) ) ) | ( ( ( p ) /\ ( [] ( r ) ) ) \/ ( ( [] ( ! ( q ) ) ) /\ ( p ) ) ) | ( X ( ( r ) /\ ( <> ( p ) ) ) ) | ( ( ( p ) /\ ( [] ( r ) ) ) U ( ( p ) /\ ( [] ( r ) ) ) ) | ( [] ( ( p ) /\ ( [] ( r ) ) ) ) | ( <> ( ( p ) /\ ( [] ( r ) ) ) ) | ( ( <> ( ( r ) /\ ( <> ( s ) ) ) ) W ( ( r ) /\ ( <> ( p ) ) ) ) | ( ( p ) /\ ( r ) ) | ( <> ( ( r ) /\ ( <> ( p ) ) ) ) | ( [] ( ( r ) /\ ( <> ( p ) ) ) ) | ( ( r ) /\ ( X ( p ) ) ) | ( <> ( ( p ) /\ ( r ) ) ) | ( ( <> ( ( p ) /\ ( [] ( r ) ) ) ) U ( ( p ) /\ ( [] ( r ) ) ) ) | ( ( p ) /\ ( [] ( <> ( ( r ) /\ ( <> ( p ) ) ) ) ) ) | ( ( ( r ) /\ ( [] ( s ) ) ) W ( ( p ) /\ ( [] ( r ) ) ) ) | ( [] ( ( p ) /\ ( r ) ) ) | ( ( ( p ) /\ ( r ) ) W ( ( p ) /\ ( r ) ) ) | ( ( r ) /\ ( p ) ) | ( [] ( ( r ) /\ ( p ) ) ) | ( <> ( ( r ) /\ ( p ) ) ) | ( ( ( p ) /\ ( r ) ) /\ ( ( p ) /\ ( r ) ) ) | ( X ( ( p ) /\ ( r ) ) ) | ( ( ( p ) /\ ( r ) ) /\ ( r ) ) | ( ( p ) /\ ( ( p ) /\ ( r ) ) ) | ( ( ( p ) /\ ( r ) ) \/ ( ( p ) /\ ( r ) ) ) | ( ( ( p ) /\ ( r ) ) U ( ( p ) /\ ( r ) ) ) | 
Learning Time :0
CALLs: 0    TIMEOUTs: 0    ERRORs: 0
REEVALUATIONS: 2956 OF 3930

GENERATION 49/50
......m.m.<;.....m.m.<;
Fittest value: 2.8333333333333335 for chromosome ( ( p ) /\ ( r ) )
Solutions (30): ( ( p ) /\ ( [] ( r ) ) ) | ( ( r ) /\ ( <> ( p ) ) ) | ( X ( ( p ) /\ ( [] ( r ) ) ) ) | ( ( r ) /\ ( [] ( p ) ) ) | ( ( ( r ) /\ ( <> ( s ) ) ) \/ ( ( p ) /\ ( [] ( r ) ) ) ) | ( ( ( p ) /\ ( [] ( r ) ) ) \/ ( ( [] ( ! ( q ) ) ) /\ ( p ) ) ) | ( X ( ( r ) /\ ( <> ( p ) ) ) ) | ( ( ( p ) /\ ( [] ( r ) ) ) U ( ( p ) /\ ( [] ( r ) ) ) ) | ( [] ( ( p ) /\ ( [] ( r ) ) ) ) | ( <> ( ( p ) /\ ( [] ( r ) ) ) ) | ( ( <> ( ( r ) /\ ( <> ( s ) ) ) ) W ( ( r ) /\ ( <> ( p ) ) ) ) | ( ( p ) /\ ( r ) ) | ( <> ( ( r ) /\ ( <> ( p ) ) ) ) | ( [] ( ( r ) /\ ( <> ( p ) ) ) ) | ( ( r ) /\ ( X ( p ) ) ) | ( <> ( ( p ) /\ ( r ) ) ) | ( ( <> ( ( p ) /\ ( [] ( r ) ) ) ) U ( ( p ) /\ ( [] ( r ) ) ) ) | ( ( p ) /\ ( [] ( <> ( ( r ) /\ ( <> ( p ) ) ) ) ) ) | ( ( ( r ) /\ ( [] ( s ) ) ) W ( ( p ) /\ ( [] ( r ) ) ) ) | ( [] ( ( p ) /\ ( r ) ) ) | ( ( ( p ) /\ ( r ) ) W ( ( p ) /\ ( r ) ) ) | ( ( r ) /\ ( p ) ) | ( [] ( ( r ) /\ ( p ) ) ) | ( <> ( ( r ) /\ ( p ) ) ) | ( ( ( p ) /\ ( r ) ) /\ ( ( p ) /\ ( r ) ) ) | ( X ( ( p ) /\ ( r ) ) ) | ( ( ( p ) /\ ( r ) ) /\ ( r ) ) | ( ( p ) /\ ( ( p ) /\ ( r ) ) ) | ( ( ( p ) /\ ( r ) ) \/ ( ( p ) /\ ( r ) ) ) | ( ( ( p ) /\ ( r ) ) U ( ( p ) /\ ( r ) ) ) | 
Learning Time :0
CALLs: 15    TIMEOUTs: 0    ERRORs: 0
REEVALUATIONS: 3034 OF 4012

GENERATION 50/50
..
Fittest value: 2.8333333333333335 for chromosome ( ( p ) /\ ( r ) )
Solutions (30): ( ( p ) /\ ( [] ( r ) ) ) | ( ( r ) /\ ( <> ( p ) ) ) | ( X ( ( p ) /\ ( [] ( r ) ) ) ) | ( ( r ) /\ ( [] ( p ) ) ) | ( ( ( r ) /\ ( <> ( s ) ) ) \/ ( ( p ) /\ ( [] ( r ) ) ) ) | ( ( ( p ) /\ ( [] ( r ) ) ) \/ ( ( [] ( ! ( q ) ) ) /\ ( p ) ) ) | ( X ( ( r ) /\ ( <> ( p ) ) ) ) | ( ( ( p ) /\ ( [] ( r ) ) ) U ( ( p ) /\ ( [] ( r ) ) ) ) | ( [] ( ( p ) /\ ( [] ( r ) ) ) ) | ( <> ( ( p ) /\ ( [] ( r ) ) ) ) | ( ( <> ( ( r ) /\ ( <> ( s ) ) ) ) W ( ( r ) /\ ( <> ( p ) ) ) ) | ( ( p ) /\ ( r ) ) | ( <> ( ( r ) /\ ( <> ( p ) ) ) ) | ( [] ( ( r ) /\ ( <> ( p ) ) ) ) | ( ( r ) /\ ( X ( p ) ) ) | ( <> ( ( p ) /\ ( r ) ) ) | ( ( <> ( ( p ) /\ ( [] ( r ) ) ) ) U ( ( p ) /\ ( [] ( r ) ) ) ) | ( ( p ) /\ ( [] ( <> ( ( r ) /\ ( <> ( p ) ) ) ) ) ) | ( ( ( r ) /\ ( [] ( s ) ) ) W ( ( p ) /\ ( [] ( r ) ) ) ) | ( [] ( ( p ) /\ ( r ) ) ) | ( ( ( p ) /\ ( r ) ) W ( ( p ) /\ ( r ) ) ) | ( ( r ) /\ ( p ) ) | ( [] ( ( r ) /\ ( p ) ) ) | ( <> ( ( r ) /\ ( p ) ) ) | ( ( ( p ) /\ ( r ) ) /\ ( ( p ) /\ ( r ) ) ) | ( X ( ( p ) /\ ( r ) ) ) | ( ( ( p ) /\ ( r ) ) /\ ( r ) ) | ( ( p ) /\ ( ( p ) /\ ( r ) ) ) | ( ( ( p ) /\ ( r ) ) \/ ( ( p ) /\ ( r ) ) ) | ( ( ( p ) /\ ( r ) ) U ( ( p ) /\ ( r ) ) ) | 
Learning Time :0
CALLs: 2    TIMEOUTs: 0    ERRORs: 0
REEVALUATIONS: 3116 OF 4095


TOTAL Learing Time :25

Solutions: 30
( ( p ) /\ ( [] ( r ) ) )
( ( r ) /\ ( <> ( p ) ) )
( X ( ( p ) /\ ( [] ( r ) ) ) )
( ( r ) /\ ( [] ( p ) ) )
( ( ( r ) /\ ( <> ( s ) ) ) \/ ( ( p ) /\ ( [] ( r ) ) ) )
( ( ( p ) /\ ( [] ( r ) ) ) \/ ( ( [] ( ! ( q ) ) ) /\ ( p ) ) )
( X ( ( r ) /\ ( <> ( p ) ) ) )
( ( ( p ) /\ ( [] ( r ) ) ) U ( ( p ) /\ ( [] ( r ) ) ) )
( [] ( ( p ) /\ ( [] ( r ) ) ) )
( <> ( ( p ) /\ ( [] ( r ) ) ) )
( ( <> ( ( r ) /\ ( <> ( s ) ) ) ) W ( ( r ) /\ ( <> ( p ) ) ) )
( ( p ) /\ ( r ) )
( <> ( ( r ) /\ ( <> ( p ) ) ) )
( [] ( ( r ) /\ ( <> ( p ) ) ) )
( ( r ) /\ ( X ( p ) ) )
( <> ( ( p ) /\ ( r ) ) )
( ( <> ( ( p ) /\ ( [] ( r ) ) ) ) U ( ( p ) /\ ( [] ( r ) ) ) )
( ( p ) /\ ( [] ( <> ( ( r ) /\ ( <> ( p ) ) ) ) ) )
( ( ( r ) /\ ( [] ( s ) ) ) W ( ( p ) /\ ( [] ( r ) ) ) )
( [] ( ( p ) /\ ( r ) ) )
( ( ( p ) /\ ( r ) ) W ( ( p ) /\ ( r ) ) )
( ( r ) /\ ( p ) )
( [] ( ( r ) /\ ( p ) ) )
( <> ( ( r ) /\ ( p ) ) )
( ( ( p ) /\ ( r ) ) /\ ( ( p ) /\ ( r ) ) )
( X ( ( p ) /\ ( r ) ) )
( ( ( p ) /\ ( r ) ) /\ ( r ) )
( ( p ) /\ ( ( p ) /\ ( r ) ) )
( ( ( p ) /\ ( r ) ) \/ ( ( p ) /\ ( r ) ) )
( ( ( p ) /\ ( r ) ) U ( ( p ) /\ ( r ) ) )

...........................................................................................................................................................................................................................................................................................................................................................
Non Equivalent Solutions: 18
( ( p ) /\ ( [] ( r ) ) )
( ( r ) /\ ( <> ( p ) ) )
( X ( ( p ) /\ ( [] ( r ) ) ) )
( ( r ) /\ ( [] ( p ) ) )
( ( ( r ) /\ ( <> ( s ) ) ) \/ ( ( p ) /\ ( [] ( r ) ) ) )
( ( ( p ) /\ ( [] ( r ) ) ) \/ ( ( [] ( ! ( q ) ) ) /\ ( p ) ) )
( X ( ( r ) /\ ( <> ( p ) ) ) )
( <> ( ( p ) /\ ( [] ( r ) ) ) )
( ( <> ( ( r ) /\ ( <> ( s ) ) ) ) W ( ( r ) /\ ( <> ( p ) ) ) )
( ( p ) /\ ( r ) )
( <> ( ( r ) /\ ( <> ( p ) ) ) )
( [] ( ( r ) /\ ( <> ( p ) ) ) )
( ( r ) /\ ( X ( p ) ) )
( <> ( ( p ) /\ ( r ) ) )
( ( p ) /\ ( [] ( <> ( ( r ) /\ ( <> ( p ) ) ) ) ) )
( ( ( r ) /\ ( [] ( s ) ) ) W ( ( p ) /\ ( [] ( r ) ) ) )
( [] ( ( p ) /\ ( r ) ) )
( X ( ( p ) /\ ( r ) ) )
..................................................................................................................................................
Weakest Solutions: 4
( ( ( r ) /\ ( <> ( s ) ) ) \/ ( ( p ) /\ ( [] ( r ) ) ) )
( ( ( p ) /\ ( [] ( r ) ) ) \/ ( ( [] ( ! ( q ) ) ) /\ ( p ) ) )
( ( <> ( ( r ) /\ ( <> ( s ) ) ) ) W ( ( r ) /\ ( <> ( p ) ) ) )
( <> ( ( r ) /\ ( <> ( p ) ) ) )
TOTAL Time :28
CALLs: 5350    TIMEOUTs: 0    ERRORs: 0
CONFIGURATION
#Population: 100    #Iterations: 50
REEVALUATIONS: 3116 OF 4095
