DOM: [[](l -> <>(! l))]
GOALS: [[]((! p) -> ((! m) && X(l))), []((p && ! l) -> m)]
Initial population size: 32
Total population size: 100

GENERATION 1/50
....m.m.<;....m.m.<;....m.m.<;....m.m.<;....m.m.<;...i.m..<;....m.m.<;...i..m.<;....m.m.<;....m.m.<;....m.m.<;...i..m.<;....m.m.<;....m.m.<;....m.m.<;...i...<;....m.m.<;....m.m.<;....m.m.<;...i.m..<;....m.m.<;...i...<;....m.m.<;...i...<;....m.m.<;....m.m.<;......m.m.<;....m.m.<;......m.m.<;......m.m.<;....m.m.<;...i..m.<;.........i...<;.....m.m.<;....m.m.<;....m.m.<;....m.m.<;....m.m.<;....m.m.<;....m.m.<;....m.m.<;
Best fitness value: ( ( ! ( p ) ) /\ ( ( m ) \/ ( [] ( false ) ) ) ) 2.0
Learning Time :1
CALLs: 259    TIMEOUTs: 0    ERRORs: 0
REEVALUATIONS: 19 OF 68

GENERATION 2/50
....m.m.<;....m.m.<;....m.m.<;....m.m.<;......m.m.<;...i..m.<;....m.m.<;....m.m.<;....m.m.<;....m.m.<;....m.m.<;.....m.m.<;....m.m.<;.....m.m.<;......m.m.<;.....m.m.<;....m.m.<;.....m.m.<;....m.m.<;....m.m.<;......m.m.<;....m.m.<;....m.m.<;....m.m.<;....m.m.<;.........m.m.<;....m.m.<;.......m.m.<;......m.m.<;....m.m.<;....m.m.<;
Best fitness value: ( [] ( ! ( p ) ) ) 2.0
Learning Time :1
CALLs: 206    TIMEOUTs: 0    ERRORs: 0
REEVALUATIONS: 64 OF 158

GENERATION 3/50
....m.m.<;....m.m.<;.....m.m.<;....m.m.<;......m.m.<;.....m.m.<;.....m.m.<;....m.m.<;....m.m.<;....m.m.<;....m.m.<;.....m.m.<;....m.m.<;...i...<;....m.m.<;......m.m.<;....m.m.<;....m.m.<;......m.m.<;...i...<;....m.m.<;....m.m.<;.........m.m.<;....m.m.<;....m.m.<;....m.m.<;.....m.m.<;....m.m.<;....m.m.<;....m.m.<;....m.m.<;....m.m.<;....m.m.<;...i..m.<;....m.m.<;
Best fitness value: ( ( ! ( p ) ) /\ ( ( m ) \/ ( [] ( false ) ) ) ) 2.0
Learning Time :1
CALLs: 226    TIMEOUTs: 0    ERRORs: 0
REEVALUATIONS: 103 OF 243

GENERATION 4/50
....m.m.<;...i..m.<;....i..m.<;....m.m.<;....m.m.<;....m.m.<;....m.m.<;....m.m.;....m.m.<;....m.m.<;...i..m.<;....m.m.<;....m.m.<;....m.m.<;....m.m.<;....m.m.<;....m.m.<;....m.m.<;....m.m.<;....m.m.<;....m.m.<;......m.m.<;....m.m.<;......m.m.<;....m.m.<;.......m.m.<;....m.m.<;....m.m.<;........m.m.<;....m.m.<;....m.m.<;....m.m.<;....m.m.<;....m.m.<;.....m.m.<;............m.m.<;....m.m.<;...i..m.<;....m.m.<;....m.m.<;...i..m.<;....m.m.<;....m.m.<;...i.m..<;...i..m.<;...i..m.<;....m.m.<;....m.m.<;
Best fitness value: ( [] ( ! ( p ) ) ) 2.0
Learning Time :1
CALLs: 309    TIMEOUTs: 0    ERRORs: 0
REEVALUATIONS: 130 OF 331

GENERATION 5/50
.......m.m.<;....m.m.<;...i..m.<;....m.m.<;.....m.m.<;....m.m.<;....m.m.<;...i..m.<;.......m.m.<;.....m.m.<;....m.m.<;....m.m.<;....m.m.<;...i..m.<;.....m.m.<;....m.m.<;....m.m.<;...i..m.<;....m.m.<;...i...<;.....m.m.<;....m.m.<;....m.m.<;....m.m.<;....m.m.<;....m.m.<;....m.m.<;....m.m.<;....m.m.<;....m.m.<;....m.m.<;.....m.m.<;....m.m.<;....m.m.<;......m.m.<;.....m.m.<;....m.m.<;....m.m.<;....m.m.<;....m.m.<;....m.m.<;......m.m.<;....m.m.<;....m.m.<;....m.m.<;...i..m.<;.....m.m.<;...i..m.<;.....m.m.<;....m.m.<;...i.m..<;...i..m.<;....m.m.<;...i.m..<;...i..m.<;
Best fitness value: ( ( ! ( p ) ) /\ ( ( m ) \/ ( [] ( false ) ) ) ) 2.0
Learning Time :1
CALLs: 348    TIMEOUTs: 0    ERRORs: 0
REEVALUATIONS: 145 OF 415

GENERATION 6/50
....m.m.<;....m.m.<;....m.m.<;...i.m..<;...i.m..<;....m.m.<;...i..m.<;....m.m.<;......m.m.<;....m.m.<;....m.m.<;....m.m.<;...i.m..<;....m.m.<;.....m.m.<;.....m.m.<;...i..m.<;....m.m.<;....m.m.<;...i..m.<;....m.m.<;....m.m.<;....m.m.<;...i..m.<;....m.m.<;....m.m.<;....m.m.<;....m.m.<;....m.m.<;....i..m.<;....m.m.<;....m.m.<;....m.m.<;....m.m.<;....m.m.<;....m.m.<;....m.m.<;....m.m.<;....m.m.<;....m.m.<;....m.m.<;......m.m.<;....m.m.<;.....i..m.<;....m.m.<;....m.m.<;.......m.m.<;....m.m.<;....i..m.<;...i..m.<;....m.m.<;....m.m.<;...i..m.<;....m.m.<;
Best fitness value: ( [] ( ! ( p ) ) ) 2.0
Learning Time :1
CALLs: 337    TIMEOUTs: 0    ERRORs: 0
REEVALUATIONS: 157 OF 491

GENERATION 7/50
....i..m.<;....m.m.<;...i..m.<;....m.m.<;...i..m.<;....m.m.;...i..m.<;.......m.m.<;....m.m.<;...i...<;....m.m.<;....m.m.<;...i.m.m.<;....m.m.<;....m.m.<;.....m.m.<;.....m.m.<;....m.m.<;.....m.m.<;....m.m.<;...i..m.<;....m.m.<;....m.m.<;....m.m.<;....i..m.<;....m.m.<;....m.m.<;....m.m.<;......m.m.<;....m.m.<;....m.m.<;....m.m.<;....m.m.<;...i..m.<;...i..m.<;....m.m.<;....m.m.<;.......m.m.<;...i..m.<;....m.m.<;...i..m.<;....m.m.<;....i..m.<;....m.m.<;...i.m.m.<;....m.m.<;....m.m.<;....m.m.<;....m.m.<;...i..m.<;
Fittest value: 2.6666666666666665 for chromosome ( [] ( ( ! ( m ) ) /\ ( ! ( l ) ) ) )
Solutions (2): ( [] ( ( ! ( m ) ) /\ ( ! ( l ) ) ) ) | ( ( ( ! ( p ) ) /\ ( ( m ) W ( [] ( false ) ) ) ) W ( [] ( ( ! ( m ) ) /\ ( p ) ) ) ) | 
Learning Time :1
CALLs: 314    TIMEOUTs: 0    ERRORs: 0
REEVALUATIONS: 182 OF 577

GENERATION 8/50
...i.m.m.<;...i..m.<;...i..m.<;....m.m.<;...i..m.<;....m.m.<;...i..m.<;....m.m.<;....m.m.<;....m.m.<;......m.m.<;....m.m.<;....m.m.<;....m.m.<;....m.m.<;....m.m.<;....m.m.<;...i..m.<;.....m.m.<;...i.m..<;....m.m.<;......m.m.<;......m.m.<;....m.m.<;...i..m.<;...i.m..<;....m.m.<;....m.m.<;...i..m.<;...i..m.<;....m.m.<;......m.m.<;....m.m.<;....m.m.<;....i...<;....m.m.<;.....m.m.<;...i..m.<;....m.m.<;....m.m.<;...i..m.<;.....m.m.<;....m.m.<;....m.m.<;...i..m.<;....m.m.<;...i.m..<;....m.m.<;....m.m.<;....m.m.<;.....m.m.<;...i.m..<;......m.m.<;....m.m.<;...i..m.<;...i..m.<;
Fittest value: 2.6666666666666665 for chromosome ( [] ( ( ! ( m ) ) /\ ( ! ( l ) ) ) )
Solutions (2): ( [] ( ( ! ( m ) ) /\ ( ! ( l ) ) ) ) | ( ( ( ! ( p ) ) /\ ( ( m ) W ( [] ( false ) ) ) ) W ( [] ( ( ! ( m ) ) /\ ( p ) ) ) ) | 
Learning Time :1
CALLs: 351    TIMEOUTs: 0    ERRORs: 0
REEVALUATIONS: 194 OF 657

GENERATION 9/50
....i.m.m.<;....m.m.<;...i..m.<;....m.m.<;....m.m.<;....m.m.<;...i..m.<;....i.m..<;.....m.m.<;.....m.m.<;....m.m.<;....m.m.<;.......m.m.<;....m.m.<;....m.m.<;...i...<;...i..m.<;...i..m.<;....m.m.<;...i..m.<;....m.m.<;...i...<;....m.m.<;......m.m.<;....m.m.<;....i.m..<;....m.m.<;....m.m.<;...i..m.<;.....m.m.<;...i..m.<;...i..m.<;...i.m..<;....m.m.<;....m.m.<;....m.m.<;....m.m.<;....m.m.<;....m.m.<;....m.m.<;....m.m.<;.....m.m.<;....m.m.<;.....m.m.<;......m.m.<;...i.m..<;.....i..m.<;....m.m.<;....m.m.<;...i..m.<;...i..m.<;....m.m.<;...i..m.<;...i..m.<;...i..m.<;
Fittest value: 2.6666666666666665 for chromosome ( [] ( ( ! ( m ) ) /\ ( ! ( l ) ) ) )
Solutions (2): ( [] ( ( ! ( m ) ) /\ ( ! ( l ) ) ) ) | ( ( ( ! ( p ) ) /\ ( ( m ) W ( [] ( false ) ) ) ) W ( [] ( ( ! ( m ) ) /\ ( p ) ) ) ) | 
Learning Time :1
CALLs: 347    TIMEOUTs: 0    ERRORs: 0
REEVALUATIONS: 204 OF 736

GENERATION 10/50
...i.m.m.<;....m.m.<;...i...<;....m.m.;...i...<;...i.m.m.<;...i.m..<;...i..m.<;....m.m.<;...i...<;....m.m.<;...i.m..<;....m.m.<;....m.m.<;...i..m.<;....m.m.<;....m.m.<;.....m.m.<;...i..m.<;....m.m.<;....m.m.<;....m.m.<;....m.m.<;....m.m.<;...i..m.<;......i.m.m.<;....m.m.<;....m.m.<;....m.m.<;.....m.m.<;....m.m.<;....m.m.<;....m.m.<;....m.m.<;....m.m.<;...i..m.<;....m.m.<;...i..m.<;...i..m.<;...i..m.<;....m.m.<;....m.m.<;.....m.m.<;....m.m.;....i.m.m.<;.....m.m.<;...i..m.<;....m.m.<;......m.m.<;...i..m.<;...i..m.<;....m.m.<;...i..m.<;...i..m.<;...i..m.<;
Fittest value: 2.6666666666666665 for chromosome ( [] ( ( ! ( m ) ) /\ ( ! ( l ) ) ) )
Solutions (4): ( [] ( ( ! ( m ) ) /\ ( ! ( l ) ) ) ) | ( ( ( ! ( p ) ) /\ ( ( m ) W ( [] ( false ) ) ) ) W ( [] ( ( ! ( m ) ) /\ ( p ) ) ) ) | ( <> ( X ( [] ( ( ! ( m ) ) /\ ( ( true ) /\ ( ! ( l ) ) ) ) ) ) ) | ( ( ( ! ( p ) ) /\ ( ( m ) \/ ( [] ( false ) ) ) ) W ( [] ( ( ! ( m ) ) /\ ( p ) ) ) ) | 
Learning Time :2
CALLs: 340    TIMEOUTs: 0    ERRORs: 0
REEVALUATIONS: 216 OF 811

GENERATION 11/50
.....m.m.<;....m.m.<;...i.m.m.<;....m.m.<;....m.m.<;....m.m.<;....m.m.<;...i...<;.....i.m.m.<;....m.m.<;...i.m..<;...i.m..<;....m.m.<;...i..m.<;....m.m.<;....m.m.<;....m.m.<;....m.m.<;...i..m.<;....m.m.<;...i..m.<;....m.m.<;....m.m.<;....m.m.<;...i..m.<;....m.m.<;......m.m.<;....m.m.<;....m.m.<;...i...<;....m.m.<;...i..m.<;...i..m.<;...i..m.<;......m.m.<;....m.m.<;....m.m.<;....m.m.<;....i..m.<;....m.m.<;....m.m.<;...i..m.<;....m.m.<;....m.m.<;....m.m.<;....m.m.<;...i...<;....m.m.<;...i...<;.....m.m.<;...i.m.m.<;...i..m.<;...i.m.m.<;....m.m.<;...i..m.<;....m.m.<;....m.m.<;....m.m.<;...i..m.<;
Fittest value: 2.7 for chromosome ( [] ( [] ( ( ! ( m ) ) /\ ( ! ( l ) ) ) ) )
Solutions (7): ( [] ( ( ! ( m ) ) /\ ( ! ( l ) ) ) ) | ( ( ( ! ( p ) ) /\ ( ( m ) W ( [] ( false ) ) ) ) W ( [] ( ( ! ( m ) ) /\ ( p ) ) ) ) | ( <> ( X ( [] ( ( ! ( m ) ) /\ ( ( true ) /\ ( ! ( l ) ) ) ) ) ) ) | ( ( ( ! ( p ) ) /\ ( ( m ) \/ ( [] ( false ) ) ) ) W ( [] ( ( ! ( m ) ) /\ ( p ) ) ) ) | ( [] ( [] ( ( ! ( m ) ) /\ ( ! ( l ) ) ) ) ) | ( ( [] ( ( ! ( m ) ) /\ ( ! ( l ) ) ) ) W ( [] ( ! ( p ) ) ) ) | ( ( ( ! ( p ) ) /\ ( m ) ) W ( [] ( ( ! ( m ) ) /\ ( p ) ) ) ) | 
Learning Time :2
CALLs: 363    TIMEOUTs: 0    ERRORs: 0
REEVALUATIONS: 227 OF 888

GENERATION 12/50
......m.m.<;....m.m.<;....m.m.<;....m.m.<;....m.m.<;.....m.m.<;...i...<;.....i...<;....m.m.<;...i.m.m.<;....m.m.<;.....m.m.<;....m.m.<;....m.m.<;.....i.m.m.<;...i.m..<;...i.m.m.<;...i.m..<;......m.m.<;....m.m.<;......m.m.<;...i..m.<;...i..m.<;....m.m.<;....m.m.<;....m.m.<;....m.m.<;...i.m..<;....m.m.<;....m.m.<;...i..m.<;...i..m.<;....m.m.<;....i..m.<;....m.m.<;....m.m.<;....m.m.<;....m.m.<;....m.m.<;....m.m.<;....m.m.<;....m.m.<;....m.m.<;...i..m.<;.....m.m.<;...i...<;.....m.m.<;....i..m.<;...i.m.m.<;....m.m.<;...i.m.m.<;....m.m.<;
Fittest value: 2.7 for chromosome ( X ( [] ( ( ! ( m ) ) /\ ( ! ( l ) ) ) ) )
Solutions (10): ( [] ( ( ! ( m ) ) /\ ( ! ( l ) ) ) ) | ( ( ( ! ( p ) ) /\ ( ( m ) W ( [] ( false ) ) ) ) W ( [] ( ( ! ( m ) ) /\ ( p ) ) ) ) | ( <> ( X ( [] ( ( ! ( m ) ) /\ ( ( true ) /\ ( ! ( l ) ) ) ) ) ) ) | ( ( ( ! ( p ) ) /\ ( ( m ) \/ ( [] ( false ) ) ) ) W ( [] ( ( ! ( m ) ) /\ ( p ) ) ) ) | ( [] ( [] ( ( ! ( m ) ) /\ ( ! ( l ) ) ) ) ) | ( ( [] ( ( ! ( m ) ) /\ ( ! ( l ) ) ) ) W ( [] ( ! ( p ) ) ) ) | ( ( ( ! ( p ) ) /\ ( m ) ) W ( [] ( ( ! ( m ) ) /\ ( p ) ) ) ) | ( X ( [] ( ( ! ( m ) ) /\ ( ! ( l ) ) ) ) ) | ( <> ( [] ( ( ! ( m ) ) /\ ( ! ( l ) ) ) ) ) | ( ( ( ! ( p ) ) /\ ( ( l ) W ( <> ( true ) ) ) ) W ( [] ( ( ! ( m ) ) /\ ( p ) ) ) ) | 
Learning Time :1
CALLs: 328    TIMEOUTs: 0    ERRORs: 0
REEVALUATIONS: 240 OF 965

GENERATION 13/50
....m.m.<;.....i...<;....m.m.<;....m.m.<;...i...<;....m.m.<;....m.m.<;....m.m.<;.....m.m.<;....m.m.<;....m.m.<;....m.m.<;....m.m.<;......i...<;.....m.m.<;....m.m.<;....m.m.<;....m.m.<;....m.m.<;....m.m.<;....m.m.<;.....m.m.<;....m.m.<;....m.m.<;....m.m.<;....m.m.<;...i.m.m.<;....m.m.<;....m.m.<;....m.m.<;....m.m.<;....m.m.<;....m.m.<;....m.m.<;....m.m.<;....i..m.<;....m.m.<;...i..m.<;.....m.m.<;....m.m.<;....m.m.<;....m.m.<;....i..m.<;...i..m.<;...i...<;......m.m.<;.....m.m.<;....m.m.<;...i..m.<;...i.m.m.<;
Fittest value: 2.7 for chromosome ( [] ( [] ( ( ! ( m ) ) /\ ( ! ( l ) ) ) ) )
Solutions (11): ( [] ( ( ! ( m ) ) /\ ( ! ( l ) ) ) ) | ( ( ( ! ( p ) ) /\ ( ( m ) W ( [] ( false ) ) ) ) W ( [] ( ( ! ( m ) ) /\ ( p ) ) ) ) | ( <> ( X ( [] ( ( ! ( m ) ) /\ ( ( true ) /\ ( ! ( l ) ) ) ) ) ) ) | ( ( ( ! ( p ) ) /\ ( ( m ) \/ ( [] ( false ) ) ) ) W ( [] ( ( ! ( m ) ) /\ ( p ) ) ) ) | ( [] ( [] ( ( ! ( m ) ) /\ ( ! ( l ) ) ) ) ) | ( ( [] ( ( ! ( m ) ) /\ ( ! ( l ) ) ) ) W ( [] ( ! ( p ) ) ) ) | ( ( ( ! ( p ) ) /\ ( m ) ) W ( [] ( ( ! ( m ) ) /\ ( p ) ) ) ) | ( X ( [] ( ( ! ( m ) ) /\ ( ! ( l ) ) ) ) ) | ( <> ( [] ( ( ! ( m ) ) /\ ( ! ( l ) ) ) ) ) | ( ( ( ! ( p ) ) /\ ( ( l ) W ( <> ( true ) ) ) ) W ( [] ( ( ! ( m ) ) /\ ( p ) ) ) ) | ( [] ( X ( [] ( ( ! ( m ) ) /\ ( ! ( l ) ) ) ) ) ) | 
Learning Time :1
CALLs: 314    TIMEOUTs: 0    ERRORs: 0
REEVALUATIONS: 264 OF 1050

GENERATION 14/50
.....m.m.<;....m.m.<;....m.m.<;....m.m.<;....m.m.<;...i.m.m.<;.......m.m.<;...i...<;....m.m.<;....m.m.<;....m.m.<;.....m.m.<;....m.m.<;....m.m.;....m.m.<;....m.m.<;....m.m.<;...i...<;....m.m.<;...i...<;....m.m.<;....m.m.<;...i...<;.....m.m.<;....m.m.<;...i...<;....m.m.<;....m.m.<;.....i..m.<;...i.m..<;...i.m.m.<;...i..m.<;...i.m..<;...i.m..<;....m.m.<;......m.m.<;....m.m.<;....m.m.<;....m.m.<;...i.m.m.<;...i...<;...i.m.m.<;...i.m.m.<;...i.m.m.<;
Fittest value: 2.7 for chromosome ( X ( [] ( ( ! ( m ) ) /\ ( ! ( l ) ) ) ) )
Solutions (11): ( [] ( ( ! ( m ) ) /\ ( ! ( l ) ) ) ) | ( ( ( ! ( p ) ) /\ ( ( m ) W ( [] ( false ) ) ) ) W ( [] ( ( ! ( m ) ) /\ ( p ) ) ) ) | ( <> ( X ( [] ( ( ! ( m ) ) /\ ( ( true ) /\ ( ! ( l ) ) ) ) ) ) ) | ( ( ( ! ( p ) ) /\ ( ( m ) \/ ( [] ( false ) ) ) ) W ( [] ( ( ! ( m ) ) /\ ( p ) ) ) ) | ( [] ( [] ( ( ! ( m ) ) /\ ( ! ( l ) ) ) ) ) | ( ( [] ( ( ! ( m ) ) /\ ( ! ( l ) ) ) ) W ( [] ( ! ( p ) ) ) ) | ( ( ( ! ( p ) ) /\ ( m ) ) W ( [] ( ( ! ( m ) ) /\ ( p ) ) ) ) | ( X ( [] ( ( ! ( m ) ) /\ ( ! ( l ) ) ) ) ) | ( <> ( [] ( ( ! ( m ) ) /\ ( ! ( l ) ) ) ) ) | ( ( ( ! ( p ) ) /\ ( ( l ) W ( <> ( true ) ) ) ) W ( [] ( ( ! ( m ) ) /\ ( p ) ) ) ) | ( [] ( X ( [] ( ( ! ( m ) ) /\ ( ! ( l ) ) ) ) ) ) | 
Learning Time :1
CALLs: 274    TIMEOUTs: 0    ERRORs: 0
REEVALUATIONS: 296 OF 1133

GENERATION 15/50
....m.m.<;....m.m.<;.....m.m.<;....m.m.<;....m.m.<;....m.m.<;....m.m.<;.....m.m.<;.....m.m.<;....m.m.<;....m.m.<;...i.m.m.<;......m.m.<;....m.m.<;....m.m.<;....m.m.<;....m.m.<;....m.m.<;.....m.m.<;....m.m.<;....m.m.<;.....m.m.<;...i...<;....m.m.<;.....m.m.<;....m.m.<;......m.m.<;....i.m..<;....m.m.<;.....m.m.<;....m.m.<;....m.m.<;....m.m.<;.....m.m.<;....m.m.<;....m.m.<;....m.m.<;...i...<;....m.m.<;....m.m.<;...i.m.m.<;...i.m.m.<;....m.m.<;....m.m.<;....m.m.<;
Fittest value: 2.7 for chromosome ( [] ( [] ( ( ! ( m ) ) /\ ( ! ( l ) ) ) ) )
Solutions (13): ( [] ( ( ! ( m ) ) /\ ( ! ( l ) ) ) ) | ( ( ( ! ( p ) ) /\ ( ( m ) W ( [] ( false ) ) ) ) W ( [] ( ( ! ( m ) ) /\ ( p ) ) ) ) | ( <> ( X ( [] ( ( ! ( m ) ) /\ ( ( true ) /\ ( ! ( l ) ) ) ) ) ) ) | ( ( ( ! ( p ) ) /\ ( ( m ) \/ ( [] ( false ) ) ) ) W ( [] ( ( ! ( m ) ) /\ ( p ) ) ) ) | ( [] ( [] ( ( ! ( m ) ) /\ ( ! ( l ) ) ) ) ) | ( ( [] ( ( ! ( m ) ) /\ ( ! ( l ) ) ) ) W ( [] ( ! ( p ) ) ) ) | ( ( ( ! ( p ) ) /\ ( m ) ) W ( [] ( ( ! ( m ) ) /\ ( p ) ) ) ) | ( X ( [] ( ( ! ( m ) ) /\ ( ! ( l ) ) ) ) ) | ( <> ( [] ( ( ! ( m ) ) /\ ( ! ( l ) ) ) ) ) | ( ( ( ! ( p ) ) /\ ( ( l ) W ( <> ( true ) ) ) ) W ( [] ( ( ! ( m ) ) /\ ( p ) ) ) ) | ( [] ( X ( [] ( ( ! ( m ) ) /\ ( ! ( l ) ) ) ) ) ) | ( ( [] ( ( ! ( m ) ) /\ ( ! ( l ) ) ) ) /\ ( [] ( ( ! ( m ) ) /\ ( ! ( l ) ) ) ) ) | ( [] ( [] ( [] ( ( ! ( m ) ) /\ ( ! ( l ) ) ) ) ) ) | 
Learning Time :1
CALLs: 283    TIMEOUTs: 0    ERRORs: 0
REEVALUATIONS: 326 OF 1219

GENERATION 16/50
....m.m.<;....m.m.<;.....m.m.<;.....m.m.<;....m.m.<;....m.m.<;.....m.m.<;....m.m.<;....m.m.<;....m.m.<;......m.m.<;......m.m.<;......m.m.<;...i.m..<;....m.m.<;......m.m.<;....m.m.<;....m.m.<;....m.m.<;...i.m..<;...i...<;...i...<;.....i.m.m.<;......i...<;.....m.m.<;.......i...<;....m.m.<;....i.m..<;....m.m.<;....i.m.m.<;...i.m.m.<;...i.m.m.<;...i.m.m.<;
Fittest value: 2.7 for chromosome ( X ( [] ( ( ! ( m ) ) /\ ( ! ( l ) ) ) ) )
Solutions (17): ( [] ( ( ! ( m ) ) /\ ( ! ( l ) ) ) ) | ( ( ( ! ( p ) ) /\ ( ( m ) W ( [] ( false ) ) ) ) W ( [] ( ( ! ( m ) ) /\ ( p ) ) ) ) | ( <> ( X ( [] ( ( ! ( m ) ) /\ ( ( true ) /\ ( ! ( l ) ) ) ) ) ) ) | ( ( ( ! ( p ) ) /\ ( ( m ) \/ ( [] ( false ) ) ) ) W ( [] ( ( ! ( m ) ) /\ ( p ) ) ) ) | ( [] ( [] ( ( ! ( m ) ) /\ ( ! ( l ) ) ) ) ) | ( ( [] ( ( ! ( m ) ) /\ ( ! ( l ) ) ) ) W ( [] ( ! ( p ) ) ) ) | ( ( ( ! ( p ) ) /\ ( m ) ) W ( [] ( ( ! ( m ) ) /\ ( p ) ) ) ) | ( X ( [] ( ( ! ( m ) ) /\ ( ! ( l ) ) ) ) ) | ( <> ( [] ( ( ! ( m ) ) /\ ( ! ( l ) ) ) ) ) | ( ( ( ! ( p ) ) /\ ( ( l ) W ( <> ( true ) ) ) ) W ( [] ( ( ! ( m ) ) /\ ( p ) ) ) ) | ( [] ( X ( [] ( ( ! ( m ) ) /\ ( ! ( l ) ) ) ) ) ) | ( ( [] ( ( ! ( m ) ) /\ ( ! ( l ) ) ) ) /\ ( [] ( ( ! ( m ) ) /\ ( ! ( l ) ) ) ) ) | ( [] ( [] ( [] ( ( ! ( m ) ) /\ ( ! ( l ) ) ) ) ) ) | ( ( [] ( ( ! ( m ) ) /\ ( ! ( l ) ) ) ) \/ ( [] ( ( ! ( m ) ) /\ ( ! ( l ) ) ) ) ) | ( ( [] ( [] ( ( ! ( m ) ) /\ ( ! ( l ) ) ) ) ) \/ ( [] ( ( ! ( m ) ) /\ ( ! ( l ) ) ) ) ) | ( X ( ( [] ( ( ! ( m ) ) /\ ( ! ( l ) ) ) ) /\ ( [] ( ( ! ( m ) ) /\ ( ! ( l ) ) ) ) ) ) | ( ( [] ( [] ( ( ! ( m ) ) /\ ( ! ( l ) ) ) ) ) W ( [] ( ( ! ( m ) ) /\ ( ! ( l ) ) ) ) ) | 
Learning Time :1
CALLs: 221    TIMEOUTs: 0    ERRORs: 0
REEVALUATIONS: 364 OF 1309

GENERATION 17/50
...i...<;....m.m.<;...i...<;....m.m.<;....m.m.<;....m.m.<;.....m.m.<;....m.m.<;...i...<;....m.m.;......m.m.<;.....i...<;...i.m.m.<;......m.m.<;....m.m.<;....m.m.<;......m.m.<;....m.m.<;....m.m.<;...i.m.m.<;....m.m.<;....m.m.<;.....i...<;....i...<;....m.m.<;....m.m.<;...i.m.m.<;....m.m.<;....m.m.<;....m.m.<;....m.m.<;....m.m.<;....m.m.<;...i.m.m.<;...i.m.m.<;...i.m.m.<;...i.m.m.<;
Fittest value: 2.7 for chromosome ( [] ( [] ( ( ! ( m ) ) /\ ( ! ( l ) ) ) ) )
Solutions (18): ( [] ( ( ! ( m ) ) /\ ( ! ( l ) ) ) ) | ( ( ( ! ( p ) ) /\ ( ( m ) W ( [] ( false ) ) ) ) W ( [] ( ( ! ( m ) ) /\ ( p ) ) ) ) | ( <> ( X ( [] ( ( ! ( m ) ) /\ ( ( true ) /\ ( ! ( l ) ) ) ) ) ) ) | ( ( ( ! ( p ) ) /\ ( ( m ) \/ ( [] ( false ) ) ) ) W ( [] ( ( ! ( m ) ) /\ ( p ) ) ) ) | ( [] ( [] ( ( ! ( m ) ) /\ ( ! ( l ) ) ) ) ) | ( ( [] ( ( ! ( m ) ) /\ ( ! ( l ) ) ) ) W ( [] ( ! ( p ) ) ) ) | ( ( ( ! ( p ) ) /\ ( m ) ) W ( [] ( ( ! ( m ) ) /\ ( p ) ) ) ) | ( X ( [] ( ( ! ( m ) ) /\ ( ! ( l ) ) ) ) ) | ( <> ( [] ( ( ! ( m ) ) /\ ( ! ( l ) ) ) ) ) | ( ( ( ! ( p ) ) /\ ( ( l ) W ( <> ( true ) ) ) ) W ( [] ( ( ! ( m ) ) /\ ( p ) ) ) ) | ( [] ( X ( [] ( ( ! ( m ) ) /\ ( ! ( l ) ) ) ) ) ) | ( ( [] ( ( ! ( m ) ) /\ ( ! ( l ) ) ) ) /\ ( [] ( ( ! ( m ) ) /\ ( ! ( l ) ) ) ) ) | ( [] ( [] ( [] ( ( ! ( m ) ) /\ ( ! ( l ) ) ) ) ) ) | ( ( [] ( ( ! ( m ) ) /\ ( ! ( l ) ) ) ) \/ ( [] ( ( ! ( m ) ) /\ ( ! ( l ) ) ) ) ) | ( ( [] ( [] ( ( ! ( m ) ) /\ ( ! ( l ) ) ) ) ) \/ ( [] ( ( ! ( m ) ) /\ ( ! ( l ) ) ) ) ) | ( X ( ( [] ( ( ! ( m ) ) /\ ( ! ( l ) ) ) ) /\ ( [] ( ( ! ( m ) ) /\ ( ! ( l ) ) ) ) ) ) | ( ( [] ( [] ( ( ! ( m ) ) /\ ( ! ( l ) ) ) ) ) W ( [] ( ( ! ( m ) ) /\ ( ! ( l ) ) ) ) ) | ( [] ( X ( ( ! ( m ) ) /\ ( ! ( l ) ) ) ) ) | 
Learning Time :1
CALLs: 234    TIMEOUTs: 0    ERRORs: 0
REEVALUATIONS: 400 OF 1390

GENERATION 18/50
.....m.m.<;...i.m..<;....m.m.<;...i...<;....m.m.<;......m.m.<;....m.m.<;.....i...<;......m.m.<;...i...<;....m.m.<;....m.m.<;....m.m.<;.....m.m.<;....m.m.<;....m.m.<;....m.m.<;....m.m.<;....m.m.<;....m.m.<;.....m.m.<;.......m.m.<;.....m.m.<;....m.m.<;....m.m.<;....m.m.<;....m.m.<;....m.m.<;....m.m.<;....m.m.<;...i.m.m.<;...i.m.m.<;
Fittest value: 2.7 for chromosome ( X ( [] ( ( ! ( m ) ) /\ ( ! ( l ) ) ) ) )
Solutions (18): ( [] ( ( ! ( m ) ) /\ ( ! ( l ) ) ) ) | ( ( ( ! ( p ) ) /\ ( ( m ) W ( [] ( false ) ) ) ) W ( [] ( ( ! ( m ) ) /\ ( p ) ) ) ) | ( <> ( X ( [] ( ( ! ( m ) ) /\ ( ( true ) /\ ( ! ( l ) ) ) ) ) ) ) | ( ( ( ! ( p ) ) /\ ( ( m ) \/ ( [] ( false ) ) ) ) W ( [] ( ( ! ( m ) ) /\ ( p ) ) ) ) | ( [] ( [] ( ( ! ( m ) ) /\ ( ! ( l ) ) ) ) ) | ( ( [] ( ( ! ( m ) ) /\ ( ! ( l ) ) ) ) W ( [] ( ! ( p ) ) ) ) | ( ( ( ! ( p ) ) /\ ( m ) ) W ( [] ( ( ! ( m ) ) /\ ( p ) ) ) ) | ( X ( [] ( ( ! ( m ) ) /\ ( ! ( l ) ) ) ) ) | ( <> ( [] ( ( ! ( m ) ) /\ ( ! ( l ) ) ) ) ) | ( ( ( ! ( p ) ) /\ ( ( l ) W ( <> ( true ) ) ) ) W ( [] ( ( ! ( m ) ) /\ ( p ) ) ) ) | ( [] ( X ( [] ( ( ! ( m ) ) /\ ( ! ( l ) ) ) ) ) ) | ( ( [] ( ( ! ( m ) ) /\ ( ! ( l ) ) ) ) /\ ( [] ( ( ! ( m ) ) /\ ( ! ( l ) ) ) ) ) | ( [] ( [] ( [] ( ( ! ( m ) ) /\ ( ! ( l ) ) ) ) ) ) | ( ( [] ( ( ! ( m ) ) /\ ( ! ( l ) ) ) ) \/ ( [] ( ( ! ( m ) ) /\ ( ! ( l ) ) ) ) ) | ( ( [] ( [] ( ( ! ( m ) ) /\ ( ! ( l ) ) ) ) ) \/ ( [] ( ( ! ( m ) ) /\ ( ! ( l ) ) ) ) ) | ( X ( ( [] ( ( ! ( m ) ) /\ ( ! ( l ) ) ) ) /\ ( [] ( ( ! ( m ) ) /\ ( ! ( l ) ) ) ) ) ) | ( ( [] ( [] ( ( ! ( m ) ) /\ ( ! ( l ) ) ) ) ) W ( [] ( ( ! ( m ) ) /\ ( ! ( l ) ) ) ) ) | ( [] ( X ( ( ! ( m ) ) /\ ( ! ( l ) ) ) ) ) | 
Learning Time :1
CALLs: 205    TIMEOUTs: 0    ERRORs: 0
REEVALUATIONS: 438 OF 1471

GENERATION 19/50
...i...<;....m.m.<;.....m.m.<;....m.m.<;....m.m.<;....m.m.<;....m.m.<;....m.m.<;....m.m.<;.......m.m.<;....m.m.<;........m.m.<;........m.m.<;....m.m.<;....m.m.<;......m.m.<;....m.m.<;....m.m.<;......m.m.<;....m.m.<;.....m.m.<;....m.m.<;...i.m.m.<;....m.m.<;....m.m.<;...i.m.m.<;
Fittest value: 2.75 for chromosome ( [] ( ( ! ( m ) ) /\ ( ! ( l ) ) ) )
Solutions (18): ( [] ( ( ! ( m ) ) /\ ( ! ( l ) ) ) ) | ( ( ( ! ( p ) ) /\ ( ( m ) W ( [] ( false ) ) ) ) W ( [] ( ( ! ( m ) ) /\ ( p ) ) ) ) | ( <> ( X ( [] ( ( ! ( m ) ) /\ ( ( true ) /\ ( ! ( l ) ) ) ) ) ) ) | ( ( ( ! ( p ) ) /\ ( ( m ) \/ ( [] ( false ) ) ) ) W ( [] ( ( ! ( m ) ) /\ ( p ) ) ) ) | ( [] ( [] ( ( ! ( m ) ) /\ ( ! ( l ) ) ) ) ) | ( ( [] ( ( ! ( m ) ) /\ ( ! ( l ) ) ) ) W ( [] ( ! ( p ) ) ) ) | ( ( ( ! ( p ) ) /\ ( m ) ) W ( [] ( ( ! ( m ) ) /\ ( p ) ) ) ) | ( X ( [] ( ( ! ( m ) ) /\ ( ! ( l ) ) ) ) ) | ( <> ( [] ( ( ! ( m ) ) /\ ( ! ( l ) ) ) ) ) | ( ( ( ! ( p ) ) /\ ( ( l ) W ( <> ( true ) ) ) ) W ( [] ( ( ! ( m ) ) /\ ( p ) ) ) ) | ( [] ( X ( [] ( ( ! ( m ) ) /\ ( ! ( l ) ) ) ) ) ) | ( ( [] ( ( ! ( m ) ) /\ ( ! ( l ) ) ) ) /\ ( [] ( ( ! ( m ) ) /\ ( ! ( l ) ) ) ) ) | ( [] ( [] ( [] ( ( ! ( m ) ) /\ ( ! ( l ) ) ) ) ) ) | ( ( [] ( ( ! ( m ) ) /\ ( ! ( l ) ) ) ) \/ ( [] ( ( ! ( m ) ) /\ ( ! ( l ) ) ) ) ) | ( ( [] ( [] ( ( ! ( m ) ) /\ ( ! ( l ) ) ) ) ) \/ ( [] ( ( ! ( m ) ) /\ ( ! ( l ) ) ) ) ) | ( X ( ( [] ( ( ! ( m ) ) /\ ( ! ( l ) ) ) ) /\ ( [] ( ( ! ( m ) ) /\ ( ! ( l ) ) ) ) ) ) | ( ( [] ( [] ( ( ! ( m ) ) /\ ( ! ( l ) ) ) ) ) W ( [] ( ( ! ( m ) ) /\ ( ! ( l ) ) ) ) ) | ( [] ( X ( ( ! ( m ) ) /\ ( ! ( l ) ) ) ) ) | 
Learning Time :0
CALLs: 173    TIMEOUTs: 0    ERRORs: 0
REEVALUATIONS: 482 OF 1551

GENERATION 20/50
.....m.m.<;....i...<;......m.m.<;....m.m.<;....m.m.<;......m.m.<;....m.m.<;.....m.m.<;.....m.m.<;....m.m.<;....m.m.<;.......m.m.<;....m.m.<;....m.m.<;....m.m.<;....m.m.<;....m.m.<;.....m.m.<;...i.m.m.<;...i.m.m.<;...i.m.m.<;
Fittest value: 2.75 for chromosome ( [] ( ( ! ( m ) ) /\ ( ! ( l ) ) ) )
Solutions (18): ( [] ( ( ! ( m ) ) /\ ( ! ( l ) ) ) ) | ( ( ( ! ( p ) ) /\ ( ( m ) W ( [] ( false ) ) ) ) W ( [] ( ( ! ( m ) ) /\ ( p ) ) ) ) | ( <> ( X ( [] ( ( ! ( m ) ) /\ ( ( true ) /\ ( ! ( l ) ) ) ) ) ) ) | ( ( ( ! ( p ) ) /\ ( ( m ) \/ ( [] ( false ) ) ) ) W ( [] ( ( ! ( m ) ) /\ ( p ) ) ) ) | ( [] ( [] ( ( ! ( m ) ) /\ ( ! ( l ) ) ) ) ) | ( ( [] ( ( ! ( m ) ) /\ ( ! ( l ) ) ) ) W ( [] ( ! ( p ) ) ) ) | ( ( ( ! ( p ) ) /\ ( m ) ) W ( [] ( ( ! ( m ) ) /\ ( p ) ) ) ) | ( X ( [] ( ( ! ( m ) ) /\ ( ! ( l ) ) ) ) ) | ( <> ( [] ( ( ! ( m ) ) /\ ( ! ( l ) ) ) ) ) | ( ( ( ! ( p ) ) /\ ( ( l ) W ( <> ( true ) ) ) ) W ( [] ( ( ! ( m ) ) /\ ( p ) ) ) ) | ( [] ( X ( [] ( ( ! ( m ) ) /\ ( ! ( l ) ) ) ) ) ) | ( ( [] ( ( ! ( m ) ) /\ ( ! ( l ) ) ) ) /\ ( [] ( ( ! ( m ) ) /\ ( ! ( l ) ) ) ) ) | ( [] ( [] ( [] ( ( ! ( m ) ) /\ ( ! ( l ) ) ) ) ) ) | ( ( [] ( ( ! ( m ) ) /\ ( ! ( l ) ) ) ) \/ ( [] ( ( ! ( m ) ) /\ ( ! ( l ) ) ) ) ) | ( ( [] ( [] ( ( ! ( m ) ) /\ ( ! ( l ) ) ) ) ) \/ ( [] ( ( ! ( m ) ) /\ ( ! ( l ) ) ) ) ) | ( X ( ( [] ( ( ! ( m ) ) /\ ( ! ( l ) ) ) ) /\ ( [] ( ( ! ( m ) ) /\ ( ! ( l ) ) ) ) ) ) | ( ( [] ( [] ( ( ! ( m ) ) /\ ( ! ( l ) ) ) ) ) W ( [] ( ( ! ( m ) ) /\ ( ! ( l ) ) ) ) ) | ( [] ( X ( ( ! ( m ) ) /\ ( ! ( l ) ) ) ) ) | 
Learning Time :0
CALLs: 138    TIMEOUTs: 0    ERRORs: 0
REEVALUATIONS: 536 OF 1635

GENERATION 21/50
....m.m.<;....m.m.<;...........m.m.;.....m.m.<;....m.m.<;....m.m.<;......m.m.<;......m.m.<;....m.m.<;......m.m.<;.....m.m.<;....m.m.<;.....m.m.<;....m.m.<;....m.m.<;.....m.m.<;....m.m.<;.....m.m.<;...i...<;....m.m.<;....m.m.<;....m.m.<;....m.m.<;....m.m.<;...i.m.m.<;...i.m.m.<;
Fittest value: 2.75 for chromosome ( [] ( ( ! ( m ) ) /\ ( ! ( l ) ) ) )
Solutions (18): ( [] ( ( ! ( m ) ) /\ ( ! ( l ) ) ) ) | ( ( ( ! ( p ) ) /\ ( ( m ) W ( [] ( false ) ) ) ) W ( [] ( ( ! ( m ) ) /\ ( p ) ) ) ) | ( <> ( X ( [] ( ( ! ( m ) ) /\ ( ( true ) /\ ( ! ( l ) ) ) ) ) ) ) | ( ( ( ! ( p ) ) /\ ( ( m ) \/ ( [] ( false ) ) ) ) W ( [] ( ( ! ( m ) ) /\ ( p ) ) ) ) | ( [] ( [] ( ( ! ( m ) ) /\ ( ! ( l ) ) ) ) ) | ( ( [] ( ( ! ( m ) ) /\ ( ! ( l ) ) ) ) W ( [] ( ! ( p ) ) ) ) | ( ( ( ! ( p ) ) /\ ( m ) ) W ( [] ( ( ! ( m ) ) /\ ( p ) ) ) ) | ( X ( [] ( ( ! ( m ) ) /\ ( ! ( l ) ) ) ) ) | ( <> ( [] ( ( ! ( m ) ) /\ ( ! ( l ) ) ) ) ) | ( ( ( ! ( p ) ) /\ ( ( l ) W ( <> ( true ) ) ) ) W ( [] ( ( ! ( m ) ) /\ ( p ) ) ) ) | ( [] ( X ( [] ( ( ! ( m ) ) /\ ( ! ( l ) ) ) ) ) ) | ( ( [] ( ( ! ( m ) ) /\ ( ! ( l ) ) ) ) /\ ( [] ( ( ! ( m ) ) /\ ( ! ( l ) ) ) ) ) | ( [] ( [] ( [] ( ( ! ( m ) ) /\ ( ! ( l ) ) ) ) ) ) | ( ( [] ( ( ! ( m ) ) /\ ( ! ( l ) ) ) ) \/ ( [] ( ( ! ( m ) ) /\ ( ! ( l ) ) ) ) ) | ( ( [] ( [] ( ( ! ( m ) ) /\ ( ! ( l ) ) ) ) ) \/ ( [] ( ( ! ( m ) ) /\ ( ! ( l ) ) ) ) ) | ( X ( ( [] ( ( ! ( m ) ) /\ ( ! ( l ) ) ) ) /\ ( [] ( ( ! ( m ) ) /\ ( ! ( l ) ) ) ) ) ) | ( ( [] ( [] ( ( ! ( m ) ) /\ ( ! ( l ) ) ) ) ) W ( [] ( ( ! ( m ) ) /\ ( ! ( l ) ) ) ) ) | ( [] ( X ( ( ! ( m ) ) /\ ( ! ( l ) ) ) ) ) | 
Learning Time :0
CALLs: 174    TIMEOUTs: 0    ERRORs: 0
REEVALUATIONS: 578 OF 1716

GENERATION 22/50
......m.m.<;....m.m.;....m.m.<;......m.m.<;....m.m.<;......m.m.<;....m.m.<;....m.m.<;....m.m.<;....m.m.<;....m.m.<;....m.m.<;....m.m.<;....m.m.<;....m.m.<;....m.m.<;....m.m.<;....m.m.<;....m.m.<;....m.m.<;....m.m.<;....m.m.<;....m.m.<;......m.m.<;....m.m.<;....m.m.<;...i...<;.......m.m.<;...i.m.m.<;...i.m.m.<;...i.m.m.<;
Fittest value: 2.75 for chromosome ( [] ( ( ! ( m ) ) /\ ( ! ( l ) ) ) )
Solutions (19): ( [] ( ( ! ( m ) ) /\ ( ! ( l ) ) ) ) | ( ( ( ! ( p ) ) /\ ( ( m ) W ( [] ( false ) ) ) ) W ( [] ( ( ! ( m ) ) /\ ( p ) ) ) ) | ( <> ( X ( [] ( ( ! ( m ) ) /\ ( ( true ) /\ ( ! ( l ) ) ) ) ) ) ) | ( ( ( ! ( p ) ) /\ ( ( m ) \/ ( [] ( false ) ) ) ) W ( [] ( ( ! ( m ) ) /\ ( p ) ) ) ) | ( [] ( [] ( ( ! ( m ) ) /\ ( ! ( l ) ) ) ) ) | ( ( [] ( ( ! ( m ) ) /\ ( ! ( l ) ) ) ) W ( [] ( ! ( p ) ) ) ) | ( ( ( ! ( p ) ) /\ ( m ) ) W ( [] ( ( ! ( m ) ) /\ ( p ) ) ) ) | ( X ( [] ( ( ! ( m ) ) /\ ( ! ( l ) ) ) ) ) | ( <> ( [] ( ( ! ( m ) ) /\ ( ! ( l ) ) ) ) ) | ( ( ( ! ( p ) ) /\ ( ( l ) W ( <> ( true ) ) ) ) W ( [] ( ( ! ( m ) ) /\ ( p ) ) ) ) | ( [] ( X ( [] ( ( ! ( m ) ) /\ ( ! ( l ) ) ) ) ) ) | ( ( [] ( ( ! ( m ) ) /\ ( ! ( l ) ) ) ) /\ ( [] ( ( ! ( m ) ) /\ ( ! ( l ) ) ) ) ) | ( [] ( [] ( [] ( ( ! ( m ) ) /\ ( ! ( l ) ) ) ) ) ) | ( ( [] ( ( ! ( m ) ) /\ ( ! ( l ) ) ) ) \/ ( [] ( ( ! ( m ) ) /\ ( ! ( l ) ) ) ) ) | ( ( [] ( [] ( ( ! ( m ) ) /\ ( ! ( l ) ) ) ) ) \/ ( [] ( ( ! ( m ) ) /\ ( ! ( l ) ) ) ) ) | ( X ( ( [] ( ( ! ( m ) ) /\ ( ! ( l ) ) ) ) /\ ( [] ( ( ! ( m ) ) /\ ( ! ( l ) ) ) ) ) ) | ( ( [] ( [] ( ( ! ( m ) ) /\ ( ! ( l ) ) ) ) ) W ( [] ( ( ! ( m ) ) /\ ( ! ( l ) ) ) ) ) | ( [] ( X ( ( ! ( m ) ) /\ ( ! ( l ) ) ) ) ) | ( ( [] ( ( ! ( m ) ) /\ ( ! ( l ) ) ) ) U ( [] ( ( ! ( m ) ) /\ ( ! ( l ) ) ) ) ) | 
Learning Time :1
CALLs: 197    TIMEOUTs: 0    ERRORs: 0
REEVALUATIONS: 623 OF 1799

GENERATION 23/50
....m.m.<;....m.m.<;.......m.m.<;....m.m.;....m.m.<;....m.m.<;....m.m.;....m.m.<;....m.m.<;....m.m.<;......m.m.<;....m.m.<;.......m.m.<;.......m.m.<;....m.m.<;...i...<;....m.m.<;....m.m.<;....m.m.<;....m.m.<;.....m.m.<;...i.m.m.<;
Fittest value: 2.75 for chromosome ( [] ( ( ! ( m ) ) /\ ( ! ( l ) ) ) )
Solutions (19): ( [] ( ( ! ( m ) ) /\ ( ! ( l ) ) ) ) | ( ( ( ! ( p ) ) /\ ( ( m ) W ( [] ( false ) ) ) ) W ( [] ( ( ! ( m ) ) /\ ( p ) ) ) ) | ( <> ( X ( [] ( ( ! ( m ) ) /\ ( ( true ) /\ ( ! ( l ) ) ) ) ) ) ) | ( ( ( ! ( p ) ) /\ ( ( m ) \/ ( [] ( false ) ) ) ) W ( [] ( ( ! ( m ) ) /\ ( p ) ) ) ) | ( [] ( [] ( ( ! ( m ) ) /\ ( ! ( l ) ) ) ) ) | ( ( [] ( ( ! ( m ) ) /\ ( ! ( l ) ) ) ) W ( [] ( ! ( p ) ) ) ) | ( ( ( ! ( p ) ) /\ ( m ) ) W ( [] ( ( ! ( m ) ) /\ ( p ) ) ) ) | ( X ( [] ( ( ! ( m ) ) /\ ( ! ( l ) ) ) ) ) | ( <> ( [] ( ( ! ( m ) ) /\ ( ! ( l ) ) ) ) ) | ( ( ( ! ( p ) ) /\ ( ( l ) W ( <> ( true ) ) ) ) W ( [] ( ( ! ( m ) ) /\ ( p ) ) ) ) | ( [] ( X ( [] ( ( ! ( m ) ) /\ ( ! ( l ) ) ) ) ) ) | ( ( [] ( ( ! ( m ) ) /\ ( ! ( l ) ) ) ) /\ ( [] ( ( ! ( m ) ) /\ ( ! ( l ) ) ) ) ) | ( [] ( [] ( [] ( ( ! ( m ) ) /\ ( ! ( l ) ) ) ) ) ) | ( ( [] ( ( ! ( m ) ) /\ ( ! ( l ) ) ) ) \/ ( [] ( ( ! ( m ) ) /\ ( ! ( l ) ) ) ) ) | ( ( [] ( [] ( ( ! ( m ) ) /\ ( ! ( l ) ) ) ) ) \/ ( [] ( ( ! ( m ) ) /\ ( ! ( l ) ) ) ) ) | ( X ( ( [] ( ( ! ( m ) ) /\ ( ! ( l ) ) ) ) /\ ( [] ( ( ! ( m ) ) /\ ( ! ( l ) ) ) ) ) ) | ( ( [] ( [] ( ( ! ( m ) ) /\ ( ! ( l ) ) ) ) ) W ( [] ( ( ! ( m ) ) /\ ( ! ( l ) ) ) ) ) | ( [] ( X ( ( ! ( m ) ) /\ ( ! ( l ) ) ) ) ) | ( ( [] ( ( ! ( m ) ) /\ ( ! ( l ) ) ) ) U ( [] ( ( ! ( m ) ) /\ ( ! ( l ) ) ) ) ) | 
Learning Time :0
CALLs: 144    TIMEOUTs: 0    ERRORs: 0
REEVALUATIONS: 671 OF 1878

GENERATION 24/50
....m.m.<;.....m.m.<;.....m.m.<;....m.m.<;.....m.m.<;....m.m.<;.....m.m.<;....m.m.<;..........m.m.<;...i.m..<;....m.m.<;......m.m.<;.......m.m.<;.......i...<;....m.m.<;...i.m.m.<;
Fittest value: 2.75 for chromosome ( [] ( ( ! ( m ) ) /\ ( ! ( l ) ) ) )
Solutions (19): ( [] ( ( ! ( m ) ) /\ ( ! ( l ) ) ) ) | ( ( ( ! ( p ) ) /\ ( ( m ) W ( [] ( false ) ) ) ) W ( [] ( ( ! ( m ) ) /\ ( p ) ) ) ) | ( <> ( X ( [] ( ( ! ( m ) ) /\ ( ( true ) /\ ( ! ( l ) ) ) ) ) ) ) | ( ( ( ! ( p ) ) /\ ( ( m ) \/ ( [] ( false ) ) ) ) W ( [] ( ( ! ( m ) ) /\ ( p ) ) ) ) | ( [] ( [] ( ( ! ( m ) ) /\ ( ! ( l ) ) ) ) ) | ( ( [] ( ( ! ( m ) ) /\ ( ! ( l ) ) ) ) W ( [] ( ! ( p ) ) ) ) | ( ( ( ! ( p ) ) /\ ( m ) ) W ( [] ( ( ! ( m ) ) /\ ( p ) ) ) ) | ( X ( [] ( ( ! ( m ) ) /\ ( ! ( l ) ) ) ) ) | ( <> ( [] ( ( ! ( m ) ) /\ ( ! ( l ) ) ) ) ) | ( ( ( ! ( p ) ) /\ ( ( l ) W ( <> ( true ) ) ) ) W ( [] ( ( ! ( m ) ) /\ ( p ) ) ) ) | ( [] ( X ( [] ( ( ! ( m ) ) /\ ( ! ( l ) ) ) ) ) ) | ( ( [] ( ( ! ( m ) ) /\ ( ! ( l ) ) ) ) /\ ( [] ( ( ! ( m ) ) /\ ( ! ( l ) ) ) ) ) | ( [] ( [] ( [] ( ( ! ( m ) ) /\ ( ! ( l ) ) ) ) ) ) | ( ( [] ( ( ! ( m ) ) /\ ( ! ( l ) ) ) ) \/ ( [] ( ( ! ( m ) ) /\ ( ! ( l ) ) ) ) ) | ( ( [] ( [] ( ( ! ( m ) ) /\ ( ! ( l ) ) ) ) ) \/ ( [] ( ( ! ( m ) ) /\ ( ! ( l ) ) ) ) ) | ( X ( ( [] ( ( ! ( m ) ) /\ ( ! ( l ) ) ) ) /\ ( [] ( ( ! ( m ) ) /\ ( ! ( l ) ) ) ) ) ) | ( ( [] ( [] ( ( ! ( m ) ) /\ ( ! ( l ) ) ) ) ) W ( [] ( ( ! ( m ) ) /\ ( ! ( l ) ) ) ) ) | ( [] ( X ( ( ! ( m ) ) /\ ( ! ( l ) ) ) ) ) | ( ( [] ( ( ! ( m ) ) /\ ( ! ( l ) ) ) ) U ( [] ( ( ! ( m ) ) /\ ( ! ( l ) ) ) ) ) | 
Learning Time :0
CALLs: 115    TIMEOUTs: 0    ERRORs: 0
REEVALUATIONS: 718 OF 1954

GENERATION 25/50
....m.m.<;....m.m.<;......i...<;....m.m.<;....m.m.<;......m.m.<;....m.m.<;....m.m.<;....m.m.<;....m.m.<;....m.m.<;.......m.m.<;....m.m.<;....i.m..<;....m.m.<;
Fittest value: 2.75 for chromosome ( [] ( ( ! ( m ) ) /\ ( ! ( l ) ) ) )
Solutions (19): ( [] ( ( ! ( m ) ) /\ ( ! ( l ) ) ) ) | ( ( ( ! ( p ) ) /\ ( ( m ) W ( [] ( false ) ) ) ) W ( [] ( ( ! ( m ) ) /\ ( p ) ) ) ) | ( <> ( X ( [] ( ( ! ( m ) ) /\ ( ( true ) /\ ( ! ( l ) ) ) ) ) ) ) | ( ( ( ! ( p ) ) /\ ( ( m ) \/ ( [] ( false ) ) ) ) W ( [] ( ( ! ( m ) ) /\ ( p ) ) ) ) | ( [] ( [] ( ( ! ( m ) ) /\ ( ! ( l ) ) ) ) ) | ( ( [] ( ( ! ( m ) ) /\ ( ! ( l ) ) ) ) W ( [] ( ! ( p ) ) ) ) | ( ( ( ! ( p ) ) /\ ( m ) ) W ( [] ( ( ! ( m ) ) /\ ( p ) ) ) ) | ( X ( [] ( ( ! ( m ) ) /\ ( ! ( l ) ) ) ) ) | ( <> ( [] ( ( ! ( m ) ) /\ ( ! ( l ) ) ) ) ) | ( ( ( ! ( p ) ) /\ ( ( l ) W ( <> ( true ) ) ) ) W ( [] ( ( ! ( m ) ) /\ ( p ) ) ) ) | ( [] ( X ( [] ( ( ! ( m ) ) /\ ( ! ( l ) ) ) ) ) ) | ( ( [] ( ( ! ( m ) ) /\ ( ! ( l ) ) ) ) /\ ( [] ( ( ! ( m ) ) /\ ( ! ( l ) ) ) ) ) | ( [] ( [] ( [] ( ( ! ( m ) ) /\ ( ! ( l ) ) ) ) ) ) | ( ( [] ( ( ! ( m ) ) /\ ( ! ( l ) ) ) ) \/ ( [] ( ( ! ( m ) ) /\ ( ! ( l ) ) ) ) ) | ( ( [] ( [] ( ( ! ( m ) ) /\ ( ! ( l ) ) ) ) ) \/ ( [] ( ( ! ( m ) ) /\ ( ! ( l ) ) ) ) ) | ( X ( ( [] ( ( ! ( m ) ) /\ ( ! ( l ) ) ) ) /\ ( [] ( ( ! ( m ) ) /\ ( ! ( l ) ) ) ) ) ) | ( ( [] ( [] ( ( ! ( m ) ) /\ ( ! ( l ) ) ) ) ) W ( [] ( ( ! ( m ) ) /\ ( ! ( l ) ) ) ) ) | ( [] ( X ( ( ! ( m ) ) /\ ( ! ( l ) ) ) ) ) | ( ( [] ( ( ! ( m ) ) /\ ( ! ( l ) ) ) ) U ( [] ( ( ! ( m ) ) /\ ( ! ( l ) ) ) ) ) | 
Learning Time :0
CALLs: 99    TIMEOUTs: 0    ERRORs: 0
REEVALUATIONS: 776 OF 2033

GENERATION 26/50
.....m.m.<;....m.m.<;......m.m.<;......m.m.<;....m.m.<;...i...<;....m.m.<;....m.m.<;....m.m.<;....m.m.<;.....m.m.<;
Fittest value: 2.75 for chromosome ( [] ( ( ! ( m ) ) /\ ( ! ( l ) ) ) )
Solutions (19): ( [] ( ( ! ( m ) ) /\ ( ! ( l ) ) ) ) | ( ( ( ! ( p ) ) /\ ( ( m ) W ( [] ( false ) ) ) ) W ( [] ( ( ! ( m ) ) /\ ( p ) ) ) ) | ( <> ( X ( [] ( ( ! ( m ) ) /\ ( ( true ) /\ ( ! ( l ) ) ) ) ) ) ) | ( ( ( ! ( p ) ) /\ ( ( m ) \/ ( [] ( false ) ) ) ) W ( [] ( ( ! ( m ) ) /\ ( p ) ) ) ) | ( [] ( [] ( ( ! ( m ) ) /\ ( ! ( l ) ) ) ) ) | ( ( [] ( ( ! ( m ) ) /\ ( ! ( l ) ) ) ) W ( [] ( ! ( p ) ) ) ) | ( ( ( ! ( p ) ) /\ ( m ) ) W ( [] ( ( ! ( m ) ) /\ ( p ) ) ) ) | ( X ( [] ( ( ! ( m ) ) /\ ( ! ( l ) ) ) ) ) | ( <> ( [] ( ( ! ( m ) ) /\ ( ! ( l ) ) ) ) ) | ( ( ( ! ( p ) ) /\ ( ( l ) W ( <> ( true ) ) ) ) W ( [] ( ( ! ( m ) ) /\ ( p ) ) ) ) | ( [] ( X ( [] ( ( ! ( m ) ) /\ ( ! ( l ) ) ) ) ) ) | ( ( [] ( ( ! ( m ) ) /\ ( ! ( l ) ) ) ) /\ ( [] ( ( ! ( m ) ) /\ ( ! ( l ) ) ) ) ) | ( [] ( [] ( [] ( ( ! ( m ) ) /\ ( ! ( l ) ) ) ) ) ) | ( ( [] ( ( ! ( m ) ) /\ ( ! ( l ) ) ) ) \/ ( [] ( ( ! ( m ) ) /\ ( ! ( l ) ) ) ) ) | ( ( [] ( [] ( ( ! ( m ) ) /\ ( ! ( l ) ) ) ) ) \/ ( [] ( ( ! ( m ) ) /\ ( ! ( l ) ) ) ) ) | ( X ( ( [] ( ( ! ( m ) ) /\ ( ! ( l ) ) ) ) /\ ( [] ( ( ! ( m ) ) /\ ( ! ( l ) ) ) ) ) ) | ( ( [] ( [] ( ( ! ( m ) ) /\ ( ! ( l ) ) ) ) ) W ( [] ( ( ! ( m ) ) /\ ( ! ( l ) ) ) ) ) | ( [] ( X ( ( ! ( m ) ) /\ ( ! ( l ) ) ) ) ) | ( ( [] ( ( ! ( m ) ) /\ ( ! ( l ) ) ) ) U ( [] ( ( ! ( m ) ) /\ ( ! ( l ) ) ) ) ) | 
Learning Time :0
CALLs: 72    TIMEOUTs: 0    ERRORs: 0
REEVALUATIONS: 835 OF 2107

GENERATION 27/50
....m.m.<;....m.m.<;.......m.m.<;....m.m.<;....m.m.<;....i...<;......m.m.<;....m.m.<;.....m.m.<;.....m.m.<;......m.m.<;....m.m.<;...i.m.m.<;...i.m.m.<;
Fittest value: 2.75 for chromosome ( [] ( ( ! ( m ) ) /\ ( ! ( l ) ) ) )
Solutions (20): ( [] ( ( ! ( m ) ) /\ ( ! ( l ) ) ) ) | ( ( ( ! ( p ) ) /\ ( ( m ) W ( [] ( false ) ) ) ) W ( [] ( ( ! ( m ) ) /\ ( p ) ) ) ) | ( <> ( X ( [] ( ( ! ( m ) ) /\ ( ( true ) /\ ( ! ( l ) ) ) ) ) ) ) | ( ( ( ! ( p ) ) /\ ( ( m ) \/ ( [] ( false ) ) ) ) W ( [] ( ( ! ( m ) ) /\ ( p ) ) ) ) | ( [] ( [] ( ( ! ( m ) ) /\ ( ! ( l ) ) ) ) ) | ( ( [] ( ( ! ( m ) ) /\ ( ! ( l ) ) ) ) W ( [] ( ! ( p ) ) ) ) | ( ( ( ! ( p ) ) /\ ( m ) ) W ( [] ( ( ! ( m ) ) /\ ( p ) ) ) ) | ( X ( [] ( ( ! ( m ) ) /\ ( ! ( l ) ) ) ) ) | ( <> ( [] ( ( ! ( m ) ) /\ ( ! ( l ) ) ) ) ) | ( ( ( ! ( p ) ) /\ ( ( l ) W ( <> ( true ) ) ) ) W ( [] ( ( ! ( m ) ) /\ ( p ) ) ) ) | ( [] ( X ( [] ( ( ! ( m ) ) /\ ( ! ( l ) ) ) ) ) ) | ( ( [] ( ( ! ( m ) ) /\ ( ! ( l ) ) ) ) /\ ( [] ( ( ! ( m ) ) /\ ( ! ( l ) ) ) ) ) | ( [] ( [] ( [] ( ( ! ( m ) ) /\ ( ! ( l ) ) ) ) ) ) | ( ( [] ( ( ! ( m ) ) /\ ( ! ( l ) ) ) ) \/ ( [] ( ( ! ( m ) ) /\ ( ! ( l ) ) ) ) ) | ( ( [] ( [] ( ( ! ( m ) ) /\ ( ! ( l ) ) ) ) ) \/ ( [] ( ( ! ( m ) ) /\ ( ! ( l ) ) ) ) ) | ( X ( ( [] ( ( ! ( m ) ) /\ ( ! ( l ) ) ) ) /\ ( [] ( ( ! ( m ) ) /\ ( ! ( l ) ) ) ) ) ) | ( ( [] ( [] ( ( ! ( m ) ) /\ ( ! ( l ) ) ) ) ) W ( [] ( ( ! ( m ) ) /\ ( ! ( l ) ) ) ) ) | ( [] ( X ( ( ! ( m ) ) /\ ( ! ( l ) ) ) ) ) | ( ( [] ( ( ! ( m ) ) /\ ( ! ( l ) ) ) ) U ( [] ( ( ! ( m ) ) /\ ( ! ( l ) ) ) ) ) | ( ( [] ( ( ! ( m ) ) /\ ( ! ( l ) ) ) ) W ( [] ( ( ! ( m ) ) /\ ( ! ( l ) ) ) ) ) | 
Learning Time :0
CALLs: 94    TIMEOUTs: 0    ERRORs: 0
REEVALUATIONS: 897 OF 2190

GENERATION 28/50
.....m.m.<;....m.m.<;....m.m.<;....m.m.<;....m.m.<;.......m.m.<;.....m.m.<;....m.m.<;.......m.m.<;....m.m.<;....i.m.m.<;
Fittest value: 2.75 for chromosome ( [] ( ( ! ( m ) ) /\ ( ! ( l ) ) ) )
Solutions (20): ( [] ( ( ! ( m ) ) /\ ( ! ( l ) ) ) ) | ( ( ( ! ( p ) ) /\ ( ( m ) W ( [] ( false ) ) ) ) W ( [] ( ( ! ( m ) ) /\ ( p ) ) ) ) | ( <> ( X ( [] ( ( ! ( m ) ) /\ ( ( true ) /\ ( ! ( l ) ) ) ) ) ) ) | ( ( ( ! ( p ) ) /\ ( ( m ) \/ ( [] ( false ) ) ) ) W ( [] ( ( ! ( m ) ) /\ ( p ) ) ) ) | ( [] ( [] ( ( ! ( m ) ) /\ ( ! ( l ) ) ) ) ) | ( ( [] ( ( ! ( m ) ) /\ ( ! ( l ) ) ) ) W ( [] ( ! ( p ) ) ) ) | ( ( ( ! ( p ) ) /\ ( m ) ) W ( [] ( ( ! ( m ) ) /\ ( p ) ) ) ) | ( X ( [] ( ( ! ( m ) ) /\ ( ! ( l ) ) ) ) ) | ( <> ( [] ( ( ! ( m ) ) /\ ( ! ( l ) ) ) ) ) | ( ( ( ! ( p ) ) /\ ( ( l ) W ( <> ( true ) ) ) ) W ( [] ( ( ! ( m ) ) /\ ( p ) ) ) ) | ( [] ( X ( [] ( ( ! ( m ) ) /\ ( ! ( l ) ) ) ) ) ) | ( ( [] ( ( ! ( m ) ) /\ ( ! ( l ) ) ) ) /\ ( [] ( ( ! ( m ) ) /\ ( ! ( l ) ) ) ) ) | ( [] ( [] ( [] ( ( ! ( m ) ) /\ ( ! ( l ) ) ) ) ) ) | ( ( [] ( ( ! ( m ) ) /\ ( ! ( l ) ) ) ) \/ ( [] ( ( ! ( m ) ) /\ ( ! ( l ) ) ) ) ) | ( ( [] ( [] ( ( ! ( m ) ) /\ ( ! ( l ) ) ) ) ) \/ ( [] ( ( ! ( m ) ) /\ ( ! ( l ) ) ) ) ) | ( X ( ( [] ( ( ! ( m ) ) /\ ( ! ( l ) ) ) ) /\ ( [] ( ( ! ( m ) ) /\ ( ! ( l ) ) ) ) ) ) | ( ( [] ( [] ( ( ! ( m ) ) /\ ( ! ( l ) ) ) ) ) W ( [] ( ( ! ( m ) ) /\ ( ! ( l ) ) ) ) ) | ( [] ( X ( ( ! ( m ) ) /\ ( ! ( l ) ) ) ) ) | ( ( [] ( ( ! ( m ) ) /\ ( ! ( l ) ) ) ) U ( [] ( ( ! ( m ) ) /\ ( ! ( l ) ) ) ) ) | ( ( [] ( ( ! ( m ) ) /\ ( ! ( l ) ) ) ) W ( [] ( ( ! ( m ) ) /\ ( ! ( l ) ) ) ) ) | 
Learning Time :0
CALLs: 75    TIMEOUTs: 0    ERRORs: 0
REEVALUATIONS: 957 OF 2269

GENERATION 29/50
....m.m.<;....m.m.<;...i...<;....m.m.<;........m.m.<;....m.m.<;.....m.m.<;....m.m.<;..........m.m.<;....m.m.<;....m.m.<;....i...<;...i...<;.......m.m.<;....m.m.<;....m.m.<;....m.m.<;
Fittest value: 2.75 for chromosome ( [] ( ( ! ( m ) ) /\ ( ! ( l ) ) ) )
Solutions (20): ( [] ( ( ! ( m ) ) /\ ( ! ( l ) ) ) ) | ( ( ( ! ( p ) ) /\ ( ( m ) W ( [] ( false ) ) ) ) W ( [] ( ( ! ( m ) ) /\ ( p ) ) ) ) | ( <> ( X ( [] ( ( ! ( m ) ) /\ ( ( true ) /\ ( ! ( l ) ) ) ) ) ) ) | ( ( ( ! ( p ) ) /\ ( ( m ) \/ ( [] ( false ) ) ) ) W ( [] ( ( ! ( m ) ) /\ ( p ) ) ) ) | ( [] ( [] ( ( ! ( m ) ) /\ ( ! ( l ) ) ) ) ) | ( ( [] ( ( ! ( m ) ) /\ ( ! ( l ) ) ) ) W ( [] ( ! ( p ) ) ) ) | ( ( ( ! ( p ) ) /\ ( m ) ) W ( [] ( ( ! ( m ) ) /\ ( p ) ) ) ) | ( X ( [] ( ( ! ( m ) ) /\ ( ! ( l ) ) ) ) ) | ( <> ( [] ( ( ! ( m ) ) /\ ( ! ( l ) ) ) ) ) | ( ( ( ! ( p ) ) /\ ( ( l ) W ( <> ( true ) ) ) ) W ( [] ( ( ! ( m ) ) /\ ( p ) ) ) ) | ( [] ( X ( [] ( ( ! ( m ) ) /\ ( ! ( l ) ) ) ) ) ) | ( ( [] ( ( ! ( m ) ) /\ ( ! ( l ) ) ) ) /\ ( [] ( ( ! ( m ) ) /\ ( ! ( l ) ) ) ) ) | ( [] ( [] ( [] ( ( ! ( m ) ) /\ ( ! ( l ) ) ) ) ) ) | ( ( [] ( ( ! ( m ) ) /\ ( ! ( l ) ) ) ) \/ ( [] ( ( ! ( m ) ) /\ ( ! ( l ) ) ) ) ) | ( ( [] ( [] ( ( ! ( m ) ) /\ ( ! ( l ) ) ) ) ) \/ ( [] ( ( ! ( m ) ) /\ ( ! ( l ) ) ) ) ) | ( X ( ( [] ( ( ! ( m ) ) /\ ( ! ( l ) ) ) ) /\ ( [] ( ( ! ( m ) ) /\ ( ! ( l ) ) ) ) ) ) | ( ( [] ( [] ( ( ! ( m ) ) /\ ( ! ( l ) ) ) ) ) W ( [] ( ( ! ( m ) ) /\ ( ! ( l ) ) ) ) ) | ( [] ( X ( ( ! ( m ) ) /\ ( ! ( l ) ) ) ) ) | ( ( [] ( ( ! ( m ) ) /\ ( ! ( l ) ) ) ) U ( [] ( ( ! ( m ) ) /\ ( ! ( l ) ) ) ) ) | ( ( [] ( ( ! ( m ) ) /\ ( ! ( l ) ) ) ) W ( [] ( ( ! ( m ) ) /\ ( ! ( l ) ) ) ) ) | 
Learning Time :0
CALLs: 117    TIMEOUTs: 0    ERRORs: 0
REEVALUATIONS: 1014 OF 2352

GENERATION 30/50
....m.m.<;....m.m.<;....m.m.<;....m.m.<;....m.m.<;....m.m.<;....m.m.<;....m.m.<;.......m.m.<;....m.m.<;....m.m.<;
Fittest value: 2.75 for chromosome ( [] ( ( ! ( m ) ) /\ ( ! ( l ) ) ) )
Solutions (20): ( [] ( ( ! ( m ) ) /\ ( ! ( l ) ) ) ) | ( ( ( ! ( p ) ) /\ ( ( m ) W ( [] ( false ) ) ) ) W ( [] ( ( ! ( m ) ) /\ ( p ) ) ) ) | ( <> ( X ( [] ( ( ! ( m ) ) /\ ( ( true ) /\ ( ! ( l ) ) ) ) ) ) ) | ( ( ( ! ( p ) ) /\ ( ( m ) \/ ( [] ( false ) ) ) ) W ( [] ( ( ! ( m ) ) /\ ( p ) ) ) ) | ( [] ( [] ( ( ! ( m ) ) /\ ( ! ( l ) ) ) ) ) | ( ( [] ( ( ! ( m ) ) /\ ( ! ( l ) ) ) ) W ( [] ( ! ( p ) ) ) ) | ( ( ( ! ( p ) ) /\ ( m ) ) W ( [] ( ( ! ( m ) ) /\ ( p ) ) ) ) | ( X ( [] ( ( ! ( m ) ) /\ ( ! ( l ) ) ) ) ) | ( <> ( [] ( ( ! ( m ) ) /\ ( ! ( l ) ) ) ) ) | ( ( ( ! ( p ) ) /\ ( ( l ) W ( <> ( true ) ) ) ) W ( [] ( ( ! ( m ) ) /\ ( p ) ) ) ) | ( [] ( X ( [] ( ( ! ( m ) ) /\ ( ! ( l ) ) ) ) ) ) | ( ( [] ( ( ! ( m ) ) /\ ( ! ( l ) ) ) ) /\ ( [] ( ( ! ( m ) ) /\ ( ! ( l ) ) ) ) ) | ( [] ( [] ( [] ( ( ! ( m ) ) /\ ( ! ( l ) ) ) ) ) ) | ( ( [] ( ( ! ( m ) ) /\ ( ! ( l ) ) ) ) \/ ( [] ( ( ! ( m ) ) /\ ( ! ( l ) ) ) ) ) | ( ( [] ( [] ( ( ! ( m ) ) /\ ( ! ( l ) ) ) ) ) \/ ( [] ( ( ! ( m ) ) /\ ( ! ( l ) ) ) ) ) | ( X ( ( [] ( ( ! ( m ) ) /\ ( ! ( l ) ) ) ) /\ ( [] ( ( ! ( m ) ) /\ ( ! ( l ) ) ) ) ) ) | ( ( [] ( [] ( ( ! ( m ) ) /\ ( ! ( l ) ) ) ) ) W ( [] ( ( ! ( m ) ) /\ ( ! ( l ) ) ) ) ) | ( [] ( X ( ( ! ( m ) ) /\ ( ! ( l ) ) ) ) ) | ( ( [] ( ( ! ( m ) ) /\ ( ! ( l ) ) ) ) U ( [] ( ( ! ( m ) ) /\ ( ! ( l ) ) ) ) ) | ( ( [] ( ( ! ( m ) ) /\ ( ! ( l ) ) ) ) W ( [] ( ( ! ( m ) ) /\ ( ! ( l ) ) ) ) ) | 
Learning Time :0
CALLs: 69    TIMEOUTs: 0    ERRORs: 0
REEVALUATIONS: 1083 OF 2434

GENERATION 31/50
....m.m.<;.....m.m.<;.....m.m.<;....m.m.<;....m.m.<;....m.m.<;....m.m.<;....m.m.<;......i...<;
Fittest value: 2.75 for chromosome ( [] ( ( ! ( m ) ) /\ ( ! ( l ) ) ) )
Solutions (20): ( [] ( ( ! ( m ) ) /\ ( ! ( l ) ) ) ) | ( ( ( ! ( p ) ) /\ ( ( m ) W ( [] ( false ) ) ) ) W ( [] ( ( ! ( m ) ) /\ ( p ) ) ) ) | ( <> ( X ( [] ( ( ! ( m ) ) /\ ( ( true ) /\ ( ! ( l ) ) ) ) ) ) ) | ( ( ( ! ( p ) ) /\ ( ( m ) \/ ( [] ( false ) ) ) ) W ( [] ( ( ! ( m ) ) /\ ( p ) ) ) ) | ( [] ( [] ( ( ! ( m ) ) /\ ( ! ( l ) ) ) ) ) | ( ( [] ( ( ! ( m ) ) /\ ( ! ( l ) ) ) ) W ( [] ( ! ( p ) ) ) ) | ( ( ( ! ( p ) ) /\ ( m ) ) W ( [] ( ( ! ( m ) ) /\ ( p ) ) ) ) | ( X ( [] ( ( ! ( m ) ) /\ ( ! ( l ) ) ) ) ) | ( <> ( [] ( ( ! ( m ) ) /\ ( ! ( l ) ) ) ) ) | ( ( ( ! ( p ) ) /\ ( ( l ) W ( <> ( true ) ) ) ) W ( [] ( ( ! ( m ) ) /\ ( p ) ) ) ) | ( [] ( X ( [] ( ( ! ( m ) ) /\ ( ! ( l ) ) ) ) ) ) | ( ( [] ( ( ! ( m ) ) /\ ( ! ( l ) ) ) ) /\ ( [] ( ( ! ( m ) ) /\ ( ! ( l ) ) ) ) ) | ( [] ( [] ( [] ( ( ! ( m ) ) /\ ( ! ( l ) ) ) ) ) ) | ( ( [] ( ( ! ( m ) ) /\ ( ! ( l ) ) ) ) \/ ( [] ( ( ! ( m ) ) /\ ( ! ( l ) ) ) ) ) | ( ( [] ( [] ( ( ! ( m ) ) /\ ( ! ( l ) ) ) ) ) \/ ( [] ( ( ! ( m ) ) /\ ( ! ( l ) ) ) ) ) | ( X ( ( [] ( ( ! ( m ) ) /\ ( ! ( l ) ) ) ) /\ ( [] ( ( ! ( m ) ) /\ ( ! ( l ) ) ) ) ) ) | ( ( [] ( [] ( ( ! ( m ) ) /\ ( ! ( l ) ) ) ) ) W ( [] ( ( ! ( m ) ) /\ ( ! ( l ) ) ) ) ) | ( [] ( X ( ( ! ( m ) ) /\ ( ! ( l ) ) ) ) ) | ( ( [] ( ( ! ( m ) ) /\ ( ! ( l ) ) ) ) U ( [] ( ( ! ( m ) ) /\ ( ! ( l ) ) ) ) ) | ( ( [] ( ( ! ( m ) ) /\ ( ! ( l ) ) ) ) W ( [] ( ( ! ( m ) ) /\ ( ! ( l ) ) ) ) ) | 
Learning Time :0
CALLs: 59    TIMEOUTs: 0    ERRORs: 0
REEVALUATIONS: 1148 OF 2512

GENERATION 32/50
....m.m.;....m.m.<;.....m.m.<;.....m.m.<;....m.m.<;......m.m.<;....m.m.<;..
Fittest value: 2.75 for chromosome ( [] ( ( ! ( m ) ) /\ ( ! ( l ) ) ) )
Solutions (20): ( [] ( ( ! ( m ) ) /\ ( ! ( l ) ) ) ) | ( ( ( ! ( p ) ) /\ ( ( m ) W ( [] ( false ) ) ) ) W ( [] ( ( ! ( m ) ) /\ ( p ) ) ) ) | ( <> ( X ( [] ( ( ! ( m ) ) /\ ( ( true ) /\ ( ! ( l ) ) ) ) ) ) ) | ( ( ( ! ( p ) ) /\ ( ( m ) \/ ( [] ( false ) ) ) ) W ( [] ( ( ! ( m ) ) /\ ( p ) ) ) ) | ( [] ( [] ( ( ! ( m ) ) /\ ( ! ( l ) ) ) ) ) | ( ( [] ( ( ! ( m ) ) /\ ( ! ( l ) ) ) ) W ( [] ( ! ( p ) ) ) ) | ( ( ( ! ( p ) ) /\ ( m ) ) W ( [] ( ( ! ( m ) ) /\ ( p ) ) ) ) | ( X ( [] ( ( ! ( m ) ) /\ ( ! ( l ) ) ) ) ) | ( <> ( [] ( ( ! ( m ) ) /\ ( ! ( l ) ) ) ) ) | ( ( ( ! ( p ) ) /\ ( ( l ) W ( <> ( true ) ) ) ) W ( [] ( ( ! ( m ) ) /\ ( p ) ) ) ) | ( [] ( X ( [] ( ( ! ( m ) ) /\ ( ! ( l ) ) ) ) ) ) | ( ( [] ( ( ! ( m ) ) /\ ( ! ( l ) ) ) ) /\ ( [] ( ( ! ( m ) ) /\ ( ! ( l ) ) ) ) ) | ( [] ( [] ( [] ( ( ! ( m ) ) /\ ( ! ( l ) ) ) ) ) ) | ( ( [] ( ( ! ( m ) ) /\ ( ! ( l ) ) ) ) \/ ( [] ( ( ! ( m ) ) /\ ( ! ( l ) ) ) ) ) | ( ( [] ( [] ( ( ! ( m ) ) /\ ( ! ( l ) ) ) ) ) \/ ( [] ( ( ! ( m ) ) /\ ( ! ( l ) ) ) ) ) | ( X ( ( [] ( ( ! ( m ) ) /\ ( ! ( l ) ) ) ) /\ ( [] ( ( ! ( m ) ) /\ ( ! ( l ) ) ) ) ) ) | ( ( [] ( [] ( ( ! ( m ) ) /\ ( ! ( l ) ) ) ) ) W ( [] ( ( ! ( m ) ) /\ ( ! ( l ) ) ) ) ) | ( [] ( X ( ( ! ( m ) ) /\ ( ! ( l ) ) ) ) ) | ( ( [] ( ( ! ( m ) ) /\ ( ! ( l ) ) ) ) U ( [] ( ( ! ( m ) ) /\ ( ! ( l ) ) ) ) ) | ( ( [] ( ( ! ( m ) ) /\ ( ! ( l ) ) ) ) W ( [] ( ( ! ( m ) ) /\ ( ! ( l ) ) ) ) ) | 
Learning Time :0
CALLs: 48    TIMEOUTs: 0    ERRORs: 0
REEVALUATIONS: 1213 OF 2589

GENERATION 33/50
....m.m.<;.......m.m.<;
Fittest value: 2.75 for chromosome ( [] ( ( ! ( m ) ) /\ ( ! ( l ) ) ) )
Solutions (20): ( [] ( ( ! ( m ) ) /\ ( ! ( l ) ) ) ) | ( ( ( ! ( p ) ) /\ ( ( m ) W ( [] ( false ) ) ) ) W ( [] ( ( ! ( m ) ) /\ ( p ) ) ) ) | ( <> ( X ( [] ( ( ! ( m ) ) /\ ( ( true ) /\ ( ! ( l ) ) ) ) ) ) ) | ( ( ( ! ( p ) ) /\ ( ( m ) \/ ( [] ( false ) ) ) ) W ( [] ( ( ! ( m ) ) /\ ( p ) ) ) ) | ( [] ( [] ( ( ! ( m ) ) /\ ( ! ( l ) ) ) ) ) | ( ( [] ( ( ! ( m ) ) /\ ( ! ( l ) ) ) ) W ( [] ( ! ( p ) ) ) ) | ( ( ( ! ( p ) ) /\ ( m ) ) W ( [] ( ( ! ( m ) ) /\ ( p ) ) ) ) | ( X ( [] ( ( ! ( m ) ) /\ ( ! ( l ) ) ) ) ) | ( <> ( [] ( ( ! ( m ) ) /\ ( ! ( l ) ) ) ) ) | ( ( ( ! ( p ) ) /\ ( ( l ) W ( <> ( true ) ) ) ) W ( [] ( ( ! ( m ) ) /\ ( p ) ) ) ) | ( [] ( X ( [] ( ( ! ( m ) ) /\ ( ! ( l ) ) ) ) ) ) | ( ( [] ( ( ! ( m ) ) /\ ( ! ( l ) ) ) ) /\ ( [] ( ( ! ( m ) ) /\ ( ! ( l ) ) ) ) ) | ( [] ( [] ( [] ( ( ! ( m ) ) /\ ( ! ( l ) ) ) ) ) ) | ( ( [] ( ( ! ( m ) ) /\ ( ! ( l ) ) ) ) \/ ( [] ( ( ! ( m ) ) /\ ( ! ( l ) ) ) ) ) | ( ( [] ( [] ( ( ! ( m ) ) /\ ( ! ( l ) ) ) ) ) \/ ( [] ( ( ! ( m ) ) /\ ( ! ( l ) ) ) ) ) | ( X ( ( [] ( ( ! ( m ) ) /\ ( ! ( l ) ) ) ) /\ ( [] ( ( ! ( m ) ) /\ ( ! ( l ) ) ) ) ) ) | ( ( [] ( [] ( ( ! ( m ) ) /\ ( ! ( l ) ) ) ) ) W ( [] ( ( ! ( m ) ) /\ ( ! ( l ) ) ) ) ) | ( [] ( X ( ( ! ( m ) ) /\ ( ! ( l ) ) ) ) ) | ( ( [] ( ( ! ( m ) ) /\ ( ! ( l ) ) ) ) U ( [] ( ( ! ( m ) ) /\ ( ! ( l ) ) ) ) ) | ( ( [] ( ( ! ( m ) ) /\ ( ! ( l ) ) ) ) W ( [] ( ( ! ( m ) ) /\ ( ! ( l ) ) ) ) ) | 
Learning Time :0
CALLs: 15    TIMEOUTs: 0    ERRORs: 0
REEVALUATIONS: 1286 OF 2666

GENERATION 34/50
....m.m.<;....m.m.<;....m.m.<;......m.m.<;
Fittest value: 2.75 for chromosome ( [] ( ( ! ( m ) ) /\ ( ! ( l ) ) ) )
Solutions (20): ( [] ( ( ! ( m ) ) /\ ( ! ( l ) ) ) ) | ( ( ( ! ( p ) ) /\ ( ( m ) W ( [] ( false ) ) ) ) W ( [] ( ( ! ( m ) ) /\ ( p ) ) ) ) | ( <> ( X ( [] ( ( ! ( m ) ) /\ ( ( true ) /\ ( ! ( l ) ) ) ) ) ) ) | ( ( ( ! ( p ) ) /\ ( ( m ) \/ ( [] ( false ) ) ) ) W ( [] ( ( ! ( m ) ) /\ ( p ) ) ) ) | ( [] ( [] ( ( ! ( m ) ) /\ ( ! ( l ) ) ) ) ) | ( ( [] ( ( ! ( m ) ) /\ ( ! ( l ) ) ) ) W ( [] ( ! ( p ) ) ) ) | ( ( ( ! ( p ) ) /\ ( m ) ) W ( [] ( ( ! ( m ) ) /\ ( p ) ) ) ) | ( X ( [] ( ( ! ( m ) ) /\ ( ! ( l ) ) ) ) ) | ( <> ( [] ( ( ! ( m ) ) /\ ( ! ( l ) ) ) ) ) | ( ( ( ! ( p ) ) /\ ( ( l ) W ( <> ( true ) ) ) ) W ( [] ( ( ! ( m ) ) /\ ( p ) ) ) ) | ( [] ( X ( [] ( ( ! ( m ) ) /\ ( ! ( l ) ) ) ) ) ) | ( ( [] ( ( ! ( m ) ) /\ ( ! ( l ) ) ) ) /\ ( [] ( ( ! ( m ) ) /\ ( ! ( l ) ) ) ) ) | ( [] ( [] ( [] ( ( ! ( m ) ) /\ ( ! ( l ) ) ) ) ) ) | ( ( [] ( ( ! ( m ) ) /\ ( ! ( l ) ) ) ) \/ ( [] ( ( ! ( m ) ) /\ ( ! ( l ) ) ) ) ) | ( ( [] ( [] ( ( ! ( m ) ) /\ ( ! ( l ) ) ) ) ) \/ ( [] ( ( ! ( m ) ) /\ ( ! ( l ) ) ) ) ) | ( X ( ( [] ( ( ! ( m ) ) /\ ( ! ( l ) ) ) ) /\ ( [] ( ( ! ( m ) ) /\ ( ! ( l ) ) ) ) ) ) | ( ( [] ( [] ( ( ! ( m ) ) /\ ( ! ( l ) ) ) ) ) W ( [] ( ( ! ( m ) ) /\ ( ! ( l ) ) ) ) ) | ( [] ( X ( ( ! ( m ) ) /\ ( ! ( l ) ) ) ) ) | ( ( [] ( ( ! ( m ) ) /\ ( ! ( l ) ) ) ) U ( [] ( ( ! ( m ) ) /\ ( ! ( l ) ) ) ) ) | ( ( [] ( ( ! ( m ) ) /\ ( ! ( l ) ) ) ) W ( [] ( ( ! ( m ) ) /\ ( ! ( l ) ) ) ) ) | 
Learning Time :0
CALLs: 26    TIMEOUTs: 0    ERRORs: 0
REEVALUATIONS: 1359 OF 2744

GENERATION 35/50
....m.m.<;.....m.m.<;......m.m.<;....m.m.;
Fittest value: 2.75 for chromosome ( [] ( ( ! ( m ) ) /\ ( ! ( l ) ) ) )
Solutions (20): ( [] ( ( ! ( m ) ) /\ ( ! ( l ) ) ) ) | ( ( ( ! ( p ) ) /\ ( ( m ) W ( [] ( false ) ) ) ) W ( [] ( ( ! ( m ) ) /\ ( p ) ) ) ) | ( <> ( X ( [] ( ( ! ( m ) ) /\ ( ( true ) /\ ( ! ( l ) ) ) ) ) ) ) | ( ( ( ! ( p ) ) /\ ( ( m ) \/ ( [] ( false ) ) ) ) W ( [] ( ( ! ( m ) ) /\ ( p ) ) ) ) | ( [] ( [] ( ( ! ( m ) ) /\ ( ! ( l ) ) ) ) ) | ( ( [] ( ( ! ( m ) ) /\ ( ! ( l ) ) ) ) W ( [] ( ! ( p ) ) ) ) | ( ( ( ! ( p ) ) /\ ( m ) ) W ( [] ( ( ! ( m ) ) /\ ( p ) ) ) ) | ( X ( [] ( ( ! ( m ) ) /\ ( ! ( l ) ) ) ) ) | ( <> ( [] ( ( ! ( m ) ) /\ ( ! ( l ) ) ) ) ) | ( ( ( ! ( p ) ) /\ ( ( l ) W ( <> ( true ) ) ) ) W ( [] ( ( ! ( m ) ) /\ ( p ) ) ) ) | ( [] ( X ( [] ( ( ! ( m ) ) /\ ( ! ( l ) ) ) ) ) ) | ( ( [] ( ( ! ( m ) ) /\ ( ! ( l ) ) ) ) /\ ( [] ( ( ! ( m ) ) /\ ( ! ( l ) ) ) ) ) | ( [] ( [] ( [] ( ( ! ( m ) ) /\ ( ! ( l ) ) ) ) ) ) | ( ( [] ( ( ! ( m ) ) /\ ( ! ( l ) ) ) ) \/ ( [] ( ( ! ( m ) ) /\ ( ! ( l ) ) ) ) ) | ( ( [] ( [] ( ( ! ( m ) ) /\ ( ! ( l ) ) ) ) ) \/ ( [] ( ( ! ( m ) ) /\ ( ! ( l ) ) ) ) ) | ( X ( ( [] ( ( ! ( m ) ) /\ ( ! ( l ) ) ) ) /\ ( [] ( ( ! ( m ) ) /\ ( ! ( l ) ) ) ) ) ) | ( ( [] ( [] ( ( ! ( m ) ) /\ ( ! ( l ) ) ) ) ) W ( [] ( ( ! ( m ) ) /\ ( ! ( l ) ) ) ) ) | ( [] ( X ( ( ! ( m ) ) /\ ( ! ( l ) ) ) ) ) | ( ( [] ( ( ! ( m ) ) /\ ( ! ( l ) ) ) ) U ( [] ( ( ! ( m ) ) /\ ( ! ( l ) ) ) ) ) | ( ( [] ( ( ! ( m ) ) /\ ( ! ( l ) ) ) ) W ( [] ( ( ! ( m ) ) /\ ( ! ( l ) ) ) ) ) | 
Learning Time :0
CALLs: 27    TIMEOUTs: 0    ERRORs: 0
REEVALUATIONS: 1429 OF 2820

GENERATION 36/50
...i...<;....m.m.<;....m.m.<;....m.m.<;.....m.m.<;....m.m.<;.......m.m.<;....m.m.<;
Fittest value: 2.75 for chromosome ( [] ( ( ! ( m ) ) /\ ( ! ( l ) ) ) )
Solutions (20): ( [] ( ( ! ( m ) ) /\ ( ! ( l ) ) ) ) | ( ( ( ! ( p ) ) /\ ( ( m ) W ( [] ( false ) ) ) ) W ( [] ( ( ! ( m ) ) /\ ( p ) ) ) ) | ( <> ( X ( [] ( ( ! ( m ) ) /\ ( ( true ) /\ ( ! ( l ) ) ) ) ) ) ) | ( ( ( ! ( p ) ) /\ ( ( m ) \/ ( [] ( false ) ) ) ) W ( [] ( ( ! ( m ) ) /\ ( p ) ) ) ) | ( [] ( [] ( ( ! ( m ) ) /\ ( ! ( l ) ) ) ) ) | ( ( [] ( ( ! ( m ) ) /\ ( ! ( l ) ) ) ) W ( [] ( ! ( p ) ) ) ) | ( ( ( ! ( p ) ) /\ ( m ) ) W ( [] ( ( ! ( m ) ) /\ ( p ) ) ) ) | ( X ( [] ( ( ! ( m ) ) /\ ( ! ( l ) ) ) ) ) | ( <> ( [] ( ( ! ( m ) ) /\ ( ! ( l ) ) ) ) ) | ( ( ( ! ( p ) ) /\ ( ( l ) W ( <> ( true ) ) ) ) W ( [] ( ( ! ( m ) ) /\ ( p ) ) ) ) | ( [] ( X ( [] ( ( ! ( m ) ) /\ ( ! ( l ) ) ) ) ) ) | ( ( [] ( ( ! ( m ) ) /\ ( ! ( l ) ) ) ) /\ ( [] ( ( ! ( m ) ) /\ ( ! ( l ) ) ) ) ) | ( [] ( [] ( [] ( ( ! ( m ) ) /\ ( ! ( l ) ) ) ) ) ) | ( ( [] ( ( ! ( m ) ) /\ ( ! ( l ) ) ) ) \/ ( [] ( ( ! ( m ) ) /\ ( ! ( l ) ) ) ) ) | ( ( [] ( [] ( ( ! ( m ) ) /\ ( ! ( l ) ) ) ) ) \/ ( [] ( ( ! ( m ) ) /\ ( ! ( l ) ) ) ) ) | ( X ( ( [] ( ( ! ( m ) ) /\ ( ! ( l ) ) ) ) /\ ( [] ( ( ! ( m ) ) /\ ( ! ( l ) ) ) ) ) ) | ( ( [] ( [] ( ( ! ( m ) ) /\ ( ! ( l ) ) ) ) ) W ( [] ( ( ! ( m ) ) /\ ( ! ( l ) ) ) ) ) | ( [] ( X ( ( ! ( m ) ) /\ ( ! ( l ) ) ) ) ) | ( ( [] ( ( ! ( m ) ) /\ ( ! ( l ) ) ) ) U ( [] ( ( ! ( m ) ) /\ ( ! ( l ) ) ) ) ) | ( ( [] ( ( ! ( m ) ) /\ ( ! ( l ) ) ) ) W ( [] ( ( ! ( m ) ) /\ ( ! ( l ) ) ) ) ) | 
Learning Time :0
CALLs: 52    TIMEOUTs: 0    ERRORs: 0
REEVALUATIONS: 1492 OF 2894

GENERATION 37/50
.....m.m.<;...i...<;....m.m.<;...
Fittest value: 2.75 for chromosome ( [] ( ( ! ( m ) ) /\ ( ! ( l ) ) ) )
Solutions (20): ( [] ( ( ! ( m ) ) /\ ( ! ( l ) ) ) ) | ( ( ( ! ( p ) ) /\ ( ( m ) W ( [] ( false ) ) ) ) W ( [] ( ( ! ( m ) ) /\ ( p ) ) ) ) | ( <> ( X ( [] ( ( ! ( m ) ) /\ ( ( true ) /\ ( ! ( l ) ) ) ) ) ) ) | ( ( ( ! ( p ) ) /\ ( ( m ) \/ ( [] ( false ) ) ) ) W ( [] ( ( ! ( m ) ) /\ ( p ) ) ) ) | ( [] ( [] ( ( ! ( m ) ) /\ ( ! ( l ) ) ) ) ) | ( ( [] ( ( ! ( m ) ) /\ ( ! ( l ) ) ) ) W ( [] ( ! ( p ) ) ) ) | ( ( ( ! ( p ) ) /\ ( m ) ) W ( [] ( ( ! ( m ) ) /\ ( p ) ) ) ) | ( X ( [] ( ( ! ( m ) ) /\ ( ! ( l ) ) ) ) ) | ( <> ( [] ( ( ! ( m ) ) /\ ( ! ( l ) ) ) ) ) | ( ( ( ! ( p ) ) /\ ( ( l ) W ( <> ( true ) ) ) ) W ( [] ( ( ! ( m ) ) /\ ( p ) ) ) ) | ( [] ( X ( [] ( ( ! ( m ) ) /\ ( ! ( l ) ) ) ) ) ) | ( ( [] ( ( ! ( m ) ) /\ ( ! ( l ) ) ) ) /\ ( [] ( ( ! ( m ) ) /\ ( ! ( l ) ) ) ) ) | ( [] ( [] ( [] ( ( ! ( m ) ) /\ ( ! ( l ) ) ) ) ) ) | ( ( [] ( ( ! ( m ) ) /\ ( ! ( l ) ) ) ) \/ ( [] ( ( ! ( m ) ) /\ ( ! ( l ) ) ) ) ) | ( ( [] ( [] ( ( ! ( m ) ) /\ ( ! ( l ) ) ) ) ) \/ ( [] ( ( ! ( m ) ) /\ ( ! ( l ) ) ) ) ) | ( X ( ( [] ( ( ! ( m ) ) /\ ( ! ( l ) ) ) ) /\ ( [] ( ( ! ( m ) ) /\ ( ! ( l ) ) ) ) ) ) | ( ( [] ( [] ( ( ! ( m ) ) /\ ( ! ( l ) ) ) ) ) W ( [] ( ( ! ( m ) ) /\ ( ! ( l ) ) ) ) ) | ( [] ( X ( ( ! ( m ) ) /\ ( ! ( l ) ) ) ) ) | ( ( [] ( ( ! ( m ) ) /\ ( ! ( l ) ) ) ) U ( [] ( ( ! ( m ) ) /\ ( ! ( l ) ) ) ) ) | ( ( [] ( ( ! ( m ) ) /\ ( ! ( l ) ) ) ) W ( [] ( ( ! ( m ) ) /\ ( ! ( l ) ) ) ) ) | 
Learning Time :0
CALLs: 22    TIMEOUTs: 0    ERRORs: 0
REEVALUATIONS: 1568 OF 2977

GENERATION 38/50
....m.m.<;....m.m.<;.....m.m.<;......m.m.<;....m.m.<;....m.m.<;
Fittest value: 2.75 for chromosome ( [] ( ( ! ( m ) ) /\ ( ! ( l ) ) ) )
Solutions (20): ( [] ( ( ! ( m ) ) /\ ( ! ( l ) ) ) ) | ( ( ( ! ( p ) ) /\ ( ( m ) W ( [] ( false ) ) ) ) W ( [] ( ( ! ( m ) ) /\ ( p ) ) ) ) | ( <> ( X ( [] ( ( ! ( m ) ) /\ ( ( true ) /\ ( ! ( l ) ) ) ) ) ) ) | ( ( ( ! ( p ) ) /\ ( ( m ) \/ ( [] ( false ) ) ) ) W ( [] ( ( ! ( m ) ) /\ ( p ) ) ) ) | ( [] ( [] ( ( ! ( m ) ) /\ ( ! ( l ) ) ) ) ) | ( ( [] ( ( ! ( m ) ) /\ ( ! ( l ) ) ) ) W ( [] ( ! ( p ) ) ) ) | ( ( ( ! ( p ) ) /\ ( m ) ) W ( [] ( ( ! ( m ) ) /\ ( p ) ) ) ) | ( X ( [] ( ( ! ( m ) ) /\ ( ! ( l ) ) ) ) ) | ( <> ( [] ( ( ! ( m ) ) /\ ( ! ( l ) ) ) ) ) | ( ( ( ! ( p ) ) /\ ( ( l ) W ( <> ( true ) ) ) ) W ( [] ( ( ! ( m ) ) /\ ( p ) ) ) ) | ( [] ( X ( [] ( ( ! ( m ) ) /\ ( ! ( l ) ) ) ) ) ) | ( ( [] ( ( ! ( m ) ) /\ ( ! ( l ) ) ) ) /\ ( [] ( ( ! ( m ) ) /\ ( ! ( l ) ) ) ) ) | ( [] ( [] ( [] ( ( ! ( m ) ) /\ ( ! ( l ) ) ) ) ) ) | ( ( [] ( ( ! ( m ) ) /\ ( ! ( l ) ) ) ) \/ ( [] ( ( ! ( m ) ) /\ ( ! ( l ) ) ) ) ) | ( ( [] ( [] ( ( ! ( m ) ) /\ ( ! ( l ) ) ) ) ) \/ ( [] ( ( ! ( m ) ) /\ ( ! ( l ) ) ) ) ) | ( X ( ( [] ( ( ! ( m ) ) /\ ( ! ( l ) ) ) ) /\ ( [] ( ( ! ( m ) ) /\ ( ! ( l ) ) ) ) ) ) | ( ( [] ( [] ( ( ! ( m ) ) /\ ( ! ( l ) ) ) ) ) W ( [] ( ( ! ( m ) ) /\ ( ! ( l ) ) ) ) ) | ( [] ( X ( ( ! ( m ) ) /\ ( ! ( l ) ) ) ) ) | ( ( [] ( ( ! ( m ) ) /\ ( ! ( l ) ) ) ) U ( [] ( ( ! ( m ) ) /\ ( ! ( l ) ) ) ) ) | ( ( [] ( ( ! ( m ) ) /\ ( ! ( l ) ) ) ) W ( [] ( ( ! ( m ) ) /\ ( ! ( l ) ) ) ) ) | 
Learning Time :0
CALLs: 39    TIMEOUTs: 0    ERRORs: 0
REEVALUATIONS: 1642 OF 3059

GENERATION 39/50
.....i..m.<;.....i...<;......m.m.<;....m.m.<;........m.m.<;
Fittest value: 2.75 for chromosome ( [] ( ( ! ( m ) ) /\ ( ! ( l ) ) ) )
Solutions (20): ( [] ( ( ! ( m ) ) /\ ( ! ( l ) ) ) ) | ( ( ( ! ( p ) ) /\ ( ( m ) W ( [] ( false ) ) ) ) W ( [] ( ( ! ( m ) ) /\ ( p ) ) ) ) | ( <> ( X ( [] ( ( ! ( m ) ) /\ ( ( true ) /\ ( ! ( l ) ) ) ) ) ) ) | ( ( ( ! ( p ) ) /\ ( ( m ) \/ ( [] ( false ) ) ) ) W ( [] ( ( ! ( m ) ) /\ ( p ) ) ) ) | ( [] ( [] ( ( ! ( m ) ) /\ ( ! ( l ) ) ) ) ) | ( ( [] ( ( ! ( m ) ) /\ ( ! ( l ) ) ) ) W ( [] ( ! ( p ) ) ) ) | ( ( ( ! ( p ) ) /\ ( m ) ) W ( [] ( ( ! ( m ) ) /\ ( p ) ) ) ) | ( X ( [] ( ( ! ( m ) ) /\ ( ! ( l ) ) ) ) ) | ( <> ( [] ( ( ! ( m ) ) /\ ( ! ( l ) ) ) ) ) | ( ( ( ! ( p ) ) /\ ( ( l ) W ( <> ( true ) ) ) ) W ( [] ( ( ! ( m ) ) /\ ( p ) ) ) ) | ( [] ( X ( [] ( ( ! ( m ) ) /\ ( ! ( l ) ) ) ) ) ) | ( ( [] ( ( ! ( m ) ) /\ ( ! ( l ) ) ) ) /\ ( [] ( ( ! ( m ) ) /\ ( ! ( l ) ) ) ) ) | ( [] ( [] ( [] ( ( ! ( m ) ) /\ ( ! ( l ) ) ) ) ) ) | ( ( [] ( ( ! ( m ) ) /\ ( ! ( l ) ) ) ) \/ ( [] ( ( ! ( m ) ) /\ ( ! ( l ) ) ) ) ) | ( ( [] ( [] ( ( ! ( m ) ) /\ ( ! ( l ) ) ) ) ) \/ ( [] ( ( ! ( m ) ) /\ ( ! ( l ) ) ) ) ) | ( X ( ( [] ( ( ! ( m ) ) /\ ( ! ( l ) ) ) ) /\ ( [] ( ( ! ( m ) ) /\ ( ! ( l ) ) ) ) ) ) | ( ( [] ( [] ( ( ! ( m ) ) /\ ( ! ( l ) ) ) ) ) W ( [] ( ( ! ( m ) ) /\ ( ! ( l ) ) ) ) ) | ( [] ( X ( ( ! ( m ) ) /\ ( ! ( l ) ) ) ) ) | ( ( [] ( ( ! ( m ) ) /\ ( ! ( l ) ) ) ) U ( [] ( ( ! ( m ) ) /\ ( ! ( l ) ) ) ) ) | ( ( [] ( ( ! ( m ) ) /\ ( ! ( l ) ) ) ) W ( [] ( ( ! ( m ) ) /\ ( ! ( l ) ) ) ) ) | 
Learning Time :0
CALLs: 40    TIMEOUTs: 0    ERRORs: 0
REEVALUATIONS: 1713 OF 3141

GENERATION 40/50
.....m.m.<;....m.m.<;....m.m.<;....m.m.<;....m.m.<;....m.m.<;....m.m.<;....m.m.<;....m.m.<;......m.m.<;....m.m.<;
Fittest value: 2.75 for chromosome ( [] ( ( ! ( m ) ) /\ ( ! ( l ) ) ) )
Solutions (20): ( [] ( ( ! ( m ) ) /\ ( ! ( l ) ) ) ) | ( ( ( ! ( p ) ) /\ ( ( m ) W ( [] ( false ) ) ) ) W ( [] ( ( ! ( m ) ) /\ ( p ) ) ) ) | ( <> ( X ( [] ( ( ! ( m ) ) /\ ( ( true ) /\ ( ! ( l ) ) ) ) ) ) ) | ( ( ( ! ( p ) ) /\ ( ( m ) \/ ( [] ( false ) ) ) ) W ( [] ( ( ! ( m ) ) /\ ( p ) ) ) ) | ( [] ( [] ( ( ! ( m ) ) /\ ( ! ( l ) ) ) ) ) | ( ( [] ( ( ! ( m ) ) /\ ( ! ( l ) ) ) ) W ( [] ( ! ( p ) ) ) ) | ( ( ( ! ( p ) ) /\ ( m ) ) W ( [] ( ( ! ( m ) ) /\ ( p ) ) ) ) | ( X ( [] ( ( ! ( m ) ) /\ ( ! ( l ) ) ) ) ) | ( <> ( [] ( ( ! ( m ) ) /\ ( ! ( l ) ) ) ) ) | ( ( ( ! ( p ) ) /\ ( ( l ) W ( <> ( true ) ) ) ) W ( [] ( ( ! ( m ) ) /\ ( p ) ) ) ) | ( [] ( X ( [] ( ( ! ( m ) ) /\ ( ! ( l ) ) ) ) ) ) | ( ( [] ( ( ! ( m ) ) /\ ( ! ( l ) ) ) ) /\ ( [] ( ( ! ( m ) ) /\ ( ! ( l ) ) ) ) ) | ( [] ( [] ( [] ( ( ! ( m ) ) /\ ( ! ( l ) ) ) ) ) ) | ( ( [] ( ( ! ( m ) ) /\ ( ! ( l ) ) ) ) \/ ( [] ( ( ! ( m ) ) /\ ( ! ( l ) ) ) ) ) | ( ( [] ( [] ( ( ! ( m ) ) /\ ( ! ( l ) ) ) ) ) \/ ( [] ( ( ! ( m ) ) /\ ( ! ( l ) ) ) ) ) | ( X ( ( [] ( ( ! ( m ) ) /\ ( ! ( l ) ) ) ) /\ ( [] ( ( ! ( m ) ) /\ ( ! ( l ) ) ) ) ) ) | ( ( [] ( [] ( ( ! ( m ) ) /\ ( ! ( l ) ) ) ) ) W ( [] ( ( ! ( m ) ) /\ ( ! ( l ) ) ) ) ) | ( [] ( X ( ( ! ( m ) ) /\ ( ! ( l ) ) ) ) ) | ( ( [] ( ( ! ( m ) ) /\ ( ! ( l ) ) ) ) U ( [] ( ( ! ( m ) ) /\ ( ! ( l ) ) ) ) ) | ( ( [] ( ( ! ( m ) ) /\ ( ! ( l ) ) ) ) W ( [] ( ( ! ( m ) ) /\ ( ! ( l ) ) ) ) ) | 
Learning Time :0
CALLs: 69    TIMEOUTs: 0    ERRORs: 0
REEVALUATIONS: 1778 OF 3219

GENERATION 41/50
....m.m.<;......m.m.<;....m.m.<;......m.m.<;....m.m.<;
Fittest value: 2.75 for chromosome ( [] ( ( ! ( m ) ) /\ ( ! ( l ) ) ) )
Solutions (20): ( [] ( ( ! ( m ) ) /\ ( ! ( l ) ) ) ) | ( ( ( ! ( p ) ) /\ ( ( m ) W ( [] ( false ) ) ) ) W ( [] ( ( ! ( m ) ) /\ ( p ) ) ) ) | ( <> ( X ( [] ( ( ! ( m ) ) /\ ( ( true ) /\ ( ! ( l ) ) ) ) ) ) ) | ( ( ( ! ( p ) ) /\ ( ( m ) \/ ( [] ( false ) ) ) ) W ( [] ( ( ! ( m ) ) /\ ( p ) ) ) ) | ( [] ( [] ( ( ! ( m ) ) /\ ( ! ( l ) ) ) ) ) | ( ( [] ( ( ! ( m ) ) /\ ( ! ( l ) ) ) ) W ( [] ( ! ( p ) ) ) ) | ( ( ( ! ( p ) ) /\ ( m ) ) W ( [] ( ( ! ( m ) ) /\ ( p ) ) ) ) | ( X ( [] ( ( ! ( m ) ) /\ ( ! ( l ) ) ) ) ) | ( <> ( [] ( ( ! ( m ) ) /\ ( ! ( l ) ) ) ) ) | ( ( ( ! ( p ) ) /\ ( ( l ) W ( <> ( true ) ) ) ) W ( [] ( ( ! ( m ) ) /\ ( p ) ) ) ) | ( [] ( X ( [] ( ( ! ( m ) ) /\ ( ! ( l ) ) ) ) ) ) | ( ( [] ( ( ! ( m ) ) /\ ( ! ( l ) ) ) ) /\ ( [] ( ( ! ( m ) ) /\ ( ! ( l ) ) ) ) ) | ( [] ( [] ( [] ( ( ! ( m ) ) /\ ( ! ( l ) ) ) ) ) ) | ( ( [] ( ( ! ( m ) ) /\ ( ! ( l ) ) ) ) \/ ( [] ( ( ! ( m ) ) /\ ( ! ( l ) ) ) ) ) | ( ( [] ( [] ( ( ! ( m ) ) /\ ( ! ( l ) ) ) ) ) \/ ( [] ( ( ! ( m ) ) /\ ( ! ( l ) ) ) ) ) | ( X ( ( [] ( ( ! ( m ) ) /\ ( ! ( l ) ) ) ) /\ ( [] ( ( ! ( m ) ) /\ ( ! ( l ) ) ) ) ) ) | ( ( [] ( [] ( ( ! ( m ) ) /\ ( ! ( l ) ) ) ) ) W ( [] ( ( ! ( m ) ) /\ ( ! ( l ) ) ) ) ) | ( [] ( X ( ( ! ( m ) ) /\ ( ! ( l ) ) ) ) ) | ( ( [] ( ( ! ( m ) ) /\ ( ! ( l ) ) ) ) U ( [] ( ( ! ( m ) ) /\ ( ! ( l ) ) ) ) ) | ( ( [] ( ( ! ( m ) ) /\ ( ! ( l ) ) ) ) W ( [] ( ( ! ( m ) ) /\ ( ! ( l ) ) ) ) ) | 
Learning Time :0
CALLs: 34    TIMEOUTs: 0    ERRORs: 0
REEVALUATIONS: 1849 OF 3298

GENERATION 42/50
....m.m.<;......m.m.<;....m.m.<;.....i...<;....m.m.<;....m.m.<;
Fittest value: 2.75 for chromosome ( [] ( ( ! ( m ) ) /\ ( ! ( l ) ) ) )
Solutions (20): ( [] ( ( ! ( m ) ) /\ ( ! ( l ) ) ) ) | ( ( ( ! ( p ) ) /\ ( ( m ) W ( [] ( false ) ) ) ) W ( [] ( ( ! ( m ) ) /\ ( p ) ) ) ) | ( <> ( X ( [] ( ( ! ( m ) ) /\ ( ( true ) /\ ( ! ( l ) ) ) ) ) ) ) | ( ( ( ! ( p ) ) /\ ( ( m ) \/ ( [] ( false ) ) ) ) W ( [] ( ( ! ( m ) ) /\ ( p ) ) ) ) | ( [] ( [] ( ( ! ( m ) ) /\ ( ! ( l ) ) ) ) ) | ( ( [] ( ( ! ( m ) ) /\ ( ! ( l ) ) ) ) W ( [] ( ! ( p ) ) ) ) | ( ( ( ! ( p ) ) /\ ( m ) ) W ( [] ( ( ! ( m ) ) /\ ( p ) ) ) ) | ( X ( [] ( ( ! ( m ) ) /\ ( ! ( l ) ) ) ) ) | ( <> ( [] ( ( ! ( m ) ) /\ ( ! ( l ) ) ) ) ) | ( ( ( ! ( p ) ) /\ ( ( l ) W ( <> ( true ) ) ) ) W ( [] ( ( ! ( m ) ) /\ ( p ) ) ) ) | ( [] ( X ( [] ( ( ! ( m ) ) /\ ( ! ( l ) ) ) ) ) ) | ( ( [] ( ( ! ( m ) ) /\ ( ! ( l ) ) ) ) /\ ( [] ( ( ! ( m ) ) /\ ( ! ( l ) ) ) ) ) | ( [] ( [] ( [] ( ( ! ( m ) ) /\ ( ! ( l ) ) ) ) ) ) | ( ( [] ( ( ! ( m ) ) /\ ( ! ( l ) ) ) ) \/ ( [] ( ( ! ( m ) ) /\ ( ! ( l ) ) ) ) ) | ( ( [] ( [] ( ( ! ( m ) ) /\ ( ! ( l ) ) ) ) ) \/ ( [] ( ( ! ( m ) ) /\ ( ! ( l ) ) ) ) ) | ( X ( ( [] ( ( ! ( m ) ) /\ ( ! ( l ) ) ) ) /\ ( [] ( ( ! ( m ) ) /\ ( ! ( l ) ) ) ) ) ) | ( ( [] ( [] ( ( ! ( m ) ) /\ ( ! ( l ) ) ) ) ) W ( [] ( ( ! ( m ) ) /\ ( ! ( l ) ) ) ) ) | ( [] ( X ( ( ! ( m ) ) /\ ( ! ( l ) ) ) ) ) | ( ( [] ( ( ! ( m ) ) /\ ( ! ( l ) ) ) ) U ( [] ( ( ! ( m ) ) /\ ( ! ( l ) ) ) ) ) | ( ( [] ( ( ! ( m ) ) /\ ( ! ( l ) ) ) ) W ( [] ( ( ! ( m ) ) /\ ( ! ( l ) ) ) ) ) | 
Learning Time :0
CALLs: 40    TIMEOUTs: 0    ERRORs: 0
REEVALUATIONS: 1921 OF 3379

GENERATION 43/50
...i...<;....m.m.<;....m.m.<;.....i.m.m.<;
Fittest value: 2.75 for chromosome ( [] ( ( ! ( m ) ) /\ ( ! ( l ) ) ) )
Solutions (20): ( [] ( ( ! ( m ) ) /\ ( ! ( l ) ) ) ) | ( ( ( ! ( p ) ) /\ ( ( m ) W ( [] ( false ) ) ) ) W ( [] ( ( ! ( m ) ) /\ ( p ) ) ) ) | ( <> ( X ( [] ( ( ! ( m ) ) /\ ( ( true ) /\ ( ! ( l ) ) ) ) ) ) ) | ( ( ( ! ( p ) ) /\ ( ( m ) \/ ( [] ( false ) ) ) ) W ( [] ( ( ! ( m ) ) /\ ( p ) ) ) ) | ( [] ( [] ( ( ! ( m ) ) /\ ( ! ( l ) ) ) ) ) | ( ( [] ( ( ! ( m ) ) /\ ( ! ( l ) ) ) ) W ( [] ( ! ( p ) ) ) ) | ( ( ( ! ( p ) ) /\ ( m ) ) W ( [] ( ( ! ( m ) ) /\ ( p ) ) ) ) | ( X ( [] ( ( ! ( m ) ) /\ ( ! ( l ) ) ) ) ) | ( <> ( [] ( ( ! ( m ) ) /\ ( ! ( l ) ) ) ) ) | ( ( ( ! ( p ) ) /\ ( ( l ) W ( <> ( true ) ) ) ) W ( [] ( ( ! ( m ) ) /\ ( p ) ) ) ) | ( [] ( X ( [] ( ( ! ( m ) ) /\ ( ! ( l ) ) ) ) ) ) | ( ( [] ( ( ! ( m ) ) /\ ( ! ( l ) ) ) ) /\ ( [] ( ( ! ( m ) ) /\ ( ! ( l ) ) ) ) ) | ( [] ( [] ( [] ( ( ! ( m ) ) /\ ( ! ( l ) ) ) ) ) ) | ( ( [] ( ( ! ( m ) ) /\ ( ! ( l ) ) ) ) \/ ( [] ( ( ! ( m ) ) /\ ( ! ( l ) ) ) ) ) | ( ( [] ( [] ( ( ! ( m ) ) /\ ( ! ( l ) ) ) ) ) \/ ( [] ( ( ! ( m ) ) /\ ( ! ( l ) ) ) ) ) | ( X ( ( [] ( ( ! ( m ) ) /\ ( ! ( l ) ) ) ) /\ ( [] ( ( ! ( m ) ) /\ ( ! ( l ) ) ) ) ) ) | ( ( [] ( [] ( ( ! ( m ) ) /\ ( ! ( l ) ) ) ) ) W ( [] ( ( ! ( m ) ) /\ ( ! ( l ) ) ) ) ) | ( [] ( X ( ( ! ( m ) ) /\ ( ! ( l ) ) ) ) ) | ( ( [] ( ( ! ( m ) ) /\ ( ! ( l ) ) ) ) U ( [] ( ( ! ( m ) ) /\ ( ! ( l ) ) ) ) ) | ( ( [] ( ( ! ( m ) ) /\ ( ! ( l ) ) ) ) W ( [] ( ( ! ( m ) ) /\ ( ! ( l ) ) ) ) ) | 
Learning Time :0
CALLs: 26    TIMEOUTs: 0    ERRORs: 0
REEVALUATIONS: 1988 OF 3451

GENERATION 44/50
....m.m.<;....m.m.<;....m.m.<;......m.m.<;....m.m.<;
Fittest value: 2.75 for chromosome ( [] ( ( ! ( m ) ) /\ ( ! ( l ) ) ) )
Solutions (20): ( [] ( ( ! ( m ) ) /\ ( ! ( l ) ) ) ) | ( ( ( ! ( p ) ) /\ ( ( m ) W ( [] ( false ) ) ) ) W ( [] ( ( ! ( m ) ) /\ ( p ) ) ) ) | ( <> ( X ( [] ( ( ! ( m ) ) /\ ( ( true ) /\ ( ! ( l ) ) ) ) ) ) ) | ( ( ( ! ( p ) ) /\ ( ( m ) \/ ( [] ( false ) ) ) ) W ( [] ( ( ! ( m ) ) /\ ( p ) ) ) ) | ( [] ( [] ( ( ! ( m ) ) /\ ( ! ( l ) ) ) ) ) | ( ( [] ( ( ! ( m ) ) /\ ( ! ( l ) ) ) ) W ( [] ( ! ( p ) ) ) ) | ( ( ( ! ( p ) ) /\ ( m ) ) W ( [] ( ( ! ( m ) ) /\ ( p ) ) ) ) | ( X ( [] ( ( ! ( m ) ) /\ ( ! ( l ) ) ) ) ) | ( <> ( [] ( ( ! ( m ) ) /\ ( ! ( l ) ) ) ) ) | ( ( ( ! ( p ) ) /\ ( ( l ) W ( <> ( true ) ) ) ) W ( [] ( ( ! ( m ) ) /\ ( p ) ) ) ) | ( [] ( X ( [] ( ( ! ( m ) ) /\ ( ! ( l ) ) ) ) ) ) | ( ( [] ( ( ! ( m ) ) /\ ( ! ( l ) ) ) ) /\ ( [] ( ( ! ( m ) ) /\ ( ! ( l ) ) ) ) ) | ( [] ( [] ( [] ( ( ! ( m ) ) /\ ( ! ( l ) ) ) ) ) ) | ( ( [] ( ( ! ( m ) ) /\ ( ! ( l ) ) ) ) \/ ( [] ( ( ! ( m ) ) /\ ( ! ( l ) ) ) ) ) | ( ( [] ( [] ( ( ! ( m ) ) /\ ( ! ( l ) ) ) ) ) \/ ( [] ( ( ! ( m ) ) /\ ( ! ( l ) ) ) ) ) | ( X ( ( [] ( ( ! ( m ) ) /\ ( ! ( l ) ) ) ) /\ ( [] ( ( ! ( m ) ) /\ ( ! ( l ) ) ) ) ) ) | ( ( [] ( [] ( ( ! ( m ) ) /\ ( ! ( l ) ) ) ) ) W ( [] ( ( ! ( m ) ) /\ ( ! ( l ) ) ) ) ) | ( [] ( X ( ( ! ( m ) ) /\ ( ! ( l ) ) ) ) ) | ( ( [] ( ( ! ( m ) ) /\ ( ! ( l ) ) ) ) U ( [] ( ( ! ( m ) ) /\ ( ! ( l ) ) ) ) ) | ( ( [] ( ( ! ( m ) ) /\ ( ! ( l ) ) ) ) W ( [] ( ( ! ( m ) ) /\ ( ! ( l ) ) ) ) ) | 
Learning Time :0
CALLs: 32    TIMEOUTs: 0    ERRORs: 0
REEVALUATIONS: 2069 OF 3538

GENERATION 45/50
......m.m.<;
Fittest value: 2.75 for chromosome ( [] ( ( ! ( m ) ) /\ ( ! ( l ) ) ) )
Solutions (20): ( [] ( ( ! ( m ) ) /\ ( ! ( l ) ) ) ) | ( ( ( ! ( p ) ) /\ ( ( m ) W ( [] ( false ) ) ) ) W ( [] ( ( ! ( m ) ) /\ ( p ) ) ) ) | ( <> ( X ( [] ( ( ! ( m ) ) /\ ( ( true ) /\ ( ! ( l ) ) ) ) ) ) ) | ( ( ( ! ( p ) ) /\ ( ( m ) \/ ( [] ( false ) ) ) ) W ( [] ( ( ! ( m ) ) /\ ( p ) ) ) ) | ( [] ( [] ( ( ! ( m ) ) /\ ( ! ( l ) ) ) ) ) | ( ( [] ( ( ! ( m ) ) /\ ( ! ( l ) ) ) ) W ( [] ( ! ( p ) ) ) ) | ( ( ( ! ( p ) ) /\ ( m ) ) W ( [] ( ( ! ( m ) ) /\ ( p ) ) ) ) | ( X ( [] ( ( ! ( m ) ) /\ ( ! ( l ) ) ) ) ) | ( <> ( [] ( ( ! ( m ) ) /\ ( ! ( l ) ) ) ) ) | ( ( ( ! ( p ) ) /\ ( ( l ) W ( <> ( true ) ) ) ) W ( [] ( ( ! ( m ) ) /\ ( p ) ) ) ) | ( [] ( X ( [] ( ( ! ( m ) ) /\ ( ! ( l ) ) ) ) ) ) | ( ( [] ( ( ! ( m ) ) /\ ( ! ( l ) ) ) ) /\ ( [] ( ( ! ( m ) ) /\ ( ! ( l ) ) ) ) ) | ( [] ( [] ( [] ( ( ! ( m ) ) /\ ( ! ( l ) ) ) ) ) ) | ( ( [] ( ( ! ( m ) ) /\ ( ! ( l ) ) ) ) \/ ( [] ( ( ! ( m ) ) /\ ( ! ( l ) ) ) ) ) | ( ( [] ( [] ( ( ! ( m ) ) /\ ( ! ( l ) ) ) ) ) \/ ( [] ( ( ! ( m ) ) /\ ( ! ( l ) ) ) ) ) | ( X ( ( [] ( ( ! ( m ) ) /\ ( ! ( l ) ) ) ) /\ ( [] ( ( ! ( m ) ) /\ ( ! ( l ) ) ) ) ) ) | ( ( [] ( [] ( ( ! ( m ) ) /\ ( ! ( l ) ) ) ) ) W ( [] ( ( ! ( m ) ) /\ ( ! ( l ) ) ) ) ) | ( [] ( X ( ( ! ( m ) ) /\ ( ! ( l ) ) ) ) ) | ( ( [] ( ( ! ( m ) ) /\ ( ! ( l ) ) ) ) U ( [] ( ( ! ( m ) ) /\ ( ! ( l ) ) ) ) ) | ( ( [] ( ( ! ( m ) ) /\ ( ! ( l ) ) ) ) W ( [] ( ( ! ( m ) ) /\ ( ! ( l ) ) ) ) ) | 
Learning Time :0
CALLs: 8    TIMEOUTs: 0    ERRORs: 0
REEVALUATIONS: 2148 OF 3619

GENERATION 46/50
...i..m.<;.....m.m.<;....m.m.<;....m.m.<;
Fittest value: 2.75 for chromosome ( [] ( ( ! ( m ) ) /\ ( ! ( l ) ) ) )
Solutions (20): ( [] ( ( ! ( m ) ) /\ ( ! ( l ) ) ) ) | ( ( ( ! ( p ) ) /\ ( ( m ) W ( [] ( false ) ) ) ) W ( [] ( ( ! ( m ) ) /\ ( p ) ) ) ) | ( <> ( X ( [] ( ( ! ( m ) ) /\ ( ( true ) /\ ( ! ( l ) ) ) ) ) ) ) | ( ( ( ! ( p ) ) /\ ( ( m ) \/ ( [] ( false ) ) ) ) W ( [] ( ( ! ( m ) ) /\ ( p ) ) ) ) | ( [] ( [] ( ( ! ( m ) ) /\ ( ! ( l ) ) ) ) ) | ( ( [] ( ( ! ( m ) ) /\ ( ! ( l ) ) ) ) W ( [] ( ! ( p ) ) ) ) | ( ( ( ! ( p ) ) /\ ( m ) ) W ( [] ( ( ! ( m ) ) /\ ( p ) ) ) ) | ( X ( [] ( ( ! ( m ) ) /\ ( ! ( l ) ) ) ) ) | ( <> ( [] ( ( ! ( m ) ) /\ ( ! ( l ) ) ) ) ) | ( ( ( ! ( p ) ) /\ ( ( l ) W ( <> ( true ) ) ) ) W ( [] ( ( ! ( m ) ) /\ ( p ) ) ) ) | ( [] ( X ( [] ( ( ! ( m ) ) /\ ( ! ( l ) ) ) ) ) ) | ( ( [] ( ( ! ( m ) ) /\ ( ! ( l ) ) ) ) /\ ( [] ( ( ! ( m ) ) /\ ( ! ( l ) ) ) ) ) | ( [] ( [] ( [] ( ( ! ( m ) ) /\ ( ! ( l ) ) ) ) ) ) | ( ( [] ( ( ! ( m ) ) /\ ( ! ( l ) ) ) ) \/ ( [] ( ( ! ( m ) ) /\ ( ! ( l ) ) ) ) ) | ( ( [] ( [] ( ( ! ( m ) ) /\ ( ! ( l ) ) ) ) ) \/ ( [] ( ( ! ( m ) ) /\ ( ! ( l ) ) ) ) ) | ( X ( ( [] ( ( ! ( m ) ) /\ ( ! ( l ) ) ) ) /\ ( [] ( ( ! ( m ) ) /\ ( ! ( l ) ) ) ) ) ) | ( ( [] ( [] ( ( ! ( m ) ) /\ ( ! ( l ) ) ) ) ) W ( [] ( ( ! ( m ) ) /\ ( ! ( l ) ) ) ) ) | ( [] ( X ( ( ! ( m ) ) /\ ( ! ( l ) ) ) ) ) | ( ( [] ( ( ! ( m ) ) /\ ( ! ( l ) ) ) ) U ( [] ( ( ! ( m ) ) /\ ( ! ( l ) ) ) ) ) | ( ( [] ( ( ! ( m ) ) /\ ( ! ( l ) ) ) ) W ( [] ( ( ! ( m ) ) /\ ( ! ( l ) ) ) ) ) | 
Learning Time :0
CALLs: 25    TIMEOUTs: 0    ERRORs: 0
REEVALUATIONS: 2226 OF 3702

GENERATION 47/50
....m.m.<;....m.m.<;....m.m.<;....m.m.<;.....i.m.m.<;
Fittest value: 2.75 for chromosome ( [] ( ( ! ( m ) ) /\ ( ! ( l ) ) ) )
Solutions (20): ( [] ( ( ! ( m ) ) /\ ( ! ( l ) ) ) ) | ( ( ( ! ( p ) ) /\ ( ( m ) W ( [] ( false ) ) ) ) W ( [] ( ( ! ( m ) ) /\ ( p ) ) ) ) | ( <> ( X ( [] ( ( ! ( m ) ) /\ ( ( true ) /\ ( ! ( l ) ) ) ) ) ) ) | ( ( ( ! ( p ) ) /\ ( ( m ) \/ ( [] ( false ) ) ) ) W ( [] ( ( ! ( m ) ) /\ ( p ) ) ) ) | ( [] ( [] ( ( ! ( m ) ) /\ ( ! ( l ) ) ) ) ) | ( ( [] ( ( ! ( m ) ) /\ ( ! ( l ) ) ) ) W ( [] ( ! ( p ) ) ) ) | ( ( ( ! ( p ) ) /\ ( m ) ) W ( [] ( ( ! ( m ) ) /\ ( p ) ) ) ) | ( X ( [] ( ( ! ( m ) ) /\ ( ! ( l ) ) ) ) ) | ( <> ( [] ( ( ! ( m ) ) /\ ( ! ( l ) ) ) ) ) | ( ( ( ! ( p ) ) /\ ( ( l ) W ( <> ( true ) ) ) ) W ( [] ( ( ! ( m ) ) /\ ( p ) ) ) ) | ( [] ( X ( [] ( ( ! ( m ) ) /\ ( ! ( l ) ) ) ) ) ) | ( ( [] ( ( ! ( m ) ) /\ ( ! ( l ) ) ) ) /\ ( [] ( ( ! ( m ) ) /\ ( ! ( l ) ) ) ) ) | ( [] ( [] ( [] ( ( ! ( m ) ) /\ ( ! ( l ) ) ) ) ) ) | ( ( [] ( ( ! ( m ) ) /\ ( ! ( l ) ) ) ) \/ ( [] ( ( ! ( m ) ) /\ ( ! ( l ) ) ) ) ) | ( ( [] ( [] ( ( ! ( m ) ) /\ ( ! ( l ) ) ) ) ) \/ ( [] ( ( ! ( m ) ) /\ ( ! ( l ) ) ) ) ) | ( X ( ( [] ( ( ! ( m ) ) /\ ( ! ( l ) ) ) ) /\ ( [] ( ( ! ( m ) ) /\ ( ! ( l ) ) ) ) ) ) | ( ( [] ( [] ( ( ! ( m ) ) /\ ( ! ( l ) ) ) ) ) W ( [] ( ( ! ( m ) ) /\ ( ! ( l ) ) ) ) ) | ( [] ( X ( ( ! ( m ) ) /\ ( ! ( l ) ) ) ) ) | ( ( [] ( ( ! ( m ) ) /\ ( ! ( l ) ) ) ) U ( [] ( ( ! ( m ) ) /\ ( ! ( l ) ) ) ) ) | ( ( [] ( ( ! ( m ) ) /\ ( ! ( l ) ) ) ) W ( [] ( ( ! ( m ) ) /\ ( ! ( l ) ) ) ) ) | 
Learning Time :0
CALLs: 32    TIMEOUTs: 0    ERRORs: 0
REEVALUATIONS: 2304 OF 3786

GENERATION 48/50
....m.m.<;.......m.m.<;....
Fittest value: 2.75 for chromosome ( [] ( ( ! ( m ) ) /\ ( ! ( l ) ) ) )
Solutions (20): ( [] ( ( ! ( m ) ) /\ ( ! ( l ) ) ) ) | ( ( ( ! ( p ) ) /\ ( ( m ) W ( [] ( false ) ) ) ) W ( [] ( ( ! ( m ) ) /\ ( p ) ) ) ) | ( <> ( X ( [] ( ( ! ( m ) ) /\ ( ( true ) /\ ( ! ( l ) ) ) ) ) ) ) | ( ( ( ! ( p ) ) /\ ( ( m ) \/ ( [] ( false ) ) ) ) W ( [] ( ( ! ( m ) ) /\ ( p ) ) ) ) | ( [] ( [] ( ( ! ( m ) ) /\ ( ! ( l ) ) ) ) ) | ( ( [] ( ( ! ( m ) ) /\ ( ! ( l ) ) ) ) W ( [] ( ! ( p ) ) ) ) | ( ( ( ! ( p ) ) /\ ( m ) ) W ( [] ( ( ! ( m ) ) /\ ( p ) ) ) ) | ( X ( [] ( ( ! ( m ) ) /\ ( ! ( l ) ) ) ) ) | ( <> ( [] ( ( ! ( m ) ) /\ ( ! ( l ) ) ) ) ) | ( ( ( ! ( p ) ) /\ ( ( l ) W ( <> ( true ) ) ) ) W ( [] ( ( ! ( m ) ) /\ ( p ) ) ) ) | ( [] ( X ( [] ( ( ! ( m ) ) /\ ( ! ( l ) ) ) ) ) ) | ( ( [] ( ( ! ( m ) ) /\ ( ! ( l ) ) ) ) /\ ( [] ( ( ! ( m ) ) /\ ( ! ( l ) ) ) ) ) | ( [] ( [] ( [] ( ( ! ( m ) ) /\ ( ! ( l ) ) ) ) ) ) | ( ( [] ( ( ! ( m ) ) /\ ( ! ( l ) ) ) ) \/ ( [] ( ( ! ( m ) ) /\ ( ! ( l ) ) ) ) ) | ( ( [] ( [] ( ( ! ( m ) ) /\ ( ! ( l ) ) ) ) ) \/ ( [] ( ( ! ( m ) ) /\ ( ! ( l ) ) ) ) ) | ( X ( ( [] ( ( ! ( m ) ) /\ ( ! ( l ) ) ) ) /\ ( [] ( ( ! ( m ) ) /\ ( ! ( l ) ) ) ) ) ) | ( ( [] ( [] ( ( ! ( m ) ) /\ ( ! ( l ) ) ) ) ) W ( [] ( ( ! ( m ) ) /\ ( ! ( l ) ) ) ) ) | ( [] ( X ( ( ! ( m ) ) /\ ( ! ( l ) ) ) ) ) | ( ( [] ( ( ! ( m ) ) /\ ( ! ( l ) ) ) ) U ( [] ( ( ! ( m ) ) /\ ( ! ( l ) ) ) ) ) | ( ( [] ( ( ! ( m ) ) /\ ( ! ( l ) ) ) ) W ( [] ( ( ! ( m ) ) /\ ( ! ( l ) ) ) ) ) | 
Learning Time :0
CALLs: 19    TIMEOUTs: 0    ERRORs: 0
REEVALUATIONS: 2382 OF 3870

GENERATION 49/50
....m.m.<;......m.m.<;.....m.m.<;....m.m.<;....m.m.<;..
Fittest value: 2.75 for chromosome ( [] ( ( ! ( m ) ) /\ ( ! ( l ) ) ) )
Solutions (20): ( [] ( ( ! ( m ) ) /\ ( ! ( l ) ) ) ) | ( ( ( ! ( p ) ) /\ ( ( m ) W ( [] ( false ) ) ) ) W ( [] ( ( ! ( m ) ) /\ ( p ) ) ) ) | ( <> ( X ( [] ( ( ! ( m ) ) /\ ( ( true ) /\ ( ! ( l ) ) ) ) ) ) ) | ( ( ( ! ( p ) ) /\ ( ( m ) \/ ( [] ( false ) ) ) ) W ( [] ( ( ! ( m ) ) /\ ( p ) ) ) ) | ( [] ( [] ( ( ! ( m ) ) /\ ( ! ( l ) ) ) ) ) | ( ( [] ( ( ! ( m ) ) /\ ( ! ( l ) ) ) ) W ( [] ( ! ( p ) ) ) ) | ( ( ( ! ( p ) ) /\ ( m ) ) W ( [] ( ( ! ( m ) ) /\ ( p ) ) ) ) | ( X ( [] ( ( ! ( m ) ) /\ ( ! ( l ) ) ) ) ) | ( <> ( [] ( ( ! ( m ) ) /\ ( ! ( l ) ) ) ) ) | ( ( ( ! ( p ) ) /\ ( ( l ) W ( <> ( true ) ) ) ) W ( [] ( ( ! ( m ) ) /\ ( p ) ) ) ) | ( [] ( X ( [] ( ( ! ( m ) ) /\ ( ! ( l ) ) ) ) ) ) | ( ( [] ( ( ! ( m ) ) /\ ( ! ( l ) ) ) ) /\ ( [] ( ( ! ( m ) ) /\ ( ! ( l ) ) ) ) ) | ( [] ( [] ( [] ( ( ! ( m ) ) /\ ( ! ( l ) ) ) ) ) ) | ( ( [] ( ( ! ( m ) ) /\ ( ! ( l ) ) ) ) \/ ( [] ( ( ! ( m ) ) /\ ( ! ( l ) ) ) ) ) | ( ( [] ( [] ( ( ! ( m ) ) /\ ( ! ( l ) ) ) ) ) \/ ( [] ( ( ! ( m ) ) /\ ( ! ( l ) ) ) ) ) | ( X ( ( [] ( ( ! ( m ) ) /\ ( ! ( l ) ) ) ) /\ ( [] ( ( ! ( m ) ) /\ ( ! ( l ) ) ) ) ) ) | ( ( [] ( [] ( ( ! ( m ) ) /\ ( ! ( l ) ) ) ) ) W ( [] ( ( ! ( m ) ) /\ ( ! ( l ) ) ) ) ) | ( [] ( X ( ( ! ( m ) ) /\ ( ! ( l ) ) ) ) ) | ( ( [] ( ( ! ( m ) ) /\ ( ! ( l ) ) ) ) U ( [] ( ( ! ( m ) ) /\ ( ! ( l ) ) ) ) ) | ( ( [] ( ( ! ( m ) ) /\ ( ! ( l ) ) ) ) W ( [] ( ( ! ( m ) ) /\ ( ! ( l ) ) ) ) ) | 
Learning Time :0
CALLs: 35    TIMEOUTs: 0    ERRORs: 0
REEVALUATIONS: 2455 OF 3951

GENERATION 50/50
....m.m.<;..
Fittest value: 2.75 for chromosome ( [] ( ( ! ( m ) ) /\ ( ! ( l ) ) ) )
Solutions (20): ( [] ( ( ! ( m ) ) /\ ( ! ( l ) ) ) ) | ( ( ( ! ( p ) ) /\ ( ( m ) W ( [] ( false ) ) ) ) W ( [] ( ( ! ( m ) ) /\ ( p ) ) ) ) | ( <> ( X ( [] ( ( ! ( m ) ) /\ ( ( true ) /\ ( ! ( l ) ) ) ) ) ) ) | ( ( ( ! ( p ) ) /\ ( ( m ) \/ ( [] ( false ) ) ) ) W ( [] ( ( ! ( m ) ) /\ ( p ) ) ) ) | ( [] ( [] ( ( ! ( m ) ) /\ ( ! ( l ) ) ) ) ) | ( ( [] ( ( ! ( m ) ) /\ ( ! ( l ) ) ) ) W ( [] ( ! ( p ) ) ) ) | ( ( ( ! ( p ) ) /\ ( m ) ) W ( [] ( ( ! ( m ) ) /\ ( p ) ) ) ) | ( X ( [] ( ( ! ( m ) ) /\ ( ! ( l ) ) ) ) ) | ( <> ( [] ( ( ! ( m ) ) /\ ( ! ( l ) ) ) ) ) | ( ( ( ! ( p ) ) /\ ( ( l ) W ( <> ( true ) ) ) ) W ( [] ( ( ! ( m ) ) /\ ( p ) ) ) ) | ( [] ( X ( [] ( ( ! ( m ) ) /\ ( ! ( l ) ) ) ) ) ) | ( ( [] ( ( ! ( m ) ) /\ ( ! ( l ) ) ) ) /\ ( [] ( ( ! ( m ) ) /\ ( ! ( l ) ) ) ) ) | ( [] ( [] ( [] ( ( ! ( m ) ) /\ ( ! ( l ) ) ) ) ) ) | ( ( [] ( ( ! ( m ) ) /\ ( ! ( l ) ) ) ) \/ ( [] ( ( ! ( m ) ) /\ ( ! ( l ) ) ) ) ) | ( ( [] ( [] ( ( ! ( m ) ) /\ ( ! ( l ) ) ) ) ) \/ ( [] ( ( ! ( m ) ) /\ ( ! ( l ) ) ) ) ) | ( X ( ( [] ( ( ! ( m ) ) /\ ( ! ( l ) ) ) ) /\ ( [] ( ( ! ( m ) ) /\ ( ! ( l ) ) ) ) ) ) | ( ( [] ( [] ( ( ! ( m ) ) /\ ( ! ( l ) ) ) ) ) W ( [] ( ( ! ( m ) ) /\ ( ! ( l ) ) ) ) ) | ( [] ( X ( ( ! ( m ) ) /\ ( ! ( l ) ) ) ) ) | ( ( [] ( ( ! ( m ) ) /\ ( ! ( l ) ) ) ) U ( [] ( ( ! ( m ) ) /\ ( ! ( l ) ) ) ) ) | ( ( [] ( ( ! ( m ) ) /\ ( ! ( l ) ) ) ) W ( [] ( ( ! ( m ) ) /\ ( ! ( l ) ) ) ) ) | 
Learning Time :0
CALLs: 8    TIMEOUTs: 0    ERRORs: 0
REEVALUATIONS: 2526 OF 4024


TOTAL Learing Time :40

Solutions: 20
( [] ( ( ! ( m ) ) /\ ( ! ( l ) ) ) )
( ( ( ! ( p ) ) /\ ( ( m ) W ( [] ( false ) ) ) ) W ( [] ( ( ! ( m ) ) /\ ( p ) ) ) )
( <> ( X ( [] ( ( ! ( m ) ) /\ ( ( true ) /\ ( ! ( l ) ) ) ) ) ) )
( ( ( ! ( p ) ) /\ ( ( m ) \/ ( [] ( false ) ) ) ) W ( [] ( ( ! ( m ) ) /\ ( p ) ) ) )
( [] ( [] ( ( ! ( m ) ) /\ ( ! ( l ) ) ) ) )
( ( [] ( ( ! ( m ) ) /\ ( ! ( l ) ) ) ) W ( [] ( ! ( p ) ) ) )
( ( ( ! ( p ) ) /\ ( m ) ) W ( [] ( ( ! ( m ) ) /\ ( p ) ) ) )
( X ( [] ( ( ! ( m ) ) /\ ( ! ( l ) ) ) ) )
( <> ( [] ( ( ! ( m ) ) /\ ( ! ( l ) ) ) ) )
( ( ( ! ( p ) ) /\ ( ( l ) W ( <> ( true ) ) ) ) W ( [] ( ( ! ( m ) ) /\ ( p ) ) ) )
( [] ( X ( [] ( ( ! ( m ) ) /\ ( ! ( l ) ) ) ) ) )
( ( [] ( ( ! ( m ) ) /\ ( ! ( l ) ) ) ) /\ ( [] ( ( ! ( m ) ) /\ ( ! ( l ) ) ) ) )
( [] ( [] ( [] ( ( ! ( m ) ) /\ ( ! ( l ) ) ) ) ) )
( ( [] ( ( ! ( m ) ) /\ ( ! ( l ) ) ) ) \/ ( [] ( ( ! ( m ) ) /\ ( ! ( l ) ) ) ) )
( ( [] ( [] ( ( ! ( m ) ) /\ ( ! ( l ) ) ) ) ) \/ ( [] ( ( ! ( m ) ) /\ ( ! ( l ) ) ) ) )
( X ( ( [] ( ( ! ( m ) ) /\ ( ! ( l ) ) ) ) /\ ( [] ( ( ! ( m ) ) /\ ( ! ( l ) ) ) ) ) )
( ( [] ( [] ( ( ! ( m ) ) /\ ( ! ( l ) ) ) ) ) W ( [] ( ( ! ( m ) ) /\ ( ! ( l ) ) ) ) )
( [] ( X ( ( ! ( m ) ) /\ ( ! ( l ) ) ) ) )
( ( [] ( ( ! ( m ) ) /\ ( ! ( l ) ) ) ) U ( [] ( ( ! ( m ) ) /\ ( ! ( l ) ) ) ) )
( ( [] ( ( ! ( m ) ) /\ ( ! ( l ) ) ) ) W ( [] ( ( ! ( m ) ) /\ ( ! ( l ) ) ) ) )

.................................................................
Non Equivalent Solutions: 7
( [] ( ( ! ( m ) ) /\ ( ! ( l ) ) ) )
( ( ( ! ( p ) ) /\ ( ( m ) W ( [] ( false ) ) ) ) W ( [] ( ( ! ( m ) ) /\ ( p ) ) ) )
( ( [] ( ( ! ( m ) ) /\ ( ! ( l ) ) ) ) W ( [] ( ! ( p ) ) ) )
( ( ( ! ( p ) ) /\ ( m ) ) W ( [] ( ( ! ( m ) ) /\ ( p ) ) ) )
( X ( [] ( ( ! ( m ) ) /\ ( ! ( l ) ) ) ) )
( <> ( [] ( ( ! ( m ) ) /\ ( ! ( l ) ) ) ) )
( ( ( ! ( p ) ) /\ ( ( l ) W ( <> ( true ) ) ) ) W ( [] ( ( ! ( m ) ) /\ ( p ) ) ) )
..................................
Weakest Solutions: 3
( ( [] ( ( ! ( m ) ) /\ ( ! ( l ) ) ) ) W ( [] ( ! ( p ) ) ) )
( <> ( [] ( ( ! ( m ) ) /\ ( ! ( l ) ) ) ) )
( ( ( ! ( p ) ) /\ ( ( l ) W ( <> ( true ) ) ) ) W ( [] ( ( ! ( m ) ) /\ ( p ) ) ) )
TOTAL Time :41
CALLs: 7481    TIMEOUTs: 0    ERRORs: 0
CONFIGURATION
#Population: 100    #Iterations: 50
REEVALUATIONS: 2526 OF 4024
