0. NO - TOTAL Learing Time :4942

1. Min. 43 - Accumulated Learning Time : 6262 - Best. 49 Accumulated Learning Time: 7128 Total time: 7515 Sols: 3 NonEq. 3

2. NO - TOTAL Learing Time :15256

3. Min. 26 - Accumulated Learning Time : 16342 - Best. 26 Accumulated Learning Time: 16342 Total time: 38999 Sols: 4 NonEq. 1

4. NO - TOTAL Learing Time :3955

5. Min. 29 - Accumulated Learning Time : 3162 - Best. 29 Accumulated Learning Time: 3162 Total time: 5074 Sols: 3 NonEq. 2

6. Min. 29 - Accumulated Learning Time : 4987 - Best. 29 Accumulated Learning Time: 4987 Total time: 8326 Sols: 4 NonEq. 2

7. Min. 29 - Accumulated Learning Time : 7865 - Best. 29 Accumulated Learning Time: 7865 Total time: 12286 Sols: 8 NonEq. 7

8. Min. 24 - Accumulated Learning Time : 3987 - Best. 33 Accumulated Learning Time: 5762 Total time: 8225 Sols: 10 NonEq. 2

9. NO - TOTAL Learing Time :20711

