DOM: [[]((p && X(p)) -> X(X(! h)))]
GOALS: [[](h -> X(p)), [](m -> X(! p))]
Initial population size: 34
Total population size: 100

GENERATION 1/50
....m.m.<;...i...<;....m.m.<;....m.m.<;....m.m.<;...i..m.<;....m.m.<;....m.m.<;....m.m.<;...i.m..<;....m.m.<;...i.m..<;....m.m.<;...i..m.<;....m.m.<;....m.m.<;....m.m.<;...i...<;....m.m.<;....m.m.<;....m.m.<;....m.m.<;....m.m.<;....m.m.<;....m.m.<;....m.m.<;....m.m.<;....m.m.<;......m.m.<;....m.m.<;....m.m.<;....m.m.<;.....m.m.<;....m.m.<;........m.m.<;....m.m.<;.......m.m.<;....m.m.<;....m.m.<;....m.m.<;....m.m.<;.....i.m..<;....m.m.<;
Best fitness value: ( [] ( h ) ) 2.0
Generation Time :0
Accumulated Learning Time :0
CALLs: 270    TIMEOUTs: 0    ERRORs: 0
REEVALUATIONS: 23 OF 73

GENERATION 2/50
....m.m.<;....m.m.<;......m.m.<;....m.m.<;....m.m.<;....m.m.<;....m.m.<;....m.m.<;....m.m.<;....m.m.<;......m.m.<;....m.m.<;....i.m..<;....m.m.<;....m.m.<;.......m.m.<;....m.m.<;....m.m.<;....m.m.<;.....m.m.<;............m.m.<;....m.m.<;....m.m.<;......m.m.<;....m.m.<;.....m.m.<;.....m.m.<;.......i.m..<;....m.m.<;....m.m.<;....m.m.<;...i.m..<;....m.m.<;
Best fitness value: ( [] ( X ( h ) ) ) 2.0
Generation Time :0
Accumulated Learning Time :0
CALLs: 223    TIMEOUTs: 0    ERRORs: 0
REEVALUATIONS: 61 OF 160

GENERATION 3/50
....m.m.<;.....m.m.<;....m.m.<;....m.m.<;...i..m.<;....m.m.<;....m.m.<;....m.m.<;.....m.m.<;....m.m.<;....m.m.<;....m.m.<;....m.m.<;....m.m.<;......m.m.<;....m.m.<;....m.m.<;....m.m.<;......i..m.<;....m.m.<;....m.m.<;.....m.m.<;....m.m.<;....m.m.<;....m.m.<;....m.m.<;....m.m.<;....m.m.<;...i.m..<;....m.m.<;....m.m.<;....m.m.<;....m.m.<;....m.m.<;.....m.m.<;....m.m.<;....m.m.<;....m.m.<;....m.m.<;....m.m.<;....m.m.<;....m.m.<;....m.m.<;....m.m.<;...i..m.<;
Best fitness value: ( [] ( h ) ) 2.0
Generation Time :0
Accumulated Learning Time :0
CALLs: 279    TIMEOUTs: 0    ERRORs: 0
REEVALUATIONS: 95 OF 246

GENERATION 4/50
....m.m.<;...i..m.<;....m.m.<;.....i.m..<;....m.m.<;....m.m.<;....m.m.<;....m.m.<;....m.m.<;.....m.m.<;...i.m..<;....m.m.<;....m.m.<;....m.m.<;....m.m.<;....m.m.<;....m.m.<;....m.m.<;......m.m.<;........m.m.<;....m.m.<;......m.m.<;.....m.m.<;......m.m.<;.....i.m..<;....m.m.<;....m.m.<;....m.m.<;....m.m.<;....m.m.<;......m.m.<;....m.m.<;....m.m.<;....m.m.<;.....m.m.<;....m.m.<;....m.m.<;....m.m.<;......m.m.<;....m.m.<;....m.m.<;...i.m.m.<;....m.m.<;....m.m.<;...i.m..<;....m.m.<;....m.m.<;
Fittest value: 2.611111111111111 for chromosome ( ( ( m ) /\ ( X ( p ) ) ) \/ ( ( h ) /\ ( X ( ! ( p ) ) ) ) )
Solutions (1): ( ( ( m ) /\ ( X ( p ) ) ) \/ ( ( h ) /\ ( X ( ! ( p ) ) ) ) ) | 
Generation Time :0
Accumulated Learning Time :1
CALLs: 303    TIMEOUTs: 0    ERRORs: 0
REEVALUATIONS: 117 OF 328

GENERATION 5/50
.....m.m.<;....m.m.<;......m.m.<;....m.m.<;.......m.m.<;....m.m.<;.......m.m.<;....m.m.<;....m.m.<;.....m.m.<;.....m.m.<;....m.m.<;......m.m.<;....m.m.<;....m.m.<;.....m.m.<;....m.m.<;....m.m.<;......m.m.<;....m.m.<;...i..m.<;.....m.m.<;.....m.m.<;......m.m.<;......m.m.<;....m.m.<;......m.m.<;.....m.m.<;....m.m.<;....m.m.<;....m.m.<;....m.m.<;...i...<;......m.m.<;....m.m.<;...i..m.<;...i.m..<;...i.m.m.<;
Fittest value: 2.642857142857143 for chromosome ( ( h ) W ( [] ( ( m ) /\ ( [] ( p ) ) ) ) )
Solutions (2): ( ( ( m ) /\ ( X ( p ) ) ) \/ ( ( h ) /\ ( X ( ! ( p ) ) ) ) ) | ( ( h ) W ( [] ( ( m ) /\ ( [] ( p ) ) ) ) ) | 
Generation Time :0
Accumulated Learning Time :1
CALLs: 255    TIMEOUTs: 0    ERRORs: 0
REEVALUATIONS: 139 OF 408

GENERATION 6/50
....m.m.<;......m.m.<;...i..m.<;....m.m.<;...i.m..<;....m.m.<;....m.m.<;....m.m.<;.....m.m.<;...i.m..<;....m.m.<;.....m.m.<;....m.m.<;...i.m..<;....m.m.<;....m.m.<;....m.m.<;....m.m.<;....m.m.<;....m.m.<;...i.m..<;...i.m..<;...i.m..<;....m.m.<;.....m.m.<;......m.m.<;....m.m.<;........m.m.<;....m.m.<;.....m.m.<;....m.m.<;....m.m.<;....m.m.<;....m.m.<;....m.m.<;....m.m.<;....m.m.<;....m.m.<;....m.m.<;....m.m.<;...i..m.<;......m.m.<;....m.m.<;....m.m.<;......m.m.<;...i.m.m.<;...i.m..<;....m.m.<;...i..m.<;...i.m..<;....m.m.<;...i.m..<;....m.m.<;
Fittest value: 2.8333333333333335 for chromosome ( ( h ) /\ ( m ) )
Solutions (3): ( ( ( m ) /\ ( X ( p ) ) ) \/ ( ( h ) /\ ( X ( ! ( p ) ) ) ) ) | ( ( h ) W ( [] ( ( m ) /\ ( [] ( p ) ) ) ) ) | ( ( h ) /\ ( m ) ) | 
Generation Time :0
Accumulated Learning Time :2
CALLs: 334    TIMEOUTs: 0    ERRORs: 0
REEVALUATIONS: 156 OF 489

GENERATION 7/50
...i..m.<;....m.m.<;....m.m.<;...i..m.<;....m.m.<;......m.m.<;...i.m..<;....m.m.<;....m.m.;...i.m..<;...i.m..<;...i.m..<;...i..m.<;....i.m..<;......i.m..<;....m.m.<;....m.m.<;...i.m..<;....m.m.<;......m.m.<;....m.m.<;...i..m.<;....m.m.<;.....m.m.<;....m.m.<;....m.m.<;....m.m.<;....m.m.<;....m.m.<;....m.m.<;....m.m.<;....m.m.<;....m.m.<;....m.m.<;....m.m.<;....m.m.<;...i.m..<;....m.m.<;....m.m.<;....m.m.<;...i..m.<;...i..m.<;....m.m.<;...i..m.<;...i.m.m.<;...i..m.<;...i.m.m.<;
Fittest value: 2.8333333333333335 for chromosome ( ( h ) /\ ( m ) )
Solutions (5): ( ( ( m ) /\ ( X ( p ) ) ) \/ ( ( h ) /\ ( X ( ! ( p ) ) ) ) ) | ( ( h ) W ( [] ( ( m ) /\ ( [] ( p ) ) ) ) ) | ( ( h ) /\ ( m ) ) | ( ( [] ( h ) ) U ( ( m ) /\ ( h ) ) ) | ( [] ( ( ( m ) /\ ( X ( p ) ) ) \/ ( ( h ) /\ ( X ( ! ( p ) ) ) ) ) ) | 
Generation Time :0
Accumulated Learning Time :2
CALLs: 291    TIMEOUTs: 0    ERRORs: 0
REEVALUATIONS: 175 OF 563

GENERATION 8/50
....m.m.<;....m.m.<;....m.m.<;....m.m.<;...i..m.<;....m.m.<;....m.m.<;....m.m.<;....m.m.<;....m.m.<;....m.m.<;....m.m.<;...i.m..<;...........m.m.<;....m.m.<;....m.m.<;.....i..m.<;....m.m.<;.......m.m.<;......m.m.<;...i.m..<;....m.m.<;......m.m.<;...i..m.<;.....m.m.<;...i.m.m.<;.....i.m..<;....m.m.<;...i.m..<;....m.m.<;....m.m.<;....m.m.<;....i.m..<;...i..m.<;....m.m.<;....m.m.<;....m.m.<;....m.m.<;....m.m.<;....m.m.<;....m.m.<;....m.m.<;...i..m.<;....m.m.<;....m.m.<;...i.m..<;....m.m.<;....m.m.<;...i.m.m.<;...i.m..<;
Fittest value: 2.8333333333333335 for chromosome ( ( h ) /\ ( m ) )
Solutions (7): ( ( ( m ) /\ ( X ( p ) ) ) \/ ( ( h ) /\ ( X ( ! ( p ) ) ) ) ) | ( ( h ) W ( [] ( ( m ) /\ ( [] ( p ) ) ) ) ) | ( ( h ) /\ ( m ) ) | ( ( [] ( h ) ) U ( ( m ) /\ ( h ) ) ) | ( [] ( ( ( m ) /\ ( X ( p ) ) ) \/ ( ( h ) /\ ( X ( ! ( p ) ) ) ) ) ) | ( ( [] ( h ) ) W ( ( m ) /\ ( X ( p ) ) ) ) | ( X ( ( ( m ) /\ ( X ( p ) ) ) \/ ( ( h ) /\ ( X ( ! ( p ) ) ) ) ) ) | 
Generation Time :0
Accumulated Learning Time :2
CALLs: 320    TIMEOUTs: 0    ERRORs: 0
REEVALUATIONS: 188 OF 639

GENERATION 9/50
......m.m.<;....m.m.<;....m.m.<;...i.m..<;...i.m..<;....m.m.<;....m.m.<;....m.m.<;....m.m.<;....m.m.<;....m.m.<;....m.m.<;...i.m..<;...i.m..<;....m.m.<;....m.m.<;...i..m.<;....m.m.<;....m.m.<;....m.m.<;....m.m.<;....i.m..<;....m.m.<;.....m.m.<;....m.m.<;...i..m.<;.....m.m.<;....m.m.<;......m.m.<;....m.m.<;....m.m.<;....m.m.<;....m.m.<;...i.m..<;.....m.m.<;......m.m.<;....m.m.<;....m.m.<;....m.m.<;...i.m..<;...i.m..<;....m.m.<;.......m.m.<;....m.m.<;....m.m.<;....m.m.<;....m.m.<;....m.m.<;...i..m.<;....m.m.<;....m.m.<;....m.m.<;...i..m.<;....m.m.<;
Fittest value: 2.8333333333333335 for chromosome ( ( h ) /\ ( m ) )
Solutions (7): ( ( ( m ) /\ ( X ( p ) ) ) \/ ( ( h ) /\ ( X ( ! ( p ) ) ) ) ) | ( ( h ) W ( [] ( ( m ) /\ ( [] ( p ) ) ) ) ) | ( ( h ) /\ ( m ) ) | ( ( [] ( h ) ) U ( ( m ) /\ ( h ) ) ) | ( [] ( ( ( m ) /\ ( X ( p ) ) ) \/ ( ( h ) /\ ( X ( ! ( p ) ) ) ) ) ) | ( ( [] ( h ) ) W ( ( m ) /\ ( X ( p ) ) ) ) | ( X ( ( ( m ) /\ ( X ( p ) ) ) \/ ( ( h ) /\ ( X ( ! ( p ) ) ) ) ) ) | 
Generation Time :0
Accumulated Learning Time :3
CALLs: 337    TIMEOUTs: 0    ERRORs: 0
REEVALUATIONS: 202 OF 716

GENERATION 10/50
......m.m.<;....m.m.<;....m.m.<;....m.m.<;....m.m.<;....m.m.<;.....m.m.<;....m.m.<;....m.m.<;....m.m.<;....m.m.<;.....m.m.<;....m.m.<;....m.m.<;...i.m..<;....m.m.<;...i.m..<;....m.m.<;......m.m.<;....m.m.<;....m.m.<;....m.m.<;....m.m.<;....m.m.<;....m.m.<;.....m.m.<;....m.m.<;....m.m.<;...i..m.<;....m.m.<;....m.m.<;...i.m..<;....m.m.<;....m.m.<;...i..m.<;....m.m.<;....m.m.<;......m.m.<;....m.m.<;....m.m.<;....i.m..<;....m.m.<;....m.m.<;......m.m.<;....m.m.<;....m.m.<;....m.m.<;....m.m.<;...i..m.<;...i.m.m.<;...i.m..<;...i.m.m.<;...i.m..<;...i.m..<;....m.m.<;
Fittest value: 2.8333333333333335 for chromosome ( ( h ) /\ ( m ) )
Solutions (9): ( ( ( m ) /\ ( X ( p ) ) ) \/ ( ( h ) /\ ( X ( ! ( p ) ) ) ) ) | ( ( h ) W ( [] ( ( m ) /\ ( [] ( p ) ) ) ) ) | ( ( h ) /\ ( m ) ) | ( ( [] ( h ) ) U ( ( m ) /\ ( h ) ) ) | ( [] ( ( ( m ) /\ ( X ( p ) ) ) \/ ( ( h ) /\ ( X ( ! ( p ) ) ) ) ) ) | ( ( [] ( h ) ) W ( ( m ) /\ ( X ( p ) ) ) ) | ( X ( ( ( m ) /\ ( X ( p ) ) ) \/ ( ( h ) /\ ( X ( ! ( p ) ) ) ) ) ) | ( X ( ( h ) W ( [] ( ( m ) /\ ( [] ( p ) ) ) ) ) ) | ( <> ( ( h ) W ( [] ( ( m ) /\ ( [] ( p ) ) ) ) ) ) | 
Generation Time :0
Accumulated Learning Time :4
CALLs: 342    TIMEOUTs: 0    ERRORs: 0
REEVALUATIONS: 216 OF 793

GENERATION 11/50
.....m.m.<;....m.m.<;.....m.m.<;...i.m.m.<;....m.m.<;...i..m.<;....m.m.<;....m.m.<;....m.m.<;....m.m.<;....m.m.<;....m.m.<;....m.m.<;....m.m.<;....m.m.<;....m.m.<;....m.m.<;.....m.m.<;....m.m.<;....m.m.<;...i.m..<;...i.m..<;...i.m..<;.....m.m.<;...i..m.<;...i.m..<;....m.m.<;....m.m.<;.....i.m..<;.....m.m.<;.....m.m.<;.....i..m.<;....m.m.<;.....i.m..<;...i.m.m.<;
Fittest value: 2.8333333333333335 for chromosome ( ( h ) /\ ( m ) )
Solutions (11): ( ( ( m ) /\ ( X ( p ) ) ) \/ ( ( h ) /\ ( X ( ! ( p ) ) ) ) ) | ( ( h ) W ( [] ( ( m ) /\ ( [] ( p ) ) ) ) ) | ( ( h ) /\ ( m ) ) | ( ( [] ( h ) ) U ( ( m ) /\ ( h ) ) ) | ( [] ( ( ( m ) /\ ( X ( p ) ) ) \/ ( ( h ) /\ ( X ( ! ( p ) ) ) ) ) ) | ( ( [] ( h ) ) W ( ( m ) /\ ( X ( p ) ) ) ) | ( X ( ( ( m ) /\ ( X ( p ) ) ) \/ ( ( h ) /\ ( X ( ! ( p ) ) ) ) ) ) | ( X ( ( h ) W ( [] ( ( m ) /\ ( [] ( p ) ) ) ) ) ) | ( <> ( ( h ) W ( [] ( ( m ) /\ ( [] ( p ) ) ) ) ) ) | ( X ( ( h ) /\ ( m ) ) ) | ( ( <> ( ! ( h ) ) ) U ( ( m ) /\ ( h ) ) ) | 
Generation Time :0
Accumulated Learning Time :4
CALLs: 222    TIMEOUTs: 0    ERRORs: 0
REEVALUATIONS: 245 OF 868

GENERATION 12/50
........m.m.<;....m.m.<;.....m.m.<;....m.m.<;....m.m.<;...i.m..<;....m.m.<;....m.m.<;...i..m.<;....m.m.<;....m.m.<;....m.m.<;....m.m.<;...i.m.m.<;...i.m..<;....m.m.<;....m.m.<;....m.m.<;...i.m.m.<;....m.m.<;....m.m.<;....m.m.<;....m.m.<;......m.m.<;....m.m.<;...i.m..<;...i..m.<;....m.m.<;...i..m.<;....m.m.<;....m.m.<;....m.m.<;....m.m.<;....m.m.<;...i..m.<;....m.m.<;....m.m.<;....i.m.m.<;....m.m.<;...i.m.m.<;...i.m.m.<;...i.m.m.<;
Fittest value: 2.8333333333333335 for chromosome ( ( h ) /\ ( m ) )
Solutions (17): ( ( ( m ) /\ ( X ( p ) ) ) \/ ( ( h ) /\ ( X ( ! ( p ) ) ) ) ) | ( ( h ) W ( [] ( ( m ) /\ ( [] ( p ) ) ) ) ) | ( ( h ) /\ ( m ) ) | ( ( [] ( h ) ) U ( ( m ) /\ ( h ) ) ) | ( [] ( ( ( m ) /\ ( X ( p ) ) ) \/ ( ( h ) /\ ( X ( ! ( p ) ) ) ) ) ) | ( ( [] ( h ) ) W ( ( m ) /\ ( X ( p ) ) ) ) | ( X ( ( ( m ) /\ ( X ( p ) ) ) \/ ( ( h ) /\ ( X ( ! ( p ) ) ) ) ) ) | ( X ( ( h ) W ( [] ( ( m ) /\ ( [] ( p ) ) ) ) ) ) | ( <> ( ( h ) W ( [] ( ( m ) /\ ( [] ( p ) ) ) ) ) ) | ( X ( ( h ) /\ ( m ) ) ) | ( ( <> ( ! ( h ) ) ) U ( ( m ) /\ ( h ) ) ) | ( ( ( h ) /\ ( m ) ) /\ ( m ) ) | ( ( ( h ) /\ ( m ) ) W ( ( h ) /\ ( m ) ) ) | ( ( h ) W ( <> ( ( m ) /\ ( [] ( p ) ) ) ) ) | ( ( ( h ) /\ ( m ) ) U ( ( [] ( h ) ) U ( ( m ) /\ ( h ) ) ) ) | ( ( ( h ) /\ ( m ) ) \/ ( ( [] ( h ) ) U ( ( m ) /\ ( h ) ) ) ) | ( ( ( m ) /\ ( X ( p ) ) ) W ( ( h ) /\ ( X ( ! ( p ) ) ) ) ) | 
Generation Time :0
Accumulated Learning Time :4
CALLs: 260    TIMEOUTs: 0    ERRORs: 0
REEVALUATIONS: 279 OF 949

GENERATION 13/50
....m.m.<;....m.m.<;....m.m.<;.....m.m.<;....m.m.<;.....m.m.<;....m.m.<;......m.m.<;......m.m.<;....m.m.<;....m.m.<;...i.m.m.<;....m.m.<;....m.m.<;....m.m.<;......m.m.<;....m.m.<;....m.m.<;....m.m.<;....m.m.<;...i..m.<;....m.m.<;...i.m.m.<;...i..m.<;....m.m.<;....m.m.<;....m.m.<;....m.m.<;....m.m.<;...i..m.<;....m.m.<;....m.m.<;...i.m.m.<;....m.m.<;....i.m.m.;...i.m.m.<;...i.m.m.<;...i.m.m.<;...i.m.m.<;....m.m.<;
Fittest value: 2.8333333333333335 for chromosome ( ( h ) /\ ( m ) )
Solutions (21): ( ( ( m ) /\ ( X ( p ) ) ) \/ ( ( h ) /\ ( X ( ! ( p ) ) ) ) ) | ( ( h ) W ( [] ( ( m ) /\ ( [] ( p ) ) ) ) ) | ( ( h ) /\ ( m ) ) | ( ( [] ( h ) ) U ( ( m ) /\ ( h ) ) ) | ( [] ( ( ( m ) /\ ( X ( p ) ) ) \/ ( ( h ) /\ ( X ( ! ( p ) ) ) ) ) ) | ( ( [] ( h ) ) W ( ( m ) /\ ( X ( p ) ) ) ) | ( X ( ( ( m ) /\ ( X ( p ) ) ) \/ ( ( h ) /\ ( X ( ! ( p ) ) ) ) ) ) | ( X ( ( h ) W ( [] ( ( m ) /\ ( [] ( p ) ) ) ) ) ) | ( <> ( ( h ) W ( [] ( ( m ) /\ ( [] ( p ) ) ) ) ) ) | ( X ( ( h ) /\ ( m ) ) ) | ( ( <> ( ! ( h ) ) ) U ( ( m ) /\ ( h ) ) ) | ( ( ( h ) /\ ( m ) ) /\ ( m ) ) | ( ( ( h ) /\ ( m ) ) W ( ( h ) /\ ( m ) ) ) | ( ( h ) W ( <> ( ( m ) /\ ( [] ( p ) ) ) ) ) | ( ( ( h ) /\ ( m ) ) U ( ( [] ( h ) ) U ( ( m ) /\ ( h ) ) ) ) | ( ( ( h ) /\ ( m ) ) \/ ( ( [] ( h ) ) U ( ( m ) /\ ( h ) ) ) ) | ( ( ( m ) /\ ( X ( p ) ) ) W ( ( h ) /\ ( X ( ! ( p ) ) ) ) ) | ( ( ! ( h ) ) U ( ( m ) /\ ( h ) ) ) | ( X ( ( h ) W ( [] ( ( m ) /\ ( X ( p ) ) ) ) ) ) | ( [] ( ( h ) W ( [] ( ( m ) /\ ( [] ( p ) ) ) ) ) ) | ( ( ( <> ( ! ( h ) ) ) U ( ( m ) /\ ( h ) ) ) W ( ( h ) /\ ( m ) ) ) | 
Generation Time :0
Accumulated Learning Time :5
CALLs: 249    TIMEOUTs: 0    ERRORs: 0
REEVALUATIONS: 319 OF 1035

GENERATION 14/50
.......m.m.<;.....m.m.<;....m.m.<;...i.m..<;......m.m.<;.....m.m.<;...i.m..<;....m.m.<;...i.m.m.<;....m.m.<;....m.m.<;....m.m.<;...i.m.m.<;....m.m.<;...i.m.m.<;....m.m.<;.....i.m.m.<;....m.m.<;...i.m..<;....m.m.<;...i.m.m.<;...i.m.m.<;....m.m.<;
Fittest value: 2.8333333333333335 for chromosome ( ( h ) /\ ( m ) )
Solutions (27): ( ( ( m ) /\ ( X ( p ) ) ) \/ ( ( h ) /\ ( X ( ! ( p ) ) ) ) ) | ( ( h ) W ( [] ( ( m ) /\ ( [] ( p ) ) ) ) ) | ( ( h ) /\ ( m ) ) | ( ( [] ( h ) ) U ( ( m ) /\ ( h ) ) ) | ( [] ( ( ( m ) /\ ( X ( p ) ) ) \/ ( ( h ) /\ ( X ( ! ( p ) ) ) ) ) ) | ( ( [] ( h ) ) W ( ( m ) /\ ( X ( p ) ) ) ) | ( X ( ( ( m ) /\ ( X ( p ) ) ) \/ ( ( h ) /\ ( X ( ! ( p ) ) ) ) ) ) | ( X ( ( h ) W ( [] ( ( m ) /\ ( [] ( p ) ) ) ) ) ) | ( <> ( ( h ) W ( [] ( ( m ) /\ ( [] ( p ) ) ) ) ) ) | ( X ( ( h ) /\ ( m ) ) ) | ( ( <> ( ! ( h ) ) ) U ( ( m ) /\ ( h ) ) ) | ( ( ( h ) /\ ( m ) ) /\ ( m ) ) | ( ( ( h ) /\ ( m ) ) W ( ( h ) /\ ( m ) ) ) | ( ( h ) W ( <> ( ( m ) /\ ( [] ( p ) ) ) ) ) | ( ( ( h ) /\ ( m ) ) U ( ( [] ( h ) ) U ( ( m ) /\ ( h ) ) ) ) | ( ( ( h ) /\ ( m ) ) \/ ( ( [] ( h ) ) U ( ( m ) /\ ( h ) ) ) ) | ( ( ( m ) /\ ( X ( p ) ) ) W ( ( h ) /\ ( X ( ! ( p ) ) ) ) ) | ( ( ! ( h ) ) U ( ( m ) /\ ( h ) ) ) | ( X ( ( h ) W ( [] ( ( m ) /\ ( X ( p ) ) ) ) ) ) | ( [] ( ( h ) W ( [] ( ( m ) /\ ( [] ( p ) ) ) ) ) ) | ( ( ( <> ( ! ( h ) ) ) U ( ( m ) /\ ( h ) ) ) W ( ( h ) /\ ( m ) ) ) | ( ( ( h ) /\ ( m ) ) /\ ( ( h ) /\ ( m ) ) ) | ( <> ( ( h ) /\ ( m ) ) ) | ( ( m ) /\ ( h ) ) | ( ( ( h ) /\ ( m ) ) \/ ( ( <> ( h ) ) U ( ( m ) /\ ( h ) ) ) ) | ( ( h ) W ( [] ( ( m ) /\ ( p ) ) ) ) | ( ( h ) W ( ( m ) /\ ( [] ( p ) ) ) ) | 
Generation Time :0
Accumulated Learning Time :5
CALLs: 147    TIMEOUTs: 0    ERRORs: 0
REEVALUATIONS: 371 OF 1116

GENERATION 15/50
....m.m.<;.....m.m.<;...i.m.m.<;....m.m.<;....m.m.<;...i.m..<;....m.m.<;.......i.m..<;.....m.m.<;...i.m.m.<;....m.m.<;....m.m.<;....m.m.<;....m.m.<;...i.m.m.<;...i.m.m.<;....m.m.<;...i.m.m.<;...i.m.m.<;
Fittest value: 2.8333333333333335 for chromosome ( ( h ) /\ ( m ) )
Solutions (28): ( ( ( m ) /\ ( X ( p ) ) ) \/ ( ( h ) /\ ( X ( ! ( p ) ) ) ) ) | ( ( h ) W ( [] ( ( m ) /\ ( [] ( p ) ) ) ) ) | ( ( h ) /\ ( m ) ) | ( ( [] ( h ) ) U ( ( m ) /\ ( h ) ) ) | ( [] ( ( ( m ) /\ ( X ( p ) ) ) \/ ( ( h ) /\ ( X ( ! ( p ) ) ) ) ) ) | ( ( [] ( h ) ) W ( ( m ) /\ ( X ( p ) ) ) ) | ( X ( ( ( m ) /\ ( X ( p ) ) ) \/ ( ( h ) /\ ( X ( ! ( p ) ) ) ) ) ) | ( X ( ( h ) W ( [] ( ( m ) /\ ( [] ( p ) ) ) ) ) ) | ( <> ( ( h ) W ( [] ( ( m ) /\ ( [] ( p ) ) ) ) ) ) | ( X ( ( h ) /\ ( m ) ) ) | ( ( <> ( ! ( h ) ) ) U ( ( m ) /\ ( h ) ) ) | ( ( ( h ) /\ ( m ) ) /\ ( m ) ) | ( ( ( h ) /\ ( m ) ) W ( ( h ) /\ ( m ) ) ) | ( ( h ) W ( <> ( ( m ) /\ ( [] ( p ) ) ) ) ) | ( ( ( h ) /\ ( m ) ) U ( ( [] ( h ) ) U ( ( m ) /\ ( h ) ) ) ) | ( ( ( h ) /\ ( m ) ) \/ ( ( [] ( h ) ) U ( ( m ) /\ ( h ) ) ) ) | ( ( ( m ) /\ ( X ( p ) ) ) W ( ( h ) /\ ( X ( ! ( p ) ) ) ) ) | ( ( ! ( h ) ) U ( ( m ) /\ ( h ) ) ) | ( X ( ( h ) W ( [] ( ( m ) /\ ( X ( p ) ) ) ) ) ) | ( [] ( ( h ) W ( [] ( ( m ) /\ ( [] ( p ) ) ) ) ) ) | ( ( ( <> ( ! ( h ) ) ) U ( ( m ) /\ ( h ) ) ) W ( ( h ) /\ ( m ) ) ) | ( ( ( h ) /\ ( m ) ) /\ ( ( h ) /\ ( m ) ) ) | ( <> ( ( h ) /\ ( m ) ) ) | ( ( m ) /\ ( h ) ) | ( ( ( h ) /\ ( m ) ) \/ ( ( <> ( h ) ) U ( ( m ) /\ ( h ) ) ) ) | ( ( h ) W ( [] ( ( m ) /\ ( p ) ) ) ) | ( ( h ) W ( ( m ) /\ ( [] ( p ) ) ) ) | ( ( ( h ) /\ ( m ) ) \/ ( ( h ) /\ ( m ) ) ) | 
Generation Time :0
Accumulated Learning Time :5
CALLs: 120    TIMEOUTs: 0    ERRORs: 0
REEVALUATIONS: 435 OF 1203

GENERATION 16/50
....m.m.<;....m.m.<;....m.m.<;....m.m.<;....m.m.<;....m.m.<;....m.m.<;......m.m.<;....m.m.<;......m.m.<;.....m.m.<;....m.m.<;....m.m.<;....m.m.<;....m.m.<;....m.m.<;......m.m.<;....m.m.<;.....m.m.<;
Fittest value: 2.8333333333333335 for chromosome ( ( h ) /\ ( m ) )
Solutions (28): ( ( ( m ) /\ ( X ( p ) ) ) \/ ( ( h ) /\ ( X ( ! ( p ) ) ) ) ) | ( ( h ) W ( [] ( ( m ) /\ ( [] ( p ) ) ) ) ) | ( ( h ) /\ ( m ) ) | ( ( [] ( h ) ) U ( ( m ) /\ ( h ) ) ) | ( [] ( ( ( m ) /\ ( X ( p ) ) ) \/ ( ( h ) /\ ( X ( ! ( p ) ) ) ) ) ) | ( ( [] ( h ) ) W ( ( m ) /\ ( X ( p ) ) ) ) | ( X ( ( ( m ) /\ ( X ( p ) ) ) \/ ( ( h ) /\ ( X ( ! ( p ) ) ) ) ) ) | ( X ( ( h ) W ( [] ( ( m ) /\ ( [] ( p ) ) ) ) ) ) | ( <> ( ( h ) W ( [] ( ( m ) /\ ( [] ( p ) ) ) ) ) ) | ( X ( ( h ) /\ ( m ) ) ) | ( ( <> ( ! ( h ) ) ) U ( ( m ) /\ ( h ) ) ) | ( ( ( h ) /\ ( m ) ) /\ ( m ) ) | ( ( ( h ) /\ ( m ) ) W ( ( h ) /\ ( m ) ) ) | ( ( h ) W ( <> ( ( m ) /\ ( [] ( p ) ) ) ) ) | ( ( ( h ) /\ ( m ) ) U ( ( [] ( h ) ) U ( ( m ) /\ ( h ) ) ) ) | ( ( ( h ) /\ ( m ) ) \/ ( ( [] ( h ) ) U ( ( m ) /\ ( h ) ) ) ) | ( ( ( m ) /\ ( X ( p ) ) ) W ( ( h ) /\ ( X ( ! ( p ) ) ) ) ) | ( ( ! ( h ) ) U ( ( m ) /\ ( h ) ) ) | ( X ( ( h ) W ( [] ( ( m ) /\ ( X ( p ) ) ) ) ) ) | ( [] ( ( h ) W ( [] ( ( m ) /\ ( [] ( p ) ) ) ) ) ) | ( ( ( <> ( ! ( h ) ) ) U ( ( m ) /\ ( h ) ) ) W ( ( h ) /\ ( m ) ) ) | ( ( ( h ) /\ ( m ) ) /\ ( ( h ) /\ ( m ) ) ) | ( <> ( ( h ) /\ ( m ) ) ) | ( ( m ) /\ ( h ) ) | ( ( ( h ) /\ ( m ) ) \/ ( ( <> ( h ) ) U ( ( m ) /\ ( h ) ) ) ) | ( ( h ) W ( [] ( ( m ) /\ ( p ) ) ) ) | ( ( h ) W ( ( m ) /\ ( [] ( p ) ) ) ) | ( ( ( h ) /\ ( m ) ) \/ ( ( h ) /\ ( m ) ) ) | 
Generation Time :0
Accumulated Learning Time :5
CALLs: 122    TIMEOUTs: 0    ERRORs: 0
REEVALUATIONS: 487 OF 1279

GENERATION 17/50
....m.m.<;....m.m.<;......m.m.<;....m.m.<;............m.m.<;...i.m.m.<;
Fittest value: 2.8333333333333335 for chromosome ( ( h ) /\ ( m ) )
Solutions (28): ( ( ( m ) /\ ( X ( p ) ) ) \/ ( ( h ) /\ ( X ( ! ( p ) ) ) ) ) | ( ( h ) W ( [] ( ( m ) /\ ( [] ( p ) ) ) ) ) | ( ( h ) /\ ( m ) ) | ( ( [] ( h ) ) U ( ( m ) /\ ( h ) ) ) | ( [] ( ( ( m ) /\ ( X ( p ) ) ) \/ ( ( h ) /\ ( X ( ! ( p ) ) ) ) ) ) | ( ( [] ( h ) ) W ( ( m ) /\ ( X ( p ) ) ) ) | ( X ( ( ( m ) /\ ( X ( p ) ) ) \/ ( ( h ) /\ ( X ( ! ( p ) ) ) ) ) ) | ( X ( ( h ) W ( [] ( ( m ) /\ ( [] ( p ) ) ) ) ) ) | ( <> ( ( h ) W ( [] ( ( m ) /\ ( [] ( p ) ) ) ) ) ) | ( X ( ( h ) /\ ( m ) ) ) | ( ( <> ( ! ( h ) ) ) U ( ( m ) /\ ( h ) ) ) | ( ( ( h ) /\ ( m ) ) /\ ( m ) ) | ( ( ( h ) /\ ( m ) ) W ( ( h ) /\ ( m ) ) ) | ( ( h ) W ( <> ( ( m ) /\ ( [] ( p ) ) ) ) ) | ( ( ( h ) /\ ( m ) ) U ( ( [] ( h ) ) U ( ( m ) /\ ( h ) ) ) ) | ( ( ( h ) /\ ( m ) ) \/ ( ( [] ( h ) ) U ( ( m ) /\ ( h ) ) ) ) | ( ( ( m ) /\ ( X ( p ) ) ) W ( ( h ) /\ ( X ( ! ( p ) ) ) ) ) | ( ( ! ( h ) ) U ( ( m ) /\ ( h ) ) ) | ( X ( ( h ) W ( [] ( ( m ) /\ ( X ( p ) ) ) ) ) ) | ( [] ( ( h ) W ( [] ( ( m ) /\ ( [] ( p ) ) ) ) ) ) | ( ( ( <> ( ! ( h ) ) ) U ( ( m ) /\ ( h ) ) ) W ( ( h ) /\ ( m ) ) ) | ( ( ( h ) /\ ( m ) ) /\ ( ( h ) /\ ( m ) ) ) | ( <> ( ( h ) /\ ( m ) ) ) | ( ( m ) /\ ( h ) ) | ( ( ( h ) /\ ( m ) ) \/ ( ( <> ( h ) ) U ( ( m ) /\ ( h ) ) ) ) | ( ( h ) W ( [] ( ( m ) /\ ( p ) ) ) ) | ( ( h ) W ( ( m ) /\ ( [] ( p ) ) ) ) | ( ( ( h ) /\ ( m ) ) \/ ( ( h ) /\ ( m ) ) ) | 
Generation Time :0
Accumulated Learning Time :5
CALLs: 46    TIMEOUTs: 0    ERRORs: 0
REEVALUATIONS: 555 OF 1358

GENERATION 18/50
.........m.m.<;....m.m.<;
Fittest value: 2.8333333333333335 for chromosome ( ( h ) /\ ( m ) )
Solutions (28): ( ( ( m ) /\ ( X ( p ) ) ) \/ ( ( h ) /\ ( X ( ! ( p ) ) ) ) ) | ( ( h ) W ( [] ( ( m ) /\ ( [] ( p ) ) ) ) ) | ( ( h ) /\ ( m ) ) | ( ( [] ( h ) ) U ( ( m ) /\ ( h ) ) ) | ( [] ( ( ( m ) /\ ( X ( p ) ) ) \/ ( ( h ) /\ ( X ( ! ( p ) ) ) ) ) ) | ( ( [] ( h ) ) W ( ( m ) /\ ( X ( p ) ) ) ) | ( X ( ( ( m ) /\ ( X ( p ) ) ) \/ ( ( h ) /\ ( X ( ! ( p ) ) ) ) ) ) | ( X ( ( h ) W ( [] ( ( m ) /\ ( [] ( p ) ) ) ) ) ) | ( <> ( ( h ) W ( [] ( ( m ) /\ ( [] ( p ) ) ) ) ) ) | ( X ( ( h ) /\ ( m ) ) ) | ( ( <> ( ! ( h ) ) ) U ( ( m ) /\ ( h ) ) ) | ( ( ( h ) /\ ( m ) ) /\ ( m ) ) | ( ( ( h ) /\ ( m ) ) W ( ( h ) /\ ( m ) ) ) | ( ( h ) W ( <> ( ( m ) /\ ( [] ( p ) ) ) ) ) | ( ( ( h ) /\ ( m ) ) U ( ( [] ( h ) ) U ( ( m ) /\ ( h ) ) ) ) | ( ( ( h ) /\ ( m ) ) \/ ( ( [] ( h ) ) U ( ( m ) /\ ( h ) ) ) ) | ( ( ( m ) /\ ( X ( p ) ) ) W ( ( h ) /\ ( X ( ! ( p ) ) ) ) ) | ( ( ! ( h ) ) U ( ( m ) /\ ( h ) ) ) | ( X ( ( h ) W ( [] ( ( m ) /\ ( X ( p ) ) ) ) ) ) | ( [] ( ( h ) W ( [] ( ( m ) /\ ( [] ( p ) ) ) ) ) ) | ( ( ( <> ( ! ( h ) ) ) U ( ( m ) /\ ( h ) ) ) W ( ( h ) /\ ( m ) ) ) | ( ( ( h ) /\ ( m ) ) /\ ( ( h ) /\ ( m ) ) ) | ( <> ( ( h ) /\ ( m ) ) ) | ( ( m ) /\ ( h ) ) | ( ( ( h ) /\ ( m ) ) \/ ( ( <> ( h ) ) U ( ( m ) /\ ( h ) ) ) ) | ( ( h ) W ( [] ( ( m ) /\ ( p ) ) ) ) | ( ( h ) W ( ( m ) /\ ( [] ( p ) ) ) ) | ( ( ( h ) /\ ( m ) ) \/ ( ( h ) /\ ( m ) ) ) | 
Generation Time :0
Accumulated Learning Time :5
CALLs: 17    TIMEOUTs: 0    ERRORs: 0
REEVALUATIONS: 630 OF 1438

GENERATION 19/50
.....m.m.<;....m.m.<;.....m.m.<;....m.m.<;....m.m.<;......m.m.<;....m.m.<;
Fittest value: 2.8333333333333335 for chromosome ( ( h ) /\ ( m ) )
Solutions (28): ( ( ( m ) /\ ( X ( p ) ) ) \/ ( ( h ) /\ ( X ( ! ( p ) ) ) ) ) | ( ( h ) W ( [] ( ( m ) /\ ( [] ( p ) ) ) ) ) | ( ( h ) /\ ( m ) ) | ( ( [] ( h ) ) U ( ( m ) /\ ( h ) ) ) | ( [] ( ( ( m ) /\ ( X ( p ) ) ) \/ ( ( h ) /\ ( X ( ! ( p ) ) ) ) ) ) | ( ( [] ( h ) ) W ( ( m ) /\ ( X ( p ) ) ) ) | ( X ( ( ( m ) /\ ( X ( p ) ) ) \/ ( ( h ) /\ ( X ( ! ( p ) ) ) ) ) ) | ( X ( ( h ) W ( [] ( ( m ) /\ ( [] ( p ) ) ) ) ) ) | ( <> ( ( h ) W ( [] ( ( m ) /\ ( [] ( p ) ) ) ) ) ) | ( X ( ( h ) /\ ( m ) ) ) | ( ( <> ( ! ( h ) ) ) U ( ( m ) /\ ( h ) ) ) | ( ( ( h ) /\ ( m ) ) /\ ( m ) ) | ( ( ( h ) /\ ( m ) ) W ( ( h ) /\ ( m ) ) ) | ( ( h ) W ( <> ( ( m ) /\ ( [] ( p ) ) ) ) ) | ( ( ( h ) /\ ( m ) ) U ( ( [] ( h ) ) U ( ( m ) /\ ( h ) ) ) ) | ( ( ( h ) /\ ( m ) ) \/ ( ( [] ( h ) ) U ( ( m ) /\ ( h ) ) ) ) | ( ( ( m ) /\ ( X ( p ) ) ) W ( ( h ) /\ ( X ( ! ( p ) ) ) ) ) | ( ( ! ( h ) ) U ( ( m ) /\ ( h ) ) ) | ( X ( ( h ) W ( [] ( ( m ) /\ ( X ( p ) ) ) ) ) ) | ( [] ( ( h ) W ( [] ( ( m ) /\ ( [] ( p ) ) ) ) ) ) | ( ( ( <> ( ! ( h ) ) ) U ( ( m ) /\ ( h ) ) ) W ( ( h ) /\ ( m ) ) ) | ( ( ( h ) /\ ( m ) ) /\ ( ( h ) /\ ( m ) ) ) | ( <> ( ( h ) /\ ( m ) ) ) | ( ( m ) /\ ( h ) ) | ( ( ( h ) /\ ( m ) ) \/ ( ( <> ( h ) ) U ( ( m ) /\ ( h ) ) ) ) | ( ( h ) W ( [] ( ( m ) /\ ( p ) ) ) ) | ( ( h ) W ( ( m ) /\ ( [] ( p ) ) ) ) | ( ( ( h ) /\ ( m ) ) \/ ( ( h ) /\ ( m ) ) ) | 
Generation Time :0
Accumulated Learning Time :5
CALLs: 46    TIMEOUTs: 0    ERRORs: 0
REEVALUATIONS: 702 OF 1520

GENERATION 20/50
....m.m.<;....m.m.<;....m.m.<;
Fittest value: 2.8333333333333335 for chromosome ( ( h ) /\ ( m ) )
Solutions (28): ( ( ( m ) /\ ( X ( p ) ) ) \/ ( ( h ) /\ ( X ( ! ( p ) ) ) ) ) | ( ( h ) W ( [] ( ( m ) /\ ( [] ( p ) ) ) ) ) | ( ( h ) /\ ( m ) ) | ( ( [] ( h ) ) U ( ( m ) /\ ( h ) ) ) | ( [] ( ( ( m ) /\ ( X ( p ) ) ) \/ ( ( h ) /\ ( X ( ! ( p ) ) ) ) ) ) | ( ( [] ( h ) ) W ( ( m ) /\ ( X ( p ) ) ) ) | ( X ( ( ( m ) /\ ( X ( p ) ) ) \/ ( ( h ) /\ ( X ( ! ( p ) ) ) ) ) ) | ( X ( ( h ) W ( [] ( ( m ) /\ ( [] ( p ) ) ) ) ) ) | ( <> ( ( h ) W ( [] ( ( m ) /\ ( [] ( p ) ) ) ) ) ) | ( X ( ( h ) /\ ( m ) ) ) | ( ( <> ( ! ( h ) ) ) U ( ( m ) /\ ( h ) ) ) | ( ( ( h ) /\ ( m ) ) /\ ( m ) ) | ( ( ( h ) /\ ( m ) ) W ( ( h ) /\ ( m ) ) ) | ( ( h ) W ( <> ( ( m ) /\ ( [] ( p ) ) ) ) ) | ( ( ( h ) /\ ( m ) ) U ( ( [] ( h ) ) U ( ( m ) /\ ( h ) ) ) ) | ( ( ( h ) /\ ( m ) ) \/ ( ( [] ( h ) ) U ( ( m ) /\ ( h ) ) ) ) | ( ( ( m ) /\ ( X ( p ) ) ) W ( ( h ) /\ ( X ( ! ( p ) ) ) ) ) | ( ( ! ( h ) ) U ( ( m ) /\ ( h ) ) ) | ( X ( ( h ) W ( [] ( ( m ) /\ ( X ( p ) ) ) ) ) ) | ( [] ( ( h ) W ( [] ( ( m ) /\ ( [] ( p ) ) ) ) ) ) | ( ( ( <> ( ! ( h ) ) ) U ( ( m ) /\ ( h ) ) ) W ( ( h ) /\ ( m ) ) ) | ( ( ( h ) /\ ( m ) ) /\ ( ( h ) /\ ( m ) ) ) | ( <> ( ( h ) /\ ( m ) ) ) | ( ( m ) /\ ( h ) ) | ( ( ( h ) /\ ( m ) ) \/ ( ( <> ( h ) ) U ( ( m ) /\ ( h ) ) ) ) | ( ( h ) W ( [] ( ( m ) /\ ( p ) ) ) ) | ( ( h ) W ( ( m ) /\ ( [] ( p ) ) ) ) | ( ( ( h ) /\ ( m ) ) \/ ( ( h ) /\ ( m ) ) ) | 
Generation Time :0
Accumulated Learning Time :5
CALLs: 18    TIMEOUTs: 0    ERRORs: 0
REEVALUATIONS: 783 OF 1604

GENERATION 21/50
....m.m.<;......m.m.<;......m.m.<;....m.m.<;
Fittest value: 2.8333333333333335 for chromosome ( ( h ) /\ ( m ) )
Solutions (28): ( ( ( m ) /\ ( X ( p ) ) ) \/ ( ( h ) /\ ( X ( ! ( p ) ) ) ) ) | ( ( h ) W ( [] ( ( m ) /\ ( [] ( p ) ) ) ) ) | ( ( h ) /\ ( m ) ) | ( ( [] ( h ) ) U ( ( m ) /\ ( h ) ) ) | ( [] ( ( ( m ) /\ ( X ( p ) ) ) \/ ( ( h ) /\ ( X ( ! ( p ) ) ) ) ) ) | ( ( [] ( h ) ) W ( ( m ) /\ ( X ( p ) ) ) ) | ( X ( ( ( m ) /\ ( X ( p ) ) ) \/ ( ( h ) /\ ( X ( ! ( p ) ) ) ) ) ) | ( X ( ( h ) W ( [] ( ( m ) /\ ( [] ( p ) ) ) ) ) ) | ( <> ( ( h ) W ( [] ( ( m ) /\ ( [] ( p ) ) ) ) ) ) | ( X ( ( h ) /\ ( m ) ) ) | ( ( <> ( ! ( h ) ) ) U ( ( m ) /\ ( h ) ) ) | ( ( ( h ) /\ ( m ) ) /\ ( m ) ) | ( ( ( h ) /\ ( m ) ) W ( ( h ) /\ ( m ) ) ) | ( ( h ) W ( <> ( ( m ) /\ ( [] ( p ) ) ) ) ) | ( ( ( h ) /\ ( m ) ) U ( ( [] ( h ) ) U ( ( m ) /\ ( h ) ) ) ) | ( ( ( h ) /\ ( m ) ) \/ ( ( [] ( h ) ) U ( ( m ) /\ ( h ) ) ) ) | ( ( ( m ) /\ ( X ( p ) ) ) W ( ( h ) /\ ( X ( ! ( p ) ) ) ) ) | ( ( ! ( h ) ) U ( ( m ) /\ ( h ) ) ) | ( X ( ( h ) W ( [] ( ( m ) /\ ( X ( p ) ) ) ) ) ) | ( [] ( ( h ) W ( [] ( ( m ) /\ ( [] ( p ) ) ) ) ) ) | ( ( ( <> ( ! ( h ) ) ) U ( ( m ) /\ ( h ) ) ) W ( ( h ) /\ ( m ) ) ) | ( ( ( h ) /\ ( m ) ) /\ ( ( h ) /\ ( m ) ) ) | ( <> ( ( h ) /\ ( m ) ) ) | ( ( m ) /\ ( h ) ) | ( ( ( h ) /\ ( m ) ) \/ ( ( <> ( h ) ) U ( ( m ) /\ ( h ) ) ) ) | ( ( h ) W ( [] ( ( m ) /\ ( p ) ) ) ) | ( ( h ) W ( ( m ) /\ ( [] ( p ) ) ) ) | ( ( ( h ) /\ ( m ) ) \/ ( ( h ) /\ ( m ) ) ) | 
Generation Time :0
Accumulated Learning Time :5
CALLs: 28    TIMEOUTs: 0    ERRORs: 0
REEVALUATIONS: 857 OF 1684

GENERATION 22/50
....m.m.<;.....m.m.<;....m.m.<;....m.m.<;
Fittest value: 2.8333333333333335 for chromosome ( ( h ) /\ ( m ) )
Solutions (28): ( ( ( m ) /\ ( X ( p ) ) ) \/ ( ( h ) /\ ( X ( ! ( p ) ) ) ) ) | ( ( h ) W ( [] ( ( m ) /\ ( [] ( p ) ) ) ) ) | ( ( h ) /\ ( m ) ) | ( ( [] ( h ) ) U ( ( m ) /\ ( h ) ) ) | ( [] ( ( ( m ) /\ ( X ( p ) ) ) \/ ( ( h ) /\ ( X ( ! ( p ) ) ) ) ) ) | ( ( [] ( h ) ) W ( ( m ) /\ ( X ( p ) ) ) ) | ( X ( ( ( m ) /\ ( X ( p ) ) ) \/ ( ( h ) /\ ( X ( ! ( p ) ) ) ) ) ) | ( X ( ( h ) W ( [] ( ( m ) /\ ( [] ( p ) ) ) ) ) ) | ( <> ( ( h ) W ( [] ( ( m ) /\ ( [] ( p ) ) ) ) ) ) | ( X ( ( h ) /\ ( m ) ) ) | ( ( <> ( ! ( h ) ) ) U ( ( m ) /\ ( h ) ) ) | ( ( ( h ) /\ ( m ) ) /\ ( m ) ) | ( ( ( h ) /\ ( m ) ) W ( ( h ) /\ ( m ) ) ) | ( ( h ) W ( <> ( ( m ) /\ ( [] ( p ) ) ) ) ) | ( ( ( h ) /\ ( m ) ) U ( ( [] ( h ) ) U ( ( m ) /\ ( h ) ) ) ) | ( ( ( h ) /\ ( m ) ) \/ ( ( [] ( h ) ) U ( ( m ) /\ ( h ) ) ) ) | ( ( ( m ) /\ ( X ( p ) ) ) W ( ( h ) /\ ( X ( ! ( p ) ) ) ) ) | ( ( ! ( h ) ) U ( ( m ) /\ ( h ) ) ) | ( X ( ( h ) W ( [] ( ( m ) /\ ( X ( p ) ) ) ) ) ) | ( [] ( ( h ) W ( [] ( ( m ) /\ ( [] ( p ) ) ) ) ) ) | ( ( ( <> ( ! ( h ) ) ) U ( ( m ) /\ ( h ) ) ) W ( ( h ) /\ ( m ) ) ) | ( ( ( h ) /\ ( m ) ) /\ ( ( h ) /\ ( m ) ) ) | ( <> ( ( h ) /\ ( m ) ) ) | ( ( m ) /\ ( h ) ) | ( ( ( h ) /\ ( m ) ) \/ ( ( <> ( h ) ) U ( ( m ) /\ ( h ) ) ) ) | ( ( h ) W ( [] ( ( m ) /\ ( p ) ) ) ) | ( ( h ) W ( ( m ) /\ ( [] ( p ) ) ) ) | ( ( ( h ) /\ ( m ) ) \/ ( ( h ) /\ ( m ) ) ) | 
Generation Time :0
Accumulated Learning Time :5
CALLs: 25    TIMEOUTs: 0    ERRORs: 0
REEVALUATIONS: 933 OF 1765

GENERATION 23/50
....i.m.m.<;
Fittest value: 2.8333333333333335 for chromosome ( ( h ) /\ ( m ) )
Solutions (28): ( ( ( m ) /\ ( X ( p ) ) ) \/ ( ( h ) /\ ( X ( ! ( p ) ) ) ) ) | ( ( h ) W ( [] ( ( m ) /\ ( [] ( p ) ) ) ) ) | ( ( h ) /\ ( m ) ) | ( ( [] ( h ) ) U ( ( m ) /\ ( h ) ) ) | ( [] ( ( ( m ) /\ ( X ( p ) ) ) \/ ( ( h ) /\ ( X ( ! ( p ) ) ) ) ) ) | ( ( [] ( h ) ) W ( ( m ) /\ ( X ( p ) ) ) ) | ( X ( ( ( m ) /\ ( X ( p ) ) ) \/ ( ( h ) /\ ( X ( ! ( p ) ) ) ) ) ) | ( X ( ( h ) W ( [] ( ( m ) /\ ( [] ( p ) ) ) ) ) ) | ( <> ( ( h ) W ( [] ( ( m ) /\ ( [] ( p ) ) ) ) ) ) | ( X ( ( h ) /\ ( m ) ) ) | ( ( <> ( ! ( h ) ) ) U ( ( m ) /\ ( h ) ) ) | ( ( ( h ) /\ ( m ) ) /\ ( m ) ) | ( ( ( h ) /\ ( m ) ) W ( ( h ) /\ ( m ) ) ) | ( ( h ) W ( <> ( ( m ) /\ ( [] ( p ) ) ) ) ) | ( ( ( h ) /\ ( m ) ) U ( ( [] ( h ) ) U ( ( m ) /\ ( h ) ) ) ) | ( ( ( h ) /\ ( m ) ) \/ ( ( [] ( h ) ) U ( ( m ) /\ ( h ) ) ) ) | ( ( ( m ) /\ ( X ( p ) ) ) W ( ( h ) /\ ( X ( ! ( p ) ) ) ) ) | ( ( ! ( h ) ) U ( ( m ) /\ ( h ) ) ) | ( X ( ( h ) W ( [] ( ( m ) /\ ( X ( p ) ) ) ) ) ) | ( [] ( ( h ) W ( [] ( ( m ) /\ ( [] ( p ) ) ) ) ) ) | ( ( ( <> ( ! ( h ) ) ) U ( ( m ) /\ ( h ) ) ) W ( ( h ) /\ ( m ) ) ) | ( ( ( h ) /\ ( m ) ) /\ ( ( h ) /\ ( m ) ) ) | ( <> ( ( h ) /\ ( m ) ) ) | ( ( m ) /\ ( h ) ) | ( ( ( h ) /\ ( m ) ) \/ ( ( <> ( h ) ) U ( ( m ) /\ ( h ) ) ) ) | ( ( h ) W ( [] ( ( m ) /\ ( p ) ) ) ) | ( ( h ) W ( ( m ) /\ ( [] ( p ) ) ) ) | ( ( ( h ) /\ ( m ) ) \/ ( ( h ) /\ ( m ) ) ) | 
Generation Time :0
Accumulated Learning Time :5
CALLs: 7    TIMEOUTs: 0    ERRORs: 0
REEVALUATIONS: 1004 OF 1838

GENERATION 24/50
.......m.m.<;....m.m.<;..
Fittest value: 2.8333333333333335 for chromosome ( ( h ) /\ ( m ) )
Solutions (28): ( ( ( m ) /\ ( X ( p ) ) ) \/ ( ( h ) /\ ( X ( ! ( p ) ) ) ) ) | ( ( h ) W ( [] ( ( m ) /\ ( [] ( p ) ) ) ) ) | ( ( h ) /\ ( m ) ) | ( ( [] ( h ) ) U ( ( m ) /\ ( h ) ) ) | ( [] ( ( ( m ) /\ ( X ( p ) ) ) \/ ( ( h ) /\ ( X ( ! ( p ) ) ) ) ) ) | ( ( [] ( h ) ) W ( ( m ) /\ ( X ( p ) ) ) ) | ( X ( ( ( m ) /\ ( X ( p ) ) ) \/ ( ( h ) /\ ( X ( ! ( p ) ) ) ) ) ) | ( X ( ( h ) W ( [] ( ( m ) /\ ( [] ( p ) ) ) ) ) ) | ( <> ( ( h ) W ( [] ( ( m ) /\ ( [] ( p ) ) ) ) ) ) | ( X ( ( h ) /\ ( m ) ) ) | ( ( <> ( ! ( h ) ) ) U ( ( m ) /\ ( h ) ) ) | ( ( ( h ) /\ ( m ) ) /\ ( m ) ) | ( ( ( h ) /\ ( m ) ) W ( ( h ) /\ ( m ) ) ) | ( ( h ) W ( <> ( ( m ) /\ ( [] ( p ) ) ) ) ) | ( ( ( h ) /\ ( m ) ) U ( ( [] ( h ) ) U ( ( m ) /\ ( h ) ) ) ) | ( ( ( h ) /\ ( m ) ) \/ ( ( [] ( h ) ) U ( ( m ) /\ ( h ) ) ) ) | ( ( ( m ) /\ ( X ( p ) ) ) W ( ( h ) /\ ( X ( ! ( p ) ) ) ) ) | ( ( ! ( h ) ) U ( ( m ) /\ ( h ) ) ) | ( X ( ( h ) W ( [] ( ( m ) /\ ( X ( p ) ) ) ) ) ) | ( [] ( ( h ) W ( [] ( ( m ) /\ ( [] ( p ) ) ) ) ) ) | ( ( ( <> ( ! ( h ) ) ) U ( ( m ) /\ ( h ) ) ) W ( ( h ) /\ ( m ) ) ) | ( ( ( h ) /\ ( m ) ) /\ ( ( h ) /\ ( m ) ) ) | ( <> ( ( h ) /\ ( m ) ) ) | ( ( m ) /\ ( h ) ) | ( ( ( h ) /\ ( m ) ) \/ ( ( <> ( h ) ) U ( ( m ) /\ ( h ) ) ) ) | ( ( h ) W ( [] ( ( m ) /\ ( p ) ) ) ) | ( ( h ) W ( ( m ) /\ ( [] ( p ) ) ) ) | ( ( ( h ) /\ ( m ) ) \/ ( ( h ) /\ ( m ) ) ) | 
Generation Time :0
Accumulated Learning Time :5
CALLs: 17    TIMEOUTs: 0    ERRORs: 0
REEVALUATIONS: 1077 OF 1917

GENERATION 25/50
....m.m.<;....m.m.<;....m.m.<;..
Fittest value: 2.8333333333333335 for chromosome ( ( h ) /\ ( m ) )
Solutions (28): ( ( ( m ) /\ ( X ( p ) ) ) \/ ( ( h ) /\ ( X ( ! ( p ) ) ) ) ) | ( ( h ) W ( [] ( ( m ) /\ ( [] ( p ) ) ) ) ) | ( ( h ) /\ ( m ) ) | ( ( [] ( h ) ) U ( ( m ) /\ ( h ) ) ) | ( [] ( ( ( m ) /\ ( X ( p ) ) ) \/ ( ( h ) /\ ( X ( ! ( p ) ) ) ) ) ) | ( ( [] ( h ) ) W ( ( m ) /\ ( X ( p ) ) ) ) | ( X ( ( ( m ) /\ ( X ( p ) ) ) \/ ( ( h ) /\ ( X ( ! ( p ) ) ) ) ) ) | ( X ( ( h ) W ( [] ( ( m ) /\ ( [] ( p ) ) ) ) ) ) | ( <> ( ( h ) W ( [] ( ( m ) /\ ( [] ( p ) ) ) ) ) ) | ( X ( ( h ) /\ ( m ) ) ) | ( ( <> ( ! ( h ) ) ) U ( ( m ) /\ ( h ) ) ) | ( ( ( h ) /\ ( m ) ) /\ ( m ) ) | ( ( ( h ) /\ ( m ) ) W ( ( h ) /\ ( m ) ) ) | ( ( h ) W ( <> ( ( m ) /\ ( [] ( p ) ) ) ) ) | ( ( ( h ) /\ ( m ) ) U ( ( [] ( h ) ) U ( ( m ) /\ ( h ) ) ) ) | ( ( ( h ) /\ ( m ) ) \/ ( ( [] ( h ) ) U ( ( m ) /\ ( h ) ) ) ) | ( ( ( m ) /\ ( X ( p ) ) ) W ( ( h ) /\ ( X ( ! ( p ) ) ) ) ) | ( ( ! ( h ) ) U ( ( m ) /\ ( h ) ) ) | ( X ( ( h ) W ( [] ( ( m ) /\ ( X ( p ) ) ) ) ) ) | ( [] ( ( h ) W ( [] ( ( m ) /\ ( [] ( p ) ) ) ) ) ) | ( ( ( <> ( ! ( h ) ) ) U ( ( m ) /\ ( h ) ) ) W ( ( h ) /\ ( m ) ) ) | ( ( ( h ) /\ ( m ) ) /\ ( ( h ) /\ ( m ) ) ) | ( <> ( ( h ) /\ ( m ) ) ) | ( ( m ) /\ ( h ) ) | ( ( ( h ) /\ ( m ) ) \/ ( ( <> ( h ) ) U ( ( m ) /\ ( h ) ) ) ) | ( ( h ) W ( [] ( ( m ) /\ ( p ) ) ) ) | ( ( h ) W ( ( m ) /\ ( [] ( p ) ) ) ) | ( ( ( h ) /\ ( m ) ) \/ ( ( h ) /\ ( m ) ) ) | 
Generation Time :0
Accumulated Learning Time :6
CALLs: 20    TIMEOUTs: 0    ERRORs: 0
REEVALUATIONS: 1148 OF 1992

GENERATION 26/50
....m.m.<;....m.m.<;....m.m.<;....m.m.<;
Fittest value: 2.8333333333333335 for chromosome ( ( h ) /\ ( m ) )
Solutions (28): ( ( ( m ) /\ ( X ( p ) ) ) \/ ( ( h ) /\ ( X ( ! ( p ) ) ) ) ) | ( ( h ) W ( [] ( ( m ) /\ ( [] ( p ) ) ) ) ) | ( ( h ) /\ ( m ) ) | ( ( [] ( h ) ) U ( ( m ) /\ ( h ) ) ) | ( [] ( ( ( m ) /\ ( X ( p ) ) ) \/ ( ( h ) /\ ( X ( ! ( p ) ) ) ) ) ) | ( ( [] ( h ) ) W ( ( m ) /\ ( X ( p ) ) ) ) | ( X ( ( ( m ) /\ ( X ( p ) ) ) \/ ( ( h ) /\ ( X ( ! ( p ) ) ) ) ) ) | ( X ( ( h ) W ( [] ( ( m ) /\ ( [] ( p ) ) ) ) ) ) | ( <> ( ( h ) W ( [] ( ( m ) /\ ( [] ( p ) ) ) ) ) ) | ( X ( ( h ) /\ ( m ) ) ) | ( ( <> ( ! ( h ) ) ) U ( ( m ) /\ ( h ) ) ) | ( ( ( h ) /\ ( m ) ) /\ ( m ) ) | ( ( ( h ) /\ ( m ) ) W ( ( h ) /\ ( m ) ) ) | ( ( h ) W ( <> ( ( m ) /\ ( [] ( p ) ) ) ) ) | ( ( ( h ) /\ ( m ) ) U ( ( [] ( h ) ) U ( ( m ) /\ ( h ) ) ) ) | ( ( ( h ) /\ ( m ) ) \/ ( ( [] ( h ) ) U ( ( m ) /\ ( h ) ) ) ) | ( ( ( m ) /\ ( X ( p ) ) ) W ( ( h ) /\ ( X ( ! ( p ) ) ) ) ) | ( ( ! ( h ) ) U ( ( m ) /\ ( h ) ) ) | ( X ( ( h ) W ( [] ( ( m ) /\ ( X ( p ) ) ) ) ) ) | ( [] ( ( h ) W ( [] ( ( m ) /\ ( [] ( p ) ) ) ) ) ) | ( ( ( <> ( ! ( h ) ) ) U ( ( m ) /\ ( h ) ) ) W ( ( h ) /\ ( m ) ) ) | ( ( ( h ) /\ ( m ) ) /\ ( ( h ) /\ ( m ) ) ) | ( <> ( ( h ) /\ ( m ) ) ) | ( ( m ) /\ ( h ) ) | ( ( ( h ) /\ ( m ) ) \/ ( ( <> ( h ) ) U ( ( m ) /\ ( h ) ) ) ) | ( ( h ) W ( [] ( ( m ) /\ ( p ) ) ) ) | ( ( h ) W ( ( m ) /\ ( [] ( p ) ) ) ) | ( ( ( h ) /\ ( m ) ) \/ ( ( h ) /\ ( m ) ) ) | 
Generation Time :0
Accumulated Learning Time :6
CALLs: 24    TIMEOUTs: 0    ERRORs: 0
REEVALUATIONS: 1229 OF 2077

GENERATION 27/50
....m.m.<;......m.m.<;
Fittest value: 2.8333333333333335 for chromosome ( ( h ) /\ ( m ) )
Solutions (28): ( ( ( m ) /\ ( X ( p ) ) ) \/ ( ( h ) /\ ( X ( ! ( p ) ) ) ) ) | ( ( h ) W ( [] ( ( m ) /\ ( [] ( p ) ) ) ) ) | ( ( h ) /\ ( m ) ) | ( ( [] ( h ) ) U ( ( m ) /\ ( h ) ) ) | ( [] ( ( ( m ) /\ ( X ( p ) ) ) \/ ( ( h ) /\ ( X ( ! ( p ) ) ) ) ) ) | ( ( [] ( h ) ) W ( ( m ) /\ ( X ( p ) ) ) ) | ( X ( ( ( m ) /\ ( X ( p ) ) ) \/ ( ( h ) /\ ( X ( ! ( p ) ) ) ) ) ) | ( X ( ( h ) W ( [] ( ( m ) /\ ( [] ( p ) ) ) ) ) ) | ( <> ( ( h ) W ( [] ( ( m ) /\ ( [] ( p ) ) ) ) ) ) | ( X ( ( h ) /\ ( m ) ) ) | ( ( <> ( ! ( h ) ) ) U ( ( m ) /\ ( h ) ) ) | ( ( ( h ) /\ ( m ) ) /\ ( m ) ) | ( ( ( h ) /\ ( m ) ) W ( ( h ) /\ ( m ) ) ) | ( ( h ) W ( <> ( ( m ) /\ ( [] ( p ) ) ) ) ) | ( ( ( h ) /\ ( m ) ) U ( ( [] ( h ) ) U ( ( m ) /\ ( h ) ) ) ) | ( ( ( h ) /\ ( m ) ) \/ ( ( [] ( h ) ) U ( ( m ) /\ ( h ) ) ) ) | ( ( ( m ) /\ ( X ( p ) ) ) W ( ( h ) /\ ( X ( ! ( p ) ) ) ) ) | ( ( ! ( h ) ) U ( ( m ) /\ ( h ) ) ) | ( X ( ( h ) W ( [] ( ( m ) /\ ( X ( p ) ) ) ) ) ) | ( [] ( ( h ) W ( [] ( ( m ) /\ ( [] ( p ) ) ) ) ) ) | ( ( ( <> ( ! ( h ) ) ) U ( ( m ) /\ ( h ) ) ) W ( ( h ) /\ ( m ) ) ) | ( ( ( h ) /\ ( m ) ) /\ ( ( h ) /\ ( m ) ) ) | ( <> ( ( h ) /\ ( m ) ) ) | ( ( m ) /\ ( h ) ) | ( ( ( h ) /\ ( m ) ) \/ ( ( <> ( h ) ) U ( ( m ) /\ ( h ) ) ) ) | ( ( h ) W ( [] ( ( m ) /\ ( p ) ) ) ) | ( ( h ) W ( ( m ) /\ ( [] ( p ) ) ) ) | ( ( ( h ) /\ ( m ) ) \/ ( ( h ) /\ ( m ) ) ) | 
Generation Time :0
Accumulated Learning Time :6
CALLs: 14    TIMEOUTs: 0    ERRORs: 0
REEVALUATIONS: 1311 OF 2162

GENERATION 28/50
....m.m.<;....m.m.<;....m.m.<;......m.m.<;....m.m.<;
Fittest value: 2.8333333333333335 for chromosome ( ( h ) /\ ( m ) )
Solutions (28): ( ( ( m ) /\ ( X ( p ) ) ) \/ ( ( h ) /\ ( X ( ! ( p ) ) ) ) ) | ( ( h ) W ( [] ( ( m ) /\ ( [] ( p ) ) ) ) ) | ( ( h ) /\ ( m ) ) | ( ( [] ( h ) ) U ( ( m ) /\ ( h ) ) ) | ( [] ( ( ( m ) /\ ( X ( p ) ) ) \/ ( ( h ) /\ ( X ( ! ( p ) ) ) ) ) ) | ( ( [] ( h ) ) W ( ( m ) /\ ( X ( p ) ) ) ) | ( X ( ( ( m ) /\ ( X ( p ) ) ) \/ ( ( h ) /\ ( X ( ! ( p ) ) ) ) ) ) | ( X ( ( h ) W ( [] ( ( m ) /\ ( [] ( p ) ) ) ) ) ) | ( <> ( ( h ) W ( [] ( ( m ) /\ ( [] ( p ) ) ) ) ) ) | ( X ( ( h ) /\ ( m ) ) ) | ( ( <> ( ! ( h ) ) ) U ( ( m ) /\ ( h ) ) ) | ( ( ( h ) /\ ( m ) ) /\ ( m ) ) | ( ( ( h ) /\ ( m ) ) W ( ( h ) /\ ( m ) ) ) | ( ( h ) W ( <> ( ( m ) /\ ( [] ( p ) ) ) ) ) | ( ( ( h ) /\ ( m ) ) U ( ( [] ( h ) ) U ( ( m ) /\ ( h ) ) ) ) | ( ( ( h ) /\ ( m ) ) \/ ( ( [] ( h ) ) U ( ( m ) /\ ( h ) ) ) ) | ( ( ( m ) /\ ( X ( p ) ) ) W ( ( h ) /\ ( X ( ! ( p ) ) ) ) ) | ( ( ! ( h ) ) U ( ( m ) /\ ( h ) ) ) | ( X ( ( h ) W ( [] ( ( m ) /\ ( X ( p ) ) ) ) ) ) | ( [] ( ( h ) W ( [] ( ( m ) /\ ( [] ( p ) ) ) ) ) ) | ( ( ( <> ( ! ( h ) ) ) U ( ( m ) /\ ( h ) ) ) W ( ( h ) /\ ( m ) ) ) | ( ( ( h ) /\ ( m ) ) /\ ( ( h ) /\ ( m ) ) ) | ( <> ( ( h ) /\ ( m ) ) ) | ( ( m ) /\ ( h ) ) | ( ( ( h ) /\ ( m ) ) \/ ( ( <> ( h ) ) U ( ( m ) /\ ( h ) ) ) ) | ( ( h ) W ( [] ( ( m ) /\ ( p ) ) ) ) | ( ( h ) W ( ( m ) /\ ( [] ( p ) ) ) ) | ( ( ( h ) /\ ( m ) ) \/ ( ( h ) /\ ( m ) ) ) | 
Generation Time :0
Accumulated Learning Time :6
CALLs: 32    TIMEOUTs: 0    ERRORs: 0
REEVALUATIONS: 1386 OF 2243

GENERATION 29/50
....m.m.<;....m.m.<;....m.m.<;
Fittest value: 2.8333333333333335 for chromosome ( ( h ) /\ ( m ) )
Solutions (28): ( ( ( m ) /\ ( X ( p ) ) ) \/ ( ( h ) /\ ( X ( ! ( p ) ) ) ) ) | ( ( h ) W ( [] ( ( m ) /\ ( [] ( p ) ) ) ) ) | ( ( h ) /\ ( m ) ) | ( ( [] ( h ) ) U ( ( m ) /\ ( h ) ) ) | ( [] ( ( ( m ) /\ ( X ( p ) ) ) \/ ( ( h ) /\ ( X ( ! ( p ) ) ) ) ) ) | ( ( [] ( h ) ) W ( ( m ) /\ ( X ( p ) ) ) ) | ( X ( ( ( m ) /\ ( X ( p ) ) ) \/ ( ( h ) /\ ( X ( ! ( p ) ) ) ) ) ) | ( X ( ( h ) W ( [] ( ( m ) /\ ( [] ( p ) ) ) ) ) ) | ( <> ( ( h ) W ( [] ( ( m ) /\ ( [] ( p ) ) ) ) ) ) | ( X ( ( h ) /\ ( m ) ) ) | ( ( <> ( ! ( h ) ) ) U ( ( m ) /\ ( h ) ) ) | ( ( ( h ) /\ ( m ) ) /\ ( m ) ) | ( ( ( h ) /\ ( m ) ) W ( ( h ) /\ ( m ) ) ) | ( ( h ) W ( <> ( ( m ) /\ ( [] ( p ) ) ) ) ) | ( ( ( h ) /\ ( m ) ) U ( ( [] ( h ) ) U ( ( m ) /\ ( h ) ) ) ) | ( ( ( h ) /\ ( m ) ) \/ ( ( [] ( h ) ) U ( ( m ) /\ ( h ) ) ) ) | ( ( ( m ) /\ ( X ( p ) ) ) W ( ( h ) /\ ( X ( ! ( p ) ) ) ) ) | ( ( ! ( h ) ) U ( ( m ) /\ ( h ) ) ) | ( X ( ( h ) W ( [] ( ( m ) /\ ( X ( p ) ) ) ) ) ) | ( [] ( ( h ) W ( [] ( ( m ) /\ ( [] ( p ) ) ) ) ) ) | ( ( ( <> ( ! ( h ) ) ) U ( ( m ) /\ ( h ) ) ) W ( ( h ) /\ ( m ) ) ) | ( ( ( h ) /\ ( m ) ) /\ ( ( h ) /\ ( m ) ) ) | ( <> ( ( h ) /\ ( m ) ) ) | ( ( m ) /\ ( h ) ) | ( ( ( h ) /\ ( m ) ) \/ ( ( <> ( h ) ) U ( ( m ) /\ ( h ) ) ) ) | ( ( h ) W ( [] ( ( m ) /\ ( p ) ) ) ) | ( ( h ) W ( ( m ) /\ ( [] ( p ) ) ) ) | ( ( ( h ) /\ ( m ) ) \/ ( ( h ) /\ ( m ) ) ) | 
Generation Time :0
Accumulated Learning Time :6
CALLs: 18    TIMEOUTs: 0    ERRORs: 0
REEVALUATIONS: 1466 OF 2326

GENERATION 30/50
......
Fittest value: 2.8333333333333335 for chromosome ( ( h ) /\ ( m ) )
Solutions (28): ( ( ( m ) /\ ( X ( p ) ) ) \/ ( ( h ) /\ ( X ( ! ( p ) ) ) ) ) | ( ( h ) W ( [] ( ( m ) /\ ( [] ( p ) ) ) ) ) | ( ( h ) /\ ( m ) ) | ( ( [] ( h ) ) U ( ( m ) /\ ( h ) ) ) | ( [] ( ( ( m ) /\ ( X ( p ) ) ) \/ ( ( h ) /\ ( X ( ! ( p ) ) ) ) ) ) | ( ( [] ( h ) ) W ( ( m ) /\ ( X ( p ) ) ) ) | ( X ( ( ( m ) /\ ( X ( p ) ) ) \/ ( ( h ) /\ ( X ( ! ( p ) ) ) ) ) ) | ( X ( ( h ) W ( [] ( ( m ) /\ ( [] ( p ) ) ) ) ) ) | ( <> ( ( h ) W ( [] ( ( m ) /\ ( [] ( p ) ) ) ) ) ) | ( X ( ( h ) /\ ( m ) ) ) | ( ( <> ( ! ( h ) ) ) U ( ( m ) /\ ( h ) ) ) | ( ( ( h ) /\ ( m ) ) /\ ( m ) ) | ( ( ( h ) /\ ( m ) ) W ( ( h ) /\ ( m ) ) ) | ( ( h ) W ( <> ( ( m ) /\ ( [] ( p ) ) ) ) ) | ( ( ( h ) /\ ( m ) ) U ( ( [] ( h ) ) U ( ( m ) /\ ( h ) ) ) ) | ( ( ( h ) /\ ( m ) ) \/ ( ( [] ( h ) ) U ( ( m ) /\ ( h ) ) ) ) | ( ( ( m ) /\ ( X ( p ) ) ) W ( ( h ) /\ ( X ( ! ( p ) ) ) ) ) | ( ( ! ( h ) ) U ( ( m ) /\ ( h ) ) ) | ( X ( ( h ) W ( [] ( ( m ) /\ ( X ( p ) ) ) ) ) ) | ( [] ( ( h ) W ( [] ( ( m ) /\ ( [] ( p ) ) ) ) ) ) | ( ( ( <> ( ! ( h ) ) ) U ( ( m ) /\ ( h ) ) ) W ( ( h ) /\ ( m ) ) ) | ( ( ( h ) /\ ( m ) ) /\ ( ( h ) /\ ( m ) ) ) | ( <> ( ( h ) /\ ( m ) ) ) | ( ( m ) /\ ( h ) ) | ( ( ( h ) /\ ( m ) ) \/ ( ( <> ( h ) ) U ( ( m ) /\ ( h ) ) ) ) | ( ( h ) W ( [] ( ( m ) /\ ( p ) ) ) ) | ( ( h ) W ( ( m ) /\ ( [] ( p ) ) ) ) | ( ( ( h ) /\ ( m ) ) \/ ( ( h ) /\ ( m ) ) ) | 
Generation Time :0
Accumulated Learning Time :6
CALLs: 6    TIMEOUTs: 0    ERRORs: 0
REEVALUATIONS: 1550 OF 2413

GENERATION 31/50
....m.m.<;....m.m.<;
Fittest value: 2.8333333333333335 for chromosome ( ( h ) /\ ( m ) )
Solutions (28): ( ( ( m ) /\ ( X ( p ) ) ) \/ ( ( h ) /\ ( X ( ! ( p ) ) ) ) ) | ( ( h ) W ( [] ( ( m ) /\ ( [] ( p ) ) ) ) ) | ( ( h ) /\ ( m ) ) | ( ( [] ( h ) ) U ( ( m ) /\ ( h ) ) ) | ( [] ( ( ( m ) /\ ( X ( p ) ) ) \/ ( ( h ) /\ ( X ( ! ( p ) ) ) ) ) ) | ( ( [] ( h ) ) W ( ( m ) /\ ( X ( p ) ) ) ) | ( X ( ( ( m ) /\ ( X ( p ) ) ) \/ ( ( h ) /\ ( X ( ! ( p ) ) ) ) ) ) | ( X ( ( h ) W ( [] ( ( m ) /\ ( [] ( p ) ) ) ) ) ) | ( <> ( ( h ) W ( [] ( ( m ) /\ ( [] ( p ) ) ) ) ) ) | ( X ( ( h ) /\ ( m ) ) ) | ( ( <> ( ! ( h ) ) ) U ( ( m ) /\ ( h ) ) ) | ( ( ( h ) /\ ( m ) ) /\ ( m ) ) | ( ( ( h ) /\ ( m ) ) W ( ( h ) /\ ( m ) ) ) | ( ( h ) W ( <> ( ( m ) /\ ( [] ( p ) ) ) ) ) | ( ( ( h ) /\ ( m ) ) U ( ( [] ( h ) ) U ( ( m ) /\ ( h ) ) ) ) | ( ( ( h ) /\ ( m ) ) \/ ( ( [] ( h ) ) U ( ( m ) /\ ( h ) ) ) ) | ( ( ( m ) /\ ( X ( p ) ) ) W ( ( h ) /\ ( X ( ! ( p ) ) ) ) ) | ( ( ! ( h ) ) U ( ( m ) /\ ( h ) ) ) | ( X ( ( h ) W ( [] ( ( m ) /\ ( X ( p ) ) ) ) ) ) | ( [] ( ( h ) W ( [] ( ( m ) /\ ( [] ( p ) ) ) ) ) ) | ( ( ( <> ( ! ( h ) ) ) U ( ( m ) /\ ( h ) ) ) W ( ( h ) /\ ( m ) ) ) | ( ( ( h ) /\ ( m ) ) /\ ( ( h ) /\ ( m ) ) ) | ( <> ( ( h ) /\ ( m ) ) ) | ( ( m ) /\ ( h ) ) | ( ( ( h ) /\ ( m ) ) \/ ( ( <> ( h ) ) U ( ( m ) /\ ( h ) ) ) ) | ( ( h ) W ( [] ( ( m ) /\ ( p ) ) ) ) | ( ( h ) W ( ( m ) /\ ( [] ( p ) ) ) ) | ( ( ( h ) /\ ( m ) ) \/ ( ( h ) /\ ( m ) ) ) | 
Generation Time :0
Accumulated Learning Time :6
CALLs: 12    TIMEOUTs: 0    ERRORs: 0
REEVALUATIONS: 1631 OF 2496

GENERATION 32/50
......m.m.<;....m.m.<;
Fittest value: 2.8333333333333335 for chromosome ( ( h ) /\ ( m ) )
Solutions (28): ( ( ( m ) /\ ( X ( p ) ) ) \/ ( ( h ) /\ ( X ( ! ( p ) ) ) ) ) | ( ( h ) W ( [] ( ( m ) /\ ( [] ( p ) ) ) ) ) | ( ( h ) /\ ( m ) ) | ( ( [] ( h ) ) U ( ( m ) /\ ( h ) ) ) | ( [] ( ( ( m ) /\ ( X ( p ) ) ) \/ ( ( h ) /\ ( X ( ! ( p ) ) ) ) ) ) | ( ( [] ( h ) ) W ( ( m ) /\ ( X ( p ) ) ) ) | ( X ( ( ( m ) /\ ( X ( p ) ) ) \/ ( ( h ) /\ ( X ( ! ( p ) ) ) ) ) ) | ( X ( ( h ) W ( [] ( ( m ) /\ ( [] ( p ) ) ) ) ) ) | ( <> ( ( h ) W ( [] ( ( m ) /\ ( [] ( p ) ) ) ) ) ) | ( X ( ( h ) /\ ( m ) ) ) | ( ( <> ( ! ( h ) ) ) U ( ( m ) /\ ( h ) ) ) | ( ( ( h ) /\ ( m ) ) /\ ( m ) ) | ( ( ( h ) /\ ( m ) ) W ( ( h ) /\ ( m ) ) ) | ( ( h ) W ( <> ( ( m ) /\ ( [] ( p ) ) ) ) ) | ( ( ( h ) /\ ( m ) ) U ( ( [] ( h ) ) U ( ( m ) /\ ( h ) ) ) ) | ( ( ( h ) /\ ( m ) ) \/ ( ( [] ( h ) ) U ( ( m ) /\ ( h ) ) ) ) | ( ( ( m ) /\ ( X ( p ) ) ) W ( ( h ) /\ ( X ( ! ( p ) ) ) ) ) | ( ( ! ( h ) ) U ( ( m ) /\ ( h ) ) ) | ( X ( ( h ) W ( [] ( ( m ) /\ ( X ( p ) ) ) ) ) ) | ( [] ( ( h ) W ( [] ( ( m ) /\ ( [] ( p ) ) ) ) ) ) | ( ( ( <> ( ! ( h ) ) ) U ( ( m ) /\ ( h ) ) ) W ( ( h ) /\ ( m ) ) ) | ( ( ( h ) /\ ( m ) ) /\ ( ( h ) /\ ( m ) ) ) | ( <> ( ( h ) /\ ( m ) ) ) | ( ( m ) /\ ( h ) ) | ( ( ( h ) /\ ( m ) ) \/ ( ( <> ( h ) ) U ( ( m ) /\ ( h ) ) ) ) | ( ( h ) W ( [] ( ( m ) /\ ( p ) ) ) ) | ( ( h ) W ( ( m ) /\ ( [] ( p ) ) ) ) | ( ( ( h ) /\ ( m ) ) \/ ( ( h ) /\ ( m ) ) ) | 
Generation Time :0
Accumulated Learning Time :6
CALLs: 14    TIMEOUTs: 0    ERRORs: 0
REEVALUATIONS: 1705 OF 2573

GENERATION 33/50
..
Fittest value: 2.8333333333333335 for chromosome ( ( h ) /\ ( m ) )
Solutions (28): ( ( ( m ) /\ ( X ( p ) ) ) \/ ( ( h ) /\ ( X ( ! ( p ) ) ) ) ) | ( ( h ) W ( [] ( ( m ) /\ ( [] ( p ) ) ) ) ) | ( ( h ) /\ ( m ) ) | ( ( [] ( h ) ) U ( ( m ) /\ ( h ) ) ) | ( [] ( ( ( m ) /\ ( X ( p ) ) ) \/ ( ( h ) /\ ( X ( ! ( p ) ) ) ) ) ) | ( ( [] ( h ) ) W ( ( m ) /\ ( X ( p ) ) ) ) | ( X ( ( ( m ) /\ ( X ( p ) ) ) \/ ( ( h ) /\ ( X ( ! ( p ) ) ) ) ) ) | ( X ( ( h ) W ( [] ( ( m ) /\ ( [] ( p ) ) ) ) ) ) | ( <> ( ( h ) W ( [] ( ( m ) /\ ( [] ( p ) ) ) ) ) ) | ( X ( ( h ) /\ ( m ) ) ) | ( ( <> ( ! ( h ) ) ) U ( ( m ) /\ ( h ) ) ) | ( ( ( h ) /\ ( m ) ) /\ ( m ) ) | ( ( ( h ) /\ ( m ) ) W ( ( h ) /\ ( m ) ) ) | ( ( h ) W ( <> ( ( m ) /\ ( [] ( p ) ) ) ) ) | ( ( ( h ) /\ ( m ) ) U ( ( [] ( h ) ) U ( ( m ) /\ ( h ) ) ) ) | ( ( ( h ) /\ ( m ) ) \/ ( ( [] ( h ) ) U ( ( m ) /\ ( h ) ) ) ) | ( ( ( m ) /\ ( X ( p ) ) ) W ( ( h ) /\ ( X ( ! ( p ) ) ) ) ) | ( ( ! ( h ) ) U ( ( m ) /\ ( h ) ) ) | ( X ( ( h ) W ( [] ( ( m ) /\ ( X ( p ) ) ) ) ) ) | ( [] ( ( h ) W ( [] ( ( m ) /\ ( [] ( p ) ) ) ) ) ) | ( ( ( <> ( ! ( h ) ) ) U ( ( m ) /\ ( h ) ) ) W ( ( h ) /\ ( m ) ) ) | ( ( ( h ) /\ ( m ) ) /\ ( ( h ) /\ ( m ) ) ) | ( <> ( ( h ) /\ ( m ) ) ) | ( ( m ) /\ ( h ) ) | ( ( ( h ) /\ ( m ) ) \/ ( ( <> ( h ) ) U ( ( m ) /\ ( h ) ) ) ) | ( ( h ) W ( [] ( ( m ) /\ ( p ) ) ) ) | ( ( h ) W ( ( m ) /\ ( [] ( p ) ) ) ) | ( ( ( h ) /\ ( m ) ) \/ ( ( h ) /\ ( m ) ) ) | 
Generation Time :0
Accumulated Learning Time :6
CALLs: 2    TIMEOUTs: 0    ERRORs: 0
REEVALUATIONS: 1789 OF 2658

GENERATION 34/50
..
Fittest value: 2.8333333333333335 for chromosome ( ( h ) /\ ( m ) )
Solutions (28): ( ( ( m ) /\ ( X ( p ) ) ) \/ ( ( h ) /\ ( X ( ! ( p ) ) ) ) ) | ( ( h ) W ( [] ( ( m ) /\ ( [] ( p ) ) ) ) ) | ( ( h ) /\ ( m ) ) | ( ( [] ( h ) ) U ( ( m ) /\ ( h ) ) ) | ( [] ( ( ( m ) /\ ( X ( p ) ) ) \/ ( ( h ) /\ ( X ( ! ( p ) ) ) ) ) ) | ( ( [] ( h ) ) W ( ( m ) /\ ( X ( p ) ) ) ) | ( X ( ( ( m ) /\ ( X ( p ) ) ) \/ ( ( h ) /\ ( X ( ! ( p ) ) ) ) ) ) | ( X ( ( h ) W ( [] ( ( m ) /\ ( [] ( p ) ) ) ) ) ) | ( <> ( ( h ) W ( [] ( ( m ) /\ ( [] ( p ) ) ) ) ) ) | ( X ( ( h ) /\ ( m ) ) ) | ( ( <> ( ! ( h ) ) ) U ( ( m ) /\ ( h ) ) ) | ( ( ( h ) /\ ( m ) ) /\ ( m ) ) | ( ( ( h ) /\ ( m ) ) W ( ( h ) /\ ( m ) ) ) | ( ( h ) W ( <> ( ( m ) /\ ( [] ( p ) ) ) ) ) | ( ( ( h ) /\ ( m ) ) U ( ( [] ( h ) ) U ( ( m ) /\ ( h ) ) ) ) | ( ( ( h ) /\ ( m ) ) \/ ( ( [] ( h ) ) U ( ( m ) /\ ( h ) ) ) ) | ( ( ( m ) /\ ( X ( p ) ) ) W ( ( h ) /\ ( X ( ! ( p ) ) ) ) ) | ( ( ! ( h ) ) U ( ( m ) /\ ( h ) ) ) | ( X ( ( h ) W ( [] ( ( m ) /\ ( X ( p ) ) ) ) ) ) | ( [] ( ( h ) W ( [] ( ( m ) /\ ( [] ( p ) ) ) ) ) ) | ( ( ( <> ( ! ( h ) ) ) U ( ( m ) /\ ( h ) ) ) W ( ( h ) /\ ( m ) ) ) | ( ( ( h ) /\ ( m ) ) /\ ( ( h ) /\ ( m ) ) ) | ( <> ( ( h ) /\ ( m ) ) ) | ( ( m ) /\ ( h ) ) | ( ( ( h ) /\ ( m ) ) \/ ( ( <> ( h ) ) U ( ( m ) /\ ( h ) ) ) ) | ( ( h ) W ( [] ( ( m ) /\ ( p ) ) ) ) | ( ( h ) W ( ( m ) /\ ( [] ( p ) ) ) ) | ( ( ( h ) /\ ( m ) ) \/ ( ( h ) /\ ( m ) ) ) | 
Generation Time :0
Accumulated Learning Time :6
CALLs: 2    TIMEOUTs: 0    ERRORs: 0
REEVALUATIONS: 1861 OF 2731

GENERATION 35/50
....m.m.<;
Fittest value: 2.8333333333333335 for chromosome ( ( h ) /\ ( m ) )
Solutions (28): ( ( ( m ) /\ ( X ( p ) ) ) \/ ( ( h ) /\ ( X ( ! ( p ) ) ) ) ) | ( ( h ) W ( [] ( ( m ) /\ ( [] ( p ) ) ) ) ) | ( ( h ) /\ ( m ) ) | ( ( [] ( h ) ) U ( ( m ) /\ ( h ) ) ) | ( [] ( ( ( m ) /\ ( X ( p ) ) ) \/ ( ( h ) /\ ( X ( ! ( p ) ) ) ) ) ) | ( ( [] ( h ) ) W ( ( m ) /\ ( X ( p ) ) ) ) | ( X ( ( ( m ) /\ ( X ( p ) ) ) \/ ( ( h ) /\ ( X ( ! ( p ) ) ) ) ) ) | ( X ( ( h ) W ( [] ( ( m ) /\ ( [] ( p ) ) ) ) ) ) | ( <> ( ( h ) W ( [] ( ( m ) /\ ( [] ( p ) ) ) ) ) ) | ( X ( ( h ) /\ ( m ) ) ) | ( ( <> ( ! ( h ) ) ) U ( ( m ) /\ ( h ) ) ) | ( ( ( h ) /\ ( m ) ) /\ ( m ) ) | ( ( ( h ) /\ ( m ) ) W ( ( h ) /\ ( m ) ) ) | ( ( h ) W ( <> ( ( m ) /\ ( [] ( p ) ) ) ) ) | ( ( ( h ) /\ ( m ) ) U ( ( [] ( h ) ) U ( ( m ) /\ ( h ) ) ) ) | ( ( ( h ) /\ ( m ) ) \/ ( ( [] ( h ) ) U ( ( m ) /\ ( h ) ) ) ) | ( ( ( m ) /\ ( X ( p ) ) ) W ( ( h ) /\ ( X ( ! ( p ) ) ) ) ) | ( ( ! ( h ) ) U ( ( m ) /\ ( h ) ) ) | ( X ( ( h ) W ( [] ( ( m ) /\ ( X ( p ) ) ) ) ) ) | ( [] ( ( h ) W ( [] ( ( m ) /\ ( [] ( p ) ) ) ) ) ) | ( ( ( <> ( ! ( h ) ) ) U ( ( m ) /\ ( h ) ) ) W ( ( h ) /\ ( m ) ) ) | ( ( ( h ) /\ ( m ) ) /\ ( ( h ) /\ ( m ) ) ) | ( <> ( ( h ) /\ ( m ) ) ) | ( ( m ) /\ ( h ) ) | ( ( ( h ) /\ ( m ) ) \/ ( ( <> ( h ) ) U ( ( m ) /\ ( h ) ) ) ) | ( ( h ) W ( [] ( ( m ) /\ ( p ) ) ) ) | ( ( h ) W ( ( m ) /\ ( [] ( p ) ) ) ) | ( ( ( h ) /\ ( m ) ) \/ ( ( h ) /\ ( m ) ) ) | 
Generation Time :0
Accumulated Learning Time :6
CALLs: 6    TIMEOUTs: 0    ERRORs: 0
REEVALUATIONS: 1946 OF 2817

GENERATION 36/50
....m.m.<;....m.m.<;....m.m.<;....m.m.<;....m.m.<;
Fittest value: 2.8333333333333335 for chromosome ( ( h ) /\ ( m ) )
Solutions (28): ( ( ( m ) /\ ( X ( p ) ) ) \/ ( ( h ) /\ ( X ( ! ( p ) ) ) ) ) | ( ( h ) W ( [] ( ( m ) /\ ( [] ( p ) ) ) ) ) | ( ( h ) /\ ( m ) ) | ( ( [] ( h ) ) U ( ( m ) /\ ( h ) ) ) | ( [] ( ( ( m ) /\ ( X ( p ) ) ) \/ ( ( h ) /\ ( X ( ! ( p ) ) ) ) ) ) | ( ( [] ( h ) ) W ( ( m ) /\ ( X ( p ) ) ) ) | ( X ( ( ( m ) /\ ( X ( p ) ) ) \/ ( ( h ) /\ ( X ( ! ( p ) ) ) ) ) ) | ( X ( ( h ) W ( [] ( ( m ) /\ ( [] ( p ) ) ) ) ) ) | ( <> ( ( h ) W ( [] ( ( m ) /\ ( [] ( p ) ) ) ) ) ) | ( X ( ( h ) /\ ( m ) ) ) | ( ( <> ( ! ( h ) ) ) U ( ( m ) /\ ( h ) ) ) | ( ( ( h ) /\ ( m ) ) /\ ( m ) ) | ( ( ( h ) /\ ( m ) ) W ( ( h ) /\ ( m ) ) ) | ( ( h ) W ( <> ( ( m ) /\ ( [] ( p ) ) ) ) ) | ( ( ( h ) /\ ( m ) ) U ( ( [] ( h ) ) U ( ( m ) /\ ( h ) ) ) ) | ( ( ( h ) /\ ( m ) ) \/ ( ( [] ( h ) ) U ( ( m ) /\ ( h ) ) ) ) | ( ( ( m ) /\ ( X ( p ) ) ) W ( ( h ) /\ ( X ( ! ( p ) ) ) ) ) | ( ( ! ( h ) ) U ( ( m ) /\ ( h ) ) ) | ( X ( ( h ) W ( [] ( ( m ) /\ ( X ( p ) ) ) ) ) ) | ( [] ( ( h ) W ( [] ( ( m ) /\ ( [] ( p ) ) ) ) ) ) | ( ( ( <> ( ! ( h ) ) ) U ( ( m ) /\ ( h ) ) ) W ( ( h ) /\ ( m ) ) ) | ( ( ( h ) /\ ( m ) ) /\ ( ( h ) /\ ( m ) ) ) | ( <> ( ( h ) /\ ( m ) ) ) | ( ( m ) /\ ( h ) ) | ( ( ( h ) /\ ( m ) ) \/ ( ( <> ( h ) ) U ( ( m ) /\ ( h ) ) ) ) | ( ( h ) W ( [] ( ( m ) /\ ( p ) ) ) ) | ( ( h ) W ( ( m ) /\ ( [] ( p ) ) ) ) | ( ( ( h ) /\ ( m ) ) \/ ( ( h ) /\ ( m ) ) ) | 
Generation Time :0
Accumulated Learning Time :6
CALLs: 30    TIMEOUTs: 0    ERRORs: 0
REEVALUATIONS: 2027 OF 2903

GENERATION 37/50
....m.m.<;......m.m.<;
Fittest value: 2.8333333333333335 for chromosome ( ( h ) /\ ( m ) )
Solutions (28): ( ( ( m ) /\ ( X ( p ) ) ) \/ ( ( h ) /\ ( X ( ! ( p ) ) ) ) ) | ( ( h ) W ( [] ( ( m ) /\ ( [] ( p ) ) ) ) ) | ( ( h ) /\ ( m ) ) | ( ( [] ( h ) ) U ( ( m ) /\ ( h ) ) ) | ( [] ( ( ( m ) /\ ( X ( p ) ) ) \/ ( ( h ) /\ ( X ( ! ( p ) ) ) ) ) ) | ( ( [] ( h ) ) W ( ( m ) /\ ( X ( p ) ) ) ) | ( X ( ( ( m ) /\ ( X ( p ) ) ) \/ ( ( h ) /\ ( X ( ! ( p ) ) ) ) ) ) | ( X ( ( h ) W ( [] ( ( m ) /\ ( [] ( p ) ) ) ) ) ) | ( <> ( ( h ) W ( [] ( ( m ) /\ ( [] ( p ) ) ) ) ) ) | ( X ( ( h ) /\ ( m ) ) ) | ( ( <> ( ! ( h ) ) ) U ( ( m ) /\ ( h ) ) ) | ( ( ( h ) /\ ( m ) ) /\ ( m ) ) | ( ( ( h ) /\ ( m ) ) W ( ( h ) /\ ( m ) ) ) | ( ( h ) W ( <> ( ( m ) /\ ( [] ( p ) ) ) ) ) | ( ( ( h ) /\ ( m ) ) U ( ( [] ( h ) ) U ( ( m ) /\ ( h ) ) ) ) | ( ( ( h ) /\ ( m ) ) \/ ( ( [] ( h ) ) U ( ( m ) /\ ( h ) ) ) ) | ( ( ( m ) /\ ( X ( p ) ) ) W ( ( h ) /\ ( X ( ! ( p ) ) ) ) ) | ( ( ! ( h ) ) U ( ( m ) /\ ( h ) ) ) | ( X ( ( h ) W ( [] ( ( m ) /\ ( X ( p ) ) ) ) ) ) | ( [] ( ( h ) W ( [] ( ( m ) /\ ( [] ( p ) ) ) ) ) ) | ( ( ( <> ( ! ( h ) ) ) U ( ( m ) /\ ( h ) ) ) W ( ( h ) /\ ( m ) ) ) | ( ( ( h ) /\ ( m ) ) /\ ( ( h ) /\ ( m ) ) ) | ( <> ( ( h ) /\ ( m ) ) ) | ( ( m ) /\ ( h ) ) | ( ( ( h ) /\ ( m ) ) \/ ( ( <> ( h ) ) U ( ( m ) /\ ( h ) ) ) ) | ( ( h ) W ( [] ( ( m ) /\ ( p ) ) ) ) | ( ( h ) W ( ( m ) /\ ( [] ( p ) ) ) ) | ( ( ( h ) /\ ( m ) ) \/ ( ( h ) /\ ( m ) ) ) | 
Generation Time :0
Accumulated Learning Time :6
CALLs: 14    TIMEOUTs: 0    ERRORs: 0
REEVALUATIONS: 2108 OF 2987

GENERATION 38/50
....m.m.<;
Fittest value: 2.8333333333333335 for chromosome ( ( h ) /\ ( m ) )
Solutions (28): ( ( ( m ) /\ ( X ( p ) ) ) \/ ( ( h ) /\ ( X ( ! ( p ) ) ) ) ) | ( ( h ) W ( [] ( ( m ) /\ ( [] ( p ) ) ) ) ) | ( ( h ) /\ ( m ) ) | ( ( [] ( h ) ) U ( ( m ) /\ ( h ) ) ) | ( [] ( ( ( m ) /\ ( X ( p ) ) ) \/ ( ( h ) /\ ( X ( ! ( p ) ) ) ) ) ) | ( ( [] ( h ) ) W ( ( m ) /\ ( X ( p ) ) ) ) | ( X ( ( ( m ) /\ ( X ( p ) ) ) \/ ( ( h ) /\ ( X ( ! ( p ) ) ) ) ) ) | ( X ( ( h ) W ( [] ( ( m ) /\ ( [] ( p ) ) ) ) ) ) | ( <> ( ( h ) W ( [] ( ( m ) /\ ( [] ( p ) ) ) ) ) ) | ( X ( ( h ) /\ ( m ) ) ) | ( ( <> ( ! ( h ) ) ) U ( ( m ) /\ ( h ) ) ) | ( ( ( h ) /\ ( m ) ) /\ ( m ) ) | ( ( ( h ) /\ ( m ) ) W ( ( h ) /\ ( m ) ) ) | ( ( h ) W ( <> ( ( m ) /\ ( [] ( p ) ) ) ) ) | ( ( ( h ) /\ ( m ) ) U ( ( [] ( h ) ) U ( ( m ) /\ ( h ) ) ) ) | ( ( ( h ) /\ ( m ) ) \/ ( ( [] ( h ) ) U ( ( m ) /\ ( h ) ) ) ) | ( ( ( m ) /\ ( X ( p ) ) ) W ( ( h ) /\ ( X ( ! ( p ) ) ) ) ) | ( ( ! ( h ) ) U ( ( m ) /\ ( h ) ) ) | ( X ( ( h ) W ( [] ( ( m ) /\ ( X ( p ) ) ) ) ) ) | ( [] ( ( h ) W ( [] ( ( m ) /\ ( [] ( p ) ) ) ) ) ) | ( ( ( <> ( ! ( h ) ) ) U ( ( m ) /\ ( h ) ) ) W ( ( h ) /\ ( m ) ) ) | ( ( ( h ) /\ ( m ) ) /\ ( ( h ) /\ ( m ) ) ) | ( <> ( ( h ) /\ ( m ) ) ) | ( ( m ) /\ ( h ) ) | ( ( ( h ) /\ ( m ) ) \/ ( ( <> ( h ) ) U ( ( m ) /\ ( h ) ) ) ) | ( ( h ) W ( [] ( ( m ) /\ ( p ) ) ) ) | ( ( h ) W ( ( m ) /\ ( [] ( p ) ) ) ) | ( ( ( h ) /\ ( m ) ) \/ ( ( h ) /\ ( m ) ) ) | 
Generation Time :0
Accumulated Learning Time :6
CALLs: 6    TIMEOUTs: 0    ERRORs: 0
REEVALUATIONS: 2187 OF 3067

GENERATION 39/50
...
Fittest value: 2.8333333333333335 for chromosome ( ( h ) /\ ( m ) )
Solutions (28): ( ( ( m ) /\ ( X ( p ) ) ) \/ ( ( h ) /\ ( X ( ! ( p ) ) ) ) ) | ( ( h ) W ( [] ( ( m ) /\ ( [] ( p ) ) ) ) ) | ( ( h ) /\ ( m ) ) | ( ( [] ( h ) ) U ( ( m ) /\ ( h ) ) ) | ( [] ( ( ( m ) /\ ( X ( p ) ) ) \/ ( ( h ) /\ ( X ( ! ( p ) ) ) ) ) ) | ( ( [] ( h ) ) W ( ( m ) /\ ( X ( p ) ) ) ) | ( X ( ( ( m ) /\ ( X ( p ) ) ) \/ ( ( h ) /\ ( X ( ! ( p ) ) ) ) ) ) | ( X ( ( h ) W ( [] ( ( m ) /\ ( [] ( p ) ) ) ) ) ) | ( <> ( ( h ) W ( [] ( ( m ) /\ ( [] ( p ) ) ) ) ) ) | ( X ( ( h ) /\ ( m ) ) ) | ( ( <> ( ! ( h ) ) ) U ( ( m ) /\ ( h ) ) ) | ( ( ( h ) /\ ( m ) ) /\ ( m ) ) | ( ( ( h ) /\ ( m ) ) W ( ( h ) /\ ( m ) ) ) | ( ( h ) W ( <> ( ( m ) /\ ( [] ( p ) ) ) ) ) | ( ( ( h ) /\ ( m ) ) U ( ( [] ( h ) ) U ( ( m ) /\ ( h ) ) ) ) | ( ( ( h ) /\ ( m ) ) \/ ( ( [] ( h ) ) U ( ( m ) /\ ( h ) ) ) ) | ( ( ( m ) /\ ( X ( p ) ) ) W ( ( h ) /\ ( X ( ! ( p ) ) ) ) ) | ( ( ! ( h ) ) U ( ( m ) /\ ( h ) ) ) | ( X ( ( h ) W ( [] ( ( m ) /\ ( X ( p ) ) ) ) ) ) | ( [] ( ( h ) W ( [] ( ( m ) /\ ( [] ( p ) ) ) ) ) ) | ( ( ( <> ( ! ( h ) ) ) U ( ( m ) /\ ( h ) ) ) W ( ( h ) /\ ( m ) ) ) | ( ( ( h ) /\ ( m ) ) /\ ( ( h ) /\ ( m ) ) ) | ( <> ( ( h ) /\ ( m ) ) ) | ( ( m ) /\ ( h ) ) | ( ( ( h ) /\ ( m ) ) \/ ( ( <> ( h ) ) U ( ( m ) /\ ( h ) ) ) ) | ( ( h ) W ( [] ( ( m ) /\ ( p ) ) ) ) | ( ( h ) W ( ( m ) /\ ( [] ( p ) ) ) ) | ( ( ( h ) /\ ( m ) ) \/ ( ( h ) /\ ( m ) ) ) | 
Generation Time :0
Accumulated Learning Time :6
CALLs: 3    TIMEOUTs: 0    ERRORs: 0
REEVALUATIONS: 2267 OF 3149

GENERATION 40/50
....m.m.<;....m.m.<;
Fittest value: 2.8333333333333335 for chromosome ( ( h ) /\ ( m ) )
Solutions (28): ( ( ( m ) /\ ( X ( p ) ) ) \/ ( ( h ) /\ ( X ( ! ( p ) ) ) ) ) | ( ( h ) W ( [] ( ( m ) /\ ( [] ( p ) ) ) ) ) | ( ( h ) /\ ( m ) ) | ( ( [] ( h ) ) U ( ( m ) /\ ( h ) ) ) | ( [] ( ( ( m ) /\ ( X ( p ) ) ) \/ ( ( h ) /\ ( X ( ! ( p ) ) ) ) ) ) | ( ( [] ( h ) ) W ( ( m ) /\ ( X ( p ) ) ) ) | ( X ( ( ( m ) /\ ( X ( p ) ) ) \/ ( ( h ) /\ ( X ( ! ( p ) ) ) ) ) ) | ( X ( ( h ) W ( [] ( ( m ) /\ ( [] ( p ) ) ) ) ) ) | ( <> ( ( h ) W ( [] ( ( m ) /\ ( [] ( p ) ) ) ) ) ) | ( X ( ( h ) /\ ( m ) ) ) | ( ( <> ( ! ( h ) ) ) U ( ( m ) /\ ( h ) ) ) | ( ( ( h ) /\ ( m ) ) /\ ( m ) ) | ( ( ( h ) /\ ( m ) ) W ( ( h ) /\ ( m ) ) ) | ( ( h ) W ( <> ( ( m ) /\ ( [] ( p ) ) ) ) ) | ( ( ( h ) /\ ( m ) ) U ( ( [] ( h ) ) U ( ( m ) /\ ( h ) ) ) ) | ( ( ( h ) /\ ( m ) ) \/ ( ( [] ( h ) ) U ( ( m ) /\ ( h ) ) ) ) | ( ( ( m ) /\ ( X ( p ) ) ) W ( ( h ) /\ ( X ( ! ( p ) ) ) ) ) | ( ( ! ( h ) ) U ( ( m ) /\ ( h ) ) ) | ( X ( ( h ) W ( [] ( ( m ) /\ ( X ( p ) ) ) ) ) ) | ( [] ( ( h ) W ( [] ( ( m ) /\ ( [] ( p ) ) ) ) ) ) | ( ( ( <> ( ! ( h ) ) ) U ( ( m ) /\ ( h ) ) ) W ( ( h ) /\ ( m ) ) ) | ( ( ( h ) /\ ( m ) ) /\ ( ( h ) /\ ( m ) ) ) | ( <> ( ( h ) /\ ( m ) ) ) | ( ( m ) /\ ( h ) ) | ( ( ( h ) /\ ( m ) ) \/ ( ( <> ( h ) ) U ( ( m ) /\ ( h ) ) ) ) | ( ( h ) W ( [] ( ( m ) /\ ( p ) ) ) ) | ( ( h ) W ( ( m ) /\ ( [] ( p ) ) ) ) | ( ( ( h ) /\ ( m ) ) \/ ( ( h ) /\ ( m ) ) ) | 
Generation Time :0
Accumulated Learning Time :6
CALLs: 12    TIMEOUTs: 0    ERRORs: 0
REEVALUATIONS: 2348 OF 3232

GENERATION 41/50
....m.m.<;.
Fittest value: 2.8333333333333335 for chromosome ( ( h ) /\ ( m ) )
Solutions (28): ( ( ( m ) /\ ( X ( p ) ) ) \/ ( ( h ) /\ ( X ( ! ( p ) ) ) ) ) | ( ( h ) W ( [] ( ( m ) /\ ( [] ( p ) ) ) ) ) | ( ( h ) /\ ( m ) ) | ( ( [] ( h ) ) U ( ( m ) /\ ( h ) ) ) | ( [] ( ( ( m ) /\ ( X ( p ) ) ) \/ ( ( h ) /\ ( X ( ! ( p ) ) ) ) ) ) | ( ( [] ( h ) ) W ( ( m ) /\ ( X ( p ) ) ) ) | ( X ( ( ( m ) /\ ( X ( p ) ) ) \/ ( ( h ) /\ ( X ( ! ( p ) ) ) ) ) ) | ( X ( ( h ) W ( [] ( ( m ) /\ ( [] ( p ) ) ) ) ) ) | ( <> ( ( h ) W ( [] ( ( m ) /\ ( [] ( p ) ) ) ) ) ) | ( X ( ( h ) /\ ( m ) ) ) | ( ( <> ( ! ( h ) ) ) U ( ( m ) /\ ( h ) ) ) | ( ( ( h ) /\ ( m ) ) /\ ( m ) ) | ( ( ( h ) /\ ( m ) ) W ( ( h ) /\ ( m ) ) ) | ( ( h ) W ( <> ( ( m ) /\ ( [] ( p ) ) ) ) ) | ( ( ( h ) /\ ( m ) ) U ( ( [] ( h ) ) U ( ( m ) /\ ( h ) ) ) ) | ( ( ( h ) /\ ( m ) ) \/ ( ( [] ( h ) ) U ( ( m ) /\ ( h ) ) ) ) | ( ( ( m ) /\ ( X ( p ) ) ) W ( ( h ) /\ ( X ( ! ( p ) ) ) ) ) | ( ( ! ( h ) ) U ( ( m ) /\ ( h ) ) ) | ( X ( ( h ) W ( [] ( ( m ) /\ ( X ( p ) ) ) ) ) ) | ( [] ( ( h ) W ( [] ( ( m ) /\ ( [] ( p ) ) ) ) ) ) | ( ( ( <> ( ! ( h ) ) ) U ( ( m ) /\ ( h ) ) ) W ( ( h ) /\ ( m ) ) ) | ( ( ( h ) /\ ( m ) ) /\ ( ( h ) /\ ( m ) ) ) | ( <> ( ( h ) /\ ( m ) ) ) | ( ( m ) /\ ( h ) ) | ( ( ( h ) /\ ( m ) ) \/ ( ( <> ( h ) ) U ( ( m ) /\ ( h ) ) ) ) | ( ( h ) W ( [] ( ( m ) /\ ( p ) ) ) ) | ( ( h ) W ( ( m ) /\ ( [] ( p ) ) ) ) | ( ( ( h ) /\ ( m ) ) \/ ( ( h ) /\ ( m ) ) ) | 
Generation Time :0
Accumulated Learning Time :6
CALLs: 7    TIMEOUTs: 0    ERRORs: 0
REEVALUATIONS: 2422 OF 3308

GENERATION 42/50
....m.m.<;......m.m.<;
Fittest value: 2.8333333333333335 for chromosome ( ( h ) /\ ( m ) )
Solutions (28): ( ( ( m ) /\ ( X ( p ) ) ) \/ ( ( h ) /\ ( X ( ! ( p ) ) ) ) ) | ( ( h ) W ( [] ( ( m ) /\ ( [] ( p ) ) ) ) ) | ( ( h ) /\ ( m ) ) | ( ( [] ( h ) ) U ( ( m ) /\ ( h ) ) ) | ( [] ( ( ( m ) /\ ( X ( p ) ) ) \/ ( ( h ) /\ ( X ( ! ( p ) ) ) ) ) ) | ( ( [] ( h ) ) W ( ( m ) /\ ( X ( p ) ) ) ) | ( X ( ( ( m ) /\ ( X ( p ) ) ) \/ ( ( h ) /\ ( X ( ! ( p ) ) ) ) ) ) | ( X ( ( h ) W ( [] ( ( m ) /\ ( [] ( p ) ) ) ) ) ) | ( <> ( ( h ) W ( [] ( ( m ) /\ ( [] ( p ) ) ) ) ) ) | ( X ( ( h ) /\ ( m ) ) ) | ( ( <> ( ! ( h ) ) ) U ( ( m ) /\ ( h ) ) ) | ( ( ( h ) /\ ( m ) ) /\ ( m ) ) | ( ( ( h ) /\ ( m ) ) W ( ( h ) /\ ( m ) ) ) | ( ( h ) W ( <> ( ( m ) /\ ( [] ( p ) ) ) ) ) | ( ( ( h ) /\ ( m ) ) U ( ( [] ( h ) ) U ( ( m ) /\ ( h ) ) ) ) | ( ( ( h ) /\ ( m ) ) \/ ( ( [] ( h ) ) U ( ( m ) /\ ( h ) ) ) ) | ( ( ( m ) /\ ( X ( p ) ) ) W ( ( h ) /\ ( X ( ! ( p ) ) ) ) ) | ( ( ! ( h ) ) U ( ( m ) /\ ( h ) ) ) | ( X ( ( h ) W ( [] ( ( m ) /\ ( X ( p ) ) ) ) ) ) | ( [] ( ( h ) W ( [] ( ( m ) /\ ( [] ( p ) ) ) ) ) ) | ( ( ( <> ( ! ( h ) ) ) U ( ( m ) /\ ( h ) ) ) W ( ( h ) /\ ( m ) ) ) | ( ( ( h ) /\ ( m ) ) /\ ( ( h ) /\ ( m ) ) ) | ( <> ( ( h ) /\ ( m ) ) ) | ( ( m ) /\ ( h ) ) | ( ( ( h ) /\ ( m ) ) \/ ( ( <> ( h ) ) U ( ( m ) /\ ( h ) ) ) ) | ( ( h ) W ( [] ( ( m ) /\ ( p ) ) ) ) | ( ( h ) W ( ( m ) /\ ( [] ( p ) ) ) ) | ( ( ( h ) /\ ( m ) ) \/ ( ( h ) /\ ( m ) ) ) | 
Generation Time :0
Accumulated Learning Time :6
CALLs: 14    TIMEOUTs: 0    ERRORs: 0
REEVALUATIONS: 2507 OF 3396

GENERATION 43/50
....m.m.<;...i.m.m.<;
Fittest value: 2.8333333333333335 for chromosome ( ( h ) /\ ( m ) )
Solutions (28): ( ( ( m ) /\ ( X ( p ) ) ) \/ ( ( h ) /\ ( X ( ! ( p ) ) ) ) ) | ( ( h ) W ( [] ( ( m ) /\ ( [] ( p ) ) ) ) ) | ( ( h ) /\ ( m ) ) | ( ( [] ( h ) ) U ( ( m ) /\ ( h ) ) ) | ( [] ( ( ( m ) /\ ( X ( p ) ) ) \/ ( ( h ) /\ ( X ( ! ( p ) ) ) ) ) ) | ( ( [] ( h ) ) W ( ( m ) /\ ( X ( p ) ) ) ) | ( X ( ( ( m ) /\ ( X ( p ) ) ) \/ ( ( h ) /\ ( X ( ! ( p ) ) ) ) ) ) | ( X ( ( h ) W ( [] ( ( m ) /\ ( [] ( p ) ) ) ) ) ) | ( <> ( ( h ) W ( [] ( ( m ) /\ ( [] ( p ) ) ) ) ) ) | ( X ( ( h ) /\ ( m ) ) ) | ( ( <> ( ! ( h ) ) ) U ( ( m ) /\ ( h ) ) ) | ( ( ( h ) /\ ( m ) ) /\ ( m ) ) | ( ( ( h ) /\ ( m ) ) W ( ( h ) /\ ( m ) ) ) | ( ( h ) W ( <> ( ( m ) /\ ( [] ( p ) ) ) ) ) | ( ( ( h ) /\ ( m ) ) U ( ( [] ( h ) ) U ( ( m ) /\ ( h ) ) ) ) | ( ( ( h ) /\ ( m ) ) \/ ( ( [] ( h ) ) U ( ( m ) /\ ( h ) ) ) ) | ( ( ( m ) /\ ( X ( p ) ) ) W ( ( h ) /\ ( X ( ! ( p ) ) ) ) ) | ( ( ! ( h ) ) U ( ( m ) /\ ( h ) ) ) | ( X ( ( h ) W ( [] ( ( m ) /\ ( X ( p ) ) ) ) ) ) | ( [] ( ( h ) W ( [] ( ( m ) /\ ( [] ( p ) ) ) ) ) ) | ( ( ( <> ( ! ( h ) ) ) U ( ( m ) /\ ( h ) ) ) W ( ( h ) /\ ( m ) ) ) | ( ( ( h ) /\ ( m ) ) /\ ( ( h ) /\ ( m ) ) ) | ( <> ( ( h ) /\ ( m ) ) ) | ( ( m ) /\ ( h ) ) | ( ( ( h ) /\ ( m ) ) \/ ( ( <> ( h ) ) U ( ( m ) /\ ( h ) ) ) ) | ( ( h ) W ( [] ( ( m ) /\ ( p ) ) ) ) | ( ( h ) W ( ( m ) /\ ( [] ( p ) ) ) ) | ( ( ( h ) /\ ( m ) ) \/ ( ( h ) /\ ( m ) ) ) | 
Generation Time :0
Accumulated Learning Time :6
CALLs: 12    TIMEOUTs: 0    ERRORs: 0
REEVALUATIONS: 2589 OF 3480

GENERATION 44/50
....m.m.<;......m.m.<;
Fittest value: 2.8333333333333335 for chromosome ( ( h ) /\ ( m ) )
Solutions (28): ( ( ( m ) /\ ( X ( p ) ) ) \/ ( ( h ) /\ ( X ( ! ( p ) ) ) ) ) | ( ( h ) W ( [] ( ( m ) /\ ( [] ( p ) ) ) ) ) | ( ( h ) /\ ( m ) ) | ( ( [] ( h ) ) U ( ( m ) /\ ( h ) ) ) | ( [] ( ( ( m ) /\ ( X ( p ) ) ) \/ ( ( h ) /\ ( X ( ! ( p ) ) ) ) ) ) | ( ( [] ( h ) ) W ( ( m ) /\ ( X ( p ) ) ) ) | ( X ( ( ( m ) /\ ( X ( p ) ) ) \/ ( ( h ) /\ ( X ( ! ( p ) ) ) ) ) ) | ( X ( ( h ) W ( [] ( ( m ) /\ ( [] ( p ) ) ) ) ) ) | ( <> ( ( h ) W ( [] ( ( m ) /\ ( [] ( p ) ) ) ) ) ) | ( X ( ( h ) /\ ( m ) ) ) | ( ( <> ( ! ( h ) ) ) U ( ( m ) /\ ( h ) ) ) | ( ( ( h ) /\ ( m ) ) /\ ( m ) ) | ( ( ( h ) /\ ( m ) ) W ( ( h ) /\ ( m ) ) ) | ( ( h ) W ( <> ( ( m ) /\ ( [] ( p ) ) ) ) ) | ( ( ( h ) /\ ( m ) ) U ( ( [] ( h ) ) U ( ( m ) /\ ( h ) ) ) ) | ( ( ( h ) /\ ( m ) ) \/ ( ( [] ( h ) ) U ( ( m ) /\ ( h ) ) ) ) | ( ( ( m ) /\ ( X ( p ) ) ) W ( ( h ) /\ ( X ( ! ( p ) ) ) ) ) | ( ( ! ( h ) ) U ( ( m ) /\ ( h ) ) ) | ( X ( ( h ) W ( [] ( ( m ) /\ ( X ( p ) ) ) ) ) ) | ( [] ( ( h ) W ( [] ( ( m ) /\ ( [] ( p ) ) ) ) ) ) | ( ( ( <> ( ! ( h ) ) ) U ( ( m ) /\ ( h ) ) ) W ( ( h ) /\ ( m ) ) ) | ( ( ( h ) /\ ( m ) ) /\ ( ( h ) /\ ( m ) ) ) | ( <> ( ( h ) /\ ( m ) ) ) | ( ( m ) /\ ( h ) ) | ( ( ( h ) /\ ( m ) ) \/ ( ( <> ( h ) ) U ( ( m ) /\ ( h ) ) ) ) | ( ( h ) W ( [] ( ( m ) /\ ( p ) ) ) ) | ( ( h ) W ( ( m ) /\ ( [] ( p ) ) ) ) | ( ( ( h ) /\ ( m ) ) \/ ( ( h ) /\ ( m ) ) ) | 
Generation Time :0
Accumulated Learning Time :6
CALLs: 14    TIMEOUTs: 0    ERRORs: 0
REEVALUATIONS: 2673 OF 3567

GENERATION 45/50
...
Fittest value: 2.8333333333333335 for chromosome ( ( h ) /\ ( m ) )
Solutions (28): ( ( ( m ) /\ ( X ( p ) ) ) \/ ( ( h ) /\ ( X ( ! ( p ) ) ) ) ) | ( ( h ) W ( [] ( ( m ) /\ ( [] ( p ) ) ) ) ) | ( ( h ) /\ ( m ) ) | ( ( [] ( h ) ) U ( ( m ) /\ ( h ) ) ) | ( [] ( ( ( m ) /\ ( X ( p ) ) ) \/ ( ( h ) /\ ( X ( ! ( p ) ) ) ) ) ) | ( ( [] ( h ) ) W ( ( m ) /\ ( X ( p ) ) ) ) | ( X ( ( ( m ) /\ ( X ( p ) ) ) \/ ( ( h ) /\ ( X ( ! ( p ) ) ) ) ) ) | ( X ( ( h ) W ( [] ( ( m ) /\ ( [] ( p ) ) ) ) ) ) | ( <> ( ( h ) W ( [] ( ( m ) /\ ( [] ( p ) ) ) ) ) ) | ( X ( ( h ) /\ ( m ) ) ) | ( ( <> ( ! ( h ) ) ) U ( ( m ) /\ ( h ) ) ) | ( ( ( h ) /\ ( m ) ) /\ ( m ) ) | ( ( ( h ) /\ ( m ) ) W ( ( h ) /\ ( m ) ) ) | ( ( h ) W ( <> ( ( m ) /\ ( [] ( p ) ) ) ) ) | ( ( ( h ) /\ ( m ) ) U ( ( [] ( h ) ) U ( ( m ) /\ ( h ) ) ) ) | ( ( ( h ) /\ ( m ) ) \/ ( ( [] ( h ) ) U ( ( m ) /\ ( h ) ) ) ) | ( ( ( m ) /\ ( X ( p ) ) ) W ( ( h ) /\ ( X ( ! ( p ) ) ) ) ) | ( ( ! ( h ) ) U ( ( m ) /\ ( h ) ) ) | ( X ( ( h ) W ( [] ( ( m ) /\ ( X ( p ) ) ) ) ) ) | ( [] ( ( h ) W ( [] ( ( m ) /\ ( [] ( p ) ) ) ) ) ) | ( ( ( <> ( ! ( h ) ) ) U ( ( m ) /\ ( h ) ) ) W ( ( h ) /\ ( m ) ) ) | ( ( ( h ) /\ ( m ) ) /\ ( ( h ) /\ ( m ) ) ) | ( <> ( ( h ) /\ ( m ) ) ) | ( ( m ) /\ ( h ) ) | ( ( ( h ) /\ ( m ) ) \/ ( ( <> ( h ) ) U ( ( m ) /\ ( h ) ) ) ) | ( ( h ) W ( [] ( ( m ) /\ ( p ) ) ) ) | ( ( h ) W ( ( m ) /\ ( [] ( p ) ) ) ) | ( ( ( h ) /\ ( m ) ) \/ ( ( h ) /\ ( m ) ) ) | 
Generation Time :0
Accumulated Learning Time :6
CALLs: 3    TIMEOUTs: 0    ERRORs: 0
REEVALUATIONS: 2755 OF 3651

GENERATION 46/50
....m.m.<;
Fittest value: 2.8333333333333335 for chromosome ( ( h ) /\ ( m ) )
Solutions (28): ( ( ( m ) /\ ( X ( p ) ) ) \/ ( ( h ) /\ ( X ( ! ( p ) ) ) ) ) | ( ( h ) W ( [] ( ( m ) /\ ( [] ( p ) ) ) ) ) | ( ( h ) /\ ( m ) ) | ( ( [] ( h ) ) U ( ( m ) /\ ( h ) ) ) | ( [] ( ( ( m ) /\ ( X ( p ) ) ) \/ ( ( h ) /\ ( X ( ! ( p ) ) ) ) ) ) | ( ( [] ( h ) ) W ( ( m ) /\ ( X ( p ) ) ) ) | ( X ( ( ( m ) /\ ( X ( p ) ) ) \/ ( ( h ) /\ ( X ( ! ( p ) ) ) ) ) ) | ( X ( ( h ) W ( [] ( ( m ) /\ ( [] ( p ) ) ) ) ) ) | ( <> ( ( h ) W ( [] ( ( m ) /\ ( [] ( p ) ) ) ) ) ) | ( X ( ( h ) /\ ( m ) ) ) | ( ( <> ( ! ( h ) ) ) U ( ( m ) /\ ( h ) ) ) | ( ( ( h ) /\ ( m ) ) /\ ( m ) ) | ( ( ( h ) /\ ( m ) ) W ( ( h ) /\ ( m ) ) ) | ( ( h ) W ( <> ( ( m ) /\ ( [] ( p ) ) ) ) ) | ( ( ( h ) /\ ( m ) ) U ( ( [] ( h ) ) U ( ( m ) /\ ( h ) ) ) ) | ( ( ( h ) /\ ( m ) ) \/ ( ( [] ( h ) ) U ( ( m ) /\ ( h ) ) ) ) | ( ( ( m ) /\ ( X ( p ) ) ) W ( ( h ) /\ ( X ( ! ( p ) ) ) ) ) | ( ( ! ( h ) ) U ( ( m ) /\ ( h ) ) ) | ( X ( ( h ) W ( [] ( ( m ) /\ ( X ( p ) ) ) ) ) ) | ( [] ( ( h ) W ( [] ( ( m ) /\ ( [] ( p ) ) ) ) ) ) | ( ( ( <> ( ! ( h ) ) ) U ( ( m ) /\ ( h ) ) ) W ( ( h ) /\ ( m ) ) ) | ( ( ( h ) /\ ( m ) ) /\ ( ( h ) /\ ( m ) ) ) | ( <> ( ( h ) /\ ( m ) ) ) | ( ( m ) /\ ( h ) ) | ( ( ( h ) /\ ( m ) ) \/ ( ( <> ( h ) ) U ( ( m ) /\ ( h ) ) ) ) | ( ( h ) W ( [] ( ( m ) /\ ( p ) ) ) ) | ( ( h ) W ( ( m ) /\ ( [] ( p ) ) ) ) | ( ( ( h ) /\ ( m ) ) \/ ( ( h ) /\ ( m ) ) ) | 
Generation Time :0
Accumulated Learning Time :6
CALLs: 6    TIMEOUTs: 0    ERRORs: 0
REEVALUATIONS: 2838 OF 3735

GENERATION 47/50
....m.m.<;
Fittest value: 2.8333333333333335 for chromosome ( ( h ) /\ ( m ) )
Solutions (28): ( ( ( m ) /\ ( X ( p ) ) ) \/ ( ( h ) /\ ( X ( ! ( p ) ) ) ) ) | ( ( h ) W ( [] ( ( m ) /\ ( [] ( p ) ) ) ) ) | ( ( h ) /\ ( m ) ) | ( ( [] ( h ) ) U ( ( m ) /\ ( h ) ) ) | ( [] ( ( ( m ) /\ ( X ( p ) ) ) \/ ( ( h ) /\ ( X ( ! ( p ) ) ) ) ) ) | ( ( [] ( h ) ) W ( ( m ) /\ ( X ( p ) ) ) ) | ( X ( ( ( m ) /\ ( X ( p ) ) ) \/ ( ( h ) /\ ( X ( ! ( p ) ) ) ) ) ) | ( X ( ( h ) W ( [] ( ( m ) /\ ( [] ( p ) ) ) ) ) ) | ( <> ( ( h ) W ( [] ( ( m ) /\ ( [] ( p ) ) ) ) ) ) | ( X ( ( h ) /\ ( m ) ) ) | ( ( <> ( ! ( h ) ) ) U ( ( m ) /\ ( h ) ) ) | ( ( ( h ) /\ ( m ) ) /\ ( m ) ) | ( ( ( h ) /\ ( m ) ) W ( ( h ) /\ ( m ) ) ) | ( ( h ) W ( <> ( ( m ) /\ ( [] ( p ) ) ) ) ) | ( ( ( h ) /\ ( m ) ) U ( ( [] ( h ) ) U ( ( m ) /\ ( h ) ) ) ) | ( ( ( h ) /\ ( m ) ) \/ ( ( [] ( h ) ) U ( ( m ) /\ ( h ) ) ) ) | ( ( ( m ) /\ ( X ( p ) ) ) W ( ( h ) /\ ( X ( ! ( p ) ) ) ) ) | ( ( ! ( h ) ) U ( ( m ) /\ ( h ) ) ) | ( X ( ( h ) W ( [] ( ( m ) /\ ( X ( p ) ) ) ) ) ) | ( [] ( ( h ) W ( [] ( ( m ) /\ ( [] ( p ) ) ) ) ) ) | ( ( ( <> ( ! ( h ) ) ) U ( ( m ) /\ ( h ) ) ) W ( ( h ) /\ ( m ) ) ) | ( ( ( h ) /\ ( m ) ) /\ ( ( h ) /\ ( m ) ) ) | ( <> ( ( h ) /\ ( m ) ) ) | ( ( m ) /\ ( h ) ) | ( ( ( h ) /\ ( m ) ) \/ ( ( <> ( h ) ) U ( ( m ) /\ ( h ) ) ) ) | ( ( h ) W ( [] ( ( m ) /\ ( p ) ) ) ) | ( ( h ) W ( ( m ) /\ ( [] ( p ) ) ) ) | ( ( ( h ) /\ ( m ) ) \/ ( ( h ) /\ ( m ) ) ) | 
Generation Time :0
Accumulated Learning Time :6
CALLs: 6    TIMEOUTs: 0    ERRORs: 0
REEVALUATIONS: 2932 OF 3830

GENERATION 48/50
......m.m.<;....m.m.<;....m.m.<;......m.m.<;
Fittest value: 2.8333333333333335 for chromosome ( ( h ) /\ ( m ) )
Solutions (28): ( ( ( m ) /\ ( X ( p ) ) ) \/ ( ( h ) /\ ( X ( ! ( p ) ) ) ) ) | ( ( h ) W ( [] ( ( m ) /\ ( [] ( p ) ) ) ) ) | ( ( h ) /\ ( m ) ) | ( ( [] ( h ) ) U ( ( m ) /\ ( h ) ) ) | ( [] ( ( ( m ) /\ ( X ( p ) ) ) \/ ( ( h ) /\ ( X ( ! ( p ) ) ) ) ) ) | ( ( [] ( h ) ) W ( ( m ) /\ ( X ( p ) ) ) ) | ( X ( ( ( m ) /\ ( X ( p ) ) ) \/ ( ( h ) /\ ( X ( ! ( p ) ) ) ) ) ) | ( X ( ( h ) W ( [] ( ( m ) /\ ( [] ( p ) ) ) ) ) ) | ( <> ( ( h ) W ( [] ( ( m ) /\ ( [] ( p ) ) ) ) ) ) | ( X ( ( h ) /\ ( m ) ) ) | ( ( <> ( ! ( h ) ) ) U ( ( m ) /\ ( h ) ) ) | ( ( ( h ) /\ ( m ) ) /\ ( m ) ) | ( ( ( h ) /\ ( m ) ) W ( ( h ) /\ ( m ) ) ) | ( ( h ) W ( <> ( ( m ) /\ ( [] ( p ) ) ) ) ) | ( ( ( h ) /\ ( m ) ) U ( ( [] ( h ) ) U ( ( m ) /\ ( h ) ) ) ) | ( ( ( h ) /\ ( m ) ) \/ ( ( [] ( h ) ) U ( ( m ) /\ ( h ) ) ) ) | ( ( ( m ) /\ ( X ( p ) ) ) W ( ( h ) /\ ( X ( ! ( p ) ) ) ) ) | ( ( ! ( h ) ) U ( ( m ) /\ ( h ) ) ) | ( X ( ( h ) W ( [] ( ( m ) /\ ( X ( p ) ) ) ) ) ) | ( [] ( ( h ) W ( [] ( ( m ) /\ ( [] ( p ) ) ) ) ) ) | ( ( ( <> ( ! ( h ) ) ) U ( ( m ) /\ ( h ) ) ) W ( ( h ) /\ ( m ) ) ) | ( ( ( h ) /\ ( m ) ) /\ ( ( h ) /\ ( m ) ) ) | ( <> ( ( h ) /\ ( m ) ) ) | ( ( m ) /\ ( h ) ) | ( ( ( h ) /\ ( m ) ) \/ ( ( <> ( h ) ) U ( ( m ) /\ ( h ) ) ) ) | ( ( h ) W ( [] ( ( m ) /\ ( p ) ) ) ) | ( ( h ) W ( ( m ) /\ ( [] ( p ) ) ) ) | ( ( ( h ) /\ ( m ) ) \/ ( ( h ) /\ ( m ) ) ) | 
Generation Time :0
Accumulated Learning Time :6
CALLs: 28    TIMEOUTs: 0    ERRORs: 0
REEVALUATIONS: 3010 OF 3915

GENERATION 49/50
......m.m.<;....m.m.<;..
Fittest value: 2.8333333333333335 for chromosome ( ( h ) /\ ( m ) )
Solutions (28): ( ( ( m ) /\ ( X ( p ) ) ) \/ ( ( h ) /\ ( X ( ! ( p ) ) ) ) ) | ( ( h ) W ( [] ( ( m ) /\ ( [] ( p ) ) ) ) ) | ( ( h ) /\ ( m ) ) | ( ( [] ( h ) ) U ( ( m ) /\ ( h ) ) ) | ( [] ( ( ( m ) /\ ( X ( p ) ) ) \/ ( ( h ) /\ ( X ( ! ( p ) ) ) ) ) ) | ( ( [] ( h ) ) W ( ( m ) /\ ( X ( p ) ) ) ) | ( X ( ( ( m ) /\ ( X ( p ) ) ) \/ ( ( h ) /\ ( X ( ! ( p ) ) ) ) ) ) | ( X ( ( h ) W ( [] ( ( m ) /\ ( [] ( p ) ) ) ) ) ) | ( <> ( ( h ) W ( [] ( ( m ) /\ ( [] ( p ) ) ) ) ) ) | ( X ( ( h ) /\ ( m ) ) ) | ( ( <> ( ! ( h ) ) ) U ( ( m ) /\ ( h ) ) ) | ( ( ( h ) /\ ( m ) ) /\ ( m ) ) | ( ( ( h ) /\ ( m ) ) W ( ( h ) /\ ( m ) ) ) | ( ( h ) W ( <> ( ( m ) /\ ( [] ( p ) ) ) ) ) | ( ( ( h ) /\ ( m ) ) U ( ( [] ( h ) ) U ( ( m ) /\ ( h ) ) ) ) | ( ( ( h ) /\ ( m ) ) \/ ( ( [] ( h ) ) U ( ( m ) /\ ( h ) ) ) ) | ( ( ( m ) /\ ( X ( p ) ) ) W ( ( h ) /\ ( X ( ! ( p ) ) ) ) ) | ( ( ! ( h ) ) U ( ( m ) /\ ( h ) ) ) | ( X ( ( h ) W ( [] ( ( m ) /\ ( X ( p ) ) ) ) ) ) | ( [] ( ( h ) W ( [] ( ( m ) /\ ( [] ( p ) ) ) ) ) ) | ( ( ( <> ( ! ( h ) ) ) U ( ( m ) /\ ( h ) ) ) W ( ( h ) /\ ( m ) ) ) | ( ( ( h ) /\ ( m ) ) /\ ( ( h ) /\ ( m ) ) ) | ( <> ( ( h ) /\ ( m ) ) ) | ( ( m ) /\ ( h ) ) | ( ( ( h ) /\ ( m ) ) \/ ( ( <> ( h ) ) U ( ( m ) /\ ( h ) ) ) ) | ( ( h ) W ( [] ( ( m ) /\ ( p ) ) ) ) | ( ( h ) W ( ( m ) /\ ( [] ( p ) ) ) ) | ( ( ( h ) /\ ( m ) ) \/ ( ( h ) /\ ( m ) ) ) | 
Generation Time :0
Accumulated Learning Time :6
CALLs: 16    TIMEOUTs: 0    ERRORs: 0
REEVALUATIONS: 3084 OF 3993

GENERATION 50/50
..
Fittest value: 2.8333333333333335 for chromosome ( ( h ) /\ ( m ) )
Solutions (28): ( ( ( m ) /\ ( X ( p ) ) ) \/ ( ( h ) /\ ( X ( ! ( p ) ) ) ) ) | ( ( h ) W ( [] ( ( m ) /\ ( [] ( p ) ) ) ) ) | ( ( h ) /\ ( m ) ) | ( ( [] ( h ) ) U ( ( m ) /\ ( h ) ) ) | ( [] ( ( ( m ) /\ ( X ( p ) ) ) \/ ( ( h ) /\ ( X ( ! ( p ) ) ) ) ) ) | ( ( [] ( h ) ) W ( ( m ) /\ ( X ( p ) ) ) ) | ( X ( ( ( m ) /\ ( X ( p ) ) ) \/ ( ( h ) /\ ( X ( ! ( p ) ) ) ) ) ) | ( X ( ( h ) W ( [] ( ( m ) /\ ( [] ( p ) ) ) ) ) ) | ( <> ( ( h ) W ( [] ( ( m ) /\ ( [] ( p ) ) ) ) ) ) | ( X ( ( h ) /\ ( m ) ) ) | ( ( <> ( ! ( h ) ) ) U ( ( m ) /\ ( h ) ) ) | ( ( ( h ) /\ ( m ) ) /\ ( m ) ) | ( ( ( h ) /\ ( m ) ) W ( ( h ) /\ ( m ) ) ) | ( ( h ) W ( <> ( ( m ) /\ ( [] ( p ) ) ) ) ) | ( ( ( h ) /\ ( m ) ) U ( ( [] ( h ) ) U ( ( m ) /\ ( h ) ) ) ) | ( ( ( h ) /\ ( m ) ) \/ ( ( [] ( h ) ) U ( ( m ) /\ ( h ) ) ) ) | ( ( ( m ) /\ ( X ( p ) ) ) W ( ( h ) /\ ( X ( ! ( p ) ) ) ) ) | ( ( ! ( h ) ) U ( ( m ) /\ ( h ) ) ) | ( X ( ( h ) W ( [] ( ( m ) /\ ( X ( p ) ) ) ) ) ) | ( [] ( ( h ) W ( [] ( ( m ) /\ ( [] ( p ) ) ) ) ) ) | ( ( ( <> ( ! ( h ) ) ) U ( ( m ) /\ ( h ) ) ) W ( ( h ) /\ ( m ) ) ) | ( ( ( h ) /\ ( m ) ) /\ ( ( h ) /\ ( m ) ) ) | ( <> ( ( h ) /\ ( m ) ) ) | ( ( m ) /\ ( h ) ) | ( ( ( h ) /\ ( m ) ) \/ ( ( <> ( h ) ) U ( ( m ) /\ ( h ) ) ) ) | ( ( h ) W ( [] ( ( m ) /\ ( p ) ) ) ) | ( ( h ) W ( ( m ) /\ ( [] ( p ) ) ) ) | ( ( ( h ) /\ ( m ) ) \/ ( ( h ) /\ ( m ) ) ) | 
Generation Time :0
Accumulated Learning Time :6
CALLs: 2    TIMEOUTs: 0    ERRORs: 0
REEVALUATIONS: 3165 OF 4075


TOTAL Learing Time :6

Solutions: 28
( ( ( m ) /\ ( X ( p ) ) ) \/ ( ( h ) /\ ( X ( ! ( p ) ) ) ) )
( ( h ) W ( [] ( ( m ) /\ ( [] ( p ) ) ) ) )
( ( h ) /\ ( m ) )
( ( [] ( h ) ) U ( ( m ) /\ ( h ) ) )
( [] ( ( ( m ) /\ ( X ( p ) ) ) \/ ( ( h ) /\ ( X ( ! ( p ) ) ) ) ) )
( ( [] ( h ) ) W ( ( m ) /\ ( X ( p ) ) ) )
( X ( ( ( m ) /\ ( X ( p ) ) ) \/ ( ( h ) /\ ( X ( ! ( p ) ) ) ) ) )
( X ( ( h ) W ( [] ( ( m ) /\ ( [] ( p ) ) ) ) ) )
( <> ( ( h ) W ( [] ( ( m ) /\ ( [] ( p ) ) ) ) ) )
( X ( ( h ) /\ ( m ) ) )
( ( <> ( ! ( h ) ) ) U ( ( m ) /\ ( h ) ) )
( ( ( h ) /\ ( m ) ) /\ ( m ) )
( ( ( h ) /\ ( m ) ) W ( ( h ) /\ ( m ) ) )
( ( h ) W ( <> ( ( m ) /\ ( [] ( p ) ) ) ) )
( ( ( h ) /\ ( m ) ) U ( ( [] ( h ) ) U ( ( m ) /\ ( h ) ) ) )
( ( ( h ) /\ ( m ) ) \/ ( ( [] ( h ) ) U ( ( m ) /\ ( h ) ) ) )
( ( ( m ) /\ ( X ( p ) ) ) W ( ( h ) /\ ( X ( ! ( p ) ) ) ) )
( ( ! ( h ) ) U ( ( m ) /\ ( h ) ) )
( X ( ( h ) W ( [] ( ( m ) /\ ( X ( p ) ) ) ) ) )
( [] ( ( h ) W ( [] ( ( m ) /\ ( [] ( p ) ) ) ) ) )
( ( ( <> ( ! ( h ) ) ) U ( ( m ) /\ ( h ) ) ) W ( ( h ) /\ ( m ) ) )
( ( ( h ) /\ ( m ) ) /\ ( ( h ) /\ ( m ) ) )
( <> ( ( h ) /\ ( m ) ) )
( ( m ) /\ ( h ) )
( ( ( h ) /\ ( m ) ) \/ ( ( <> ( h ) ) U ( ( m ) /\ ( h ) ) ) )
( ( h ) W ( [] ( ( m ) /\ ( p ) ) ) )
( ( h ) W ( ( m ) /\ ( [] ( p ) ) ) )
( ( ( h ) /\ ( m ) ) \/ ( ( h ) /\ ( m ) ) )

....................................................................................................................................................................................................................
Non Equivalent Solutions: 17
( ( ( m ) /\ ( X ( p ) ) ) \/ ( ( h ) /\ ( X ( ! ( p ) ) ) ) )
( ( h ) /\ ( m ) )
( ( [] ( h ) ) U ( ( m ) /\ ( h ) ) )
( [] ( ( ( m ) /\ ( X ( p ) ) ) \/ ( ( h ) /\ ( X ( ! ( p ) ) ) ) ) )
( ( [] ( h ) ) W ( ( m ) /\ ( X ( p ) ) ) )
( X ( ( ( m ) /\ ( X ( p ) ) ) \/ ( ( h ) /\ ( X ( ! ( p ) ) ) ) ) )
( X ( ( h ) W ( [] ( ( m ) /\ ( [] ( p ) ) ) ) ) )
( <> ( ( h ) W ( [] ( ( m ) /\ ( [] ( p ) ) ) ) ) )
( X ( ( h ) /\ ( m ) ) )
( ( <> ( ! ( h ) ) ) U ( ( m ) /\ ( h ) ) )
( ( h ) W ( <> ( ( m ) /\ ( [] ( p ) ) ) ) )
( ( ( m ) /\ ( X ( p ) ) ) W ( ( h ) /\ ( X ( ! ( p ) ) ) ) )
( ( ! ( h ) ) U ( ( m ) /\ ( h ) ) )
( X ( ( h ) W ( [] ( ( m ) /\ ( X ( p ) ) ) ) ) )
( <> ( ( h ) /\ ( m ) ) )
( ( h ) W ( [] ( ( m ) /\ ( p ) ) ) )
( ( h ) W ( ( m ) /\ ( [] ( p ) ) ) )
................................................................................................................................................................................
Weakest Solutions: 6
( ( ( m ) /\ ( X ( p ) ) ) \/ ( ( h ) /\ ( X ( ! ( p ) ) ) ) )
( ( [] ( h ) ) W ( ( m ) /\ ( X ( p ) ) ) )
( X ( ( ( m ) /\ ( X ( p ) ) ) \/ ( ( h ) /\ ( X ( ! ( p ) ) ) ) ) )
( <> ( ( h ) W ( [] ( ( m ) /\ ( [] ( p ) ) ) ) ) )
( ( h ) W ( <> ( ( m ) /\ ( [] ( p ) ) ) ) )
( <> ( ( h ) /\ ( m ) ) )
TOTAL Time :7
CALLs: 4989    TIMEOUTs: 0    ERRORs: 0
CONFIGURATION
#Population: 100    #Iterations: 50    #ChromSize: 20
REEVALUATIONS: 3165 OF 4075
