DOM: [[]((p && X(p)) -> X(X(! h)))]
GOALS: [[](h -> X(p)), [](m -> X(! p))]
Initial population size: 34
Total population size: 100

GENERATION 1/50
....m.m.<;...i...<;....m.m.<;....m.m.<;....m.m.<;...i..m.<;....m.m.<;....m.m.<;....m.m.<;...i.m..<;....m.m.<;...i.m..<;....m.m.<;...i..m.<;....m.m.<;....m.m.<;....m.m.<;...i...<;....m.m.<;....m.m.<;....m.m.<;....m.m.<;....m.m.<;....m.m.<;....m.m.<;....m.m.<;....m.m.<;......m.m.<;....m.m.<;.....m.m.<;....m.m.<;....m.m.<;....m.m.<;......m.m.<;...i.m..<;....m.m.<;....m.m.<;....m.m.<;....m.m.<;....m.m.<;....m.m.<;
Best fitness value: ( [] ( h ) ) 2.0
Generation Time :0
Accumulated Learning Time :0
CALLs: 251    TIMEOUTs: 0    ERRORs: 0
REEVALUATIONS: 22 OF 66

GENERATION 2/50
....m.m.<;......m.m.<;....m.m.<;....m.m.<;....m.m.<;....m.m.<;.....m.m.<;....m.m.<;....m.m.<;....m.m.<;....m.m.<;....m.m.<;....m.m.<;....m.m.<;....m.m.<;....m.m.<;....m.m.<;....m.m.<;....m.m.<;....m.m.<;...i...<;.......m.m.<;....m.m.<;....m.m.<;........m.m.<;........m.m.<;....m.m.<;...i.m..<;....m.m.<;....m.m.<;....m.m.<;....m.m.<;.....m.m.<;....m.m.<;....m.m.<;...i.m..<;...i.m..<;....m.m.<;
Best fitness value: ( ( [] ( X ( h ) ) ) /\ ( ( p ) /\ ( p ) ) ) 2.0
Generation Time :0
Accumulated Learning Time :0
CALLs: 243    TIMEOUTs: 0    ERRORs: 0
REEVALUATIONS: 66 OF 158

GENERATION 3/50
.....m.m.<;...i.m..<;....m.m.<;....m.m.<;....m.m.<;....i.m..<;....m.m.<;....m.m.<;......m.m.<;....m.m.<;....m.m.<;....m.m.<;.....m.m.<;....m.m.<;....m.m.<;......m.m.<;.........m.m.<;....m.m.<;....m.m.<;....m.m.<;.......m.m.<;....m.m.<;....m.m.<;......m.m.<;...i...<;....m.m.<;.....m.m.<;.........m.m.<;...i.m..<;....m.m.<;....m.m.<;....m.m.<;....m.m.<;....m.m.<;......m.m.<;....m.m.<;....m.m.<;....m.m.<;....m.m.<;....m.m.<;
Best fitness value: ( [] ( h ) ) 2.0
Generation Time :0
Accumulated Learning Time :0
CALLs: 265    TIMEOUTs: 0    ERRORs: 0
REEVALUATIONS: 105 OF 254

GENERATION 4/50
......m.m.<;....m.m.<;......m.m.<;....m.m.<;....m.m.<;......m.m.<;....m.m.<;.....m.m.<;....m.m.<;....m.m.<;......m.m.<;....m.m.<;....m.m.<;....m.m.<;.....m.m.<;....m.m.<;....m.m.<;....m.m.<;....m.m.<;......m.m.<;....m.m.<;....m.m.<;...i.m..<;....m.m.<;...i.m..<;......m.m.<;....m.m.<;....m.m.<;...i.m..<;...i.m..<;....m.m.<;....m.m.<;
Best fitness value: ( ( [] ( X ( h ) ) ) /\ ( ( p ) /\ ( p ) ) ) 2.0
Generation Time :0
Accumulated Learning Time :1
CALLs: 206    TIMEOUTs: 0    ERRORs: 0
REEVALUATIONS: 142 OF 332

GENERATION 5/50
....m.m.<;....i.m..<;....m.m.<;....m.m.<;.....i.m..<;....m.m.<;....i.m..<;....m.m.<;......m.m.<;....m.m.<;....m.m.<;....m.m.<;....m.m.<;....m.m.<;....m.m.<;...i...<;....m.m.<;....m.m.<;....m.m.<;...i..m.<;....m.m.<;....m.m.<;....m.m.<;....m.m.<;.....m.m.<;......m.m.<;....m.m.<;.....m.m.<;....m.m.<;......m.m.<;......m.m.<;....m.m.<;....m.m.<;....m.m.<;...i.m..<;.....m.m.<;...i..m.<;....m.m.<;....m.m.<;...i.m..<;....m.m.<;...i.m..<;
Best fitness value: ( [] ( h ) ) 2.0
Generation Time :0
Accumulated Learning Time :1
CALLs: 267    TIMEOUTs: 0    ERRORs: 0
REEVALUATIONS: 173 OF 417

GENERATION 6/50
.......m.m.<;....m.m.<;....m.m.<;.....i.m..<;....m.m.<;....m.m.<;.....m.m.<;.....m.m.<;....i.m..<;....m.m.<;...i.m..<;....m.m.<;....m.m.<;....m.m.<;....m.m.<;....m.m.<;....m.m.<;..........m.m.<;....m.m.<;....m.m.<;....m.m.<;.....m.m.<;....m.m.<;.....m.m.<;....m.m.<;...i.m..<;....m.m.<;....m.m.<;...i.m.m.<;....m.m.<;....m.m.<;...i.m..<;...i.m..<;...i.m..<;....m.m.<;
Fittest value: 2.642857142857143 for chromosome ( ( h ) W ( <> ( ( m ) /\ ( X ( p ) ) ) ) )
Solutions (1): ( ( h ) W ( <> ( ( m ) /\ ( X ( p ) ) ) ) ) | 
Generation Time :0
Accumulated Learning Time :1
CALLs: 226    TIMEOUTs: 0    ERRORs: 0
REEVALUATIONS: 201 OF 492

GENERATION 7/50
...i.m..<;.....i.m..<;......m.m.<;....i.m..<;....m.m.<;.......m.m.<;...i..m.<;.....m.m.<;....m.m.<;....m.m.<;...i.m..<;....m.m.<;....i.m..<;....m.m.<;....m.m.<;....m.m.<;....m.m.<;....m.m.<;....m.m.<;....m.m.<;...........m.m.<;....m.m.<;....m.m.<;...i.m..<;....m.m.<;....m.m.<;...i..m.<;....m.m.<;...i.m..<;...i.m.m.<;.....i.m..<;...i..m.<;...i.m..<;...i.m..<;....m.m.<;....m.m.<;...i.m..<;
Fittest value: 2.7 for chromosome ( ( h ) /\ ( m ) )
Solutions (2): ( ( h ) W ( <> ( ( m ) /\ ( X ( p ) ) ) ) ) | ( ( h ) /\ ( m ) ) | 
Generation Time :0
Accumulated Learning Time :2
CALLs: 241    TIMEOUTs: 0    ERRORs: 0
REEVALUATIONS: 228 OF 569

GENERATION 8/50
......m.m.<;.....m.m.<;....m.m.<;.......i.m..<;....m.m.<;...i.m..<;....m.m.<;.....m.m.<;.....m.m.<;....m.m.<;......m.m.<;......m.m.<;...i.m..<;...i.m..<;........m.m.<;....m.m.<;....i..m.<;....m.m.<;.....m.m.<;....m.m.<;....m.m.<;.....m.m.<;......m.m.<;....m.m.<;....m.m.<;....m.m.<;....m.m.<;...i.m..<;....i.m..<;....m.m.<;.....i.m.m.<;...i.m..<;...i.m..<;...i.m..<;...i.m..<;...i.m..<;....m.m.<;...i.m..<;...i.m..<;
Fittest value: 2.7 for chromosome ( ( h ) /\ ( m ) )
Solutions (3): ( ( h ) W ( <> ( ( m ) /\ ( X ( p ) ) ) ) ) | ( ( h ) /\ ( m ) ) | ( ( h ) W ( <> ( ( m ) /\ ( [] ( p ) ) ) ) ) | 
Generation Time :0
Accumulated Learning Time :2
CALLs: 259    TIMEOUTs: 0    ERRORs: 0
REEVALUATIONS: 247 OF 644

GENERATION 9/50
.....m.m.<;....m.m.<;....m.m.<;....m.m.<;....m.m.<;...i..m.<;.....i.m..<;...i.m..<;....m.m.<;....m.m.<;.....i.m..<;....m.m.<;....m.m.<;....m.m.<;...i.m..<;....m.m.<;....m.m.<;....m.m.<;......m.m.<;....m.m.<;....m.m.<;....m.m.<;.......m.m.<;....m.m.<;....m.m.<;...i.m..<;......m.m.<;....m.m.<;....m.m.<;....m.m.<;....m.m.<;....m.m.<;....m.m.<;....m.m.<;.......m.m.<;......m.m.<;....m.m.<;....m.m.<;....m.m.<;......m.m.<;....m.m.<;...i.m..<;....m.m.<;....m.m.<;...i.m..<;....m.m.<;...i.m.m.<;...i.m..<;...i.m..<;....m.m.<;...i.m..<;....m.m.<;...i.m..<;...i.m.m.<;
Fittest value: 2.75 for chromosome ( X ( ( h ) /\ ( m ) ) )
Solutions (5): ( ( h ) W ( <> ( ( m ) /\ ( X ( p ) ) ) ) ) | ( ( h ) /\ ( m ) ) | ( ( h ) W ( <> ( ( m ) /\ ( [] ( p ) ) ) ) ) | ( X ( ( h ) /\ ( m ) ) ) | ( ( ( [] ( h ) ) /\ ( p ) ) U ( ( h ) W ( <> ( ( m ) /\ ( X ( p ) ) ) ) ) ) | 
Generation Time :0
Accumulated Learning Time :2
CALLs: 343    TIMEOUTs: 0    ERRORs: 0
REEVALUATIONS: 262 OF 725

GENERATION 10/50
....m.m.<;....m.m.<;....m.m.<;....m.m.<;...i.m.m.<;....m.m.<;......m.m.<;....m.m.<;....m.m.<;....m.m.<;...i.m..<;....m.m.<;....m.m.<;....m.m.<;....m.m.<;...i.m..<;....i.m..<;........m.m.<;...i.m..<;.....m.m.<;...i...<;...i.m..<;...i.m..<;...i.m..<;....m.m.<;...i.m..<;....m.m.<;....m.m.<;....m.m.<;......m.m.<;....m.m.<;....m.m.<;....m.m.<;.....m.m.<;...i.m..<;....m.m.<;....m.m.<;......m.m.<;...i.m..<;....m.m.<;.....m.m.<;....m.m.<;....m.m.<;....m.m.<;....m.m.<;.....i.m..<;...i.m.m.<;....m.m.<;....m.m.<;...i.m.m.<;...i.m..<;...i.m..<;....m.m.<;...i.m..<;
Fittest value: 2.75 for chromosome ( X ( ( h ) /\ ( m ) ) )
Solutions (8): ( ( h ) W ( <> ( ( m ) /\ ( X ( p ) ) ) ) ) | ( ( h ) /\ ( m ) ) | ( ( h ) W ( <> ( ( m ) /\ ( [] ( p ) ) ) ) ) | ( X ( ( h ) /\ ( m ) ) ) | ( ( ( [] ( h ) ) /\ ( p ) ) U ( ( h ) W ( <> ( ( m ) /\ ( X ( p ) ) ) ) ) ) | ( ( h ) W ( ( m ) /\ ( X ( p ) ) ) ) | ( X ( ( h ) W ( <> ( ( m ) /\ ( X ( p ) ) ) ) ) ) | ( ( ( h ) W ( <> ( ( m ) /\ ( X ( p ) ) ) ) ) W ( [] ( ( h ) /\ ( ! ( p ) ) ) ) ) | 
Generation Time :0
Accumulated Learning Time :3
CALLs: 340    TIMEOUTs: 0    ERRORs: 0
REEVALUATIONS: 279 OF 806

GENERATION 11/50
....m.m.<;....m.m.<;.......m.m.<;....i.m..<;...i.m..<;....m.m.<;...i.m..<;....m.m.<;......m.m.<;...i.m..<;....m.m.<;.....i.m..<;....m.m.<;...i.m..<;....m.m.<;.....m.m.<;....m.m.<;.....m.m.<;...i.m..<;....m.m.<;....m.m.<;....m.m.<;....m.m.<;....m.m.<;....m.m.<;.......m.m.<;....m.m.<;....m.m.<;.....m.m.<;....m.m.<;...i.m..<;...i.m..<;....m.m.<;...i.m..<;.......m.m.<;...i.m..<;....m.m.<;....m.m.<;......m.m.<;...i.m..<;....m.m.<;....m.m.<;.....m.m.<;....m.m.<;....i.m..<;...i.m..<;....m.m.<;....m.m.<;...i.m..<;...i.m..<;...i.m.m.<;
Fittest value: 2.75 for chromosome ( X ( ( h ) /\ ( m ) ) )
Solutions (9): ( ( h ) W ( <> ( ( m ) /\ ( X ( p ) ) ) ) ) | ( ( h ) /\ ( m ) ) | ( ( h ) W ( <> ( ( m ) /\ ( [] ( p ) ) ) ) ) | ( X ( ( h ) /\ ( m ) ) ) | ( ( ( [] ( h ) ) /\ ( p ) ) U ( ( h ) W ( <> ( ( m ) /\ ( X ( p ) ) ) ) ) ) | ( ( h ) W ( ( m ) /\ ( X ( p ) ) ) ) | ( X ( ( h ) W ( <> ( ( m ) /\ ( X ( p ) ) ) ) ) ) | ( ( ( h ) W ( <> ( ( m ) /\ ( X ( p ) ) ) ) ) W ( [] ( ( h ) /\ ( ! ( p ) ) ) ) ) | ( [] ( ( h ) W ( <> ( ( m ) /\ ( X ( p ) ) ) ) ) ) | 
Generation Time :0
Accumulated Learning Time :3
CALLs: 327    TIMEOUTs: 0    ERRORs: 0
REEVALUATIONS: 292 OF 885

GENERATION 12/50
......m.m.<;.....m.m.<;.....m.m.<;.........m.m.<;....m.m.<;.....m.m.<;....m.m.<;....m.m.<;...i..m.<;.....m.m.<;......m.m.<;....m.m.<;....m.m.<;....m.m.<;....m.m.<;...i.m..<;....m.m.<;......i.m..<;.....i.m..<;....m.m.<;...i.m..<;....m.m.<;....m.m.<;...i.m..<;....i.m..<;....m.m.<;....m.m.<;.......m.m.<;....m.m.<;....m.m.<;...i.m..<;....m.m.<;....m.m.<;.....m.m.<;....m.m.<;...i.m..<;....m.m.<;....m.m.<;.....i.m.m.<;...i.m..<;...i.m..<;...i...<;....m.m.<;
Fittest value: 2.75 for chromosome ( X ( ( h ) /\ ( m ) ) )
Solutions (10): ( ( h ) W ( <> ( ( m ) /\ ( X ( p ) ) ) ) ) | ( ( h ) /\ ( m ) ) | ( ( h ) W ( <> ( ( m ) /\ ( [] ( p ) ) ) ) ) | ( X ( ( h ) /\ ( m ) ) ) | ( ( ( [] ( h ) ) /\ ( p ) ) U ( ( h ) W ( <> ( ( m ) /\ ( X ( p ) ) ) ) ) ) | ( ( h ) W ( ( m ) /\ ( X ( p ) ) ) ) | ( X ( ( h ) W ( <> ( ( m ) /\ ( X ( p ) ) ) ) ) ) | ( ( ( h ) W ( <> ( ( m ) /\ ( X ( p ) ) ) ) ) W ( [] ( ( h ) /\ ( ! ( p ) ) ) ) ) | ( [] ( ( h ) W ( <> ( ( m ) /\ ( X ( p ) ) ) ) ) ) | ( <> ( ( h ) /\ ( m ) ) ) | 
Generation Time :0
Accumulated Learning Time :4
CALLs: 283    TIMEOUTs: 0    ERRORs: 0
REEVALUATIONS: 310 OF 964

GENERATION 13/50
......m.m.<;....m.m.<;....m.m.<;....m.m.<;...i.m.m.<;........m.m.<;......m.m.<;.....m.m.<;....m.m.<;....m.m.<;....m.m.<;....m.m.<;......m.m.<;....m.m.<;....m.m.<;...i.m..<;....m.m.<;...i.m..<;....m.m.<;.....m.m.<;.....m.m.<;...i.m..<;...i.m..<;......i.m..<;....m.m.<;...i.m..<;...i.m..<;...i.m..<;...i.m..<;.....m.m.<;...i.m..<;....m.m.<;...i.m..<;....m.m.<;....m.m.<;....m.m.<;........m.m.<;....m.m.<;....m.m.<;...i.m.m.<;....m.m.<;...i.m.m.<;...i.m.m.<;
Fittest value: 2.75 for chromosome ( X ( ( h ) /\ ( m ) ) )
Solutions (13): ( ( h ) W ( <> ( ( m ) /\ ( X ( p ) ) ) ) ) | ( ( h ) /\ ( m ) ) | ( ( h ) W ( <> ( ( m ) /\ ( [] ( p ) ) ) ) ) | ( X ( ( h ) /\ ( m ) ) ) | ( ( ( [] ( h ) ) /\ ( p ) ) U ( ( h ) W ( <> ( ( m ) /\ ( X ( p ) ) ) ) ) ) | ( ( h ) W ( ( m ) /\ ( X ( p ) ) ) ) | ( X ( ( h ) W ( <> ( ( m ) /\ ( X ( p ) ) ) ) ) ) | ( ( ( h ) W ( <> ( ( m ) /\ ( X ( p ) ) ) ) ) W ( [] ( ( h ) /\ ( ! ( p ) ) ) ) ) | ( [] ( ( h ) W ( <> ( ( m ) /\ ( X ( p ) ) ) ) ) ) | ( <> ( ( h ) /\ ( m ) ) ) | ( ( X ( ( h ) /\ ( m ) ) ) U ( X ( ( h ) /\ ( m ) ) ) ) | ( X ( X ( ( h ) /\ ( m ) ) ) ) | ( ( ( h ) W ( <> ( ( m ) /\ ( X ( p ) ) ) ) ) /\ ( ( h ) W ( <> ( ( m ) /\ ( [] ( p ) ) ) ) ) ) | 
Generation Time :0
Accumulated Learning Time :4
CALLs: 279    TIMEOUTs: 0    ERRORs: 0
REEVALUATIONS: 335 OF 1046

GENERATION 14/50
....m.m.<;....m.m.<;....m.m.<;.....m.m.<;...i.m..<;.....m.m.<;....m.m.<;....m.m.<;....i.m.m.<;....m.m.<;.....i.m..<;....m.m.<;....m.m.<;...i.m..<;....m.m.<;....m.m.<;....m.m.<;....m.m.<;.....i...<;...i..m.<;...i.m..<;....m.m.<;....m.m.<;....m.m.<;...i.m..<;....m.m.<;....m.m.<;....m.m.<;.....m.m.<;.....i.m..<;....m.m.<;...i.m.m.<;...i.m.m.<;...i.m.m.<;....m.m.<;
Fittest value: 2.75 for chromosome ( X ( ( h ) /\ ( m ) ) )
Solutions (14): ( ( h ) W ( <> ( ( m ) /\ ( X ( p ) ) ) ) ) | ( ( h ) /\ ( m ) ) | ( ( h ) W ( <> ( ( m ) /\ ( [] ( p ) ) ) ) ) | ( X ( ( h ) /\ ( m ) ) ) | ( ( ( [] ( h ) ) /\ ( p ) ) U ( ( h ) W ( <> ( ( m ) /\ ( X ( p ) ) ) ) ) ) | ( ( h ) W ( ( m ) /\ ( X ( p ) ) ) ) | ( X ( ( h ) W ( <> ( ( m ) /\ ( X ( p ) ) ) ) ) ) | ( ( ( h ) W ( <> ( ( m ) /\ ( X ( p ) ) ) ) ) W ( [] ( ( h ) /\ ( ! ( p ) ) ) ) ) | ( [] ( ( h ) W ( <> ( ( m ) /\ ( X ( p ) ) ) ) ) ) | ( <> ( ( h ) /\ ( m ) ) ) | ( ( X ( ( h ) /\ ( m ) ) ) U ( X ( ( h ) /\ ( m ) ) ) ) | ( X ( X ( ( h ) /\ ( m ) ) ) ) | ( ( ( h ) W ( <> ( ( m ) /\ ( X ( p ) ) ) ) ) /\ ( ( h ) W ( <> ( ( m ) /\ ( [] ( p ) ) ) ) ) ) | ( <> ( X ( ( h ) /\ ( m ) ) ) ) | 
Generation Time :0
Accumulated Learning Time :4
CALLs: 220    TIMEOUTs: 0    ERRORs: 0
REEVALUATIONS: 371 OF 1124

GENERATION 15/50
....m.m.<;....m.m.<;....m.m.<;....m.m.<;..........m.m.<;...i.m..<;......m.m.<;....m.m.<;....m.m.<;.....m.m.<;....m.m.<;....m.m.<;....m.m.<;....m.m.<;.....m.m.<;....m.m.<;....m.m.<;.......m.m.<;...i.m.m.<;....m.m.<;....m.m.<;.......i.m.m.<;....m.m.<;....m.m.<;....m.m.<;....m.m.<;....m.m.<;....m.m.<;....m.m.<;....m.m.<;....m.m.<;....m.m.<;....m.m.<;....m.m.<;....m.m.<;....m.m.<;......m.m.<;....m.m.<;....m.m.<;...i.m.m.<;....m.m.<;....m.m.<;
Fittest value: 2.75 for chromosome ( X ( ( h ) /\ ( m ) ) )
Solutions (15): ( ( h ) W ( <> ( ( m ) /\ ( X ( p ) ) ) ) ) | ( ( h ) /\ ( m ) ) | ( ( h ) W ( <> ( ( m ) /\ ( [] ( p ) ) ) ) ) | ( X ( ( h ) /\ ( m ) ) ) | ( ( ( [] ( h ) ) /\ ( p ) ) U ( ( h ) W ( <> ( ( m ) /\ ( X ( p ) ) ) ) ) ) | ( ( h ) W ( ( m ) /\ ( X ( p ) ) ) ) | ( X ( ( h ) W ( <> ( ( m ) /\ ( X ( p ) ) ) ) ) ) | ( ( ( h ) W ( <> ( ( m ) /\ ( X ( p ) ) ) ) ) W ( [] ( ( h ) /\ ( ! ( p ) ) ) ) ) | ( [] ( ( h ) W ( <> ( ( m ) /\ ( X ( p ) ) ) ) ) ) | ( <> ( ( h ) /\ ( m ) ) ) | ( ( X ( ( h ) /\ ( m ) ) ) U ( X ( ( h ) /\ ( m ) ) ) ) | ( X ( X ( ( h ) /\ ( m ) ) ) ) | ( ( ( h ) W ( <> ( ( m ) /\ ( X ( p ) ) ) ) ) /\ ( ( h ) W ( <> ( ( m ) /\ ( [] ( p ) ) ) ) ) ) | ( <> ( X ( ( h ) /\ ( m ) ) ) ) | ( ( ( h ) /\ ( m ) ) \/ ( ( h ) /\ ( m ) ) ) | 
Generation Time :0
Accumulated Learning Time :5
CALLs: 271    TIMEOUTs: 0    ERRORs: 0
REEVALUATIONS: 402 OF 1210

GENERATION 16/50
.....m.m.<;....m.m.<;....m.m.<;....m.m.<;....m.m.<;....m.m.<;......m.m.<;....m.m.<;......m.m.<;.....m.m.<;....m.m.<;....m.m.<;....m.m.<;....m.m.<;....m.m.<;....i.m.m.<;....m.m.<;...i.m.m.<;....m.m.<;.....m.m.<;....m.m.<;.....m.m.<;....m.m.<;......m.m.<;....m.m.<;......m.m.<;....m.m.<;...i.m.m.<;
Fittest value: 2.75 for chromosome ( X ( ( h ) /\ ( m ) ) )
Solutions (16): ( ( h ) W ( <> ( ( m ) /\ ( X ( p ) ) ) ) ) | ( ( h ) /\ ( m ) ) | ( ( h ) W ( <> ( ( m ) /\ ( [] ( p ) ) ) ) ) | ( X ( ( h ) /\ ( m ) ) ) | ( ( ( [] ( h ) ) /\ ( p ) ) U ( ( h ) W ( <> ( ( m ) /\ ( X ( p ) ) ) ) ) ) | ( ( h ) W ( ( m ) /\ ( X ( p ) ) ) ) | ( X ( ( h ) W ( <> ( ( m ) /\ ( X ( p ) ) ) ) ) ) | ( ( ( h ) W ( <> ( ( m ) /\ ( X ( p ) ) ) ) ) W ( [] ( ( h ) /\ ( ! ( p ) ) ) ) ) | ( [] ( ( h ) W ( <> ( ( m ) /\ ( X ( p ) ) ) ) ) ) | ( <> ( ( h ) /\ ( m ) ) ) | ( ( X ( ( h ) /\ ( m ) ) ) U ( X ( ( h ) /\ ( m ) ) ) ) | ( X ( X ( ( h ) /\ ( m ) ) ) ) | ( ( ( h ) W ( <> ( ( m ) /\ ( X ( p ) ) ) ) ) /\ ( ( h ) W ( <> ( ( m ) /\ ( [] ( p ) ) ) ) ) ) | ( <> ( X ( ( h ) /\ ( m ) ) ) ) | ( ( ( h ) /\ ( m ) ) \/ ( ( h ) /\ ( m ) ) ) | ( ( ( h ) /\ ( m ) ) /\ ( ( ( h ) /\ ( m ) ) \/ ( ( h ) /\ ( m ) ) ) ) | 
Generation Time :0
Accumulated Learning Time :5
CALLs: 181    TIMEOUTs: 0    ERRORs: 0
REEVALUATIONS: 445 OF 1291

GENERATION 17/50
......m.m.<;....m.m.<;......m.m.<;.....m.m.<;....m.m.<;.......m.m.<;........m.m.<;....m.m.<;....m.m.<;....m.m.<;.....m.m.<;......m.m.<;...i.m..<;.....i.m.m.<;.....m.m.<;....m.m.<;....m.m.<;....m.m.<;......m.m.<;...i.m.m.<;...i.m.m.<;....m.m.<;...i.m.m.<;
Fittest value: 2.75 for chromosome ( X ( ( h ) /\ ( m ) ) )
Solutions (16): ( ( h ) W ( <> ( ( m ) /\ ( X ( p ) ) ) ) ) | ( ( h ) /\ ( m ) ) | ( ( h ) W ( <> ( ( m ) /\ ( [] ( p ) ) ) ) ) | ( X ( ( h ) /\ ( m ) ) ) | ( ( ( [] ( h ) ) /\ ( p ) ) U ( ( h ) W ( <> ( ( m ) /\ ( X ( p ) ) ) ) ) ) | ( ( h ) W ( ( m ) /\ ( X ( p ) ) ) ) | ( X ( ( h ) W ( <> ( ( m ) /\ ( X ( p ) ) ) ) ) ) | ( ( ( h ) W ( <> ( ( m ) /\ ( X ( p ) ) ) ) ) W ( [] ( ( h ) /\ ( ! ( p ) ) ) ) ) | ( [] ( ( h ) W ( <> ( ( m ) /\ ( X ( p ) ) ) ) ) ) | ( <> ( ( h ) /\ ( m ) ) ) | ( ( X ( ( h ) /\ ( m ) ) ) U ( X ( ( h ) /\ ( m ) ) ) ) | ( X ( X ( ( h ) /\ ( m ) ) ) ) | ( ( ( h ) W ( <> ( ( m ) /\ ( X ( p ) ) ) ) ) /\ ( ( h ) W ( <> ( ( m ) /\ ( [] ( p ) ) ) ) ) ) | ( <> ( X ( ( h ) /\ ( m ) ) ) ) | ( ( ( h ) /\ ( m ) ) \/ ( ( h ) /\ ( m ) ) ) | ( ( ( h ) /\ ( m ) ) /\ ( ( ( h ) /\ ( m ) ) \/ ( ( h ) /\ ( m ) ) ) ) | 
Generation Time :0
Accumulated Learning Time :5
CALLs: 158    TIMEOUTs: 0    ERRORs: 0
REEVALUATIONS: 485 OF 1367

GENERATION 18/50
....m.m.<;....i.m..<;....m.m.;......m.m.<;......m.m.<;....m.m.<;......m.m.<;....m.m.<;...i.m.m.<;....m.m.<;....m.m.<;....m.m.<;......m.m.<;....m.m.<;.......m.m.<;....m.m.<;....m.m.<;....m.m.<;....m.m.<;......i.m.m.<;...i.m.m.<;...i.m.m.<;...i.m.m.<;
Fittest value: 2.75 for chromosome ( X ( ( h ) /\ ( m ) ) )
Solutions (16): ( ( h ) W ( <> ( ( m ) /\ ( X ( p ) ) ) ) ) | ( ( h ) /\ ( m ) ) | ( ( h ) W ( <> ( ( m ) /\ ( [] ( p ) ) ) ) ) | ( X ( ( h ) /\ ( m ) ) ) | ( ( ( [] ( h ) ) /\ ( p ) ) U ( ( h ) W ( <> ( ( m ) /\ ( X ( p ) ) ) ) ) ) | ( ( h ) W ( ( m ) /\ ( X ( p ) ) ) ) | ( X ( ( h ) W ( <> ( ( m ) /\ ( X ( p ) ) ) ) ) ) | ( ( ( h ) W ( <> ( ( m ) /\ ( X ( p ) ) ) ) ) W ( [] ( ( h ) /\ ( ! ( p ) ) ) ) ) | ( [] ( ( h ) W ( <> ( ( m ) /\ ( X ( p ) ) ) ) ) ) | ( <> ( ( h ) /\ ( m ) ) ) | ( ( X ( ( h ) /\ ( m ) ) ) U ( X ( ( h ) /\ ( m ) ) ) ) | ( X ( X ( ( h ) /\ ( m ) ) ) ) | ( ( ( h ) W ( <> ( ( m ) /\ ( X ( p ) ) ) ) ) /\ ( ( h ) W ( <> ( ( m ) /\ ( [] ( p ) ) ) ) ) ) | ( <> ( X ( ( h ) /\ ( m ) ) ) ) | ( ( ( h ) /\ ( m ) ) \/ ( ( h ) /\ ( m ) ) ) | ( ( ( h ) /\ ( m ) ) /\ ( ( ( h ) /\ ( m ) ) \/ ( ( h ) /\ ( m ) ) ) ) | 
Generation Time :0
Accumulated Learning Time :5
CALLs: 153    TIMEOUTs: 0    ERRORs: 0
REEVALUATIONS: 534 OF 1448

GENERATION 19/50
....m.m.<;.....i.m..<;....m.m.<;....m.m.<;......m.m.<;....m.m.<;........m.m.<;....m.m.<;....m.m.<;....m.m.<;......m.m.;....m.m.<;....m.m.<;......m.m.<;....m.m.<;....m.m.<;...i.m.m.<;
Fittest value: 2.75 for chromosome ( X ( ( h ) /\ ( m ) ) )
Solutions (16): ( ( h ) W ( <> ( ( m ) /\ ( X ( p ) ) ) ) ) | ( ( h ) /\ ( m ) ) | ( ( h ) W ( <> ( ( m ) /\ ( [] ( p ) ) ) ) ) | ( X ( ( h ) /\ ( m ) ) ) | ( ( ( [] ( h ) ) /\ ( p ) ) U ( ( h ) W ( <> ( ( m ) /\ ( X ( p ) ) ) ) ) ) | ( ( h ) W ( ( m ) /\ ( X ( p ) ) ) ) | ( X ( ( h ) W ( <> ( ( m ) /\ ( X ( p ) ) ) ) ) ) | ( ( ( h ) W ( <> ( ( m ) /\ ( X ( p ) ) ) ) ) W ( [] ( ( h ) /\ ( ! ( p ) ) ) ) ) | ( [] ( ( h ) W ( <> ( ( m ) /\ ( X ( p ) ) ) ) ) ) | ( <> ( ( h ) /\ ( m ) ) ) | ( ( X ( ( h ) /\ ( m ) ) ) U ( X ( ( h ) /\ ( m ) ) ) ) | ( X ( X ( ( h ) /\ ( m ) ) ) ) | ( ( ( h ) W ( <> ( ( m ) /\ ( X ( p ) ) ) ) ) /\ ( ( h ) W ( <> ( ( m ) /\ ( [] ( p ) ) ) ) ) ) | ( <> ( X ( ( h ) /\ ( m ) ) ) ) | ( ( ( h ) /\ ( m ) ) \/ ( ( h ) /\ ( m ) ) ) | ( ( ( h ) /\ ( m ) ) /\ ( ( ( h ) /\ ( m ) ) \/ ( ( h ) /\ ( m ) ) ) ) | 
Generation Time :0
Accumulated Learning Time :5
CALLs: 114    TIMEOUTs: 0    ERRORs: 0
REEVALUATIONS: 588 OF 1528

GENERATION 20/50
......m.m.<;....m.m.<;....m.m.<;....m.m.<;.....m.m.<;....m.m.<;......m.m.<;....m.m.<;....m.m.<;....m.m.<;.....m.m.<;...i.m..<;......m.m.<;....m.m.<;......m.m.<;....m.m.<;...i.m.m.<;...i.m.m.<;...i.m.m.<;...i.m.m.<;
Fittest value: 2.8333333333333335 for chromosome ( ( h ) /\ ( m ) )
Solutions (16): ( ( h ) W ( <> ( ( m ) /\ ( X ( p ) ) ) ) ) | ( ( h ) /\ ( m ) ) | ( ( h ) W ( <> ( ( m ) /\ ( [] ( p ) ) ) ) ) | ( X ( ( h ) /\ ( m ) ) ) | ( ( ( [] ( h ) ) /\ ( p ) ) U ( ( h ) W ( <> ( ( m ) /\ ( X ( p ) ) ) ) ) ) | ( ( h ) W ( ( m ) /\ ( X ( p ) ) ) ) | ( X ( ( h ) W ( <> ( ( m ) /\ ( X ( p ) ) ) ) ) ) | ( ( ( h ) W ( <> ( ( m ) /\ ( X ( p ) ) ) ) ) W ( [] ( ( h ) /\ ( ! ( p ) ) ) ) ) | ( [] ( ( h ) W ( <> ( ( m ) /\ ( X ( p ) ) ) ) ) ) | ( <> ( ( h ) /\ ( m ) ) ) | ( ( X ( ( h ) /\ ( m ) ) ) U ( X ( ( h ) /\ ( m ) ) ) ) | ( X ( X ( ( h ) /\ ( m ) ) ) ) | ( ( ( h ) W ( <> ( ( m ) /\ ( X ( p ) ) ) ) ) /\ ( ( h ) W ( <> ( ( m ) /\ ( [] ( p ) ) ) ) ) ) | ( <> ( X ( ( h ) /\ ( m ) ) ) ) | ( ( ( h ) /\ ( m ) ) \/ ( ( h ) /\ ( m ) ) ) | ( ( ( h ) /\ ( m ) ) /\ ( ( ( h ) /\ ( m ) ) \/ ( ( h ) /\ ( m ) ) ) ) | 
Generation Time :0
Accumulated Learning Time :5
CALLs: 130    TIMEOUTs: 0    ERRORs: 0
REEVALUATIONS: 642 OF 1608

GENERATION 21/50
....m.m.<;.......m.m.<;....m.m.<;......m.m.<;....m.m.<;......m.m.<;......m.m.<;.....m.m.<;....m.m.<;.....i.m.m.<;...i.m.m.<;
Fittest value: 2.8333333333333335 for chromosome ( ( h ) /\ ( m ) )
Solutions (17): ( ( h ) W ( <> ( ( m ) /\ ( X ( p ) ) ) ) ) | ( ( h ) /\ ( m ) ) | ( ( h ) W ( <> ( ( m ) /\ ( [] ( p ) ) ) ) ) | ( X ( ( h ) /\ ( m ) ) ) | ( ( ( [] ( h ) ) /\ ( p ) ) U ( ( h ) W ( <> ( ( m ) /\ ( X ( p ) ) ) ) ) ) | ( ( h ) W ( ( m ) /\ ( X ( p ) ) ) ) | ( X ( ( h ) W ( <> ( ( m ) /\ ( X ( p ) ) ) ) ) ) | ( ( ( h ) W ( <> ( ( m ) /\ ( X ( p ) ) ) ) ) W ( [] ( ( h ) /\ ( ! ( p ) ) ) ) ) | ( [] ( ( h ) W ( <> ( ( m ) /\ ( X ( p ) ) ) ) ) ) | ( <> ( ( h ) /\ ( m ) ) ) | ( ( X ( ( h ) /\ ( m ) ) ) U ( X ( ( h ) /\ ( m ) ) ) ) | ( X ( X ( ( h ) /\ ( m ) ) ) ) | ( ( ( h ) W ( <> ( ( m ) /\ ( X ( p ) ) ) ) ) /\ ( ( h ) W ( <> ( ( m ) /\ ( [] ( p ) ) ) ) ) ) | ( <> ( X ( ( h ) /\ ( m ) ) ) ) | ( ( ( h ) /\ ( m ) ) \/ ( ( h ) /\ ( m ) ) ) | ( ( ( h ) /\ ( m ) ) /\ ( ( ( h ) /\ ( m ) ) \/ ( ( h ) /\ ( m ) ) ) ) | ( ( ( h ) /\ ( m ) ) U ( ( h ) /\ ( m ) ) ) | 
Generation Time :0
Accumulated Learning Time :6
CALLs: 78    TIMEOUTs: 0    ERRORs: 0
REEVALUATIONS: 705 OF 1690

GENERATION 22/50
.....m.m.<;.......m.m.<;....m.m.<;.....m.m.<;......m.m.<;....m.m.<;.......m.m.<;....m.m.<;....m.m.<;....m.m.<;......i.m.m.<;
Fittest value: 2.8333333333333335 for chromosome ( ( h ) /\ ( m ) )
Solutions (17): ( ( h ) W ( <> ( ( m ) /\ ( X ( p ) ) ) ) ) | ( ( h ) /\ ( m ) ) | ( ( h ) W ( <> ( ( m ) /\ ( [] ( p ) ) ) ) ) | ( X ( ( h ) /\ ( m ) ) ) | ( ( ( [] ( h ) ) /\ ( p ) ) U ( ( h ) W ( <> ( ( m ) /\ ( X ( p ) ) ) ) ) ) | ( ( h ) W ( ( m ) /\ ( X ( p ) ) ) ) | ( X ( ( h ) W ( <> ( ( m ) /\ ( X ( p ) ) ) ) ) ) | ( ( ( h ) W ( <> ( ( m ) /\ ( X ( p ) ) ) ) ) W ( [] ( ( h ) /\ ( ! ( p ) ) ) ) ) | ( [] ( ( h ) W ( <> ( ( m ) /\ ( X ( p ) ) ) ) ) ) | ( <> ( ( h ) /\ ( m ) ) ) | ( ( X ( ( h ) /\ ( m ) ) ) U ( X ( ( h ) /\ ( m ) ) ) ) | ( X ( X ( ( h ) /\ ( m ) ) ) ) | ( ( ( h ) W ( <> ( ( m ) /\ ( X ( p ) ) ) ) ) /\ ( ( h ) W ( <> ( ( m ) /\ ( [] ( p ) ) ) ) ) ) | ( <> ( X ( ( h ) /\ ( m ) ) ) ) | ( ( ( h ) /\ ( m ) ) \/ ( ( h ) /\ ( m ) ) ) | ( ( ( h ) /\ ( m ) ) /\ ( ( ( h ) /\ ( m ) ) \/ ( ( h ) /\ ( m ) ) ) ) | ( ( ( h ) /\ ( m ) ) U ( ( h ) /\ ( m ) ) ) | 
Generation Time :0
Accumulated Learning Time :6
CALLs: 79    TIMEOUTs: 0    ERRORs: 0
REEVALUATIONS: 768 OF 1773

GENERATION 23/50
....m.m.<;....m.m.<;....m.m.<;....m.m.<;....m.m.<;....m.m.<;....m.m.<;...i.m.m.<;....m.m.<;....m.m.<;......m.m.<;....m.m.<;.....m.m.<;....m.m.<;....m.m.<;....m.m.<;....m.m.<;....m.m.<;....m.m.<;.....i.m..<;....m.m.<;....m.m.<;...i.m.m.<;
Fittest value: 2.8333333333333335 for chromosome ( ( h ) /\ ( m ) )
Solutions (19): ( ( h ) W ( <> ( ( m ) /\ ( X ( p ) ) ) ) ) | ( ( h ) /\ ( m ) ) | ( ( h ) W ( <> ( ( m ) /\ ( [] ( p ) ) ) ) ) | ( X ( ( h ) /\ ( m ) ) ) | ( ( ( [] ( h ) ) /\ ( p ) ) U ( ( h ) W ( <> ( ( m ) /\ ( X ( p ) ) ) ) ) ) | ( ( h ) W ( ( m ) /\ ( X ( p ) ) ) ) | ( X ( ( h ) W ( <> ( ( m ) /\ ( X ( p ) ) ) ) ) ) | ( ( ( h ) W ( <> ( ( m ) /\ ( X ( p ) ) ) ) ) W ( [] ( ( h ) /\ ( ! ( p ) ) ) ) ) | ( [] ( ( h ) W ( <> ( ( m ) /\ ( X ( p ) ) ) ) ) ) | ( <> ( ( h ) /\ ( m ) ) ) | ( ( X ( ( h ) /\ ( m ) ) ) U ( X ( ( h ) /\ ( m ) ) ) ) | ( X ( X ( ( h ) /\ ( m ) ) ) ) | ( ( ( h ) W ( <> ( ( m ) /\ ( X ( p ) ) ) ) ) /\ ( ( h ) W ( <> ( ( m ) /\ ( [] ( p ) ) ) ) ) ) | ( <> ( X ( ( h ) /\ ( m ) ) ) ) | ( ( ( h ) /\ ( m ) ) \/ ( ( h ) /\ ( m ) ) ) | ( ( ( h ) /\ ( m ) ) /\ ( ( ( h ) /\ ( m ) ) \/ ( ( h ) /\ ( m ) ) ) ) | ( ( ( h ) /\ ( m ) ) U ( ( h ) /\ ( m ) ) ) | ( ( m ) /\ ( h ) ) | ( ( ( h ) /\ ( m ) ) /\ ( m ) ) | 
Generation Time :0
Accumulated Learning Time :6
CALLs: 143    TIMEOUTs: 0    ERRORs: 0
REEVALUATIONS: 824 OF 1855

GENERATION 24/50
........m.m.<;........m.m.<;....m.m.<;......m.m.<;....m.m.<;....m.m.<;....m.m.<;....m.m.<;....m.m.<;..........m.m.<;....m.m.<;....m.m.<;....m.m.<;......m.m.<;....m.m.<;...i.m.m.<;
Fittest value: 2.8333333333333335 for chromosome ( ( h ) /\ ( m ) )
Solutions (19): ( ( h ) W ( <> ( ( m ) /\ ( X ( p ) ) ) ) ) | ( ( h ) /\ ( m ) ) | ( ( h ) W ( <> ( ( m ) /\ ( [] ( p ) ) ) ) ) | ( X ( ( h ) /\ ( m ) ) ) | ( ( ( [] ( h ) ) /\ ( p ) ) U ( ( h ) W ( <> ( ( m ) /\ ( X ( p ) ) ) ) ) ) | ( ( h ) W ( ( m ) /\ ( X ( p ) ) ) ) | ( X ( ( h ) W ( <> ( ( m ) /\ ( X ( p ) ) ) ) ) ) | ( ( ( h ) W ( <> ( ( m ) /\ ( X ( p ) ) ) ) ) W ( [] ( ( h ) /\ ( ! ( p ) ) ) ) ) | ( [] ( ( h ) W ( <> ( ( m ) /\ ( X ( p ) ) ) ) ) ) | ( <> ( ( h ) /\ ( m ) ) ) | ( ( X ( ( h ) /\ ( m ) ) ) U ( X ( ( h ) /\ ( m ) ) ) ) | ( X ( X ( ( h ) /\ ( m ) ) ) ) | ( ( ( h ) W ( <> ( ( m ) /\ ( X ( p ) ) ) ) ) /\ ( ( h ) W ( <> ( ( m ) /\ ( [] ( p ) ) ) ) ) ) | ( <> ( X ( ( h ) /\ ( m ) ) ) ) | ( ( ( h ) /\ ( m ) ) \/ ( ( h ) /\ ( m ) ) ) | ( ( ( h ) /\ ( m ) ) /\ ( ( ( h ) /\ ( m ) ) \/ ( ( h ) /\ ( m ) ) ) ) | ( ( ( h ) /\ ( m ) ) U ( ( h ) /\ ( m ) ) ) | ( ( m ) /\ ( h ) ) | ( ( ( h ) /\ ( m ) ) /\ ( m ) ) | 
Generation Time :0
Accumulated Learning Time :6
CALLs: 114    TIMEOUTs: 0    ERRORs: 0
REEVALUATIONS: 887 OF 1944

GENERATION 25/50
....m.m.<;......m.m.<;......m.m.<;....m.m.<;......m.m.<;....m.m.<;....m.m.<;....m.m.<;....m.m.<;.....m.m.<;.....m.m.<;
Fittest value: 2.8333333333333335 for chromosome ( ( h ) /\ ( m ) )
Solutions (19): ( ( h ) W ( <> ( ( m ) /\ ( X ( p ) ) ) ) ) | ( ( h ) /\ ( m ) ) | ( ( h ) W ( <> ( ( m ) /\ ( [] ( p ) ) ) ) ) | ( X ( ( h ) /\ ( m ) ) ) | ( ( ( [] ( h ) ) /\ ( p ) ) U ( ( h ) W ( <> ( ( m ) /\ ( X ( p ) ) ) ) ) ) | ( ( h ) W ( ( m ) /\ ( X ( p ) ) ) ) | ( X ( ( h ) W ( <> ( ( m ) /\ ( X ( p ) ) ) ) ) ) | ( ( ( h ) W ( <> ( ( m ) /\ ( X ( p ) ) ) ) ) W ( [] ( ( h ) /\ ( ! ( p ) ) ) ) ) | ( [] ( ( h ) W ( <> ( ( m ) /\ ( X ( p ) ) ) ) ) ) | ( <> ( ( h ) /\ ( m ) ) ) | ( ( X ( ( h ) /\ ( m ) ) ) U ( X ( ( h ) /\ ( m ) ) ) ) | ( X ( X ( ( h ) /\ ( m ) ) ) ) | ( ( ( h ) W ( <> ( ( m ) /\ ( X ( p ) ) ) ) ) /\ ( ( h ) W ( <> ( ( m ) /\ ( [] ( p ) ) ) ) ) ) | ( <> ( X ( ( h ) /\ ( m ) ) ) ) | ( ( ( h ) /\ ( m ) ) \/ ( ( h ) /\ ( m ) ) ) | ( ( ( h ) /\ ( m ) ) /\ ( ( ( h ) /\ ( m ) ) \/ ( ( h ) /\ ( m ) ) ) ) | ( ( ( h ) /\ ( m ) ) U ( ( h ) /\ ( m ) ) ) | ( ( m ) /\ ( h ) ) | ( ( ( h ) /\ ( m ) ) /\ ( m ) ) | 
Generation Time :0
Accumulated Learning Time :6
CALLs: 74    TIMEOUTs: 0    ERRORs: 0
REEVALUATIONS: 952 OF 2025

GENERATION 26/50
......m.m.<;....m.m.<;........m.m.<;....m.m.<;....m.m.<;............m.m.<;....m.m.<;....m.m.<;....m.m.<;....m.m.<;...i.m..<;...i.m.m.<;...i.m.m.<;
Fittest value: 2.8333333333333335 for chromosome ( ( h ) /\ ( m ) )
Solutions (20): ( ( h ) W ( <> ( ( m ) /\ ( X ( p ) ) ) ) ) | ( ( h ) /\ ( m ) ) | ( ( h ) W ( <> ( ( m ) /\ ( [] ( p ) ) ) ) ) | ( X ( ( h ) /\ ( m ) ) ) | ( ( ( [] ( h ) ) /\ ( p ) ) U ( ( h ) W ( <> ( ( m ) /\ ( X ( p ) ) ) ) ) ) | ( ( h ) W ( ( m ) /\ ( X ( p ) ) ) ) | ( X ( ( h ) W ( <> ( ( m ) /\ ( X ( p ) ) ) ) ) ) | ( ( ( h ) W ( <> ( ( m ) /\ ( X ( p ) ) ) ) ) W ( [] ( ( h ) /\ ( ! ( p ) ) ) ) ) | ( [] ( ( h ) W ( <> ( ( m ) /\ ( X ( p ) ) ) ) ) ) | ( <> ( ( h ) /\ ( m ) ) ) | ( ( X ( ( h ) /\ ( m ) ) ) U ( X ( ( h ) /\ ( m ) ) ) ) | ( X ( X ( ( h ) /\ ( m ) ) ) ) | ( ( ( h ) W ( <> ( ( m ) /\ ( X ( p ) ) ) ) ) /\ ( ( h ) W ( <> ( ( m ) /\ ( [] ( p ) ) ) ) ) ) | ( <> ( X ( ( h ) /\ ( m ) ) ) ) | ( ( ( h ) /\ ( m ) ) \/ ( ( h ) /\ ( m ) ) ) | ( ( ( h ) /\ ( m ) ) /\ ( ( ( h ) /\ ( m ) ) \/ ( ( h ) /\ ( m ) ) ) ) | ( ( ( h ) /\ ( m ) ) U ( ( h ) /\ ( m ) ) ) | ( ( m ) /\ ( h ) ) | ( ( ( h ) /\ ( m ) ) /\ ( m ) ) | ( ( h ) /\ ( ( h ) /\ ( m ) ) ) | 
Generation Time :0
Accumulated Learning Time :6
CALLs: 92    TIMEOUTs: 0    ERRORs: 0
REEVALUATIONS: 1010 OF 2104

GENERATION 27/50
......m.m.<;.....m.m.<;....m.m.<;....m.m.<;.....m.m.<;....m.m.<;....m.m.<;.....m.m.<;....m.m.<;....m.m.<;...i.m.m.<;....m.m.<;....m.m.<;....m.m.<;...i.m..<;...i.m.m.<;...i.m.m.<;
Fittest value: 2.8333333333333335 for chromosome ( ( h ) /\ ( m ) )
Solutions (20): ( ( h ) W ( <> ( ( m ) /\ ( X ( p ) ) ) ) ) | ( ( h ) /\ ( m ) ) | ( ( h ) W ( <> ( ( m ) /\ ( [] ( p ) ) ) ) ) | ( X ( ( h ) /\ ( m ) ) ) | ( ( ( [] ( h ) ) /\ ( p ) ) U ( ( h ) W ( <> ( ( m ) /\ ( X ( p ) ) ) ) ) ) | ( ( h ) W ( ( m ) /\ ( X ( p ) ) ) ) | ( X ( ( h ) W ( <> ( ( m ) /\ ( X ( p ) ) ) ) ) ) | ( ( ( h ) W ( <> ( ( m ) /\ ( X ( p ) ) ) ) ) W ( [] ( ( h ) /\ ( ! ( p ) ) ) ) ) | ( [] ( ( h ) W ( <> ( ( m ) /\ ( X ( p ) ) ) ) ) ) | ( <> ( ( h ) /\ ( m ) ) ) | ( ( X ( ( h ) /\ ( m ) ) ) U ( X ( ( h ) /\ ( m ) ) ) ) | ( X ( X ( ( h ) /\ ( m ) ) ) ) | ( ( ( h ) W ( <> ( ( m ) /\ ( X ( p ) ) ) ) ) /\ ( ( h ) W ( <> ( ( m ) /\ ( [] ( p ) ) ) ) ) ) | ( <> ( X ( ( h ) /\ ( m ) ) ) ) | ( ( ( h ) /\ ( m ) ) \/ ( ( h ) /\ ( m ) ) ) | ( ( ( h ) /\ ( m ) ) /\ ( ( ( h ) /\ ( m ) ) \/ ( ( h ) /\ ( m ) ) ) ) | ( ( ( h ) /\ ( m ) ) U ( ( h ) /\ ( m ) ) ) | ( ( m ) /\ ( h ) ) | ( ( ( h ) /\ ( m ) ) /\ ( m ) ) | ( ( h ) /\ ( ( h ) /\ ( m ) ) ) | 
Generation Time :0
Accumulated Learning Time :6
CALLs: 107    TIMEOUTs: 0    ERRORs: 0
REEVALUATIONS: 1069 OF 2184

GENERATION 28/50
.......m.m.<;....m.m.<;....m.m.<;.....m.m.<;........m.m.<;....m.m.<;....m.m.<;....m.m.<;....m.m.<;....m.m.<;....i.m.m.<;
Fittest value: 2.8333333333333335 for chromosome ( ( h ) /\ ( m ) )
Solutions (20): ( ( h ) W ( <> ( ( m ) /\ ( X ( p ) ) ) ) ) | ( ( h ) /\ ( m ) ) | ( ( h ) W ( <> ( ( m ) /\ ( [] ( p ) ) ) ) ) | ( X ( ( h ) /\ ( m ) ) ) | ( ( ( [] ( h ) ) /\ ( p ) ) U ( ( h ) W ( <> ( ( m ) /\ ( X ( p ) ) ) ) ) ) | ( ( h ) W ( ( m ) /\ ( X ( p ) ) ) ) | ( X ( ( h ) W ( <> ( ( m ) /\ ( X ( p ) ) ) ) ) ) | ( ( ( h ) W ( <> ( ( m ) /\ ( X ( p ) ) ) ) ) W ( [] ( ( h ) /\ ( ! ( p ) ) ) ) ) | ( [] ( ( h ) W ( <> ( ( m ) /\ ( X ( p ) ) ) ) ) ) | ( <> ( ( h ) /\ ( m ) ) ) | ( ( X ( ( h ) /\ ( m ) ) ) U ( X ( ( h ) /\ ( m ) ) ) ) | ( X ( X ( ( h ) /\ ( m ) ) ) ) | ( ( ( h ) W ( <> ( ( m ) /\ ( X ( p ) ) ) ) ) /\ ( ( h ) W ( <> ( ( m ) /\ ( [] ( p ) ) ) ) ) ) | ( <> ( X ( ( h ) /\ ( m ) ) ) ) | ( ( ( h ) /\ ( m ) ) \/ ( ( h ) /\ ( m ) ) ) | ( ( ( h ) /\ ( m ) ) /\ ( ( ( h ) /\ ( m ) ) \/ ( ( h ) /\ ( m ) ) ) ) | ( ( ( h ) /\ ( m ) ) U ( ( h ) /\ ( m ) ) ) | ( ( m ) /\ ( h ) ) | ( ( ( h ) /\ ( m ) ) /\ ( m ) ) | ( ( h ) /\ ( ( h ) /\ ( m ) ) ) | 
Generation Time :0
Accumulated Learning Time :6
CALLs: 75    TIMEOUTs: 0    ERRORs: 0
REEVALUATIONS: 1135 OF 2267

GENERATION 29/50
....m.m.<;....m.m.<;......m.m.<;....m.m.<;....m.m.<;....m.m.<;.....m.m.<;....m.m.<;....m.m.<;......m.m.<;....m.m.<;..
Fittest value: 2.8333333333333335 for chromosome ( ( h ) /\ ( m ) )
Solutions (20): ( ( h ) W ( <> ( ( m ) /\ ( X ( p ) ) ) ) ) | ( ( h ) /\ ( m ) ) | ( ( h ) W ( <> ( ( m ) /\ ( [] ( p ) ) ) ) ) | ( X ( ( h ) /\ ( m ) ) ) | ( ( ( [] ( h ) ) /\ ( p ) ) U ( ( h ) W ( <> ( ( m ) /\ ( X ( p ) ) ) ) ) ) | ( ( h ) W ( ( m ) /\ ( X ( p ) ) ) ) | ( X ( ( h ) W ( <> ( ( m ) /\ ( X ( p ) ) ) ) ) ) | ( ( ( h ) W ( <> ( ( m ) /\ ( X ( p ) ) ) ) ) W ( [] ( ( h ) /\ ( ! ( p ) ) ) ) ) | ( [] ( ( h ) W ( <> ( ( m ) /\ ( X ( p ) ) ) ) ) ) | ( <> ( ( h ) /\ ( m ) ) ) | ( ( X ( ( h ) /\ ( m ) ) ) U ( X ( ( h ) /\ ( m ) ) ) ) | ( X ( X ( ( h ) /\ ( m ) ) ) ) | ( ( ( h ) W ( <> ( ( m ) /\ ( X ( p ) ) ) ) ) /\ ( ( h ) W ( <> ( ( m ) /\ ( [] ( p ) ) ) ) ) ) | ( <> ( X ( ( h ) /\ ( m ) ) ) ) | ( ( ( h ) /\ ( m ) ) \/ ( ( h ) /\ ( m ) ) ) | ( ( ( h ) /\ ( m ) ) /\ ( ( ( h ) /\ ( m ) ) \/ ( ( h ) /\ ( m ) ) ) ) | ( ( ( h ) /\ ( m ) ) U ( ( h ) /\ ( m ) ) ) | ( ( m ) /\ ( h ) ) | ( ( ( h ) /\ ( m ) ) /\ ( m ) ) | ( ( h ) /\ ( ( h ) /\ ( m ) ) ) | 
Generation Time :0
Accumulated Learning Time :6
CALLs: 73    TIMEOUTs: 0    ERRORs: 0
REEVALUATIONS: 1194 OF 2342

GENERATION 30/50
.....m.m.<;.....m.m.<;.......m.m.<;....m.m.<;....m.m.<;......m.m.<;....m.m.<;.....m.m.<;....m.m.<;....m.m.<;
Fittest value: 2.8333333333333335 for chromosome ( ( h ) /\ ( m ) )
Solutions (20): ( ( h ) W ( <> ( ( m ) /\ ( X ( p ) ) ) ) ) | ( ( h ) /\ ( m ) ) | ( ( h ) W ( <> ( ( m ) /\ ( [] ( p ) ) ) ) ) | ( X ( ( h ) /\ ( m ) ) ) | ( ( ( [] ( h ) ) /\ ( p ) ) U ( ( h ) W ( <> ( ( m ) /\ ( X ( p ) ) ) ) ) ) | ( ( h ) W ( ( m ) /\ ( X ( p ) ) ) ) | ( X ( ( h ) W ( <> ( ( m ) /\ ( X ( p ) ) ) ) ) ) | ( ( ( h ) W ( <> ( ( m ) /\ ( X ( p ) ) ) ) ) W ( [] ( ( h ) /\ ( ! ( p ) ) ) ) ) | ( [] ( ( h ) W ( <> ( ( m ) /\ ( X ( p ) ) ) ) ) ) | ( <> ( ( h ) /\ ( m ) ) ) | ( ( X ( ( h ) /\ ( m ) ) ) U ( X ( ( h ) /\ ( m ) ) ) ) | ( X ( X ( ( h ) /\ ( m ) ) ) ) | ( ( ( h ) W ( <> ( ( m ) /\ ( X ( p ) ) ) ) ) /\ ( ( h ) W ( <> ( ( m ) /\ ( [] ( p ) ) ) ) ) ) | ( <> ( X ( ( h ) /\ ( m ) ) ) ) | ( ( ( h ) /\ ( m ) ) \/ ( ( h ) /\ ( m ) ) ) | ( ( ( h ) /\ ( m ) ) /\ ( ( ( h ) /\ ( m ) ) \/ ( ( h ) /\ ( m ) ) ) ) | ( ( ( h ) /\ ( m ) ) U ( ( h ) /\ ( m ) ) ) | ( ( m ) /\ ( h ) ) | ( ( ( h ) /\ ( m ) ) /\ ( m ) ) | ( ( h ) /\ ( ( h ) /\ ( m ) ) ) | 
Generation Time :0
Accumulated Learning Time :6
CALLs: 68    TIMEOUTs: 0    ERRORs: 0
REEVALUATIONS: 1261 OF 2425

GENERATION 31/50
....m.m.<;....m.m.<;....m.m.<;.......m.m.<;....m.m.<;......m.m.<;......i.m.m.<;
Fittest value: 2.8333333333333335 for chromosome ( ( h ) /\ ( m ) )
Solutions (20): ( ( h ) W ( <> ( ( m ) /\ ( X ( p ) ) ) ) ) | ( ( h ) /\ ( m ) ) | ( ( h ) W ( <> ( ( m ) /\ ( [] ( p ) ) ) ) ) | ( X ( ( h ) /\ ( m ) ) ) | ( ( ( [] ( h ) ) /\ ( p ) ) U ( ( h ) W ( <> ( ( m ) /\ ( X ( p ) ) ) ) ) ) | ( ( h ) W ( ( m ) /\ ( X ( p ) ) ) ) | ( X ( ( h ) W ( <> ( ( m ) /\ ( X ( p ) ) ) ) ) ) | ( ( ( h ) W ( <> ( ( m ) /\ ( X ( p ) ) ) ) ) W ( [] ( ( h ) /\ ( ! ( p ) ) ) ) ) | ( [] ( ( h ) W ( <> ( ( m ) /\ ( X ( p ) ) ) ) ) ) | ( <> ( ( h ) /\ ( m ) ) ) | ( ( X ( ( h ) /\ ( m ) ) ) U ( X ( ( h ) /\ ( m ) ) ) ) | ( X ( X ( ( h ) /\ ( m ) ) ) ) | ( ( ( h ) W ( <> ( ( m ) /\ ( X ( p ) ) ) ) ) /\ ( ( h ) W ( <> ( ( m ) /\ ( [] ( p ) ) ) ) ) ) | ( <> ( X ( ( h ) /\ ( m ) ) ) ) | ( ( ( h ) /\ ( m ) ) \/ ( ( h ) /\ ( m ) ) ) | ( ( ( h ) /\ ( m ) ) /\ ( ( ( h ) /\ ( m ) ) \/ ( ( h ) /\ ( m ) ) ) ) | ( ( ( h ) /\ ( m ) ) U ( ( h ) /\ ( m ) ) ) | ( ( m ) /\ ( h ) ) | ( ( ( h ) /\ ( m ) ) /\ ( m ) ) | ( ( h ) /\ ( ( h ) /\ ( m ) ) ) | 
Generation Time :0
Accumulated Learning Time :6
CALLs: 50    TIMEOUTs: 0    ERRORs: 0
REEVALUATIONS: 1326 OF 2502

GENERATION 32/50
....m.m.<;......m.m.<;.......m.m.<;....m.m.<;
Fittest value: 2.8333333333333335 for chromosome ( ( h ) /\ ( m ) )
Solutions (20): ( ( h ) W ( <> ( ( m ) /\ ( X ( p ) ) ) ) ) | ( ( h ) /\ ( m ) ) | ( ( h ) W ( <> ( ( m ) /\ ( [] ( p ) ) ) ) ) | ( X ( ( h ) /\ ( m ) ) ) | ( ( ( [] ( h ) ) /\ ( p ) ) U ( ( h ) W ( <> ( ( m ) /\ ( X ( p ) ) ) ) ) ) | ( ( h ) W ( ( m ) /\ ( X ( p ) ) ) ) | ( X ( ( h ) W ( <> ( ( m ) /\ ( X ( p ) ) ) ) ) ) | ( ( ( h ) W ( <> ( ( m ) /\ ( X ( p ) ) ) ) ) W ( [] ( ( h ) /\ ( ! ( p ) ) ) ) ) | ( [] ( ( h ) W ( <> ( ( m ) /\ ( X ( p ) ) ) ) ) ) | ( <> ( ( h ) /\ ( m ) ) ) | ( ( X ( ( h ) /\ ( m ) ) ) U ( X ( ( h ) /\ ( m ) ) ) ) | ( X ( X ( ( h ) /\ ( m ) ) ) ) | ( ( ( h ) W ( <> ( ( m ) /\ ( X ( p ) ) ) ) ) /\ ( ( h ) W ( <> ( ( m ) /\ ( [] ( p ) ) ) ) ) ) | ( <> ( X ( ( h ) /\ ( m ) ) ) ) | ( ( ( h ) /\ ( m ) ) \/ ( ( h ) /\ ( m ) ) ) | ( ( ( h ) /\ ( m ) ) /\ ( ( ( h ) /\ ( m ) ) \/ ( ( h ) /\ ( m ) ) ) ) | ( ( ( h ) /\ ( m ) ) U ( ( h ) /\ ( m ) ) ) | ( ( m ) /\ ( h ) ) | ( ( ( h ) /\ ( m ) ) /\ ( m ) ) | ( ( h ) /\ ( ( h ) /\ ( m ) ) ) | 
Generation Time :0
Accumulated Learning Time :7
CALLs: 29    TIMEOUTs: 0    ERRORs: 0
REEVALUATIONS: 1404 OF 2587

GENERATION 33/50
........m.m.<;.....m.m.<;...i.m.m.<;.....i.m.m.<;
Fittest value: 2.8333333333333335 for chromosome ( ( h ) /\ ( m ) )
Solutions (20): ( ( h ) W ( <> ( ( m ) /\ ( X ( p ) ) ) ) ) | ( ( h ) /\ ( m ) ) | ( ( h ) W ( <> ( ( m ) /\ ( [] ( p ) ) ) ) ) | ( X ( ( h ) /\ ( m ) ) ) | ( ( ( [] ( h ) ) /\ ( p ) ) U ( ( h ) W ( <> ( ( m ) /\ ( X ( p ) ) ) ) ) ) | ( ( h ) W ( ( m ) /\ ( X ( p ) ) ) ) | ( X ( ( h ) W ( <> ( ( m ) /\ ( X ( p ) ) ) ) ) ) | ( ( ( h ) W ( <> ( ( m ) /\ ( X ( p ) ) ) ) ) W ( [] ( ( h ) /\ ( ! ( p ) ) ) ) ) | ( [] ( ( h ) W ( <> ( ( m ) /\ ( X ( p ) ) ) ) ) ) | ( <> ( ( h ) /\ ( m ) ) ) | ( ( X ( ( h ) /\ ( m ) ) ) U ( X ( ( h ) /\ ( m ) ) ) ) | ( X ( X ( ( h ) /\ ( m ) ) ) ) | ( ( ( h ) W ( <> ( ( m ) /\ ( X ( p ) ) ) ) ) /\ ( ( h ) W ( <> ( ( m ) /\ ( [] ( p ) ) ) ) ) ) | ( <> ( X ( ( h ) /\ ( m ) ) ) ) | ( ( ( h ) /\ ( m ) ) \/ ( ( h ) /\ ( m ) ) ) | ( ( ( h ) /\ ( m ) ) /\ ( ( ( h ) /\ ( m ) ) \/ ( ( h ) /\ ( m ) ) ) ) | ( ( ( h ) /\ ( m ) ) U ( ( h ) /\ ( m ) ) ) | ( ( m ) /\ ( h ) ) | ( ( ( h ) /\ ( m ) ) /\ ( m ) ) | ( ( h ) /\ ( ( h ) /\ ( m ) ) ) | 
Generation Time :0
Accumulated Learning Time :7
CALLs: 31    TIMEOUTs: 0    ERRORs: 0
REEVALUATIONS: 1473 OF 2665

GENERATION 34/50
.........m.m.<;....m.m.<;....m.m.<;.
Fittest value: 2.8333333333333335 for chromosome ( ( h ) /\ ( m ) )
Solutions (20): ( ( h ) W ( <> ( ( m ) /\ ( X ( p ) ) ) ) ) | ( ( h ) /\ ( m ) ) | ( ( h ) W ( <> ( ( m ) /\ ( [] ( p ) ) ) ) ) | ( X ( ( h ) /\ ( m ) ) ) | ( ( ( [] ( h ) ) /\ ( p ) ) U ( ( h ) W ( <> ( ( m ) /\ ( X ( p ) ) ) ) ) ) | ( ( h ) W ( ( m ) /\ ( X ( p ) ) ) ) | ( X ( ( h ) W ( <> ( ( m ) /\ ( X ( p ) ) ) ) ) ) | ( ( ( h ) W ( <> ( ( m ) /\ ( X ( p ) ) ) ) ) W ( [] ( ( h ) /\ ( ! ( p ) ) ) ) ) | ( [] ( ( h ) W ( <> ( ( m ) /\ ( X ( p ) ) ) ) ) ) | ( <> ( ( h ) /\ ( m ) ) ) | ( ( X ( ( h ) /\ ( m ) ) ) U ( X ( ( h ) /\ ( m ) ) ) ) | ( X ( X ( ( h ) /\ ( m ) ) ) ) | ( ( ( h ) W ( <> ( ( m ) /\ ( X ( p ) ) ) ) ) /\ ( ( h ) W ( <> ( ( m ) /\ ( [] ( p ) ) ) ) ) ) | ( <> ( X ( ( h ) /\ ( m ) ) ) ) | ( ( ( h ) /\ ( m ) ) \/ ( ( h ) /\ ( m ) ) ) | ( ( ( h ) /\ ( m ) ) /\ ( ( ( h ) /\ ( m ) ) \/ ( ( h ) /\ ( m ) ) ) ) | ( ( ( h ) /\ ( m ) ) U ( ( h ) /\ ( m ) ) ) | ( ( m ) /\ ( h ) ) | ( ( ( h ) /\ ( m ) ) /\ ( m ) ) | ( ( h ) /\ ( ( h ) /\ ( m ) ) ) | 
Generation Time :0
Accumulated Learning Time :7
CALLs: 24    TIMEOUTs: 0    ERRORs: 0
REEVALUATIONS: 1553 OF 2752

GENERATION 35/50
.....m.m.<;......m.m.<;....m.m.<;....m.m.<;
Fittest value: 2.8333333333333335 for chromosome ( ( h ) /\ ( m ) )
Solutions (20): ( ( h ) W ( <> ( ( m ) /\ ( X ( p ) ) ) ) ) | ( ( h ) /\ ( m ) ) | ( ( h ) W ( <> ( ( m ) /\ ( [] ( p ) ) ) ) ) | ( X ( ( h ) /\ ( m ) ) ) | ( ( ( [] ( h ) ) /\ ( p ) ) U ( ( h ) W ( <> ( ( m ) /\ ( X ( p ) ) ) ) ) ) | ( ( h ) W ( ( m ) /\ ( X ( p ) ) ) ) | ( X ( ( h ) W ( <> ( ( m ) /\ ( X ( p ) ) ) ) ) ) | ( ( ( h ) W ( <> ( ( m ) /\ ( X ( p ) ) ) ) ) W ( [] ( ( h ) /\ ( ! ( p ) ) ) ) ) | ( [] ( ( h ) W ( <> ( ( m ) /\ ( X ( p ) ) ) ) ) ) | ( <> ( ( h ) /\ ( m ) ) ) | ( ( X ( ( h ) /\ ( m ) ) ) U ( X ( ( h ) /\ ( m ) ) ) ) | ( X ( X ( ( h ) /\ ( m ) ) ) ) | ( ( ( h ) W ( <> ( ( m ) /\ ( X ( p ) ) ) ) ) /\ ( ( h ) W ( <> ( ( m ) /\ ( [] ( p ) ) ) ) ) ) | ( <> ( X ( ( h ) /\ ( m ) ) ) ) | ( ( ( h ) /\ ( m ) ) \/ ( ( h ) /\ ( m ) ) ) | ( ( ( h ) /\ ( m ) ) /\ ( ( ( h ) /\ ( m ) ) \/ ( ( h ) /\ ( m ) ) ) ) | ( ( ( h ) /\ ( m ) ) U ( ( h ) /\ ( m ) ) ) | ( ( m ) /\ ( h ) ) | ( ( ( h ) /\ ( m ) ) /\ ( m ) ) | ( ( h ) /\ ( ( h ) /\ ( m ) ) ) | 
Generation Time :0
Accumulated Learning Time :7
CALLs: 27    TIMEOUTs: 0    ERRORs: 0
REEVALUATIONS: 1631 OF 2836

GENERATION 36/50
.....m.m.<;....m.m.<;....m.m.<;......m.m.<;...i.m.m.<;
Fittest value: 2.8333333333333335 for chromosome ( ( h ) /\ ( m ) )
Solutions (20): ( ( h ) W ( <> ( ( m ) /\ ( X ( p ) ) ) ) ) | ( ( h ) /\ ( m ) ) | ( ( h ) W ( <> ( ( m ) /\ ( [] ( p ) ) ) ) ) | ( X ( ( h ) /\ ( m ) ) ) | ( ( ( [] ( h ) ) /\ ( p ) ) U ( ( h ) W ( <> ( ( m ) /\ ( X ( p ) ) ) ) ) ) | ( ( h ) W ( ( m ) /\ ( X ( p ) ) ) ) | ( X ( ( h ) W ( <> ( ( m ) /\ ( X ( p ) ) ) ) ) ) | ( ( ( h ) W ( <> ( ( m ) /\ ( X ( p ) ) ) ) ) W ( [] ( ( h ) /\ ( ! ( p ) ) ) ) ) | ( [] ( ( h ) W ( <> ( ( m ) /\ ( X ( p ) ) ) ) ) ) | ( <> ( ( h ) /\ ( m ) ) ) | ( ( X ( ( h ) /\ ( m ) ) ) U ( X ( ( h ) /\ ( m ) ) ) ) | ( X ( X ( ( h ) /\ ( m ) ) ) ) | ( ( ( h ) W ( <> ( ( m ) /\ ( X ( p ) ) ) ) ) /\ ( ( h ) W ( <> ( ( m ) /\ ( [] ( p ) ) ) ) ) ) | ( <> ( X ( ( h ) /\ ( m ) ) ) ) | ( ( ( h ) /\ ( m ) ) \/ ( ( h ) /\ ( m ) ) ) | ( ( ( h ) /\ ( m ) ) /\ ( ( ( h ) /\ ( m ) ) \/ ( ( h ) /\ ( m ) ) ) ) | ( ( ( h ) /\ ( m ) ) U ( ( h ) /\ ( m ) ) ) | ( ( m ) /\ ( h ) ) | ( ( ( h ) /\ ( m ) ) /\ ( m ) ) | ( ( h ) /\ ( ( h ) /\ ( m ) ) ) | 
Generation Time :0
Accumulated Learning Time :7
CALLs: 33    TIMEOUTs: 0    ERRORs: 0
REEVALUATIONS: 1701 OF 2913

GENERATION 37/50
....m.m.<;....m.m.<;........m.m.<;
Fittest value: 2.8333333333333335 for chromosome ( ( h ) /\ ( m ) )
Solutions (20): ( ( h ) W ( <> ( ( m ) /\ ( X ( p ) ) ) ) ) | ( ( h ) /\ ( m ) ) | ( ( h ) W ( <> ( ( m ) /\ ( [] ( p ) ) ) ) ) | ( X ( ( h ) /\ ( m ) ) ) | ( ( ( [] ( h ) ) /\ ( p ) ) U ( ( h ) W ( <> ( ( m ) /\ ( X ( p ) ) ) ) ) ) | ( ( h ) W ( ( m ) /\ ( X ( p ) ) ) ) | ( X ( ( h ) W ( <> ( ( m ) /\ ( X ( p ) ) ) ) ) ) | ( ( ( h ) W ( <> ( ( m ) /\ ( X ( p ) ) ) ) ) W ( [] ( ( h ) /\ ( ! ( p ) ) ) ) ) | ( [] ( ( h ) W ( <> ( ( m ) /\ ( X ( p ) ) ) ) ) ) | ( <> ( ( h ) /\ ( m ) ) ) | ( ( X ( ( h ) /\ ( m ) ) ) U ( X ( ( h ) /\ ( m ) ) ) ) | ( X ( X ( ( h ) /\ ( m ) ) ) ) | ( ( ( h ) W ( <> ( ( m ) /\ ( X ( p ) ) ) ) ) /\ ( ( h ) W ( <> ( ( m ) /\ ( [] ( p ) ) ) ) ) ) | ( <> ( X ( ( h ) /\ ( m ) ) ) ) | ( ( ( h ) /\ ( m ) ) \/ ( ( h ) /\ ( m ) ) ) | ( ( ( h ) /\ ( m ) ) /\ ( ( ( h ) /\ ( m ) ) \/ ( ( h ) /\ ( m ) ) ) ) | ( ( ( h ) /\ ( m ) ) U ( ( h ) /\ ( m ) ) ) | ( ( m ) /\ ( h ) ) | ( ( ( h ) /\ ( m ) ) /\ ( m ) ) | ( ( h ) /\ ( ( h ) /\ ( m ) ) ) | 
Generation Time :0
Accumulated Learning Time :7
CALLs: 22    TIMEOUTs: 0    ERRORs: 0
REEVALUATIONS: 1770 OF 2987

GENERATION 38/50
......m.m.<;....m.m.<;....m.m.<;....m.m.<;....m.m.<;...i.m.m.<;...i.m.m.<;...i.m.m.<;
Fittest value: 2.8333333333333335 for chromosome ( ( h ) /\ ( m ) )
Solutions (20): ( ( h ) W ( <> ( ( m ) /\ ( X ( p ) ) ) ) ) | ( ( h ) /\ ( m ) ) | ( ( h ) W ( <> ( ( m ) /\ ( [] ( p ) ) ) ) ) | ( X ( ( h ) /\ ( m ) ) ) | ( ( ( [] ( h ) ) /\ ( p ) ) U ( ( h ) W ( <> ( ( m ) /\ ( X ( p ) ) ) ) ) ) | ( ( h ) W ( ( m ) /\ ( X ( p ) ) ) ) | ( X ( ( h ) W ( <> ( ( m ) /\ ( X ( p ) ) ) ) ) ) | ( ( ( h ) W ( <> ( ( m ) /\ ( X ( p ) ) ) ) ) W ( [] ( ( h ) /\ ( ! ( p ) ) ) ) ) | ( [] ( ( h ) W ( <> ( ( m ) /\ ( X ( p ) ) ) ) ) ) | ( <> ( ( h ) /\ ( m ) ) ) | ( ( X ( ( h ) /\ ( m ) ) ) U ( X ( ( h ) /\ ( m ) ) ) ) | ( X ( X ( ( h ) /\ ( m ) ) ) ) | ( ( ( h ) W ( <> ( ( m ) /\ ( X ( p ) ) ) ) ) /\ ( ( h ) W ( <> ( ( m ) /\ ( [] ( p ) ) ) ) ) ) | ( <> ( X ( ( h ) /\ ( m ) ) ) ) | ( ( ( h ) /\ ( m ) ) \/ ( ( h ) /\ ( m ) ) ) | ( ( ( h ) /\ ( m ) ) /\ ( ( ( h ) /\ ( m ) ) \/ ( ( h ) /\ ( m ) ) ) ) | ( ( ( h ) /\ ( m ) ) U ( ( h ) /\ ( m ) ) ) | ( ( m ) /\ ( h ) ) | ( ( ( h ) /\ ( m ) ) /\ ( m ) ) | ( ( h ) /\ ( ( h ) /\ ( m ) ) ) | 
Generation Time :0
Accumulated Learning Time :7
CALLs: 50    TIMEOUTs: 0    ERRORs: 0
REEVALUATIONS: 1848 OF 3074

GENERATION 39/50
....m.m.<;....m.m.<;....m.m.<;....m.m.<;..
Fittest value: 2.8333333333333335 for chromosome ( ( h ) /\ ( m ) )
Solutions (20): ( ( h ) W ( <> ( ( m ) /\ ( X ( p ) ) ) ) ) | ( ( h ) /\ ( m ) ) | ( ( h ) W ( <> ( ( m ) /\ ( [] ( p ) ) ) ) ) | ( X ( ( h ) /\ ( m ) ) ) | ( ( ( [] ( h ) ) /\ ( p ) ) U ( ( h ) W ( <> ( ( m ) /\ ( X ( p ) ) ) ) ) ) | ( ( h ) W ( ( m ) /\ ( X ( p ) ) ) ) | ( X ( ( h ) W ( <> ( ( m ) /\ ( X ( p ) ) ) ) ) ) | ( ( ( h ) W ( <> ( ( m ) /\ ( X ( p ) ) ) ) ) W ( [] ( ( h ) /\ ( ! ( p ) ) ) ) ) | ( [] ( ( h ) W ( <> ( ( m ) /\ ( X ( p ) ) ) ) ) ) | ( <> ( ( h ) /\ ( m ) ) ) | ( ( X ( ( h ) /\ ( m ) ) ) U ( X ( ( h ) /\ ( m ) ) ) ) | ( X ( X ( ( h ) /\ ( m ) ) ) ) | ( ( ( h ) W ( <> ( ( m ) /\ ( X ( p ) ) ) ) ) /\ ( ( h ) W ( <> ( ( m ) /\ ( [] ( p ) ) ) ) ) ) | ( <> ( X ( ( h ) /\ ( m ) ) ) ) | ( ( ( h ) /\ ( m ) ) \/ ( ( h ) /\ ( m ) ) ) | ( ( ( h ) /\ ( m ) ) /\ ( ( ( h ) /\ ( m ) ) \/ ( ( h ) /\ ( m ) ) ) ) | ( ( ( h ) /\ ( m ) ) U ( ( h ) /\ ( m ) ) ) | ( ( m ) /\ ( h ) ) | ( ( ( h ) /\ ( m ) ) /\ ( m ) ) | ( ( h ) /\ ( ( h ) /\ ( m ) ) ) | 
Generation Time :0
Accumulated Learning Time :7
CALLs: 26    TIMEOUTs: 0    ERRORs: 0
REEVALUATIONS: 1926 OF 3157

GENERATION 40/50
.....m.m.<;.....m.m.<;....m.m.<;....m.m.<;..
Fittest value: 2.8333333333333335 for chromosome ( ( h ) /\ ( m ) )
Solutions (20): ( ( h ) W ( <> ( ( m ) /\ ( X ( p ) ) ) ) ) | ( ( h ) /\ ( m ) ) | ( ( h ) W ( <> ( ( m ) /\ ( [] ( p ) ) ) ) ) | ( X ( ( h ) /\ ( m ) ) ) | ( ( ( [] ( h ) ) /\ ( p ) ) U ( ( h ) W ( <> ( ( m ) /\ ( X ( p ) ) ) ) ) ) | ( ( h ) W ( ( m ) /\ ( X ( p ) ) ) ) | ( X ( ( h ) W ( <> ( ( m ) /\ ( X ( p ) ) ) ) ) ) | ( ( ( h ) W ( <> ( ( m ) /\ ( X ( p ) ) ) ) ) W ( [] ( ( h ) /\ ( ! ( p ) ) ) ) ) | ( [] ( ( h ) W ( <> ( ( m ) /\ ( X ( p ) ) ) ) ) ) | ( <> ( ( h ) /\ ( m ) ) ) | ( ( X ( ( h ) /\ ( m ) ) ) U ( X ( ( h ) /\ ( m ) ) ) ) | ( X ( X ( ( h ) /\ ( m ) ) ) ) | ( ( ( h ) W ( <> ( ( m ) /\ ( X ( p ) ) ) ) ) /\ ( ( h ) W ( <> ( ( m ) /\ ( [] ( p ) ) ) ) ) ) | ( <> ( X ( ( h ) /\ ( m ) ) ) ) | ( ( ( h ) /\ ( m ) ) \/ ( ( h ) /\ ( m ) ) ) | ( ( ( h ) /\ ( m ) ) /\ ( ( ( h ) /\ ( m ) ) \/ ( ( h ) /\ ( m ) ) ) ) | ( ( ( h ) /\ ( m ) ) U ( ( h ) /\ ( m ) ) ) | ( ( m ) /\ ( h ) ) | ( ( ( h ) /\ ( m ) ) /\ ( m ) ) | ( ( h ) /\ ( ( h ) /\ ( m ) ) ) | 
Generation Time :0
Accumulated Learning Time :7
CALLs: 28    TIMEOUTs: 0    ERRORs: 0
REEVALUATIONS: 2006 OF 3244

GENERATION 41/50
....m.m.<;....m.m.<;....m.m.<;
Fittest value: 2.8333333333333335 for chromosome ( ( h ) /\ ( m ) )
Solutions (20): ( ( h ) W ( <> ( ( m ) /\ ( X ( p ) ) ) ) ) | ( ( h ) /\ ( m ) ) | ( ( h ) W ( <> ( ( m ) /\ ( [] ( p ) ) ) ) ) | ( X ( ( h ) /\ ( m ) ) ) | ( ( ( [] ( h ) ) /\ ( p ) ) U ( ( h ) W ( <> ( ( m ) /\ ( X ( p ) ) ) ) ) ) | ( ( h ) W ( ( m ) /\ ( X ( p ) ) ) ) | ( X ( ( h ) W ( <> ( ( m ) /\ ( X ( p ) ) ) ) ) ) | ( ( ( h ) W ( <> ( ( m ) /\ ( X ( p ) ) ) ) ) W ( [] ( ( h ) /\ ( ! ( p ) ) ) ) ) | ( [] ( ( h ) W ( <> ( ( m ) /\ ( X ( p ) ) ) ) ) ) | ( <> ( ( h ) /\ ( m ) ) ) | ( ( X ( ( h ) /\ ( m ) ) ) U ( X ( ( h ) /\ ( m ) ) ) ) | ( X ( X ( ( h ) /\ ( m ) ) ) ) | ( ( ( h ) W ( <> ( ( m ) /\ ( X ( p ) ) ) ) ) /\ ( ( h ) W ( <> ( ( m ) /\ ( [] ( p ) ) ) ) ) ) | ( <> ( X ( ( h ) /\ ( m ) ) ) ) | ( ( ( h ) /\ ( m ) ) \/ ( ( h ) /\ ( m ) ) ) | ( ( ( h ) /\ ( m ) ) /\ ( ( ( h ) /\ ( m ) ) \/ ( ( h ) /\ ( m ) ) ) ) | ( ( ( h ) /\ ( m ) ) U ( ( h ) /\ ( m ) ) ) | ( ( m ) /\ ( h ) ) | ( ( ( h ) /\ ( m ) ) /\ ( m ) ) | ( ( h ) /\ ( ( h ) /\ ( m ) ) ) | 
Generation Time :0
Accumulated Learning Time :7
CALLs: 18    TIMEOUTs: 0    ERRORs: 0
REEVALUATIONS: 2085 OF 3326

GENERATION 42/50
......m.m.<;....
Fittest value: 2.8333333333333335 for chromosome ( ( h ) /\ ( m ) )
Solutions (20): ( ( h ) W ( <> ( ( m ) /\ ( X ( p ) ) ) ) ) | ( ( h ) /\ ( m ) ) | ( ( h ) W ( <> ( ( m ) /\ ( [] ( p ) ) ) ) ) | ( X ( ( h ) /\ ( m ) ) ) | ( ( ( [] ( h ) ) /\ ( p ) ) U ( ( h ) W ( <> ( ( m ) /\ ( X ( p ) ) ) ) ) ) | ( ( h ) W ( ( m ) /\ ( X ( p ) ) ) ) | ( X ( ( h ) W ( <> ( ( m ) /\ ( X ( p ) ) ) ) ) ) | ( ( ( h ) W ( <> ( ( m ) /\ ( X ( p ) ) ) ) ) W ( [] ( ( h ) /\ ( ! ( p ) ) ) ) ) | ( [] ( ( h ) W ( <> ( ( m ) /\ ( X ( p ) ) ) ) ) ) | ( <> ( ( h ) /\ ( m ) ) ) | ( ( X ( ( h ) /\ ( m ) ) ) U ( X ( ( h ) /\ ( m ) ) ) ) | ( X ( X ( ( h ) /\ ( m ) ) ) ) | ( ( ( h ) W ( <> ( ( m ) /\ ( X ( p ) ) ) ) ) /\ ( ( h ) W ( <> ( ( m ) /\ ( [] ( p ) ) ) ) ) ) | ( <> ( X ( ( h ) /\ ( m ) ) ) ) | ( ( ( h ) /\ ( m ) ) \/ ( ( h ) /\ ( m ) ) ) | ( ( ( h ) /\ ( m ) ) /\ ( ( ( h ) /\ ( m ) ) \/ ( ( h ) /\ ( m ) ) ) ) | ( ( ( h ) /\ ( m ) ) U ( ( h ) /\ ( m ) ) ) | ( ( m ) /\ ( h ) ) | ( ( ( h ) /\ ( m ) ) /\ ( m ) ) | ( ( h ) /\ ( ( h ) /\ ( m ) ) ) | 
Generation Time :0
Accumulated Learning Time :7
CALLs: 12    TIMEOUTs: 0    ERRORs: 0
REEVALUATIONS: 2161 OF 3406

GENERATION 43/50
.....m.m.<;....m.m.<;......m.m.<;....m.m.<;
Fittest value: 2.8333333333333335 for chromosome ( ( h ) /\ ( m ) )
Solutions (20): ( ( h ) W ( <> ( ( m ) /\ ( X ( p ) ) ) ) ) | ( ( h ) /\ ( m ) ) | ( ( h ) W ( <> ( ( m ) /\ ( [] ( p ) ) ) ) ) | ( X ( ( h ) /\ ( m ) ) ) | ( ( ( [] ( h ) ) /\ ( p ) ) U ( ( h ) W ( <> ( ( m ) /\ ( X ( p ) ) ) ) ) ) | ( ( h ) W ( ( m ) /\ ( X ( p ) ) ) ) | ( X ( ( h ) W ( <> ( ( m ) /\ ( X ( p ) ) ) ) ) ) | ( ( ( h ) W ( <> ( ( m ) /\ ( X ( p ) ) ) ) ) W ( [] ( ( h ) /\ ( ! ( p ) ) ) ) ) | ( [] ( ( h ) W ( <> ( ( m ) /\ ( X ( p ) ) ) ) ) ) | ( <> ( ( h ) /\ ( m ) ) ) | ( ( X ( ( h ) /\ ( m ) ) ) U ( X ( ( h ) /\ ( m ) ) ) ) | ( X ( X ( ( h ) /\ ( m ) ) ) ) | ( ( ( h ) W ( <> ( ( m ) /\ ( X ( p ) ) ) ) ) /\ ( ( h ) W ( <> ( ( m ) /\ ( [] ( p ) ) ) ) ) ) | ( <> ( X ( ( h ) /\ ( m ) ) ) ) | ( ( ( h ) /\ ( m ) ) \/ ( ( h ) /\ ( m ) ) ) | ( ( ( h ) /\ ( m ) ) /\ ( ( ( h ) /\ ( m ) ) \/ ( ( h ) /\ ( m ) ) ) ) | ( ( ( h ) /\ ( m ) ) U ( ( h ) /\ ( m ) ) ) | ( ( m ) /\ ( h ) ) | ( ( ( h ) /\ ( m ) ) /\ ( m ) ) | ( ( h ) /\ ( ( h ) /\ ( m ) ) ) | 
Generation Time :0
Accumulated Learning Time :7
CALLs: 27    TIMEOUTs: 0    ERRORs: 0
REEVALUATIONS: 2235 OF 3486

GENERATION 44/50
...i.m.m.<;
Fittest value: 2.8333333333333335 for chromosome ( ( h ) /\ ( m ) )
Solutions (20): ( ( h ) W ( <> ( ( m ) /\ ( X ( p ) ) ) ) ) | ( ( h ) /\ ( m ) ) | ( ( h ) W ( <> ( ( m ) /\ ( [] ( p ) ) ) ) ) | ( X ( ( h ) /\ ( m ) ) ) | ( ( ( [] ( h ) ) /\ ( p ) ) U ( ( h ) W ( <> ( ( m ) /\ ( X ( p ) ) ) ) ) ) | ( ( h ) W ( ( m ) /\ ( X ( p ) ) ) ) | ( X ( ( h ) W ( <> ( ( m ) /\ ( X ( p ) ) ) ) ) ) | ( ( ( h ) W ( <> ( ( m ) /\ ( X ( p ) ) ) ) ) W ( [] ( ( h ) /\ ( ! ( p ) ) ) ) ) | ( [] ( ( h ) W ( <> ( ( m ) /\ ( X ( p ) ) ) ) ) ) | ( <> ( ( h ) /\ ( m ) ) ) | ( ( X ( ( h ) /\ ( m ) ) ) U ( X ( ( h ) /\ ( m ) ) ) ) | ( X ( X ( ( h ) /\ ( m ) ) ) ) | ( ( ( h ) W ( <> ( ( m ) /\ ( X ( p ) ) ) ) ) /\ ( ( h ) W ( <> ( ( m ) /\ ( [] ( p ) ) ) ) ) ) | ( <> ( X ( ( h ) /\ ( m ) ) ) ) | ( ( ( h ) /\ ( m ) ) \/ ( ( h ) /\ ( m ) ) ) | ( ( ( h ) /\ ( m ) ) /\ ( ( ( h ) /\ ( m ) ) \/ ( ( h ) /\ ( m ) ) ) ) | ( ( ( h ) /\ ( m ) ) U ( ( h ) /\ ( m ) ) ) | ( ( m ) /\ ( h ) ) | ( ( ( h ) /\ ( m ) ) /\ ( m ) ) | ( ( h ) /\ ( ( h ) /\ ( m ) ) ) | 
Generation Time :0
Accumulated Learning Time :7
CALLs: 6    TIMEOUTs: 0    ERRORs: 0
REEVALUATIONS: 2314 OF 3566

GENERATION 45/50
....m.m.<;..
Fittest value: 2.8333333333333335 for chromosome ( ( h ) /\ ( m ) )
Solutions (20): ( ( h ) W ( <> ( ( m ) /\ ( X ( p ) ) ) ) ) | ( ( h ) /\ ( m ) ) | ( ( h ) W ( <> ( ( m ) /\ ( [] ( p ) ) ) ) ) | ( X ( ( h ) /\ ( m ) ) ) | ( ( ( [] ( h ) ) /\ ( p ) ) U ( ( h ) W ( <> ( ( m ) /\ ( X ( p ) ) ) ) ) ) | ( ( h ) W ( ( m ) /\ ( X ( p ) ) ) ) | ( X ( ( h ) W ( <> ( ( m ) /\ ( X ( p ) ) ) ) ) ) | ( ( ( h ) W ( <> ( ( m ) /\ ( X ( p ) ) ) ) ) W ( [] ( ( h ) /\ ( ! ( p ) ) ) ) ) | ( [] ( ( h ) W ( <> ( ( m ) /\ ( X ( p ) ) ) ) ) ) | ( <> ( ( h ) /\ ( m ) ) ) | ( ( X ( ( h ) /\ ( m ) ) ) U ( X ( ( h ) /\ ( m ) ) ) ) | ( X ( X ( ( h ) /\ ( m ) ) ) ) | ( ( ( h ) W ( <> ( ( m ) /\ ( X ( p ) ) ) ) ) /\ ( ( h ) W ( <> ( ( m ) /\ ( [] ( p ) ) ) ) ) ) | ( <> ( X ( ( h ) /\ ( m ) ) ) ) | ( ( ( h ) /\ ( m ) ) \/ ( ( h ) /\ ( m ) ) ) | ( ( ( h ) /\ ( m ) ) /\ ( ( ( h ) /\ ( m ) ) \/ ( ( h ) /\ ( m ) ) ) ) | ( ( ( h ) /\ ( m ) ) U ( ( h ) /\ ( m ) ) ) | ( ( m ) /\ ( h ) ) | ( ( ( h ) /\ ( m ) ) /\ ( m ) ) | ( ( h ) /\ ( ( h ) /\ ( m ) ) ) | 
Generation Time :0
Accumulated Learning Time :7
CALLs: 8    TIMEOUTs: 0    ERRORs: 0
REEVALUATIONS: 2396 OF 3650

GENERATION 46/50
....m.m.<;
Fittest value: 2.8333333333333335 for chromosome ( ( h ) /\ ( m ) )
Solutions (20): ( ( h ) W ( <> ( ( m ) /\ ( X ( p ) ) ) ) ) | ( ( h ) /\ ( m ) ) | ( ( h ) W ( <> ( ( m ) /\ ( [] ( p ) ) ) ) ) | ( X ( ( h ) /\ ( m ) ) ) | ( ( ( [] ( h ) ) /\ ( p ) ) U ( ( h ) W ( <> ( ( m ) /\ ( X ( p ) ) ) ) ) ) | ( ( h ) W ( ( m ) /\ ( X ( p ) ) ) ) | ( X ( ( h ) W ( <> ( ( m ) /\ ( X ( p ) ) ) ) ) ) | ( ( ( h ) W ( <> ( ( m ) /\ ( X ( p ) ) ) ) ) W ( [] ( ( h ) /\ ( ! ( p ) ) ) ) ) | ( [] ( ( h ) W ( <> ( ( m ) /\ ( X ( p ) ) ) ) ) ) | ( <> ( ( h ) /\ ( m ) ) ) | ( ( X ( ( h ) /\ ( m ) ) ) U ( X ( ( h ) /\ ( m ) ) ) ) | ( X ( X ( ( h ) /\ ( m ) ) ) ) | ( ( ( h ) W ( <> ( ( m ) /\ ( X ( p ) ) ) ) ) /\ ( ( h ) W ( <> ( ( m ) /\ ( [] ( p ) ) ) ) ) ) | ( <> ( X ( ( h ) /\ ( m ) ) ) ) | ( ( ( h ) /\ ( m ) ) \/ ( ( h ) /\ ( m ) ) ) | ( ( ( h ) /\ ( m ) ) /\ ( ( ( h ) /\ ( m ) ) \/ ( ( h ) /\ ( m ) ) ) ) | ( ( ( h ) /\ ( m ) ) U ( ( h ) /\ ( m ) ) ) | ( ( m ) /\ ( h ) ) | ( ( ( h ) /\ ( m ) ) /\ ( m ) ) | ( ( h ) /\ ( ( h ) /\ ( m ) ) ) | 
Generation Time :0
Accumulated Learning Time :7
CALLs: 6    TIMEOUTs: 0    ERRORs: 0
REEVALUATIONS: 2480 OF 3735

GENERATION 47/50
....m.m.<;
Fittest value: 2.8333333333333335 for chromosome ( ( h ) /\ ( m ) )
Solutions (20): ( ( h ) W ( <> ( ( m ) /\ ( X ( p ) ) ) ) ) | ( ( h ) /\ ( m ) ) | ( ( h ) W ( <> ( ( m ) /\ ( [] ( p ) ) ) ) ) | ( X ( ( h ) /\ ( m ) ) ) | ( ( ( [] ( h ) ) /\ ( p ) ) U ( ( h ) W ( <> ( ( m ) /\ ( X ( p ) ) ) ) ) ) | ( ( h ) W ( ( m ) /\ ( X ( p ) ) ) ) | ( X ( ( h ) W ( <> ( ( m ) /\ ( X ( p ) ) ) ) ) ) | ( ( ( h ) W ( <> ( ( m ) /\ ( X ( p ) ) ) ) ) W ( [] ( ( h ) /\ ( ! ( p ) ) ) ) ) | ( [] ( ( h ) W ( <> ( ( m ) /\ ( X ( p ) ) ) ) ) ) | ( <> ( ( h ) /\ ( m ) ) ) | ( ( X ( ( h ) /\ ( m ) ) ) U ( X ( ( h ) /\ ( m ) ) ) ) | ( X ( X ( ( h ) /\ ( m ) ) ) ) | ( ( ( h ) W ( <> ( ( m ) /\ ( X ( p ) ) ) ) ) /\ ( ( h ) W ( <> ( ( m ) /\ ( [] ( p ) ) ) ) ) ) | ( <> ( X ( ( h ) /\ ( m ) ) ) ) | ( ( ( h ) /\ ( m ) ) \/ ( ( h ) /\ ( m ) ) ) | ( ( ( h ) /\ ( m ) ) /\ ( ( ( h ) /\ ( m ) ) \/ ( ( h ) /\ ( m ) ) ) ) | ( ( ( h ) /\ ( m ) ) U ( ( h ) /\ ( m ) ) ) | ( ( m ) /\ ( h ) ) | ( ( ( h ) /\ ( m ) ) /\ ( m ) ) | ( ( h ) /\ ( ( h ) /\ ( m ) ) ) | 
Generation Time :0
Accumulated Learning Time :7
CALLs: 6    TIMEOUTs: 0    ERRORs: 0
REEVALUATIONS: 2565 OF 3821

GENERATION 48/50
...
Fittest value: 2.8333333333333335 for chromosome ( ( h ) /\ ( m ) )
Solutions (20): ( ( h ) W ( <> ( ( m ) /\ ( X ( p ) ) ) ) ) | ( ( h ) /\ ( m ) ) | ( ( h ) W ( <> ( ( m ) /\ ( [] ( p ) ) ) ) ) | ( X ( ( h ) /\ ( m ) ) ) | ( ( ( [] ( h ) ) /\ ( p ) ) U ( ( h ) W ( <> ( ( m ) /\ ( X ( p ) ) ) ) ) ) | ( ( h ) W ( ( m ) /\ ( X ( p ) ) ) ) | ( X ( ( h ) W ( <> ( ( m ) /\ ( X ( p ) ) ) ) ) ) | ( ( ( h ) W ( <> ( ( m ) /\ ( X ( p ) ) ) ) ) W ( [] ( ( h ) /\ ( ! ( p ) ) ) ) ) | ( [] ( ( h ) W ( <> ( ( m ) /\ ( X ( p ) ) ) ) ) ) | ( <> ( ( h ) /\ ( m ) ) ) | ( ( X ( ( h ) /\ ( m ) ) ) U ( X ( ( h ) /\ ( m ) ) ) ) | ( X ( X ( ( h ) /\ ( m ) ) ) ) | ( ( ( h ) W ( <> ( ( m ) /\ ( X ( p ) ) ) ) ) /\ ( ( h ) W ( <> ( ( m ) /\ ( [] ( p ) ) ) ) ) ) | ( <> ( X ( ( h ) /\ ( m ) ) ) ) | ( ( ( h ) /\ ( m ) ) \/ ( ( h ) /\ ( m ) ) ) | ( ( ( h ) /\ ( m ) ) /\ ( ( ( h ) /\ ( m ) ) \/ ( ( h ) /\ ( m ) ) ) ) | ( ( ( h ) /\ ( m ) ) U ( ( h ) /\ ( m ) ) ) | ( ( m ) /\ ( h ) ) | ( ( ( h ) /\ ( m ) ) /\ ( m ) ) | ( ( h ) /\ ( ( h ) /\ ( m ) ) ) | 
Generation Time :0
Accumulated Learning Time :7
CALLs: 3    TIMEOUTs: 0    ERRORs: 0
REEVALUATIONS: 2644 OF 3903

GENERATION 49/50
....m.m.<;......m.m.<;
Fittest value: 2.8333333333333335 for chromosome ( ( h ) /\ ( m ) )
Solutions (20): ( ( h ) W ( <> ( ( m ) /\ ( X ( p ) ) ) ) ) | ( ( h ) /\ ( m ) ) | ( ( h ) W ( <> ( ( m ) /\ ( [] ( p ) ) ) ) ) | ( X ( ( h ) /\ ( m ) ) ) | ( ( ( [] ( h ) ) /\ ( p ) ) U ( ( h ) W ( <> ( ( m ) /\ ( X ( p ) ) ) ) ) ) | ( ( h ) W ( ( m ) /\ ( X ( p ) ) ) ) | ( X ( ( h ) W ( <> ( ( m ) /\ ( X ( p ) ) ) ) ) ) | ( ( ( h ) W ( <> ( ( m ) /\ ( X ( p ) ) ) ) ) W ( [] ( ( h ) /\ ( ! ( p ) ) ) ) ) | ( [] ( ( h ) W ( <> ( ( m ) /\ ( X ( p ) ) ) ) ) ) | ( <> ( ( h ) /\ ( m ) ) ) | ( ( X ( ( h ) /\ ( m ) ) ) U ( X ( ( h ) /\ ( m ) ) ) ) | ( X ( X ( ( h ) /\ ( m ) ) ) ) | ( ( ( h ) W ( <> ( ( m ) /\ ( X ( p ) ) ) ) ) /\ ( ( h ) W ( <> ( ( m ) /\ ( [] ( p ) ) ) ) ) ) | ( <> ( X ( ( h ) /\ ( m ) ) ) ) | ( ( ( h ) /\ ( m ) ) \/ ( ( h ) /\ ( m ) ) ) | ( ( ( h ) /\ ( m ) ) /\ ( ( ( h ) /\ ( m ) ) \/ ( ( h ) /\ ( m ) ) ) ) | ( ( ( h ) /\ ( m ) ) U ( ( h ) /\ ( m ) ) ) | ( ( m ) /\ ( h ) ) | ( ( ( h ) /\ ( m ) ) /\ ( m ) ) | ( ( h ) /\ ( ( h ) /\ ( m ) ) ) | 
Generation Time :0
Accumulated Learning Time :7
CALLs: 14    TIMEOUTs: 0    ERRORs: 0
REEVALUATIONS: 2728 OF 3991

GENERATION 50/50
....m.m.<;......m.m.<;....m.m.<;
Fittest value: 2.8333333333333335 for chromosome ( ( h ) /\ ( m ) )
Solutions (20): ( ( h ) W ( <> ( ( m ) /\ ( X ( p ) ) ) ) ) | ( ( h ) /\ ( m ) ) | ( ( h ) W ( <> ( ( m ) /\ ( [] ( p ) ) ) ) ) | ( X ( ( h ) /\ ( m ) ) ) | ( ( ( [] ( h ) ) /\ ( p ) ) U ( ( h ) W ( <> ( ( m ) /\ ( X ( p ) ) ) ) ) ) | ( ( h ) W ( ( m ) /\ ( X ( p ) ) ) ) | ( X ( ( h ) W ( <> ( ( m ) /\ ( X ( p ) ) ) ) ) ) | ( ( ( h ) W ( <> ( ( m ) /\ ( X ( p ) ) ) ) ) W ( [] ( ( h ) /\ ( ! ( p ) ) ) ) ) | ( [] ( ( h ) W ( <> ( ( m ) /\ ( X ( p ) ) ) ) ) ) | ( <> ( ( h ) /\ ( m ) ) ) | ( ( X ( ( h ) /\ ( m ) ) ) U ( X ( ( h ) /\ ( m ) ) ) ) | ( X ( X ( ( h ) /\ ( m ) ) ) ) | ( ( ( h ) W ( <> ( ( m ) /\ ( X ( p ) ) ) ) ) /\ ( ( h ) W ( <> ( ( m ) /\ ( [] ( p ) ) ) ) ) ) | ( <> ( X ( ( h ) /\ ( m ) ) ) ) | ( ( ( h ) /\ ( m ) ) \/ ( ( h ) /\ ( m ) ) ) | ( ( ( h ) /\ ( m ) ) /\ ( ( ( h ) /\ ( m ) ) \/ ( ( h ) /\ ( m ) ) ) ) | ( ( ( h ) /\ ( m ) ) U ( ( h ) /\ ( m ) ) ) | ( ( m ) /\ ( h ) ) | ( ( ( h ) /\ ( m ) ) /\ ( m ) ) | ( ( h ) /\ ( ( h ) /\ ( m ) ) ) | 
Generation Time :0
Accumulated Learning Time :7
CALLs: 20    TIMEOUTs: 0    ERRORs: 0
REEVALUATIONS: 2806 OF 4073


TOTAL Learing Time :7

Solutions: 20
( ( h ) W ( <> ( ( m ) /\ ( X ( p ) ) ) ) )
( ( h ) /\ ( m ) )
( ( h ) W ( <> ( ( m ) /\ ( [] ( p ) ) ) ) )
( X ( ( h ) /\ ( m ) ) )
( ( ( [] ( h ) ) /\ ( p ) ) U ( ( h ) W ( <> ( ( m ) /\ ( X ( p ) ) ) ) ) )
( ( h ) W ( ( m ) /\ ( X ( p ) ) ) )
( X ( ( h ) W ( <> ( ( m ) /\ ( X ( p ) ) ) ) ) )
( ( ( h ) W ( <> ( ( m ) /\ ( X ( p ) ) ) ) ) W ( [] ( ( h ) /\ ( ! ( p ) ) ) ) )
( [] ( ( h ) W ( <> ( ( m ) /\ ( X ( p ) ) ) ) ) )
( <> ( ( h ) /\ ( m ) ) )
( ( X ( ( h ) /\ ( m ) ) ) U ( X ( ( h ) /\ ( m ) ) ) )
( X ( X ( ( h ) /\ ( m ) ) ) )
( ( ( h ) W ( <> ( ( m ) /\ ( X ( p ) ) ) ) ) /\ ( ( h ) W ( <> ( ( m ) /\ ( [] ( p ) ) ) ) ) )
( <> ( X ( ( h ) /\ ( m ) ) ) )
( ( ( h ) /\ ( m ) ) \/ ( ( h ) /\ ( m ) ) )
( ( ( h ) /\ ( m ) ) /\ ( ( ( h ) /\ ( m ) ) \/ ( ( h ) /\ ( m ) ) ) )
( ( ( h ) /\ ( m ) ) U ( ( h ) /\ ( m ) ) )
( ( m ) /\ ( h ) )
( ( ( h ) /\ ( m ) ) /\ ( m ) )
( ( h ) /\ ( ( h ) /\ ( m ) ) )

...........................................................................................
Non Equivalent Solutions: 10
( ( h ) W ( <> ( ( m ) /\ ( X ( p ) ) ) ) )
( ( h ) /\ ( m ) )
( ( h ) W ( <> ( ( m ) /\ ( [] ( p ) ) ) ) )
( X ( ( h ) /\ ( m ) ) )
( ( h ) W ( ( m ) /\ ( X ( p ) ) ) )
( X ( ( h ) W ( <> ( ( m ) /\ ( X ( p ) ) ) ) ) )
( [] ( ( h ) W ( <> ( ( m ) /\ ( X ( p ) ) ) ) ) )
( <> ( ( h ) /\ ( m ) ) )
( X ( X ( ( h ) /\ ( m ) ) ) )
( <> ( X ( ( h ) /\ ( m ) ) ) )
............................................................
Weakest Solutions: 3
( ( h ) W ( <> ( ( m ) /\ ( X ( p ) ) ) ) )
( X ( ( h ) W ( <> ( ( m ) /\ ( X ( p ) ) ) ) ) )
( <> ( ( h ) /\ ( m ) ) )
TOTAL Time :7
CALLs: 6251    TIMEOUTs: 0    ERRORs: 0
CONFIGURATION
#Population: 100    #Iterations: 50    #ChromSize: 20
REEVALUATIONS: 2806 OF 4073
