DOM: [[]((p && X(p)) -> X(X(! h)))]
GOALS: [[](h -> X(p)), [](m -> X(! p))]
Initial population size: 34
Total population size: 100

GENERATION 1/50
....m.m.<;...i...<;....m.m.<;....m.m.<;....m.m.<;...i..m.<;....m.m.<;....m.m.<;....m.m.<;...i.m..<;....m.m.<;...i.m..<;....m.m.<;...i..m.<;....m.m.<;....m.m.<;....m.m.<;...i...<;....m.m.<;....m.m.<;....m.m.<;....m.m.<;....m.m.<;....m.m.<;....m.m.<;....m.m.<;.....m.m.<;........m.m.<;....m.m.<;....m.m.<;....m.m.<;....m.m.<;.........m.m.<;....m.m.<;...i.m..<;....m.m.<;....m.m.<;....m.m.<;....m.m.<;
Best fitness value: ( [] ( h ) ) 2.0
Generation Time :0
Accumulated Learning Time :0
CALLs: 244    TIMEOUTs: 0    ERRORs: 0
REEVALUATIONS: 26 OF 71

GENERATION 2/50
.....m.m.<;....m.m.<;...i.m..<;....m.m.<;.....m.m.<;......m.m.<;....m.m.<;....m.m.<;....m.m.<;......m.m.<;....m.m.<;....m.m.<;....m.m.<;....m.m.<;....m.m.<;....m.m.<;.....m.m.<;....m.m.<;......m.m.<;.....m.m.<;....m.m.<;...i.m..<;....m.m.<;....m.m.<;....m.m.<;....m.m.<;....m.m.<;....m.m.<;......m.m.<;....m.m.<;......m.m.<;....m.m.<;....m.m.<;...i.m..<;....m.m.<;....m.m.<;....m.m.<;....m.m.<;....m.m.<;....m.m.<;....m.m.<;....m.m.<;
Best fitness value: ( ( h ) /\ ( X ( ! ( p ) ) ) ) 2.0
Generation Time :0
Accumulated Learning Time :0
CALLs: 266    TIMEOUTs: 0    ERRORs: 0
REEVALUATIONS: 71 OF 167

GENERATION 3/50
...i.m..<;.....m.m.<;....m.m.<;....m.m.<;......m.m.<;....m.m.<;....m.m.<;....m.m.<;....m.m.<;......m.m.<;....m.m.<;....m.m.<;...i...<;....m.m.<;....m.m.<;.....m.m.<;....m.m.<;....m.m.<;....m.m.<;....m.m.<;....m.m.<;....m.m.<;....m.m.<;.....m.m.<;....m.m.<;....m.m.<;.....i.m..<;....m.m.<;....m.m.<;....m.m.<;....m.m.<;....m.m.<;....m.m.<;....m.m.<;....m.m.<;....m.m.<;....m.m.<;.....m.m.<;....m.m.<;....m.m.<;....m.m.<;
Best fitness value: ( [] ( h ) ) 2.0
Generation Time :0
Accumulated Learning Time :0
CALLs: 256    TIMEOUTs: 0    ERRORs: 0
REEVALUATIONS: 106 OF 251

GENERATION 4/50
....m.m.<;....m.m.<;...i.m..<;...i.m..<;...i.m..<;....m.m.<;...i.m..<;...i.m..<;....m.m.<;....m.m.<;....m.m.<;....m.m.<;....m.m.<;....m.m.<;....m.m.<;....m.m.<;....m.m.<;....m.m.<;....m.m.<;....m.m.<;.......m.m.<;....m.m.<;....m.m.<;.....m.m.<;....m.m.<;....m.m.<;......m.m.<;....m.m.<;....m.m.<;.........m.m.<;....m.m.<;....m.m.<;....m.m.<;....m.m.<;....m.m.<;....m.m.<;....i...<;....m.m.<;....m.m.<;....m.m.<;....m.m.<;....m.m.<;....m.m.<;
Best fitness value: ( ( h ) /\ ( X ( ! ( p ) ) ) ) 2.0
Generation Time :0
Accumulated Learning Time :1
CALLs: 270    TIMEOUTs: 0    ERRORs: 0
REEVALUATIONS: 131 OF 327

GENERATION 5/50
.......m.m.<;....m.m.<;....m.m.<;...i.m..<;.....m.m.<;.....m.m.<;....m.m.<;...i.m..<;......m.m.<;....m.m.<;....m.m.<;....m.m.<;....m.m.<;.......m.m.<;....m.m.<;....m.m.<;....m.m.<;......m.m.<;......m.m.<;.....m.m.<;....m.m.<;......m.m.<;....m.m.<;........m.m.<;....m.m.<;....m.m.<;....m.m.<;.....m.m.<;......m.m.<;....m.m.<;...i.m..<;...i.m..<;....m.m.<;....m.m.<;....m.m.<;...i.m..<;...i.m..<;...i.m..<;..
Best fitness value: ( [] ( h ) ) 2.0
Generation Time :0
Accumulated Learning Time :1
CALLs: 254    TIMEOUTs: 0    ERRORs: 0
REEVALUATIONS: 156 OF 407

GENERATION 6/50
.....m.m.<;....m.m.<;....m.m.<;....m.m.<;....m.m.<;...i.m..<;....m.m.<;...i.m..<;......m.m.<;...i.m..<;....m.m.<;...i.m..<;....m.m.<;....m.m.<;.......m.m.<;.....m.m.<;.....m.m.<;....m.m.<;....m.m.<;....m.m.<;....m.m.<;....m.m.<;......m.m.<;....m.m.<;....m.m.<;....m.m.<;....i.m..<;....m.m.<;....m.m.<;....i..m.<;....m.m.<;...i.m..<;....m.m.<;...i.m..<;...i.m..<;...i.m..<;
Best fitness value: ( ( h ) /\ ( X ( ! ( p ) ) ) ) 2.0
Generation Time :0
Accumulated Learning Time :1
CALLs: 228    TIMEOUTs: 0    ERRORs: 0
REEVALUATIONS: 183 OF 480

GENERATION 7/50
.........m.m.<;....m.m.<;....m.m.<;...i.m..<;.....m.m.<;......m.m.<;...i.m..<;......i.m..<;...i.m..<;....m.m.<;.....m.m.<;....m.m.<;....m.m.<;....m.m.<;....m.m.<;....m.m.<;...i.m..<;....m.m.<;....m.m.<;.....m.m.<;...i.m..<;......m.m.<;...i.m.m.<;........m.m.<;....m.m.<;....m.m.<;....m.m.<;....m.m.<;....m.m.<;....m.m.<;....m.m.<;....m.m.<;....m.m.<;...i..m.<;....m.m.<;.....m.m.<;...i.m.m.<;....m.m.<;.....m.m.<;....i.m..<;....m.m.<;...i.m..<;...i.m..<;....m.m.<;...i.m..<;...i.m..<;
Fittest value: 2.7 for chromosome ( ( h ) /\ ( m ) )
Solutions (2): ( ( h ) /\ ( m ) ) | ( <> ( ( h ) /\ ( m ) ) ) | 
Generation Time :0
Accumulated Learning Time :2
CALLs: 298    TIMEOUTs: 0    ERRORs: 0
REEVALUATIONS: 204 OF 562

GENERATION 8/50
....m.m.<;.....m.m.<;....m.m.<;...i.m..<;.........m.m.<;......m.m.<;.....m.m.<;.....m.m.<;...i.m..<;......m.m.<;....m.m.<;....m.m.<;.....m.m.<;....m.m.<;....m.m.<;....m.m.<;...i.m..<;....m.m.<;.....m.m.<;....i.m..<;....m.m.<;....m.m.<;...i.m..<;....m.m.<;....m.m.<;......m.m.<;....m.m.<;.....m.m.<;....m.m.<;....m.m.<;....m.m.<;....i.m.m.<;....i.m..<;...i.m..<;.....i.m..<;....m.m.<;....m.m.<;...i.m..<;...i.m..<;
Fittest value: 2.7 for chromosome ( ( h ) /\ ( m ) )
Solutions (2): ( ( h ) /\ ( m ) ) | ( <> ( ( h ) /\ ( m ) ) ) | 
Generation Time :0
Accumulated Learning Time :2
CALLs: 256    TIMEOUTs: 0    ERRORs: 0
REEVALUATIONS: 224 OF 638

GENERATION 9/50
....m.m.<;....m.m.<;...i.m.m.<;...i.m.m.<;....m.m.<;....m.m.<;...i.m..<;....m.m.<;....m.m.<;....m.m.<;....m.m.<;....m.m.<;...i.m..<;....m.m.<;....m.m.<;....m.m.<;....m.m.<;....m.m.<;.....m.m.<;...i.m..<;...i.m..<;....m.m.<;....m.m.<;....m.m.<;....m.m.<;...i.m..<;...i.m..<;....m.m.<;.......m.m.<;....m.m.<;....m.m.<;....m.m.<;....m.m.<;....m.m.<;.....m.m.<;.......m.m.<;......m.m.<;....m.m.<;....m.m.<;.....m.m.<;...i.m..<;....m.m.<;...i.m..<;.....i.m..<;...i.m.m.<;....m.m.<;....i.m..<;...i.m..<;....m.m.<;....m.m.<;
Fittest value: 2.7 for chromosome ( ( h ) /\ ( m ) )
Solutions (3): ( ( h ) /\ ( m ) ) | ( <> ( ( h ) /\ ( m ) ) ) | ( ( [] ( X ( ( h ) /\ ( X ( ! ( p ) ) ) ) ) ) \/ ( [] ( <> ( ( m ) /\ ( X ( p ) ) ) ) ) ) | 
Generation Time :0
Accumulated Learning Time :2
CALLs: 314    TIMEOUTs: 0    ERRORs: 0
REEVALUATIONS: 240 OF 714

GENERATION 10/50
.....m.m.<;.....m.m.<;.....m.m.<;....m.m.<;....m.m.<;....m.m.<;...i...<;....m.m.<;.....m.m.<;....i.m..<;..........m.m.<;.....m.m.<;....m.m.<;....m.m.<;...i.m..<;.....m.m.<;....m.m.<;...i.m..<;.....m.m.<;...i.m..<;....m.m.<;......m.m.<;.....m.m.<;....m.m.<;...i.m..<;....m.m.<;...i.m..<;....i.m..<;...i.m..<;....m.m.<;.....m.m.<;......m.m.<;....m.m.<;...i.m.m.<;...i.m..<;....m.m.<;...i.m..<;
Fittest value: 2.8333333333333335 for chromosome ( ( h ) /\ ( m ) )
Solutions (3): ( ( h ) /\ ( m ) ) | ( <> ( ( h ) /\ ( m ) ) ) | ( ( [] ( X ( ( h ) /\ ( X ( ! ( p ) ) ) ) ) ) \/ ( [] ( <> ( ( m ) /\ ( X ( p ) ) ) ) ) ) | 
Generation Time :0
Accumulated Learning Time :3
CALLs: 243    TIMEOUTs: 0    ERRORs: 0
REEVALUATIONS: 256 OF 784

GENERATION 11/50
....m.m.<;....m.m.<;....m.m.<;.......m.m.<;....m.m.<;....m.m.<;...i.m.m.<;.....m.m.<;....m.m.<;...i.m.m.<;....m.m.<;....i.m.m.<;...i.m..<;...i.m..<;....m.m.<;....m.m.<;....m.m.<;...i.m..<;....m.m.<;...i.m..<;....m.m.<;...i.m..<;....m.m.<;....m.m.<;...i.m..<;....i.m..<;....m.m.<;...i..m.<;......m.m.<;...i.m..<;....m.m.<;....m.m.<;....i.m..<;...i.m..<;.....m.m.<;...i.m..<;....m.m.<;...i.m..<;....m.m.<;....m.m.<;...i...<;....m.m.<;.....m.m.<;....m.m.<;....m.m.<;....m.m.<;....m.m.<;...i.m..<;....m.m.<;.....m.m.<;....m.m.<;....m.m.<;....m.m.<;...i.m.m.<;...i.m..<;...i.m.m.<;...i.m..<;....m.m.<;....m.m.<;
Fittest value: 2.8333333333333335 for chromosome ( ( h ) /\ ( m ) )
Solutions (5): ( ( h ) /\ ( m ) ) | ( <> ( ( h ) /\ ( m ) ) ) | ( ( [] ( X ( ( h ) /\ ( X ( ! ( p ) ) ) ) ) ) \/ ( [] ( <> ( ( m ) /\ ( X ( p ) ) ) ) ) ) | ( X ( ( h ) /\ ( m ) ) ) | ( ( [] ( h ) ) \/ ( ( h ) /\ ( m ) ) ) | 
Generation Time :0
Accumulated Learning Time :3
CALLs: 366    TIMEOUTs: 0    ERRORs: 0
REEVALUATIONS: 270 OF 867

GENERATION 12/50
.......i.m.m.<;....m.m.<;....m.m.<;......m.m.<;......i.m.m.<;...i.m..<;....m.m.<;......m.m.<;....m.m.<;......m.m.<;....m.m.<;.....i.m..<;....m.m.<;....m.m.<;......m.m.<;......m.m.<;....m.m.<;....m.m.<;.....m.m.<;....m.m.<;....m.m.<;....m.m.<;...i.m..<;....m.m.<;....m.m.<;....m.m.<;....m.m.<;....m.m.<;...i.m..<;....m.m.<;.....m.m.<;.......m.m.<;.....m.m.<;......m.m.<;....m.m.<;....i.m..<;....m.m.<;...i.m..<;
Fittest value: 2.8333333333333335 for chromosome ( ( h ) /\ ( m ) )
Solutions (5): ( ( h ) /\ ( m ) ) | ( <> ( ( h ) /\ ( m ) ) ) | ( ( [] ( X ( ( h ) /\ ( X ( ! ( p ) ) ) ) ) ) \/ ( [] ( <> ( ( m ) /\ ( X ( p ) ) ) ) ) ) | ( X ( ( h ) /\ ( m ) ) ) | ( ( [] ( h ) ) \/ ( ( h ) /\ ( m ) ) ) | 
Generation Time :0
Accumulated Learning Time :3
CALLs: 256    TIMEOUTs: 0    ERRORs: 0
REEVALUATIONS: 286 OF 942

GENERATION 13/50
....m.m.<;....m.m.<;....m.m.<;.....m.m.<;..........m.m.<;....m.m.<;....m.m.<;....m.m.<;.....i.m..<;....m.m.<;....m.m.<;....m.m.<;....m.m.<;.....m.m.<;....m.m.<;....m.m.<;.....i.m.m.<;....m.m.<;.....i.m.m.<;...i.m..<;....m.m.<;...i.m.m.<;....m.m.<;......m.m.<;...i.m..<;...i.m..<;...i.m..<;....m.m.<;...i.m..<;....m.m.<;....m.m.<;.....m.m.<;...i.m..<;...i.m..<;....i.m..<;....m.m.<;....m.m.<;...i.m..<;...i.m..<;....m.m.<;....m.m.<;....m.m.<;.....m.m.<;....m.m.<;...i.m.m.<;...i.m..<;...i.m.m.<;....m.m.<;
Fittest value: 2.8333333333333335 for chromosome ( ( h ) /\ ( m ) )
Solutions (6): ( ( h ) /\ ( m ) ) | ( <> ( ( h ) /\ ( m ) ) ) | ( ( [] ( X ( ( h ) /\ ( X ( ! ( p ) ) ) ) ) ) \/ ( [] ( <> ( ( m ) /\ ( X ( p ) ) ) ) ) ) | ( X ( ( h ) /\ ( m ) ) ) | ( ( [] ( h ) ) \/ ( ( h ) /\ ( m ) ) ) | ( [] ( <> ( ( h ) /\ ( m ) ) ) ) | 
Generation Time :0
Accumulated Learning Time :4
CALLs: 307    TIMEOUTs: 0    ERRORs: 0
REEVALUATIONS: 302 OF 1019

GENERATION 14/50
....m.m.<;......m.m.<;....m.m.<;.......m.m.<;......m.m.<;....m.m.<;....m.m.<;....m.m.<;....m.m.<;.....m.m.<;....m.m.<;....m.m.<;....m.m.<;....m.m.<;......m.m.<;......m.m.<;....m.m.<;....m.m.<;...i.m.m.<;......m.m.<;...i.m.m.<;....m.m.<;....m.m.<;......m.m.;....m.m.<;....m.m.<;....m.m.<;....m.m.<;....m.m.<;.....m.m.<;...i.m..<;....m.m.<;.....i.m..<;.....m.m.<;....m.m.<;....m.m.<;.......m.m.<;...i.m..<;...i.m.m.<;...i.m.m.<;
Fittest value: 2.8333333333333335 for chromosome ( ( h ) /\ ( m ) )
Solutions (8): ( ( h ) /\ ( m ) ) | ( <> ( ( h ) /\ ( m ) ) ) | ( ( [] ( X ( ( h ) /\ ( X ( ! ( p ) ) ) ) ) ) \/ ( [] ( <> ( ( m ) /\ ( X ( p ) ) ) ) ) ) | ( X ( ( h ) /\ ( m ) ) ) | ( ( [] ( h ) ) \/ ( ( h ) /\ ( m ) ) ) | ( [] ( <> ( ( h ) /\ ( m ) ) ) ) | ( ( ( h ) /\ ( m ) ) /\ ( m ) ) | ( ( ( h ) /\ ( m ) ) /\ ( <> ( ( h ) /\ ( m ) ) ) ) | 
Generation Time :0
Accumulated Learning Time :4
CALLs: 263    TIMEOUTs: 0    ERRORs: 0
REEVALUATIONS: 330 OF 1102

GENERATION 15/50
....m.m.<;....m.m.<;....m.m.<;....m.m.<;.....m.m.<;....m.m.<;....m.m.<;....m.m.<;....m.m.<;....m.m.<;....m.m.<;......m.m.<;....m.m.<;....m.m.<;...i.m..<;....m.m.<;......m.m.<;....m.m.<;....m.m.<;...i.m.m.<;....m.m.<;....i.m.m.<;....m.m.<;.....m.m.<;....m.m.<;....m.m.<;....m.m.<;...i.m.m.<;....m.m.<;....m.m.<;...i.m.m.<;...i.m.m.<;
Fittest value: 2.8333333333333335 for chromosome ( ( h ) /\ ( m ) )
Solutions (9): ( ( h ) /\ ( m ) ) | ( <> ( ( h ) /\ ( m ) ) ) | ( ( [] ( X ( ( h ) /\ ( X ( ! ( p ) ) ) ) ) ) \/ ( [] ( <> ( ( m ) /\ ( X ( p ) ) ) ) ) ) | ( X ( ( h ) /\ ( m ) ) ) | ( ( [] ( h ) ) \/ ( ( h ) /\ ( m ) ) ) | ( [] ( <> ( ( h ) /\ ( m ) ) ) ) | ( ( ( h ) /\ ( m ) ) /\ ( m ) ) | ( ( ( h ) /\ ( m ) ) /\ ( <> ( ( h ) /\ ( m ) ) ) ) | ( ( ( h ) /\ ( m ) ) U ( ( h ) /\ ( m ) ) ) | 
Generation Time :0
Accumulated Learning Time :4
CALLs: 199    TIMEOUTs: 0    ERRORs: 0
REEVALUATIONS: 373 OF 1183

GENERATION 16/50
......m.m.<;....m.m.<;....m.m.<;.....m.m.<;....m.m.<;.....m.m.<;.......m.m.<;...i.m.m.<;......m.m.<;....m.m.<;....m.m.<;....m.m.<;...i.m.m.<;......m.m.<;....m.m.<;....m.m.<;.....m.m.<;....m.m.<;....m.m.<;....m.m.<;.......i.m.m.<;...i.m.m.<;...i.m.m.<;
Fittest value: 2.8333333333333335 for chromosome ( ( h ) /\ ( m ) )
Solutions (11): ( ( h ) /\ ( m ) ) | ( <> ( ( h ) /\ ( m ) ) ) | ( ( [] ( X ( ( h ) /\ ( X ( ! ( p ) ) ) ) ) ) \/ ( [] ( <> ( ( m ) /\ ( X ( p ) ) ) ) ) ) | ( X ( ( h ) /\ ( m ) ) ) | ( ( [] ( h ) ) \/ ( ( h ) /\ ( m ) ) ) | ( [] ( <> ( ( h ) /\ ( m ) ) ) ) | ( ( ( h ) /\ ( m ) ) /\ ( m ) ) | ( ( ( h ) /\ ( m ) ) /\ ( <> ( ( h ) /\ ( m ) ) ) ) | ( ( ( h ) /\ ( m ) ) U ( ( h ) /\ ( m ) ) ) | ( ( ( h ) /\ ( m ) ) \/ ( ( h ) /\ ( m ) ) ) | ( X ( ( ( h ) /\ ( m ) ) U ( ( h ) /\ ( m ) ) ) ) | 
Generation Time :0
Accumulated Learning Time :5
CALLs: 154    TIMEOUTs: 0    ERRORs: 0
REEVALUATIONS: 420 OF 1265

GENERATION 17/50
....m.m.<;....m.m.<;....m.m.<;......m.m.<;.....m.m.<;....m.m.<;....m.m.<;....m.m.<;........m.m.<;....m.m.<;....m.m.<;....m.m.<;....m.m.<;....m.m.<;....m.m.<;....m.m.<;....m.m.<;...i.m.m.<;....m.m.<;....m.m.<;.....m.m.<;........m.m.<;....m.m.<;...i.m.m.<;...i.m.m.<;
Fittest value: 2.8333333333333335 for chromosome ( ( h ) /\ ( m ) )
Solutions (13): ( ( h ) /\ ( m ) ) | ( <> ( ( h ) /\ ( m ) ) ) | ( ( [] ( X ( ( h ) /\ ( X ( ! ( p ) ) ) ) ) ) \/ ( [] ( <> ( ( m ) /\ ( X ( p ) ) ) ) ) ) | ( X ( ( h ) /\ ( m ) ) ) | ( ( [] ( h ) ) \/ ( ( h ) /\ ( m ) ) ) | ( [] ( <> ( ( h ) /\ ( m ) ) ) ) | ( ( ( h ) /\ ( m ) ) /\ ( m ) ) | ( ( ( h ) /\ ( m ) ) /\ ( <> ( ( h ) /\ ( m ) ) ) ) | ( ( ( h ) /\ ( m ) ) U ( ( h ) /\ ( m ) ) ) | ( ( ( h ) /\ ( m ) ) \/ ( ( h ) /\ ( m ) ) ) | ( X ( ( ( h ) /\ ( m ) ) U ( ( h ) /\ ( m ) ) ) ) | ( X ( X ( ( h ) /\ ( m ) ) ) ) | ( ( ( h ) /\ ( m ) ) W ( <> ( ( h ) /\ ( m ) ) ) ) | 
Generation Time :0
Accumulated Learning Time :5
CALLs: 162    TIMEOUTs: 0    ERRORs: 0
REEVALUATIONS: 472 OF 1349

GENERATION 18/50
....m.m.<;....m.m.<;....m.m.<;....m.m.<;..........m.m.<;....m.m.<;....m.m.<;.....m.m.<;....i.m.m.<;....m.m.<;...i.m..<;....m.m.<;...i.m.m.<;...i.m.m.<;....m.m.<;...i.m..<;....m.m.<;....m.m.<;...i.m.m.<;
Fittest value: 2.8333333333333335 for chromosome ( ( h ) /\ ( m ) )
Solutions (14): ( ( h ) /\ ( m ) ) | ( <> ( ( h ) /\ ( m ) ) ) | ( ( [] ( X ( ( h ) /\ ( X ( ! ( p ) ) ) ) ) ) \/ ( [] ( <> ( ( m ) /\ ( X ( p ) ) ) ) ) ) | ( X ( ( h ) /\ ( m ) ) ) | ( ( [] ( h ) ) \/ ( ( h ) /\ ( m ) ) ) | ( [] ( <> ( ( h ) /\ ( m ) ) ) ) | ( ( ( h ) /\ ( m ) ) /\ ( m ) ) | ( ( ( h ) /\ ( m ) ) /\ ( <> ( ( h ) /\ ( m ) ) ) ) | ( ( ( h ) /\ ( m ) ) U ( ( h ) /\ ( m ) ) ) | ( ( ( h ) /\ ( m ) ) \/ ( ( h ) /\ ( m ) ) ) | ( X ( ( ( h ) /\ ( m ) ) U ( ( h ) /\ ( m ) ) ) ) | ( X ( X ( ( h ) /\ ( m ) ) ) ) | ( ( ( h ) /\ ( m ) ) W ( <> ( ( h ) /\ ( m ) ) ) ) | ( ( ( h ) /\ ( m ) ) /\ ( ( h ) /\ ( m ) ) ) | 
Generation Time :0
Accumulated Learning Time :5
CALLs: 122    TIMEOUTs: 0    ERRORs: 0
REEVALUATIONS: 532 OF 1433

GENERATION 19/50
....m.m.<;....m.m.<;...i.m.m.<;....m.m.<;....m.m.<;....m.m.<;....m.m.<;....m.m.<;......m.m.<;....m.m.<;....m.m.<;....m.m.<;....m.m.<;...i.m.m.<;
Fittest value: 2.8333333333333335 for chromosome ( ( h ) /\ ( m ) )
Solutions (15): ( ( h ) /\ ( m ) ) | ( <> ( ( h ) /\ ( m ) ) ) | ( ( [] ( X ( ( h ) /\ ( X ( ! ( p ) ) ) ) ) ) \/ ( [] ( <> ( ( m ) /\ ( X ( p ) ) ) ) ) ) | ( X ( ( h ) /\ ( m ) ) ) | ( ( [] ( h ) ) \/ ( ( h ) /\ ( m ) ) ) | ( [] ( <> ( ( h ) /\ ( m ) ) ) ) | ( ( ( h ) /\ ( m ) ) /\ ( m ) ) | ( ( ( h ) /\ ( m ) ) /\ ( <> ( ( h ) /\ ( m ) ) ) ) | ( ( ( h ) /\ ( m ) ) U ( ( h ) /\ ( m ) ) ) | ( ( ( h ) /\ ( m ) ) \/ ( ( h ) /\ ( m ) ) ) | ( X ( ( ( h ) /\ ( m ) ) U ( ( h ) /\ ( m ) ) ) ) | ( X ( X ( ( h ) /\ ( m ) ) ) ) | ( ( ( h ) /\ ( m ) ) W ( <> ( ( h ) /\ ( m ) ) ) ) | ( ( ( h ) /\ ( m ) ) /\ ( ( h ) /\ ( m ) ) ) | ( ( m ) /\ ( h ) ) | 
Generation Time :0
Accumulated Learning Time :5
CALLs: 86    TIMEOUTs: 0    ERRORs: 0
REEVALUATIONS: 595 OF 1511

GENERATION 20/50
.......m.m.<;....m.m.<;....m.m.<;....m.m.<;......m.m.<;......m.m.<;.
Fittest value: 2.8333333333333335 for chromosome ( ( h ) /\ ( m ) )
Solutions (15): ( ( h ) /\ ( m ) ) | ( <> ( ( h ) /\ ( m ) ) ) | ( ( [] ( X ( ( h ) /\ ( X ( ! ( p ) ) ) ) ) ) \/ ( [] ( <> ( ( m ) /\ ( X ( p ) ) ) ) ) ) | ( X ( ( h ) /\ ( m ) ) ) | ( ( [] ( h ) ) \/ ( ( h ) /\ ( m ) ) ) | ( [] ( <> ( ( h ) /\ ( m ) ) ) ) | ( ( ( h ) /\ ( m ) ) /\ ( m ) ) | ( ( ( h ) /\ ( m ) ) /\ ( <> ( ( h ) /\ ( m ) ) ) ) | ( ( ( h ) /\ ( m ) ) U ( ( h ) /\ ( m ) ) ) | ( ( ( h ) /\ ( m ) ) \/ ( ( h ) /\ ( m ) ) ) | ( X ( ( ( h ) /\ ( m ) ) U ( ( h ) /\ ( m ) ) ) ) | ( X ( X ( ( h ) /\ ( m ) ) ) ) | ( ( ( h ) /\ ( m ) ) W ( <> ( ( h ) /\ ( m ) ) ) ) | ( ( ( h ) /\ ( m ) ) /\ ( ( h ) /\ ( m ) ) ) | ( ( m ) /\ ( h ) ) | 
Generation Time :0
Accumulated Learning Time :5
CALLs: 44    TIMEOUTs: 0    ERRORs: 0
REEVALUATIONS: 669 OF 1596

GENERATION 21/50
....m.m.<;....m.m.<;....m.m.<;....m.m.<;....m.m.<;....m.m.<;......m.m.<;
Fittest value: 2.8333333333333335 for chromosome ( ( h ) /\ ( m ) )
Solutions (15): ( ( h ) /\ ( m ) ) | ( <> ( ( h ) /\ ( m ) ) ) | ( ( [] ( X ( ( h ) /\ ( X ( ! ( p ) ) ) ) ) ) \/ ( [] ( <> ( ( m ) /\ ( X ( p ) ) ) ) ) ) | ( X ( ( h ) /\ ( m ) ) ) | ( ( [] ( h ) ) \/ ( ( h ) /\ ( m ) ) ) | ( [] ( <> ( ( h ) /\ ( m ) ) ) ) | ( ( ( h ) /\ ( m ) ) /\ ( m ) ) | ( ( ( h ) /\ ( m ) ) /\ ( <> ( ( h ) /\ ( m ) ) ) ) | ( ( ( h ) /\ ( m ) ) U ( ( h ) /\ ( m ) ) ) | ( ( ( h ) /\ ( m ) ) \/ ( ( h ) /\ ( m ) ) ) | ( X ( ( ( h ) /\ ( m ) ) U ( ( h ) /\ ( m ) ) ) ) | ( X ( X ( ( h ) /\ ( m ) ) ) ) | ( ( ( h ) /\ ( m ) ) W ( <> ( ( h ) /\ ( m ) ) ) ) | ( ( ( h ) /\ ( m ) ) /\ ( ( h ) /\ ( m ) ) ) | ( ( m ) /\ ( h ) ) | 
Generation Time :0
Accumulated Learning Time :5
CALLs: 44    TIMEOUTs: 0    ERRORs: 0
REEVALUATIONS: 744 OF 1679

GENERATION 22/50
....m.m.<;......m.m.<;.....m.m.<;....m.m.<;.....m.m.<;....m.m.<;...i.m.m.<;....m.m.<;
Fittest value: 2.8333333333333335 for chromosome ( ( h ) /\ ( m ) )
Solutions (15): ( ( h ) /\ ( m ) ) | ( <> ( ( h ) /\ ( m ) ) ) | ( ( [] ( X ( ( h ) /\ ( X ( ! ( p ) ) ) ) ) ) \/ ( [] ( <> ( ( m ) /\ ( X ( p ) ) ) ) ) ) | ( X ( ( h ) /\ ( m ) ) ) | ( ( [] ( h ) ) \/ ( ( h ) /\ ( m ) ) ) | ( [] ( <> ( ( h ) /\ ( m ) ) ) ) | ( ( ( h ) /\ ( m ) ) /\ ( m ) ) | ( ( ( h ) /\ ( m ) ) /\ ( <> ( ( h ) /\ ( m ) ) ) ) | ( ( ( h ) /\ ( m ) ) U ( ( h ) /\ ( m ) ) ) | ( ( ( h ) /\ ( m ) ) \/ ( ( h ) /\ ( m ) ) ) | ( X ( ( ( h ) /\ ( m ) ) U ( ( h ) /\ ( m ) ) ) ) | ( X ( X ( ( h ) /\ ( m ) ) ) ) | ( ( ( h ) /\ ( m ) ) W ( <> ( ( h ) /\ ( m ) ) ) ) | ( ( ( h ) /\ ( m ) ) /\ ( ( h ) /\ ( m ) ) ) | ( ( m ) /\ ( h ) ) | 
Generation Time :0
Accumulated Learning Time :5
CALLs: 52    TIMEOUTs: 0    ERRORs: 0
REEVALUATIONS: 813 OF 1759

GENERATION 23/50
....m.m.<;....m.m.<;....m.m.<;....m.m.<;....m.m.<;....m.m.<;....m.m.<;....m.m.<;....m.m.<;....i.m.m.<;
Fittest value: 2.8333333333333335 for chromosome ( ( h ) /\ ( m ) )
Solutions (15): ( ( h ) /\ ( m ) ) | ( <> ( ( h ) /\ ( m ) ) ) | ( ( [] ( X ( ( h ) /\ ( X ( ! ( p ) ) ) ) ) ) \/ ( [] ( <> ( ( m ) /\ ( X ( p ) ) ) ) ) ) | ( X ( ( h ) /\ ( m ) ) ) | ( ( [] ( h ) ) \/ ( ( h ) /\ ( m ) ) ) | ( [] ( <> ( ( h ) /\ ( m ) ) ) ) | ( ( ( h ) /\ ( m ) ) /\ ( m ) ) | ( ( ( h ) /\ ( m ) ) /\ ( <> ( ( h ) /\ ( m ) ) ) ) | ( ( ( h ) /\ ( m ) ) U ( ( h ) /\ ( m ) ) ) | ( ( ( h ) /\ ( m ) ) \/ ( ( h ) /\ ( m ) ) ) | ( X ( ( ( h ) /\ ( m ) ) U ( ( h ) /\ ( m ) ) ) ) | ( X ( X ( ( h ) /\ ( m ) ) ) ) | ( ( ( h ) /\ ( m ) ) W ( <> ( ( h ) /\ ( m ) ) ) ) | ( ( ( h ) /\ ( m ) ) /\ ( ( h ) /\ ( m ) ) ) | ( ( m ) /\ ( h ) ) | 
Generation Time :0
Accumulated Learning Time :5
CALLs: 61    TIMEOUTs: 0    ERRORs: 0
REEVALUATIONS: 885 OF 1842

GENERATION 24/50
....m.m.<;....m.m.<;....m.m.<;.....m.m.<;....m.m.<;......m.m.<;...i.m.m.<;...i.m.m.<;...i.m..<;...i.m.m.<;
Fittest value: 2.8333333333333335 for chromosome ( ( h ) /\ ( m ) )
Solutions (15): ( ( h ) /\ ( m ) ) | ( <> ( ( h ) /\ ( m ) ) ) | ( ( [] ( X ( ( h ) /\ ( X ( ! ( p ) ) ) ) ) ) \/ ( [] ( <> ( ( m ) /\ ( X ( p ) ) ) ) ) ) | ( X ( ( h ) /\ ( m ) ) ) | ( ( [] ( h ) ) \/ ( ( h ) /\ ( m ) ) ) | ( [] ( <> ( ( h ) /\ ( m ) ) ) ) | ( ( ( h ) /\ ( m ) ) /\ ( m ) ) | ( ( ( h ) /\ ( m ) ) /\ ( <> ( ( h ) /\ ( m ) ) ) ) | ( ( ( h ) /\ ( m ) ) U ( ( h ) /\ ( m ) ) ) | ( ( ( h ) /\ ( m ) ) \/ ( ( h ) /\ ( m ) ) ) | ( X ( ( ( h ) /\ ( m ) ) U ( ( h ) /\ ( m ) ) ) ) | ( X ( X ( ( h ) /\ ( m ) ) ) ) | ( ( ( h ) /\ ( m ) ) W ( <> ( ( h ) /\ ( m ) ) ) ) | ( ( ( h ) /\ ( m ) ) /\ ( ( h ) /\ ( m ) ) ) | ( ( m ) /\ ( h ) ) | 
Generation Time :0
Accumulated Learning Time :5
CALLs: 63    TIMEOUTs: 0    ERRORs: 0
REEVALUATIONS: 954 OF 1923

GENERATION 25/50
......m.m.<;....m.m.<;.....m.m.<;......m.m.<;..
Fittest value: 2.8333333333333335 for chromosome ( ( h ) /\ ( m ) )
Solutions (15): ( ( h ) /\ ( m ) ) | ( <> ( ( h ) /\ ( m ) ) ) | ( ( [] ( X ( ( h ) /\ ( X ( ! ( p ) ) ) ) ) ) \/ ( [] ( <> ( ( m ) /\ ( X ( p ) ) ) ) ) ) | ( X ( ( h ) /\ ( m ) ) ) | ( ( [] ( h ) ) \/ ( ( h ) /\ ( m ) ) ) | ( [] ( <> ( ( h ) /\ ( m ) ) ) ) | ( ( ( h ) /\ ( m ) ) /\ ( m ) ) | ( ( ( h ) /\ ( m ) ) /\ ( <> ( ( h ) /\ ( m ) ) ) ) | ( ( ( h ) /\ ( m ) ) U ( ( h ) /\ ( m ) ) ) | ( ( ( h ) /\ ( m ) ) \/ ( ( h ) /\ ( m ) ) ) | ( X ( ( ( h ) /\ ( m ) ) U ( ( h ) /\ ( m ) ) ) ) | ( X ( X ( ( h ) /\ ( m ) ) ) ) | ( ( ( h ) /\ ( m ) ) W ( <> ( ( h ) /\ ( m ) ) ) ) | ( ( ( h ) /\ ( m ) ) /\ ( ( h ) /\ ( m ) ) ) | ( ( m ) /\ ( h ) ) | 
Generation Time :0
Accumulated Learning Time :6
CALLs: 31    TIMEOUTs: 0    ERRORs: 0
REEVALUATIONS: 1022 OF 1999

GENERATION 26/50
....m.m.<;....m.m.<;....m.m.<;....m.m.<;....
Fittest value: 2.8333333333333335 for chromosome ( ( h ) /\ ( m ) )
Solutions (15): ( ( h ) /\ ( m ) ) | ( <> ( ( h ) /\ ( m ) ) ) | ( ( [] ( X ( ( h ) /\ ( X ( ! ( p ) ) ) ) ) ) \/ ( [] ( <> ( ( m ) /\ ( X ( p ) ) ) ) ) ) | ( X ( ( h ) /\ ( m ) ) ) | ( ( [] ( h ) ) \/ ( ( h ) /\ ( m ) ) ) | ( [] ( <> ( ( h ) /\ ( m ) ) ) ) | ( ( ( h ) /\ ( m ) ) /\ ( m ) ) | ( ( ( h ) /\ ( m ) ) /\ ( <> ( ( h ) /\ ( m ) ) ) ) | ( ( ( h ) /\ ( m ) ) U ( ( h ) /\ ( m ) ) ) | ( ( ( h ) /\ ( m ) ) \/ ( ( h ) /\ ( m ) ) ) | ( X ( ( ( h ) /\ ( m ) ) U ( ( h ) /\ ( m ) ) ) ) | ( X ( X ( ( h ) /\ ( m ) ) ) ) | ( ( ( h ) /\ ( m ) ) W ( <> ( ( h ) /\ ( m ) ) ) ) | ( ( ( h ) /\ ( m ) ) /\ ( ( h ) /\ ( m ) ) ) | ( ( m ) /\ ( h ) ) | 
Generation Time :0
Accumulated Learning Time :6
CALLs: 28    TIMEOUTs: 0    ERRORs: 0
REEVALUATIONS: 1098 OF 2081

GENERATION 27/50
....m.m.<;....m.m.<;.......m.m.<;......m.m.<;....m.m.<;
Fittest value: 2.8333333333333335 for chromosome ( ( h ) /\ ( m ) )
Solutions (15): ( ( h ) /\ ( m ) ) | ( <> ( ( h ) /\ ( m ) ) ) | ( ( [] ( X ( ( h ) /\ ( X ( ! ( p ) ) ) ) ) ) \/ ( [] ( <> ( ( m ) /\ ( X ( p ) ) ) ) ) ) | ( X ( ( h ) /\ ( m ) ) ) | ( ( [] ( h ) ) \/ ( ( h ) /\ ( m ) ) ) | ( [] ( <> ( ( h ) /\ ( m ) ) ) ) | ( ( ( h ) /\ ( m ) ) /\ ( m ) ) | ( ( ( h ) /\ ( m ) ) /\ ( <> ( ( h ) /\ ( m ) ) ) ) | ( ( ( h ) /\ ( m ) ) U ( ( h ) /\ ( m ) ) ) | ( ( ( h ) /\ ( m ) ) \/ ( ( h ) /\ ( m ) ) ) | ( X ( ( ( h ) /\ ( m ) ) U ( ( h ) /\ ( m ) ) ) ) | ( X ( X ( ( h ) /\ ( m ) ) ) ) | ( ( ( h ) /\ ( m ) ) W ( <> ( ( h ) /\ ( m ) ) ) ) | ( ( ( h ) /\ ( m ) ) /\ ( ( h ) /\ ( m ) ) ) | ( ( m ) /\ ( h ) ) | 
Generation Time :0
Accumulated Learning Time :6
CALLs: 35    TIMEOUTs: 0    ERRORs: 0
REEVALUATIONS: 1172 OF 2163

GENERATION 28/50
....m.m.<;......m.m.<;....m.m.<;....m.m.<;...i.m.m.<;...i.m.m.<;
Fittest value: 2.8333333333333335 for chromosome ( ( h ) /\ ( m ) )
Solutions (15): ( ( h ) /\ ( m ) ) | ( <> ( ( h ) /\ ( m ) ) ) | ( ( [] ( X ( ( h ) /\ ( X ( ! ( p ) ) ) ) ) ) \/ ( [] ( <> ( ( m ) /\ ( X ( p ) ) ) ) ) ) | ( X ( ( h ) /\ ( m ) ) ) | ( ( [] ( h ) ) \/ ( ( h ) /\ ( m ) ) ) | ( [] ( <> ( ( h ) /\ ( m ) ) ) ) | ( ( ( h ) /\ ( m ) ) /\ ( m ) ) | ( ( ( h ) /\ ( m ) ) /\ ( <> ( ( h ) /\ ( m ) ) ) ) | ( ( ( h ) /\ ( m ) ) U ( ( h ) /\ ( m ) ) ) | ( ( ( h ) /\ ( m ) ) \/ ( ( h ) /\ ( m ) ) ) | ( X ( ( ( h ) /\ ( m ) ) U ( ( h ) /\ ( m ) ) ) ) | ( X ( X ( ( h ) /\ ( m ) ) ) ) | ( ( ( h ) /\ ( m ) ) W ( <> ( ( h ) /\ ( m ) ) ) ) | ( ( ( h ) /\ ( m ) ) /\ ( ( h ) /\ ( m ) ) ) | ( ( m ) /\ ( h ) ) | 
Generation Time :0
Accumulated Learning Time :6
CALLs: 38    TIMEOUTs: 0    ERRORs: 0
REEVALUATIONS: 1240 OF 2238

GENERATION 29/50
........m.m.<;....m.m.<;......m.m.<;....m.m.<;....m.m.<;....i.m.m.<;...i.m.m.<;
Fittest value: 2.8333333333333335 for chromosome ( ( h ) /\ ( m ) )
Solutions (15): ( ( h ) /\ ( m ) ) | ( <> ( ( h ) /\ ( m ) ) ) | ( ( [] ( X ( ( h ) /\ ( X ( ! ( p ) ) ) ) ) ) \/ ( [] ( <> ( ( m ) /\ ( X ( p ) ) ) ) ) ) | ( X ( ( h ) /\ ( m ) ) ) | ( ( [] ( h ) ) \/ ( ( h ) /\ ( m ) ) ) | ( [] ( <> ( ( h ) /\ ( m ) ) ) ) | ( ( ( h ) /\ ( m ) ) /\ ( m ) ) | ( ( ( h ) /\ ( m ) ) /\ ( <> ( ( h ) /\ ( m ) ) ) ) | ( ( ( h ) /\ ( m ) ) U ( ( h ) /\ ( m ) ) ) | ( ( ( h ) /\ ( m ) ) \/ ( ( h ) /\ ( m ) ) ) | ( X ( ( ( h ) /\ ( m ) ) U ( ( h ) /\ ( m ) ) ) ) | ( X ( X ( ( h ) /\ ( m ) ) ) ) | ( ( ( h ) /\ ( m ) ) W ( <> ( ( h ) /\ ( m ) ) ) ) | ( ( ( h ) /\ ( m ) ) /\ ( ( h ) /\ ( m ) ) ) | ( ( m ) /\ ( h ) ) | 
Generation Time :0
Accumulated Learning Time :6
CALLs: 49    TIMEOUTs: 0    ERRORs: 0
REEVALUATIONS: 1312 OF 2321

GENERATION 30/50
....m.m.<;.......i.m.m.<;
Fittest value: 2.8333333333333335 for chromosome ( ( h ) /\ ( m ) )
Solutions (15): ( ( h ) /\ ( m ) ) | ( <> ( ( h ) /\ ( m ) ) ) | ( ( [] ( X ( ( h ) /\ ( X ( ! ( p ) ) ) ) ) ) \/ ( [] ( <> ( ( m ) /\ ( X ( p ) ) ) ) ) ) | ( X ( ( h ) /\ ( m ) ) ) | ( ( [] ( h ) ) \/ ( ( h ) /\ ( m ) ) ) | ( [] ( <> ( ( h ) /\ ( m ) ) ) ) | ( ( ( h ) /\ ( m ) ) /\ ( m ) ) | ( ( ( h ) /\ ( m ) ) /\ ( <> ( ( h ) /\ ( m ) ) ) ) | ( ( ( h ) /\ ( m ) ) U ( ( h ) /\ ( m ) ) ) | ( ( ( h ) /\ ( m ) ) \/ ( ( h ) /\ ( m ) ) ) | ( X ( ( ( h ) /\ ( m ) ) U ( ( h ) /\ ( m ) ) ) ) | ( X ( X ( ( h ) /\ ( m ) ) ) ) | ( ( ( h ) /\ ( m ) ) W ( <> ( ( h ) /\ ( m ) ) ) ) | ( ( ( h ) /\ ( m ) ) /\ ( ( h ) /\ ( m ) ) ) | ( ( m ) /\ ( h ) ) | 
Generation Time :0
Accumulated Learning Time :6
CALLs: 16    TIMEOUTs: 0    ERRORs: 0
REEVALUATIONS: 1396 OF 2409

GENERATION 31/50
....m.m.<;...i.m.m.<;
Fittest value: 2.8333333333333335 for chromosome ( ( h ) /\ ( m ) )
Solutions (15): ( ( h ) /\ ( m ) ) | ( <> ( ( h ) /\ ( m ) ) ) | ( ( [] ( X ( ( h ) /\ ( X ( ! ( p ) ) ) ) ) ) \/ ( [] ( <> ( ( m ) /\ ( X ( p ) ) ) ) ) ) | ( X ( ( h ) /\ ( m ) ) ) | ( ( [] ( h ) ) \/ ( ( h ) /\ ( m ) ) ) | ( [] ( <> ( ( h ) /\ ( m ) ) ) ) | ( ( ( h ) /\ ( m ) ) /\ ( m ) ) | ( ( ( h ) /\ ( m ) ) /\ ( <> ( ( h ) /\ ( m ) ) ) ) | ( ( ( h ) /\ ( m ) ) U ( ( h ) /\ ( m ) ) ) | ( ( ( h ) /\ ( m ) ) \/ ( ( h ) /\ ( m ) ) ) | ( X ( ( ( h ) /\ ( m ) ) U ( ( h ) /\ ( m ) ) ) ) | ( X ( X ( ( h ) /\ ( m ) ) ) ) | ( ( ( h ) /\ ( m ) ) W ( <> ( ( h ) /\ ( m ) ) ) ) | ( ( ( h ) /\ ( m ) ) /\ ( ( h ) /\ ( m ) ) ) | ( ( m ) /\ ( h ) ) | 
Generation Time :0
Accumulated Learning Time :6
CALLs: 12    TIMEOUTs: 0    ERRORs: 0
REEVALUATIONS: 1476 OF 2491

GENERATION 32/50
.......m.m.<;.
Fittest value: 2.8333333333333335 for chromosome ( ( h ) /\ ( m ) )
Solutions (15): ( ( h ) /\ ( m ) ) | ( <> ( ( h ) /\ ( m ) ) ) | ( ( [] ( X ( ( h ) /\ ( X ( ! ( p ) ) ) ) ) ) \/ ( [] ( <> ( ( m ) /\ ( X ( p ) ) ) ) ) ) | ( X ( ( h ) /\ ( m ) ) ) | ( ( [] ( h ) ) \/ ( ( h ) /\ ( m ) ) ) | ( [] ( <> ( ( h ) /\ ( m ) ) ) ) | ( ( ( h ) /\ ( m ) ) /\ ( m ) ) | ( ( ( h ) /\ ( m ) ) /\ ( <> ( ( h ) /\ ( m ) ) ) ) | ( ( ( h ) /\ ( m ) ) U ( ( h ) /\ ( m ) ) ) | ( ( ( h ) /\ ( m ) ) \/ ( ( h ) /\ ( m ) ) ) | ( X ( ( ( h ) /\ ( m ) ) U ( ( h ) /\ ( m ) ) ) ) | ( X ( X ( ( h ) /\ ( m ) ) ) ) | ( ( ( h ) /\ ( m ) ) W ( <> ( ( h ) /\ ( m ) ) ) ) | ( ( ( h ) /\ ( m ) ) /\ ( ( h ) /\ ( m ) ) ) | ( ( m ) /\ ( h ) ) | 
Generation Time :0
Accumulated Learning Time :6
CALLs: 10    TIMEOUTs: 0    ERRORs: 0
REEVALUATIONS: 1551 OF 2570

GENERATION 33/50

Fittest value: 2.8333333333333335 for chromosome ( ( h ) /\ ( m ) )
Solutions (15): ( ( h ) /\ ( m ) ) | ( <> ( ( h ) /\ ( m ) ) ) | ( ( [] ( X ( ( h ) /\ ( X ( ! ( p ) ) ) ) ) ) \/ ( [] ( <> ( ( m ) /\ ( X ( p ) ) ) ) ) ) | ( X ( ( h ) /\ ( m ) ) ) | ( ( [] ( h ) ) \/ ( ( h ) /\ ( m ) ) ) | ( [] ( <> ( ( h ) /\ ( m ) ) ) ) | ( ( ( h ) /\ ( m ) ) /\ ( m ) ) | ( ( ( h ) /\ ( m ) ) /\ ( <> ( ( h ) /\ ( m ) ) ) ) | ( ( ( h ) /\ ( m ) ) U ( ( h ) /\ ( m ) ) ) | ( ( ( h ) /\ ( m ) ) \/ ( ( h ) /\ ( m ) ) ) | ( X ( ( ( h ) /\ ( m ) ) U ( ( h ) /\ ( m ) ) ) ) | ( X ( X ( ( h ) /\ ( m ) ) ) ) | ( ( ( h ) /\ ( m ) ) W ( <> ( ( h ) /\ ( m ) ) ) ) | ( ( ( h ) /\ ( m ) ) /\ ( ( h ) /\ ( m ) ) ) | ( ( m ) /\ ( h ) ) | 
Generation Time :0
Accumulated Learning Time :6
CALLs: 0    TIMEOUTs: 0    ERRORs: 0
REEVALUATIONS: 1634 OF 2653

GENERATION 34/50
.....m.m.<;....m.m.<;
Fittest value: 2.8333333333333335 for chromosome ( ( h ) /\ ( m ) )
Solutions (15): ( ( h ) /\ ( m ) ) | ( <> ( ( h ) /\ ( m ) ) ) | ( ( [] ( X ( ( h ) /\ ( X ( ! ( p ) ) ) ) ) ) \/ ( [] ( <> ( ( m ) /\ ( X ( p ) ) ) ) ) ) | ( X ( ( h ) /\ ( m ) ) ) | ( ( [] ( h ) ) \/ ( ( h ) /\ ( m ) ) ) | ( [] ( <> ( ( h ) /\ ( m ) ) ) ) | ( ( ( h ) /\ ( m ) ) /\ ( m ) ) | ( ( ( h ) /\ ( m ) ) /\ ( <> ( ( h ) /\ ( m ) ) ) ) | ( ( ( h ) /\ ( m ) ) U ( ( h ) /\ ( m ) ) ) | ( ( ( h ) /\ ( m ) ) \/ ( ( h ) /\ ( m ) ) ) | ( X ( ( ( h ) /\ ( m ) ) U ( ( h ) /\ ( m ) ) ) ) | ( X ( X ( ( h ) /\ ( m ) ) ) ) | ( ( ( h ) /\ ( m ) ) W ( <> ( ( h ) /\ ( m ) ) ) ) | ( ( ( h ) /\ ( m ) ) /\ ( ( h ) /\ ( m ) ) ) | ( ( m ) /\ ( h ) ) | 
Generation Time :0
Accumulated Learning Time :6
CALLs: 13    TIMEOUTs: 0    ERRORs: 0
REEVALUATIONS: 1718 OF 2740

GENERATION 35/50
....i.m.m.<;...i.m.m.<;
Fittest value: 2.8333333333333335 for chromosome ( ( h ) /\ ( m ) )
Solutions (15): ( ( h ) /\ ( m ) ) | ( <> ( ( h ) /\ ( m ) ) ) | ( ( [] ( X ( ( h ) /\ ( X ( ! ( p ) ) ) ) ) ) \/ ( [] ( <> ( ( m ) /\ ( X ( p ) ) ) ) ) ) | ( X ( ( h ) /\ ( m ) ) ) | ( ( [] ( h ) ) \/ ( ( h ) /\ ( m ) ) ) | ( [] ( <> ( ( h ) /\ ( m ) ) ) ) | ( ( ( h ) /\ ( m ) ) /\ ( m ) ) | ( ( ( h ) /\ ( m ) ) /\ ( <> ( ( h ) /\ ( m ) ) ) ) | ( ( ( h ) /\ ( m ) ) U ( ( h ) /\ ( m ) ) ) | ( ( ( h ) /\ ( m ) ) \/ ( ( h ) /\ ( m ) ) ) | ( X ( ( ( h ) /\ ( m ) ) U ( ( h ) /\ ( m ) ) ) ) | ( X ( X ( ( h ) /\ ( m ) ) ) ) | ( ( ( h ) /\ ( m ) ) W ( <> ( ( h ) /\ ( m ) ) ) ) | ( ( ( h ) /\ ( m ) ) /\ ( ( h ) /\ ( m ) ) ) | ( ( m ) /\ ( h ) ) | 
Generation Time :0
Accumulated Learning Time :6
CALLs: 13    TIMEOUTs: 0    ERRORs: 0
REEVALUATIONS: 1802 OF 2827

GENERATION 36/50
....m.m.<;....m.m.<;....m.m.<;..
Fittest value: 2.8333333333333335 for chromosome ( ( h ) /\ ( m ) )
Solutions (15): ( ( h ) /\ ( m ) ) | ( <> ( ( h ) /\ ( m ) ) ) | ( ( [] ( X ( ( h ) /\ ( X ( ! ( p ) ) ) ) ) ) \/ ( [] ( <> ( ( m ) /\ ( X ( p ) ) ) ) ) ) | ( X ( ( h ) /\ ( m ) ) ) | ( ( [] ( h ) ) \/ ( ( h ) /\ ( m ) ) ) | ( [] ( <> ( ( h ) /\ ( m ) ) ) ) | ( ( ( h ) /\ ( m ) ) /\ ( m ) ) | ( ( ( h ) /\ ( m ) ) /\ ( <> ( ( h ) /\ ( m ) ) ) ) | ( ( ( h ) /\ ( m ) ) U ( ( h ) /\ ( m ) ) ) | ( ( ( h ) /\ ( m ) ) \/ ( ( h ) /\ ( m ) ) ) | ( X ( ( ( h ) /\ ( m ) ) U ( ( h ) /\ ( m ) ) ) ) | ( X ( X ( ( h ) /\ ( m ) ) ) ) | ( ( ( h ) /\ ( m ) ) W ( <> ( ( h ) /\ ( m ) ) ) ) | ( ( ( h ) /\ ( m ) ) /\ ( ( h ) /\ ( m ) ) ) | ( ( m ) /\ ( h ) ) | 
Generation Time :0
Accumulated Learning Time :6
CALLs: 20    TIMEOUTs: 0    ERRORs: 0
REEVALUATIONS: 1881 OF 2910

GENERATION 37/50
....m.m.<;....m.m.<;....m.m.<;
Fittest value: 2.8333333333333335 for chromosome ( ( h ) /\ ( m ) )
Solutions (15): ( ( h ) /\ ( m ) ) | ( <> ( ( h ) /\ ( m ) ) ) | ( ( [] ( X ( ( h ) /\ ( X ( ! ( p ) ) ) ) ) ) \/ ( [] ( <> ( ( m ) /\ ( X ( p ) ) ) ) ) ) | ( X ( ( h ) /\ ( m ) ) ) | ( ( [] ( h ) ) \/ ( ( h ) /\ ( m ) ) ) | ( [] ( <> ( ( h ) /\ ( m ) ) ) ) | ( ( ( h ) /\ ( m ) ) /\ ( m ) ) | ( ( ( h ) /\ ( m ) ) /\ ( <> ( ( h ) /\ ( m ) ) ) ) | ( ( ( h ) /\ ( m ) ) U ( ( h ) /\ ( m ) ) ) | ( ( ( h ) /\ ( m ) ) \/ ( ( h ) /\ ( m ) ) ) | ( X ( ( ( h ) /\ ( m ) ) U ( ( h ) /\ ( m ) ) ) ) | ( X ( X ( ( h ) /\ ( m ) ) ) ) | ( ( ( h ) /\ ( m ) ) W ( <> ( ( h ) /\ ( m ) ) ) ) | ( ( ( h ) /\ ( m ) ) /\ ( ( h ) /\ ( m ) ) ) | ( ( m ) /\ ( h ) ) | 
Generation Time :0
Accumulated Learning Time :6
CALLs: 18    TIMEOUTs: 0    ERRORs: 0
REEVALUATIONS: 1963 OF 2995

GENERATION 38/50
.....m.m.<;....m.m.<;
Fittest value: 2.8333333333333335 for chromosome ( ( h ) /\ ( m ) )
Solutions (15): ( ( h ) /\ ( m ) ) | ( <> ( ( h ) /\ ( m ) ) ) | ( ( [] ( X ( ( h ) /\ ( X ( ! ( p ) ) ) ) ) ) \/ ( [] ( <> ( ( m ) /\ ( X ( p ) ) ) ) ) ) | ( X ( ( h ) /\ ( m ) ) ) | ( ( [] ( h ) ) \/ ( ( h ) /\ ( m ) ) ) | ( [] ( <> ( ( h ) /\ ( m ) ) ) ) | ( ( ( h ) /\ ( m ) ) /\ ( m ) ) | ( ( ( h ) /\ ( m ) ) /\ ( <> ( ( h ) /\ ( m ) ) ) ) | ( ( ( h ) /\ ( m ) ) U ( ( h ) /\ ( m ) ) ) | ( ( ( h ) /\ ( m ) ) \/ ( ( h ) /\ ( m ) ) ) | ( X ( ( ( h ) /\ ( m ) ) U ( ( h ) /\ ( m ) ) ) ) | ( X ( X ( ( h ) /\ ( m ) ) ) ) | ( ( ( h ) /\ ( m ) ) W ( <> ( ( h ) /\ ( m ) ) ) ) | ( ( ( h ) /\ ( m ) ) /\ ( ( h ) /\ ( m ) ) ) | ( ( m ) /\ ( h ) ) | 
Generation Time :0
Accumulated Learning Time :6
CALLs: 13    TIMEOUTs: 0    ERRORs: 0
REEVALUATIONS: 2035 OF 3070

GENERATION 39/50
....m.m.<;
Fittest value: 2.8333333333333335 for chromosome ( ( h ) /\ ( m ) )
Solutions (15): ( ( h ) /\ ( m ) ) | ( <> ( ( h ) /\ ( m ) ) ) | ( ( [] ( X ( ( h ) /\ ( X ( ! ( p ) ) ) ) ) ) \/ ( [] ( <> ( ( m ) /\ ( X ( p ) ) ) ) ) ) | ( X ( ( h ) /\ ( m ) ) ) | ( ( [] ( h ) ) \/ ( ( h ) /\ ( m ) ) ) | ( [] ( <> ( ( h ) /\ ( m ) ) ) ) | ( ( ( h ) /\ ( m ) ) /\ ( m ) ) | ( ( ( h ) /\ ( m ) ) /\ ( <> ( ( h ) /\ ( m ) ) ) ) | ( ( ( h ) /\ ( m ) ) U ( ( h ) /\ ( m ) ) ) | ( ( ( h ) /\ ( m ) ) \/ ( ( h ) /\ ( m ) ) ) | ( X ( ( ( h ) /\ ( m ) ) U ( ( h ) /\ ( m ) ) ) ) | ( X ( X ( ( h ) /\ ( m ) ) ) ) | ( ( ( h ) /\ ( m ) ) W ( <> ( ( h ) /\ ( m ) ) ) ) | ( ( ( h ) /\ ( m ) ) /\ ( ( h ) /\ ( m ) ) ) | ( ( m ) /\ ( h ) ) | 
Generation Time :0
Accumulated Learning Time :6
CALLs: 6    TIMEOUTs: 0    ERRORs: 0
REEVALUATIONS: 2117 OF 3153

GENERATION 40/50
.....m.m.<;
Fittest value: 2.8333333333333335 for chromosome ( ( h ) /\ ( m ) )
Solutions (15): ( ( h ) /\ ( m ) ) | ( <> ( ( h ) /\ ( m ) ) ) | ( ( [] ( X ( ( h ) /\ ( X ( ! ( p ) ) ) ) ) ) \/ ( [] ( <> ( ( m ) /\ ( X ( p ) ) ) ) ) ) | ( X ( ( h ) /\ ( m ) ) ) | ( ( [] ( h ) ) \/ ( ( h ) /\ ( m ) ) ) | ( [] ( <> ( ( h ) /\ ( m ) ) ) ) | ( ( ( h ) /\ ( m ) ) /\ ( m ) ) | ( ( ( h ) /\ ( m ) ) /\ ( <> ( ( h ) /\ ( m ) ) ) ) | ( ( ( h ) /\ ( m ) ) U ( ( h ) /\ ( m ) ) ) | ( ( ( h ) /\ ( m ) ) \/ ( ( h ) /\ ( m ) ) ) | ( X ( ( ( h ) /\ ( m ) ) U ( ( h ) /\ ( m ) ) ) ) | ( X ( X ( ( h ) /\ ( m ) ) ) ) | ( ( ( h ) /\ ( m ) ) W ( <> ( ( h ) /\ ( m ) ) ) ) | ( ( ( h ) /\ ( m ) ) /\ ( ( h ) /\ ( m ) ) ) | ( ( m ) /\ ( h ) ) | 
Generation Time :0
Accumulated Learning Time :6
CALLs: 7    TIMEOUTs: 0    ERRORs: 0
REEVALUATIONS: 2195 OF 3233

GENERATION 41/50
....m.m.<;....m.m.<;....m.m.<;....m.m.<;...i.m.m.<;
Fittest value: 2.8333333333333335 for chromosome ( ( h ) /\ ( m ) )
Solutions (15): ( ( h ) /\ ( m ) ) | ( <> ( ( h ) /\ ( m ) ) ) | ( ( [] ( X ( ( h ) /\ ( X ( ! ( p ) ) ) ) ) ) \/ ( [] ( <> ( ( m ) /\ ( X ( p ) ) ) ) ) ) | ( X ( ( h ) /\ ( m ) ) ) | ( ( [] ( h ) ) \/ ( ( h ) /\ ( m ) ) ) | ( [] ( <> ( ( h ) /\ ( m ) ) ) ) | ( ( ( h ) /\ ( m ) ) /\ ( m ) ) | ( ( ( h ) /\ ( m ) ) /\ ( <> ( ( h ) /\ ( m ) ) ) ) | ( ( ( h ) /\ ( m ) ) U ( ( h ) /\ ( m ) ) ) | ( ( ( h ) /\ ( m ) ) \/ ( ( h ) /\ ( m ) ) ) | ( X ( ( ( h ) /\ ( m ) ) U ( ( h ) /\ ( m ) ) ) ) | ( X ( X ( ( h ) /\ ( m ) ) ) ) | ( ( ( h ) /\ ( m ) ) W ( <> ( ( h ) /\ ( m ) ) ) ) | ( ( ( h ) /\ ( m ) ) /\ ( ( h ) /\ ( m ) ) ) | ( ( m ) /\ ( h ) ) | 
Generation Time :0
Accumulated Learning Time :6
CALLs: 30    TIMEOUTs: 0    ERRORs: 0
REEVALUATIONS: 2267 OF 3310

GENERATION 42/50
...i.m.m.<;
Fittest value: 2.8333333333333335 for chromosome ( ( h ) /\ ( m ) )
Solutions (15): ( ( h ) /\ ( m ) ) | ( <> ( ( h ) /\ ( m ) ) ) | ( ( [] ( X ( ( h ) /\ ( X ( ! ( p ) ) ) ) ) ) \/ ( [] ( <> ( ( m ) /\ ( X ( p ) ) ) ) ) ) | ( X ( ( h ) /\ ( m ) ) ) | ( ( [] ( h ) ) \/ ( ( h ) /\ ( m ) ) ) | ( [] ( <> ( ( h ) /\ ( m ) ) ) ) | ( ( ( h ) /\ ( m ) ) /\ ( m ) ) | ( ( ( h ) /\ ( m ) ) /\ ( <> ( ( h ) /\ ( m ) ) ) ) | ( ( ( h ) /\ ( m ) ) U ( ( h ) /\ ( m ) ) ) | ( ( ( h ) /\ ( m ) ) \/ ( ( h ) /\ ( m ) ) ) | ( X ( ( ( h ) /\ ( m ) ) U ( ( h ) /\ ( m ) ) ) ) | ( X ( X ( ( h ) /\ ( m ) ) ) ) | ( ( ( h ) /\ ( m ) ) W ( <> ( ( h ) /\ ( m ) ) ) ) | ( ( ( h ) /\ ( m ) ) /\ ( ( h ) /\ ( m ) ) ) | ( ( m ) /\ ( h ) ) | 
Generation Time :0
Accumulated Learning Time :6
CALLs: 6    TIMEOUTs: 0    ERRORs: 0
REEVALUATIONS: 2347 OF 3391

GENERATION 43/50
......m.m.<;....m.m.<;....m.m.<;
Fittest value: 2.8333333333333335 for chromosome ( ( h ) /\ ( m ) )
Solutions (15): ( ( h ) /\ ( m ) ) | ( <> ( ( h ) /\ ( m ) ) ) | ( ( [] ( X ( ( h ) /\ ( X ( ! ( p ) ) ) ) ) ) \/ ( [] ( <> ( ( m ) /\ ( X ( p ) ) ) ) ) ) | ( X ( ( h ) /\ ( m ) ) ) | ( ( [] ( h ) ) \/ ( ( h ) /\ ( m ) ) ) | ( [] ( <> ( ( h ) /\ ( m ) ) ) ) | ( ( ( h ) /\ ( m ) ) /\ ( m ) ) | ( ( ( h ) /\ ( m ) ) /\ ( <> ( ( h ) /\ ( m ) ) ) ) | ( ( ( h ) /\ ( m ) ) U ( ( h ) /\ ( m ) ) ) | ( ( ( h ) /\ ( m ) ) \/ ( ( h ) /\ ( m ) ) ) | ( X ( ( ( h ) /\ ( m ) ) U ( ( h ) /\ ( m ) ) ) ) | ( X ( X ( ( h ) /\ ( m ) ) ) ) | ( ( ( h ) /\ ( m ) ) W ( <> ( ( h ) /\ ( m ) ) ) ) | ( ( ( h ) /\ ( m ) ) /\ ( ( h ) /\ ( m ) ) ) | ( ( m ) /\ ( h ) ) | 
Generation Time :0
Accumulated Learning Time :6
CALLs: 20    TIMEOUTs: 0    ERRORs: 0
REEVALUATIONS: 2425 OF 3473

GENERATION 44/50
....m.m.<;....m.m.<;....m.m.<;..
Fittest value: 2.8333333333333335 for chromosome ( ( h ) /\ ( m ) )
Solutions (15): ( ( h ) /\ ( m ) ) | ( <> ( ( h ) /\ ( m ) ) ) | ( ( [] ( X ( ( h ) /\ ( X ( ! ( p ) ) ) ) ) ) \/ ( [] ( <> ( ( m ) /\ ( X ( p ) ) ) ) ) ) | ( X ( ( h ) /\ ( m ) ) ) | ( ( [] ( h ) ) \/ ( ( h ) /\ ( m ) ) ) | ( [] ( <> ( ( h ) /\ ( m ) ) ) ) | ( ( ( h ) /\ ( m ) ) /\ ( m ) ) | ( ( ( h ) /\ ( m ) ) /\ ( <> ( ( h ) /\ ( m ) ) ) ) | ( ( ( h ) /\ ( m ) ) U ( ( h ) /\ ( m ) ) ) | ( ( ( h ) /\ ( m ) ) \/ ( ( h ) /\ ( m ) ) ) | ( X ( ( ( h ) /\ ( m ) ) U ( ( h ) /\ ( m ) ) ) ) | ( X ( X ( ( h ) /\ ( m ) ) ) ) | ( ( ( h ) /\ ( m ) ) W ( <> ( ( h ) /\ ( m ) ) ) ) | ( ( ( h ) /\ ( m ) ) /\ ( ( h ) /\ ( m ) ) ) | ( ( m ) /\ ( h ) ) | 
Generation Time :0
Accumulated Learning Time :6
CALLs: 20    TIMEOUTs: 0    ERRORs: 0
REEVALUATIONS: 2503 OF 3555

GENERATION 45/50
....m.m.<;....m.m.<;
Fittest value: 2.8333333333333335 for chromosome ( ( h ) /\ ( m ) )
Solutions (15): ( ( h ) /\ ( m ) ) | ( <> ( ( h ) /\ ( m ) ) ) | ( ( [] ( X ( ( h ) /\ ( X ( ! ( p ) ) ) ) ) ) \/ ( [] ( <> ( ( m ) /\ ( X ( p ) ) ) ) ) ) | ( X ( ( h ) /\ ( m ) ) ) | ( ( [] ( h ) ) \/ ( ( h ) /\ ( m ) ) ) | ( [] ( <> ( ( h ) /\ ( m ) ) ) ) | ( ( ( h ) /\ ( m ) ) /\ ( m ) ) | ( ( ( h ) /\ ( m ) ) /\ ( <> ( ( h ) /\ ( m ) ) ) ) | ( ( ( h ) /\ ( m ) ) U ( ( h ) /\ ( m ) ) ) | ( ( ( h ) /\ ( m ) ) \/ ( ( h ) /\ ( m ) ) ) | ( X ( ( ( h ) /\ ( m ) ) U ( ( h ) /\ ( m ) ) ) ) | ( X ( X ( ( h ) /\ ( m ) ) ) ) | ( ( ( h ) /\ ( m ) ) W ( <> ( ( h ) /\ ( m ) ) ) ) | ( ( ( h ) /\ ( m ) ) /\ ( ( h ) /\ ( m ) ) ) | ( ( m ) /\ ( h ) ) | 
Generation Time :0
Accumulated Learning Time :6
CALLs: 12    TIMEOUTs: 0    ERRORs: 0
REEVALUATIONS: 2580 OF 3634

GENERATION 46/50
....m.m.<;....m.m.<;
Fittest value: 2.8333333333333335 for chromosome ( ( h ) /\ ( m ) )
Solutions (15): ( ( h ) /\ ( m ) ) | ( <> ( ( h ) /\ ( m ) ) ) | ( ( [] ( X ( ( h ) /\ ( X ( ! ( p ) ) ) ) ) ) \/ ( [] ( <> ( ( m ) /\ ( X ( p ) ) ) ) ) ) | ( X ( ( h ) /\ ( m ) ) ) | ( ( [] ( h ) ) \/ ( ( h ) /\ ( m ) ) ) | ( [] ( <> ( ( h ) /\ ( m ) ) ) ) | ( ( ( h ) /\ ( m ) ) /\ ( m ) ) | ( ( ( h ) /\ ( m ) ) /\ ( <> ( ( h ) /\ ( m ) ) ) ) | ( ( ( h ) /\ ( m ) ) U ( ( h ) /\ ( m ) ) ) | ( ( ( h ) /\ ( m ) ) \/ ( ( h ) /\ ( m ) ) ) | ( X ( ( ( h ) /\ ( m ) ) U ( ( h ) /\ ( m ) ) ) ) | ( X ( X ( ( h ) /\ ( m ) ) ) ) | ( ( ( h ) /\ ( m ) ) W ( <> ( ( h ) /\ ( m ) ) ) ) | ( ( ( h ) /\ ( m ) ) /\ ( ( h ) /\ ( m ) ) ) | ( ( m ) /\ ( h ) ) | 
Generation Time :0
Accumulated Learning Time :6
CALLs: 12    TIMEOUTs: 0    ERRORs: 0
REEVALUATIONS: 2659 OF 3715

GENERATION 47/50
.
Fittest value: 2.8333333333333335 for chromosome ( ( h ) /\ ( m ) )
Solutions (15): ( ( h ) /\ ( m ) ) | ( <> ( ( h ) /\ ( m ) ) ) | ( ( [] ( X ( ( h ) /\ ( X ( ! ( p ) ) ) ) ) ) \/ ( [] ( <> ( ( m ) /\ ( X ( p ) ) ) ) ) ) | ( X ( ( h ) /\ ( m ) ) ) | ( ( [] ( h ) ) \/ ( ( h ) /\ ( m ) ) ) | ( [] ( <> ( ( h ) /\ ( m ) ) ) ) | ( ( ( h ) /\ ( m ) ) /\ ( m ) ) | ( ( ( h ) /\ ( m ) ) /\ ( <> ( ( h ) /\ ( m ) ) ) ) | ( ( ( h ) /\ ( m ) ) U ( ( h ) /\ ( m ) ) ) | ( ( ( h ) /\ ( m ) ) \/ ( ( h ) /\ ( m ) ) ) | ( X ( ( ( h ) /\ ( m ) ) U ( ( h ) /\ ( m ) ) ) ) | ( X ( X ( ( h ) /\ ( m ) ) ) ) | ( ( ( h ) /\ ( m ) ) W ( <> ( ( h ) /\ ( m ) ) ) ) | ( ( ( h ) /\ ( m ) ) /\ ( ( h ) /\ ( m ) ) ) | ( ( m ) /\ ( h ) ) | 
Generation Time :0
Accumulated Learning Time :6
CALLs: 1    TIMEOUTs: 0    ERRORs: 0
REEVALUATIONS: 2746 OF 3803

GENERATION 48/50
.....i.m.m.<;
Fittest value: 2.8333333333333335 for chromosome ( ( h ) /\ ( m ) )
Solutions (15): ( ( h ) /\ ( m ) ) | ( <> ( ( h ) /\ ( m ) ) ) | ( ( [] ( X ( ( h ) /\ ( X ( ! ( p ) ) ) ) ) ) \/ ( [] ( <> ( ( m ) /\ ( X ( p ) ) ) ) ) ) | ( X ( ( h ) /\ ( m ) ) ) | ( ( [] ( h ) ) \/ ( ( h ) /\ ( m ) ) ) | ( [] ( <> ( ( h ) /\ ( m ) ) ) ) | ( ( ( h ) /\ ( m ) ) /\ ( m ) ) | ( ( ( h ) /\ ( m ) ) /\ ( <> ( ( h ) /\ ( m ) ) ) ) | ( ( ( h ) /\ ( m ) ) U ( ( h ) /\ ( m ) ) ) | ( ( ( h ) /\ ( m ) ) \/ ( ( h ) /\ ( m ) ) ) | ( X ( ( ( h ) /\ ( m ) ) U ( ( h ) /\ ( m ) ) ) ) | ( X ( X ( ( h ) /\ ( m ) ) ) ) | ( ( ( h ) /\ ( m ) ) W ( <> ( ( h ) /\ ( m ) ) ) ) | ( ( ( h ) /\ ( m ) ) /\ ( ( h ) /\ ( m ) ) ) | ( ( m ) /\ ( h ) ) | 
Generation Time :0
Accumulated Learning Time :6
CALLs: 8    TIMEOUTs: 0    ERRORs: 0
REEVALUATIONS: 2828 OF 3887

GENERATION 49/50
..
Fittest value: 2.8333333333333335 for chromosome ( ( h ) /\ ( m ) )
Solutions (15): ( ( h ) /\ ( m ) ) | ( <> ( ( h ) /\ ( m ) ) ) | ( ( [] ( X ( ( h ) /\ ( X ( ! ( p ) ) ) ) ) ) \/ ( [] ( <> ( ( m ) /\ ( X ( p ) ) ) ) ) ) | ( X ( ( h ) /\ ( m ) ) ) | ( ( [] ( h ) ) \/ ( ( h ) /\ ( m ) ) ) | ( [] ( <> ( ( h ) /\ ( m ) ) ) ) | ( ( ( h ) /\ ( m ) ) /\ ( m ) ) | ( ( ( h ) /\ ( m ) ) /\ ( <> ( ( h ) /\ ( m ) ) ) ) | ( ( ( h ) /\ ( m ) ) U ( ( h ) /\ ( m ) ) ) | ( ( ( h ) /\ ( m ) ) \/ ( ( h ) /\ ( m ) ) ) | ( X ( ( ( h ) /\ ( m ) ) U ( ( h ) /\ ( m ) ) ) ) | ( X ( X ( ( h ) /\ ( m ) ) ) ) | ( ( ( h ) /\ ( m ) ) W ( <> ( ( h ) /\ ( m ) ) ) ) | ( ( ( h ) /\ ( m ) ) /\ ( ( h ) /\ ( m ) ) ) | ( ( m ) /\ ( h ) ) | 
Generation Time :0
Accumulated Learning Time :6
CALLs: 2    TIMEOUTs: 0    ERRORs: 0
REEVALUATIONS: 2910 OF 3970

GENERATION 50/50

Fittest value: 2.8333333333333335 for chromosome ( ( h ) /\ ( m ) )
Solutions (15): ( ( h ) /\ ( m ) ) | ( <> ( ( h ) /\ ( m ) ) ) | ( ( [] ( X ( ( h ) /\ ( X ( ! ( p ) ) ) ) ) ) \/ ( [] ( <> ( ( m ) /\ ( X ( p ) ) ) ) ) ) | ( X ( ( h ) /\ ( m ) ) ) | ( ( [] ( h ) ) \/ ( ( h ) /\ ( m ) ) ) | ( [] ( <> ( ( h ) /\ ( m ) ) ) ) | ( ( ( h ) /\ ( m ) ) /\ ( m ) ) | ( ( ( h ) /\ ( m ) ) /\ ( <> ( ( h ) /\ ( m ) ) ) ) | ( ( ( h ) /\ ( m ) ) U ( ( h ) /\ ( m ) ) ) | ( ( ( h ) /\ ( m ) ) \/ ( ( h ) /\ ( m ) ) ) | ( X ( ( ( h ) /\ ( m ) ) U ( ( h ) /\ ( m ) ) ) ) | ( X ( X ( ( h ) /\ ( m ) ) ) ) | ( ( ( h ) /\ ( m ) ) W ( <> ( ( h ) /\ ( m ) ) ) ) | ( ( ( h ) /\ ( m ) ) /\ ( ( h ) /\ ( m ) ) ) | ( ( m ) /\ ( h ) ) | 
Generation Time :0
Accumulated Learning Time :6
CALLs: 0    TIMEOUTs: 0    ERRORs: 0
REEVALUATIONS: 2994 OF 4054


TOTAL Learing Time :6

Solutions: 15
( ( h ) /\ ( m ) )
( <> ( ( h ) /\ ( m ) ) )
( ( [] ( X ( ( h ) /\ ( X ( ! ( p ) ) ) ) ) ) \/ ( [] ( <> ( ( m ) /\ ( X ( p ) ) ) ) ) )
( X ( ( h ) /\ ( m ) ) )
( ( [] ( h ) ) \/ ( ( h ) /\ ( m ) ) )
( [] ( <> ( ( h ) /\ ( m ) ) ) )
( ( ( h ) /\ ( m ) ) /\ ( m ) )
( ( ( h ) /\ ( m ) ) /\ ( <> ( ( h ) /\ ( m ) ) ) )
( ( ( h ) /\ ( m ) ) U ( ( h ) /\ ( m ) ) )
( ( ( h ) /\ ( m ) ) \/ ( ( h ) /\ ( m ) ) )
( X ( ( ( h ) /\ ( m ) ) U ( ( h ) /\ ( m ) ) ) )
( X ( X ( ( h ) /\ ( m ) ) ) )
( ( ( h ) /\ ( m ) ) W ( <> ( ( h ) /\ ( m ) ) ) )
( ( ( h ) /\ ( m ) ) /\ ( ( h ) /\ ( m ) ) )
( ( m ) /\ ( h ) )

.............................................
Non Equivalent Solutions: 7
( ( h ) /\ ( m ) )
( <> ( ( h ) /\ ( m ) ) )
( ( [] ( X ( ( h ) /\ ( X ( ! ( p ) ) ) ) ) ) \/ ( [] ( <> ( ( m ) /\ ( X ( p ) ) ) ) ) )
( X ( ( h ) /\ ( m ) ) )
( ( [] ( h ) ) \/ ( ( h ) /\ ( m ) ) )
( [] ( <> ( ( h ) /\ ( m ) ) ) )
( X ( X ( ( h ) /\ ( m ) ) ) )
.........................
Weakest Solutions: 3
( <> ( ( h ) /\ ( m ) ) )
( ( [] ( X ( ( h ) /\ ( X ( ! ( p ) ) ) ) ) ) \/ ( [] ( <> ( ( m ) /\ ( X ( p ) ) ) ) ) )
( ( [] ( h ) ) \/ ( ( h ) /\ ( m ) ) )
TOTAL Time :6
CALLs: 5298    TIMEOUTs: 0    ERRORs: 0
CONFIGURATION
#Population: 100    #Iterations: 50    #ChromSize: 20
REEVALUATIONS: 2994 OF 4054
