DOM: [[]((p && X(p)) -> X(X(! h)))]
GOALS: [[](h -> X(p)), [](m -> X(! p))]
Initial population size: 34
Total population size: 100

GENERATION 1/50
....m.m.<;...i...<;....m.m.<;....m.m.<;....m.m.<;...i..m.<;....m.m.<;....m.m.<;....m.m.<;...i.m..<;....m.m.<;...i.m..<;....m.m.<;...i..m.<;....m.m.<;....m.m.<;....m.m.<;...i...<;....m.m.<;....m.m.<;....m.m.<;....m.m.<;....m.m.<;....m.m.<;....m.m.<;....m.m.<;......m.m.<;....m.m.<;.......m.m.<;....m.m.<;....m.m.<;......m.m.<;....m.m.<;....m.m.<;....m.m.<;......m.m.<;....m.m.<;....m.m.<;....m.m.<;....m.m.<;....m.m.<;
Best fitness value: ( ( m ) /\ ( X ( p ) ) ) 2.0
Generation Time :0
Accumulated Learning Time :0
CALLs: 255    TIMEOUTs: 0    ERRORs: 0
REEVALUATIONS: 24 OF 70

GENERATION 2/50
....m.m.<;.....i..m.<;.........m.m.;....m.m.<;....m.m.<;....m.m.<;....m.m.<;....m.m.<;....m.m.<;......m.m.<;...i..m.<;......m.m.<;....m.m.<;....m.m.<;....m.m.<;....m.m.<;....m.m.<;.....m.m.<;...i.m..<;.....m.m.<;....m.m.<;....m.m.<;....m.m.<;....m.m.<;....m.m.<;......m.m.<;....m.m.<;....m.m.<;....m.m.<;......m.m.<;......m.m.<;....m.m.<;....m.m.<;....m.m.<;....m.m.<;....m.m.<;
Best fitness value: ( ( m ) /\ ( X ( p ) ) ) 2.0
Generation Time :0
Accumulated Learning Time :0
CALLs: 235    TIMEOUTs: 0    ERRORs: 0
REEVALUATIONS: 67 OF 161

GENERATION 3/50
......m.m.<;....m.m.<;....m.m.<;.....m.m.<;...i.m..<;....m.m.<;....m.m.<;......m.m.<;....m.m.<;......m.m.<;....m.m.<;....m.m.<;....m.m.<;....m.m.<;.....m.m.<;....m.m.<;....m.m.<;....m.m.<;....m.m.<;....m.m.<;....m.m.<;....m.m.<;..........m.m.<;....m.m.<;....m.m.<;....m.m.<;....m.m.<;.....m.m.<;....m.m.<;....m.m.<;.....m.m.<;....m.m.<;...i..m.<;...i.m..<;....m.m.<;...i..m.<;
Best fitness value: ( ( m ) /\ ( X ( p ) ) ) 2.0
Generation Time :0
Accumulated Learning Time :0
CALLs: 232    TIMEOUTs: 0    ERRORs: 0
REEVALUATIONS: 105 OF 245

GENERATION 4/50
....m.m.<;....m.m.<;......m.m.<;....m.m.<;.....m.m.<;....m.m.<;....m.m.<;....m.m.<;....m.m.<;....m.m.<;.......m.m.<;.......m.m.<;...i.m..<;....m.m.<;....m.m.<;....m.m.<;....m.m.<;........m.m.<;....m.m.<;....m.m.<;...i.m..<;....m.m.<;....m.m.<;....m.m.<;......m.m.<;....m.m.<;....m.m.<;....m.m.<;....m.m.<;....m.m.<;....m.m.<;....m.m.<;.....m.m.<;....m.m.<;....m.m.<;...i..m.<;....m.m.<;....m.m.<;....m.m.<;....m.m.<;...i...<;....m.m.<;
Best fitness value: ( ( m ) /\ ( X ( p ) ) ) 2.0
Generation Time :0
Accumulated Learning Time :1
CALLs: 268    TIMEOUTs: 0    ERRORs: 0
REEVALUATIONS: 128 OF 321

GENERATION 5/50
.......m.m.<;....m.m.<;....m.m.<;.....m.m.<;....m.m.<;....m.m.<;....m.m.<;....m.m.<;....m.m.<;...i.m..<;....m.m.<;....m.m.<;....m.m.<;....m.m.<;....m.m.<;....m.m.<;....m.m.<;....m.m.<;....m.m.<;....m.m.<;....m.m.<;....m.m.<;.....m.m.<;....m.m.<;....m.m.<;....m.m.<;......m.m.<;....m.m.<;....m.m.<;....m.m.<;....m.m.<;.....m.m.<;....m.m.<;.......i.m..<;....m.m.<;....m.m.<;...i.m..<;....m.m.<;....m.m.<;...i.m..<;....m.m.<;.....m.m.<;....m.m.<;....m.m.<;....m.m.<;...i.m..<;
Best fitness value: ( ( m ) /\ ( X ( p ) ) ) 2.0
Generation Time :0
Accumulated Learning Time :1
CALLs: 289    TIMEOUTs: 0    ERRORs: 0
REEVALUATIONS: 157 OF 405

GENERATION 6/50
...i..m.<;...i..m.<;.....m.m.<;....m.m.<;....m.m.<;......i..m.<;....m.m.<;...i.m..<;....m.m.<;....m.m.<;....m.m.<;....m.m.<;......m.m.<;....m.m.<;.......m.m.<;....m.m.<;....m.m.<;....m.m.<;....m.m.<;.....m.m.<;....m.m.<;....m.m.<;....m.m.<;....m.m.<;....m.m.<;....m.m.<;....m.m.<;....m.m.<;...i.m..<;.....m.m.<;......m.m.<;.....m.m.<;....m.m.<;....m.m.<;.....m.m.<;...i.m.m.<;....m.m.<;....m.m.<;....m.m.<;....m.m.<;.....m.m.<;...i.m.m.<;...i.m..<;...i.m..<;....m.m.<;...i.m..<;....m.m.<;....m.m.<;
Fittest value: 2.75 for chromosome ( ( h ) /\ ( [] ( m ) ) )
Solutions (2): ( ( h ) /\ ( [] ( m ) ) ) | ( ( ( m ) /\ ( X ( p ) ) ) \/ ( [] ( h ) ) ) | 
Generation Time :0
Accumulated Learning Time :1
CALLs: 304    TIMEOUTs: 0    ERRORs: 0
REEVALUATIONS: 178 OF 486

GENERATION 7/50
.....m.m.<;....m.m.<;...i.m..<;....m.m.<;....m.m.<;...i.m..<;....m.m.<;....m.m.<;...i.m..<;....m.m.<;....m.m.<;....m.m.<;....m.m.<;...i.m..<;....m.m.<;....m.m.<;.......m.m.<;....m.m.<;.......m.m.<;....m.m.<;....m.m.<;....m.m.<;.......m.m.<;....m.m.<;....m.m.<;...i..m.<;....m.m.<;....m.m.<;.....m.m.<;....m.m.<;....m.m.<;......m.m.<;....m.m.<;....m.m.<;......m.m.<;....m.m.<;....m.m.<;....m.m.<;....m.m.<;....m.m.<;....m.m.<;......m.m.<;....m.m.<;......m.m.<;...i.m..<;....m.m.<;....m.m.<;.....m.m.<;...i.m.m.<;...i..m.<;....m.m.<;
Fittest value: 2.75 for chromosome ( ( h ) /\ ( [] ( m ) ) )
Solutions (3): ( ( h ) /\ ( [] ( m ) ) ) | ( ( ( m ) /\ ( X ( p ) ) ) \/ ( [] ( h ) ) ) | ( ( [] ( h ) ) W ( ( ! ( h ) ) U ( ( m ) /\ ( X ( p ) ) ) ) ) | 
Generation Time :0
Accumulated Learning Time :2
CALLs: 326    TIMEOUTs: 0    ERRORs: 0
REEVALUATIONS: 199 OF 571

GENERATION 8/50
....m.m.<;...i.m.m.<;....m.m.<;...i.m..<;....m.m.<;....m.m.<;......m.m.<;...i.m..<;....m.m.<;......m.m.<;....m.m.<;........m.m.<;.....m.m.<;....m.m.<;.....m.m.<;...i.m..<;...i.m..<;....m.m.<;......m.m.<;....m.m.<;.....m.m.<;......m.m.<;....m.m.<;....m.m.<;....m.m.<;....m.m.<;....m.m.<;....m.m.<;...i.m..<;......m.m.<;....m.m.<;....m.m.<;....m.m.<;...i..m.<;...i.m..<;....m.m.<;...i.m..<;...i.m..<;
Fittest value: 2.75 for chromosome ( ( h ) /\ ( [] ( m ) ) )
Solutions (4): ( ( h ) /\ ( [] ( m ) ) ) | ( ( ( m ) /\ ( X ( p ) ) ) \/ ( [] ( h ) ) ) | ( ( [] ( h ) ) W ( ( ! ( h ) ) U ( ( m ) /\ ( X ( p ) ) ) ) ) | ( ( ( m ) /\ ( X ( p ) ) ) W ( [] ( h ) ) ) | 
Generation Time :0
Accumulated Learning Time :2
CALLs: 245    TIMEOUTs: 0    ERRORs: 0
REEVALUATIONS: 229 OF 653

GENERATION 9/50
....m.m.<;....m.m.<;...i.m..<;....m.m.<;....m.m.<;....m.m.<;.....i.m..<;....m.m.<;....m.m.<;....m.m.<;.......i.m..<;......m.m.<;...i..m.<;...i.m..<;.....m.m.<;....m.m.<;....m.m.<;....m.m.<;......m.m.<;....m.m.<;...i.m..<;....m.m.<;....m.m.<;......m.m.<;....m.m.<;....m.m.<;...i...<;.....m.m.<;....m.m.<;....m.m.<;.....i.m..<;....m.m.<;.....m.m.<;....i.m..<;.......m.m.<;....m.m.<;....m.m.<;....m.m.<;....m.m.<;....m.m.<;....m.m.<;....m.m.<;....m.m.<;...i.m..<;...i.m..<;...i.m..<;...i.m..<;....m.m.<;...i..m.<;
Fittest value: 2.75 for chromosome ( ( h ) /\ ( [] ( m ) ) )
Solutions (4): ( ( h ) /\ ( [] ( m ) ) ) | ( ( ( m ) /\ ( X ( p ) ) ) \/ ( [] ( h ) ) ) | ( ( [] ( h ) ) W ( ( ! ( h ) ) U ( ( m ) /\ ( X ( p ) ) ) ) ) | ( ( ( m ) /\ ( X ( p ) ) ) W ( [] ( h ) ) ) | 
Generation Time :0
Accumulated Learning Time :2
CALLs: 315    TIMEOUTs: 0    ERRORs: 0
REEVALUATIONS: 246 OF 734

GENERATION 10/50
....m.m.<;....m.m.<;....m.m.<;....m.m.<;....m.m.<;....m.m.<;....m.m.<;...i..m.<;....m.m.<;....i.m..<;....m.m.<;....m.m.<;...i.m..<;...i..m.<;....m.m.<;....m.m.<;....m.m.<;....m.m.<;.....i.m..<;.....m.m.<;...i.m..<;....m.m.<;.......m.m.<;....m.m.<;.....i..m.<;...i.m..<;....m.m.<;....m.m.<;....m.m.<;....m.m.<;....m.m.<;....m.m.<;....m.m.<;....m.m.<;.....m.m.<;....m.m.<;....m.m.<;....m.m.<;....m.m.<;....i.m..<;....m.m.<;....m.m.<;...i.m..<;....m.m.<;....m.m.<;...i.m.m.<;
Fittest value: 2.75 for chromosome ( ( h ) /\ ( [] ( m ) ) )
Solutions (5): ( ( h ) /\ ( [] ( m ) ) ) | ( ( ( m ) /\ ( X ( p ) ) ) \/ ( [] ( h ) ) ) | ( ( [] ( h ) ) W ( ( ! ( h ) ) U ( ( m ) /\ ( X ( p ) ) ) ) ) | ( ( ( m ) /\ ( X ( p ) ) ) W ( [] ( h ) ) ) | ( ( ( h ) /\ ( [] ( m ) ) ) \/ ( [] ( <> ( ( h ) /\ ( X ( ! ( p ) ) ) ) ) ) ) | 
Generation Time :0
Accumulated Learning Time :3
CALLs: 287    TIMEOUTs: 0    ERRORs: 0
REEVALUATIONS: 267 OF 809

GENERATION 11/50
....m.m.<;...i.m.m.<;....m.m.<;....m.m.<;.....m.m.<;....m.m.<;....m.m.<;....m.m.<;....m.m.<;....m.m.<;....m.m.<;....m.m.<;....m.m.<;...i.m..<;....m.m.<;...i.m..<;...i.m..<;....m.m.<;...i.m..<;.....m.m.<;....m.m.<;....m.m.<;....m.m.<;...i.m.m.<;....m.m.<;....m.m.<;.....m.m.<;....m.m.<;....m.m.<;....m.m.<;...i.m..<;...i.m..<;....m.m.<;...i.m..<;.....m.m.<;.....m.m.<;....m.m.<;....m.m.<;....m.m.<;....m.m.<;...i.m..<;....m.m.<;...i..m.<;....m.m.<;....m.m.<;....m.m.<;...i.m.m.<;....m.m.<;...i.m.m.<;
Fittest value: 2.75 for chromosome ( ( h ) /\ ( [] ( m ) ) )
Solutions (9): ( ( h ) /\ ( [] ( m ) ) ) | ( ( ( m ) /\ ( X ( p ) ) ) \/ ( [] ( h ) ) ) | ( ( [] ( h ) ) W ( ( ! ( h ) ) U ( ( m ) /\ ( X ( p ) ) ) ) ) | ( ( ( m ) /\ ( X ( p ) ) ) W ( [] ( h ) ) ) | ( ( ( h ) /\ ( [] ( m ) ) ) \/ ( [] ( <> ( ( h ) /\ ( X ( ! ( p ) ) ) ) ) ) ) | ( ( h ) /\ ( m ) ) | ( [] ( ( ( m ) /\ ( X ( p ) ) ) \/ ( [] ( h ) ) ) ) | ( <> ( ( ( m ) /\ ( X ( p ) ) ) \/ ( [] ( h ) ) ) ) | ( ( X ( ( m ) /\ ( X ( p ) ) ) ) \/ ( [] ( [] ( h ) ) ) ) | 
Generation Time :0
Accumulated Learning Time :3
CALLs: 299    TIMEOUTs: 0    ERRORs: 0
REEVALUATIONS: 292 OF 888

GENERATION 12/50
....m.m.<;....m.m.<;.......m.m.<;....m.m.<;....m.m.<;....m.m.<;......m.m.<;....m.m.<;....m.m.<;....m.m.<;....m.m.<;....m.m.<;....m.m.<;....m.m.<;....m.m.<;....m.m.<;....m.m.<;....m.m.<;...i.m..<;...i..m.<;....m.m.<;....m.m.<;....m.m.<;....m.m.<;....m.m.<;....m.m.<;...i.m..<;....m.m.<;....m.m.<;....m.m.<;...i.m..<;....m.m.<;....m.m.<;....m.m.<;....m.m.<;...i.m.m.<;...i.m.m.<;...i.m..<;...i.m.m.<;...i.m..<;
Fittest value: 2.75 for chromosome ( ( h ) /\ ( [] ( m ) ) )
Solutions (12): ( ( h ) /\ ( [] ( m ) ) ) | ( ( ( m ) /\ ( X ( p ) ) ) \/ ( [] ( h ) ) ) | ( ( [] ( h ) ) W ( ( ! ( h ) ) U ( ( m ) /\ ( X ( p ) ) ) ) ) | ( ( ( m ) /\ ( X ( p ) ) ) W ( [] ( h ) ) ) | ( ( ( h ) /\ ( [] ( m ) ) ) \/ ( [] ( <> ( ( h ) /\ ( X ( ! ( p ) ) ) ) ) ) ) | ( ( h ) /\ ( m ) ) | ( [] ( ( ( m ) /\ ( X ( p ) ) ) \/ ( [] ( h ) ) ) ) | ( <> ( ( ( m ) /\ ( X ( p ) ) ) \/ ( [] ( h ) ) ) ) | ( ( X ( ( m ) /\ ( X ( p ) ) ) ) \/ ( [] ( [] ( h ) ) ) ) | ( X ( ( h ) /\ ( m ) ) ) | ( X ( ( h ) /\ ( [] ( m ) ) ) ) | ( ( ( h ) /\ ( [] ( m ) ) ) W ( ( [] ( h ) ) W ( ( ! ( h ) ) U ( ( m ) /\ ( X ( p ) ) ) ) ) ) | 
Generation Time :0
Accumulated Learning Time :4
CALLs: 245    TIMEOUTs: 0    ERRORs: 0
REEVALUATIONS: 321 OF 960

GENERATION 13/50
....m.m.<;....m.m.<;....m.m.<;....m.m.<;....m.m.<;....m.m.<;....m.m.<;.....m.m.<;......m.m.<;....m.m.<;....m.m.<;....m.m.<;....m.m.<;....m.m.<;....m.m.<;....m.m.<;....m.m.<;...i.m.m.<;...i.m..<;....m.m.<;....m.m.<;....m.m.<;.....i.m..<;...i.m..<;...i.m..<;....m.m.<;.....m.m.<;...i.m..<;.......m.m.<;....m.m.<;...i..m.<;......m.m.<;...i.m.m.<;...i.m.m.<;....m.m.<;....m.m.<;...i.m.m.<;....m.m.<;
Fittest value: 2.75 for chromosome ( ( h ) /\ ( [] ( m ) ) )
Solutions (16): ( ( h ) /\ ( [] ( m ) ) ) | ( ( ( m ) /\ ( X ( p ) ) ) \/ ( [] ( h ) ) ) | ( ( [] ( h ) ) W ( ( ! ( h ) ) U ( ( m ) /\ ( X ( p ) ) ) ) ) | ( ( ( m ) /\ ( X ( p ) ) ) W ( [] ( h ) ) ) | ( ( ( h ) /\ ( [] ( m ) ) ) \/ ( [] ( <> ( ( h ) /\ ( X ( ! ( p ) ) ) ) ) ) ) | ( ( h ) /\ ( m ) ) | ( [] ( ( ( m ) /\ ( X ( p ) ) ) \/ ( [] ( h ) ) ) ) | ( <> ( ( ( m ) /\ ( X ( p ) ) ) \/ ( [] ( h ) ) ) ) | ( ( X ( ( m ) /\ ( X ( p ) ) ) ) \/ ( [] ( [] ( h ) ) ) ) | ( X ( ( h ) /\ ( m ) ) ) | ( X ( ( h ) /\ ( [] ( m ) ) ) ) | ( ( ( h ) /\ ( [] ( m ) ) ) W ( ( [] ( h ) ) W ( ( ! ( h ) ) U ( ( m ) /\ ( X ( p ) ) ) ) ) ) | ( <> ( ( h ) /\ ( m ) ) ) | ( <> ( ( h ) /\ ( [] ( m ) ) ) ) | ( X ( X ( ( h ) /\ ( [] ( m ) ) ) ) ) | ( ( X ( h ) ) W ( ( ! ( h ) ) U ( ( m ) /\ ( X ( p ) ) ) ) ) | 
Generation Time :0
Accumulated Learning Time :4
CALLs: 239    TIMEOUTs: 0    ERRORs: 0
REEVALUATIONS: 352 OF 1037

GENERATION 14/50
....m.m.<;....m.m.<;....m.m.<;....m.m.<;....m.m.<;....m.m.<;....m.m.<;....m.m.<;....m.m.<;.....m.m.<;....m.m.<;....m.m.<;....m.m.<;........m.m.<;....m.m.<;......m.m.<;....m.m.<;....m.m.<;......m.m.<;....m.m.<;....m.m.<;...i.m..<;...i..m.<;....m.m.<;....m.m.<;...i.m..<;....m.m.<;...i.m.m.<;....m.m.<;...i.m..<;...i.m.m.<;.....m.m.<;....m.m.<;....i.m.m.<;....m.m.<;....m.m.<;
Fittest value: 2.75 for chromosome ( ( h ) /\ ( [] ( m ) ) )
Solutions (17): ( ( h ) /\ ( [] ( m ) ) ) | ( ( ( m ) /\ ( X ( p ) ) ) \/ ( [] ( h ) ) ) | ( ( [] ( h ) ) W ( ( ! ( h ) ) U ( ( m ) /\ ( X ( p ) ) ) ) ) | ( ( ( m ) /\ ( X ( p ) ) ) W ( [] ( h ) ) ) | ( ( ( h ) /\ ( [] ( m ) ) ) \/ ( [] ( <> ( ( h ) /\ ( X ( ! ( p ) ) ) ) ) ) ) | ( ( h ) /\ ( m ) ) | ( [] ( ( ( m ) /\ ( X ( p ) ) ) \/ ( [] ( h ) ) ) ) | ( <> ( ( ( m ) /\ ( X ( p ) ) ) \/ ( [] ( h ) ) ) ) | ( ( X ( ( m ) /\ ( X ( p ) ) ) ) \/ ( [] ( [] ( h ) ) ) ) | ( X ( ( h ) /\ ( m ) ) ) | ( X ( ( h ) /\ ( [] ( m ) ) ) ) | ( ( ( h ) /\ ( [] ( m ) ) ) W ( ( [] ( h ) ) W ( ( ! ( h ) ) U ( ( m ) /\ ( X ( p ) ) ) ) ) ) | ( <> ( ( h ) /\ ( m ) ) ) | ( <> ( ( h ) /\ ( [] ( m ) ) ) ) | ( X ( X ( ( h ) /\ ( [] ( m ) ) ) ) ) | ( ( X ( h ) ) W ( ( ! ( h ) ) U ( ( m ) /\ ( X ( p ) ) ) ) ) | ( ( X ( ( h ) /\ ( m ) ) ) \/ ( ( h ) /\ ( [] ( m ) ) ) ) | 
Generation Time :0
Accumulated Learning Time :4
CALLs: 227    TIMEOUTs: 0    ERRORs: 0
REEVALUATIONS: 390 OF 1119

GENERATION 15/50
........m.m.<;....m.m.<;....m.m.<;....m.m.<;....m.m.<;.....m.m.<;.....m.m.<;.......m.m.<;.....m.m.<;...i.m.m.<;...i.m.m.<;....m.m.<;.....m.m.<;....m.m.<;....m.m.<;....m.m.<;....m.m.<;....m.m.<;....m.m.<;....m.m.<;...i.m.m.<;...i.m.m.<;...i.m.m.<;...i.m.m.<;...i.m.m.<;
Fittest value: 2.75 for chromosome ( ( h ) /\ ( [] ( m ) ) )
Solutions (18): ( ( h ) /\ ( [] ( m ) ) ) | ( ( ( m ) /\ ( X ( p ) ) ) \/ ( [] ( h ) ) ) | ( ( [] ( h ) ) W ( ( ! ( h ) ) U ( ( m ) /\ ( X ( p ) ) ) ) ) | ( ( ( m ) /\ ( X ( p ) ) ) W ( [] ( h ) ) ) | ( ( ( h ) /\ ( [] ( m ) ) ) \/ ( [] ( <> ( ( h ) /\ ( X ( ! ( p ) ) ) ) ) ) ) | ( ( h ) /\ ( m ) ) | ( [] ( ( ( m ) /\ ( X ( p ) ) ) \/ ( [] ( h ) ) ) ) | ( <> ( ( ( m ) /\ ( X ( p ) ) ) \/ ( [] ( h ) ) ) ) | ( ( X ( ( m ) /\ ( X ( p ) ) ) ) \/ ( [] ( [] ( h ) ) ) ) | ( X ( ( h ) /\ ( m ) ) ) | ( X ( ( h ) /\ ( [] ( m ) ) ) ) | ( ( ( h ) /\ ( [] ( m ) ) ) W ( ( [] ( h ) ) W ( ( ! ( h ) ) U ( ( m ) /\ ( X ( p ) ) ) ) ) ) | ( <> ( ( h ) /\ ( m ) ) ) | ( <> ( ( h ) /\ ( [] ( m ) ) ) ) | ( X ( X ( ( h ) /\ ( [] ( m ) ) ) ) ) | ( ( X ( h ) ) W ( ( ! ( h ) ) U ( ( m ) /\ ( X ( p ) ) ) ) ) | ( ( X ( ( h ) /\ ( m ) ) ) \/ ( ( h ) /\ ( [] ( m ) ) ) ) | ( ( ( h ) /\ ( [] ( m ) ) ) /\ ( m ) ) | 
Generation Time :0
Accumulated Learning Time :5
CALLs: 161    TIMEOUTs: 0    ERRORs: 0
REEVALUATIONS: 432 OF 1195

GENERATION 16/50
....m.m.<;....m.m.<;....m.m.<;....m.m.<;.....m.m.<;....m.m.<;....m.m.<;....m.m.<;....m.m.<;...i.m.m.<;.....m.m.<;.....m.m.<;......m.m.<;....m.m.<;.....m.m.<;....m.m.<;....m.m.<;...i.m.m.<;...i.m.m.<;...i.m.m.<;...i.m.m.<;
Fittest value: 2.75 for chromosome ( ( h ) /\ ( [] ( m ) ) )
Solutions (19): ( ( h ) /\ ( [] ( m ) ) ) | ( ( ( m ) /\ ( X ( p ) ) ) \/ ( [] ( h ) ) ) | ( ( [] ( h ) ) W ( ( ! ( h ) ) U ( ( m ) /\ ( X ( p ) ) ) ) ) | ( ( ( m ) /\ ( X ( p ) ) ) W ( [] ( h ) ) ) | ( ( ( h ) /\ ( [] ( m ) ) ) \/ ( [] ( <> ( ( h ) /\ ( X ( ! ( p ) ) ) ) ) ) ) | ( ( h ) /\ ( m ) ) | ( [] ( ( ( m ) /\ ( X ( p ) ) ) \/ ( [] ( h ) ) ) ) | ( <> ( ( ( m ) /\ ( X ( p ) ) ) \/ ( [] ( h ) ) ) ) | ( ( X ( ( m ) /\ ( X ( p ) ) ) ) \/ ( [] ( [] ( h ) ) ) ) | ( X ( ( h ) /\ ( m ) ) ) | ( X ( ( h ) /\ ( [] ( m ) ) ) ) | ( ( ( h ) /\ ( [] ( m ) ) ) W ( ( [] ( h ) ) W ( ( ! ( h ) ) U ( ( m ) /\ ( X ( p ) ) ) ) ) ) | ( <> ( ( h ) /\ ( m ) ) ) | ( <> ( ( h ) /\ ( [] ( m ) ) ) ) | ( X ( X ( ( h ) /\ ( [] ( m ) ) ) ) ) | ( ( X ( h ) ) W ( ( ! ( h ) ) U ( ( m ) /\ ( X ( p ) ) ) ) ) | ( ( X ( ( h ) /\ ( m ) ) ) \/ ( ( h ) /\ ( [] ( m ) ) ) ) | ( ( ( h ) /\ ( [] ( m ) ) ) /\ ( m ) ) | ( ( m ) /\ ( h ) ) | 
Generation Time :0
Accumulated Learning Time :5
CALLs: 132    TIMEOUTs: 0    ERRORs: 0
REEVALUATIONS: 488 OF 1277

GENERATION 17/50
....m.m.<;...i.m.m.<;........m.m.<;....m.m.<;....m.m.<;......m.m.<;....m.m.<;.....m.m.<;....m.m.<;.....m.m.<;....m.m.<;......m.m.<;....m.m.<;....m.m.<;....m.m.<;....m.m.<;....m.m.<;....m.m.<;....m.m.<;....m.m.<;...i.m.m.<;
Fittest value: 2.75 for chromosome ( ( h ) /\ ( [] ( m ) ) )
Solutions (19): ( ( h ) /\ ( [] ( m ) ) ) | ( ( ( m ) /\ ( X ( p ) ) ) \/ ( [] ( h ) ) ) | ( ( [] ( h ) ) W ( ( ! ( h ) ) U ( ( m ) /\ ( X ( p ) ) ) ) ) | ( ( ( m ) /\ ( X ( p ) ) ) W ( [] ( h ) ) ) | ( ( ( h ) /\ ( [] ( m ) ) ) \/ ( [] ( <> ( ( h ) /\ ( X ( ! ( p ) ) ) ) ) ) ) | ( ( h ) /\ ( m ) ) | ( [] ( ( ( m ) /\ ( X ( p ) ) ) \/ ( [] ( h ) ) ) ) | ( <> ( ( ( m ) /\ ( X ( p ) ) ) \/ ( [] ( h ) ) ) ) | ( ( X ( ( m ) /\ ( X ( p ) ) ) ) \/ ( [] ( [] ( h ) ) ) ) | ( X ( ( h ) /\ ( m ) ) ) | ( X ( ( h ) /\ ( [] ( m ) ) ) ) | ( ( ( h ) /\ ( [] ( m ) ) ) W ( ( [] ( h ) ) W ( ( ! ( h ) ) U ( ( m ) /\ ( X ( p ) ) ) ) ) ) | ( <> ( ( h ) /\ ( m ) ) ) | ( <> ( ( h ) /\ ( [] ( m ) ) ) ) | ( X ( X ( ( h ) /\ ( [] ( m ) ) ) ) ) | ( ( X ( h ) ) W ( ( ! ( h ) ) U ( ( m ) /\ ( X ( p ) ) ) ) ) | ( ( X ( ( h ) /\ ( m ) ) ) \/ ( ( h ) /\ ( [] ( m ) ) ) ) | ( ( ( h ) /\ ( [] ( m ) ) ) /\ ( m ) ) | ( ( m ) /\ ( h ) ) | 
Generation Time :0
Accumulated Learning Time :5
CALLs: 136    TIMEOUTs: 0    ERRORs: 0
REEVALUATIONS: 549 OF 1366

GENERATION 18/50
...i.m.m.<;....m.m.<;....m.m.<;....m.m.<;....m.m.<;....m.m.<;....m.m.<;....m.m.<;....m.m.<;....m.m.<;.....m.m.<;....m.m.<;....m.m.<;....m.m.<;....m.m.<;....m.m.<;....m.m.<;....m.m.<;......m.m.<;....m.m.<;....m.m.<;...i.m..<;....m.m.<;...i.m.m.<;....m.m.<;
Fittest value: 2.75 for chromosome ( ( h ) /\ ( [] ( m ) ) )
Solutions (19): ( ( h ) /\ ( [] ( m ) ) ) | ( ( ( m ) /\ ( X ( p ) ) ) \/ ( [] ( h ) ) ) | ( ( [] ( h ) ) W ( ( ! ( h ) ) U ( ( m ) /\ ( X ( p ) ) ) ) ) | ( ( ( m ) /\ ( X ( p ) ) ) W ( [] ( h ) ) ) | ( ( ( h ) /\ ( [] ( m ) ) ) \/ ( [] ( <> ( ( h ) /\ ( X ( ! ( p ) ) ) ) ) ) ) | ( ( h ) /\ ( m ) ) | ( [] ( ( ( m ) /\ ( X ( p ) ) ) \/ ( [] ( h ) ) ) ) | ( <> ( ( ( m ) /\ ( X ( p ) ) ) \/ ( [] ( h ) ) ) ) | ( ( X ( ( m ) /\ ( X ( p ) ) ) ) \/ ( [] ( [] ( h ) ) ) ) | ( X ( ( h ) /\ ( m ) ) ) | ( X ( ( h ) /\ ( [] ( m ) ) ) ) | ( ( ( h ) /\ ( [] ( m ) ) ) W ( ( [] ( h ) ) W ( ( ! ( h ) ) U ( ( m ) /\ ( X ( p ) ) ) ) ) ) | ( <> ( ( h ) /\ ( m ) ) ) | ( <> ( ( h ) /\ ( [] ( m ) ) ) ) | ( X ( X ( ( h ) /\ ( [] ( m ) ) ) ) ) | ( ( X ( h ) ) W ( ( ! ( h ) ) U ( ( m ) /\ ( X ( p ) ) ) ) ) | ( ( X ( ( h ) /\ ( m ) ) ) \/ ( ( h ) /\ ( [] ( m ) ) ) ) | ( ( ( h ) /\ ( [] ( m ) ) ) /\ ( m ) ) | ( ( m ) /\ ( h ) ) | 
Generation Time :0
Accumulated Learning Time :5
CALLs: 153    TIMEOUTs: 0    ERRORs: 0
REEVALUATIONS: 602 OF 1447

GENERATION 19/50
....m.m.<;....m.m.<;....m.m.<;....m.m.<;....m.m.<;....m.m.<;.....m.m.<;...i.m..<;....m.m.<;....m.m.<;.....m.m.<;....m.m.<;.....m.m.<;.....m.m.<;....m.m.<;....m.m.<;....m.m.<;.....m.m.<;......m.m.<;....i.m.m.<;...i.m.m.<;....m.m.<;....m.m.<;...i.m.m.<;...i.m.m.<;...i.m.m.<;...i.m.m.<;....m.m.<;
Fittest value: 2.8333333333333335 for chromosome ( ( h ) /\ ( m ) )
Solutions (20): ( ( h ) /\ ( [] ( m ) ) ) | ( ( ( m ) /\ ( X ( p ) ) ) \/ ( [] ( h ) ) ) | ( ( [] ( h ) ) W ( ( ! ( h ) ) U ( ( m ) /\ ( X ( p ) ) ) ) ) | ( ( ( m ) /\ ( X ( p ) ) ) W ( [] ( h ) ) ) | ( ( ( h ) /\ ( [] ( m ) ) ) \/ ( [] ( <> ( ( h ) /\ ( X ( ! ( p ) ) ) ) ) ) ) | ( ( h ) /\ ( m ) ) | ( [] ( ( ( m ) /\ ( X ( p ) ) ) \/ ( [] ( h ) ) ) ) | ( <> ( ( ( m ) /\ ( X ( p ) ) ) \/ ( [] ( h ) ) ) ) | ( ( X ( ( m ) /\ ( X ( p ) ) ) ) \/ ( [] ( [] ( h ) ) ) ) | ( X ( ( h ) /\ ( m ) ) ) | ( X ( ( h ) /\ ( [] ( m ) ) ) ) | ( ( ( h ) /\ ( [] ( m ) ) ) W ( ( [] ( h ) ) W ( ( ! ( h ) ) U ( ( m ) /\ ( X ( p ) ) ) ) ) ) | ( <> ( ( h ) /\ ( m ) ) ) | ( <> ( ( h ) /\ ( [] ( m ) ) ) ) | ( X ( X ( ( h ) /\ ( [] ( m ) ) ) ) ) | ( ( X ( h ) ) W ( ( ! ( h ) ) U ( ( m ) /\ ( X ( p ) ) ) ) ) | ( ( X ( ( h ) /\ ( m ) ) ) \/ ( ( h ) /\ ( [] ( m ) ) ) ) | ( ( ( h ) /\ ( [] ( m ) ) ) /\ ( m ) ) | ( ( m ) /\ ( h ) ) | ( ( ( h ) /\ ( m ) ) /\ ( ( h ) /\ ( m ) ) ) | 
Generation Time :0
Accumulated Learning Time :5
CALLs: 176    TIMEOUTs: 0    ERRORs: 0
REEVALUATIONS: 650 OF 1531

GENERATION 20/50
....m.m.<;....m.m.<;....m.m.<;....m.m.<;...i.m.m.<;....m.m.<;....m.m.<;.....i.m.m.<;....m.m.<;........m.m.<;....m.m.<;....m.m.<;.....m.m.<;....m.m.<;...i.m.m.<;....m.m.<;...i.m.m.<;
Fittest value: 2.8333333333333335 for chromosome ( ( h ) /\ ( m ) )
Solutions (21): ( ( h ) /\ ( [] ( m ) ) ) | ( ( ( m ) /\ ( X ( p ) ) ) \/ ( [] ( h ) ) ) | ( ( [] ( h ) ) W ( ( ! ( h ) ) U ( ( m ) /\ ( X ( p ) ) ) ) ) | ( ( ( m ) /\ ( X ( p ) ) ) W ( [] ( h ) ) ) | ( ( ( h ) /\ ( [] ( m ) ) ) \/ ( [] ( <> ( ( h ) /\ ( X ( ! ( p ) ) ) ) ) ) ) | ( ( h ) /\ ( m ) ) | ( [] ( ( ( m ) /\ ( X ( p ) ) ) \/ ( [] ( h ) ) ) ) | ( <> ( ( ( m ) /\ ( X ( p ) ) ) \/ ( [] ( h ) ) ) ) | ( ( X ( ( m ) /\ ( X ( p ) ) ) ) \/ ( [] ( [] ( h ) ) ) ) | ( X ( ( h ) /\ ( m ) ) ) | ( X ( ( h ) /\ ( [] ( m ) ) ) ) | ( ( ( h ) /\ ( [] ( m ) ) ) W ( ( [] ( h ) ) W ( ( ! ( h ) ) U ( ( m ) /\ ( X ( p ) ) ) ) ) ) | ( <> ( ( h ) /\ ( m ) ) ) | ( <> ( ( h ) /\ ( [] ( m ) ) ) ) | ( X ( X ( ( h ) /\ ( [] ( m ) ) ) ) ) | ( ( X ( h ) ) W ( ( ! ( h ) ) U ( ( m ) /\ ( X ( p ) ) ) ) ) | ( ( X ( ( h ) /\ ( m ) ) ) \/ ( ( h ) /\ ( [] ( m ) ) ) ) | ( ( ( h ) /\ ( [] ( m ) ) ) /\ ( m ) ) | ( ( m ) /\ ( h ) ) | ( ( ( h ) /\ ( m ) ) /\ ( ( h ) /\ ( m ) ) ) | ( ( ( h ) /\ ( m ) ) U ( ( h ) /\ ( m ) ) ) | 
Generation Time :0
Accumulated Learning Time :5
CALLs: 109    TIMEOUTs: 0    ERRORs: 0
REEVALUATIONS: 710 OF 1613

GENERATION 21/50
....m.m.<;......m.m.<;....m.m.<;....m.m.<;....m.m.<;....m.m.<;....m.m.<;......m.m.<;........m.m.<;....m.m.<;....m.m.<;.....m.m.<;....m.m.<;...i.m.m.<;....m.m.<;....m.m.<;....m.m.<;....m.m.<;...i.m.m.<;
Fittest value: 2.8333333333333335 for chromosome ( ( h ) /\ ( m ) )
Solutions (21): ( ( h ) /\ ( [] ( m ) ) ) | ( ( ( m ) /\ ( X ( p ) ) ) \/ ( [] ( h ) ) ) | ( ( [] ( h ) ) W ( ( ! ( h ) ) U ( ( m ) /\ ( X ( p ) ) ) ) ) | ( ( ( m ) /\ ( X ( p ) ) ) W ( [] ( h ) ) ) | ( ( ( h ) /\ ( [] ( m ) ) ) \/ ( [] ( <> ( ( h ) /\ ( X ( ! ( p ) ) ) ) ) ) ) | ( ( h ) /\ ( m ) ) | ( [] ( ( ( m ) /\ ( X ( p ) ) ) \/ ( [] ( h ) ) ) ) | ( <> ( ( ( m ) /\ ( X ( p ) ) ) \/ ( [] ( h ) ) ) ) | ( ( X ( ( m ) /\ ( X ( p ) ) ) ) \/ ( [] ( [] ( h ) ) ) ) | ( X ( ( h ) /\ ( m ) ) ) | ( X ( ( h ) /\ ( [] ( m ) ) ) ) | ( ( ( h ) /\ ( [] ( m ) ) ) W ( ( [] ( h ) ) W ( ( ! ( h ) ) U ( ( m ) /\ ( X ( p ) ) ) ) ) ) | ( <> ( ( h ) /\ ( m ) ) ) | ( <> ( ( h ) /\ ( [] ( m ) ) ) ) | ( X ( X ( ( h ) /\ ( [] ( m ) ) ) ) ) | ( ( X ( h ) ) W ( ( ! ( h ) ) U ( ( m ) /\ ( X ( p ) ) ) ) ) | ( ( X ( ( h ) /\ ( m ) ) ) \/ ( ( h ) /\ ( [] ( m ) ) ) ) | ( ( ( h ) /\ ( [] ( m ) ) ) /\ ( m ) ) | ( ( m ) /\ ( h ) ) | ( ( ( h ) /\ ( m ) ) /\ ( ( h ) /\ ( m ) ) ) | ( ( ( h ) /\ ( m ) ) U ( ( h ) /\ ( m ) ) ) | 
Generation Time :0
Accumulated Learning Time :5
CALLs: 123    TIMEOUTs: 0    ERRORs: 0
REEVALUATIONS: 763 OF 1692

GENERATION 22/50
....m.m.<;....m.m.<;......m.m.<;....m.m.<;....m.m.<;.....m.m.<;........m.m.<;....m.m.<;....m.m.<;....m.m.<;....m.m.<;......m.m.<;....m.m.<;......m.m.<;....m.m.<;.....m.m.<;....m.m.<;....m.m.<;...i.m.m.<;...i.m.m.<;....m.m.<;
Fittest value: 2.8333333333333335 for chromosome ( ( h ) /\ ( m ) )
Solutions (23): ( ( h ) /\ ( [] ( m ) ) ) | ( ( ( m ) /\ ( X ( p ) ) ) \/ ( [] ( h ) ) ) | ( ( [] ( h ) ) W ( ( ! ( h ) ) U ( ( m ) /\ ( X ( p ) ) ) ) ) | ( ( ( m ) /\ ( X ( p ) ) ) W ( [] ( h ) ) ) | ( ( ( h ) /\ ( [] ( m ) ) ) \/ ( [] ( <> ( ( h ) /\ ( X ( ! ( p ) ) ) ) ) ) ) | ( ( h ) /\ ( m ) ) | ( [] ( ( ( m ) /\ ( X ( p ) ) ) \/ ( [] ( h ) ) ) ) | ( <> ( ( ( m ) /\ ( X ( p ) ) ) \/ ( [] ( h ) ) ) ) | ( ( X ( ( m ) /\ ( X ( p ) ) ) ) \/ ( [] ( [] ( h ) ) ) ) | ( X ( ( h ) /\ ( m ) ) ) | ( X ( ( h ) /\ ( [] ( m ) ) ) ) | ( ( ( h ) /\ ( [] ( m ) ) ) W ( ( [] ( h ) ) W ( ( ! ( h ) ) U ( ( m ) /\ ( X ( p ) ) ) ) ) ) | ( <> ( ( h ) /\ ( m ) ) ) | ( <> ( ( h ) /\ ( [] ( m ) ) ) ) | ( X ( X ( ( h ) /\ ( [] ( m ) ) ) ) ) | ( ( X ( h ) ) W ( ( ! ( h ) ) U ( ( m ) /\ ( X ( p ) ) ) ) ) | ( ( X ( ( h ) /\ ( m ) ) ) \/ ( ( h ) /\ ( [] ( m ) ) ) ) | ( ( ( h ) /\ ( [] ( m ) ) ) /\ ( m ) ) | ( ( m ) /\ ( h ) ) | ( ( ( h ) /\ ( m ) ) /\ ( ( h ) /\ ( m ) ) ) | ( ( ( h ) /\ ( m ) ) U ( ( h ) /\ ( m ) ) ) | ( ( ( h ) /\ ( m ) ) W ( ( h ) /\ ( m ) ) ) | ( ( ( h ) /\ ( m ) ) \/ ( ( h ) /\ ( m ) ) ) | 
Generation Time :0
Accumulated Learning Time :6
CALLs: 138    TIMEOUTs: 0    ERRORs: 0
REEVALUATIONS: 815 OF 1774

GENERATION 23/50
.....m.m.<;.....m.m.<;....m.m.<;...i.m..<;....m.m.<;....m.m.<;....m.m.<;....m.m.<;....m.m.<;....i.m..<;....m.m.<;.....m.m.<;......m.m.<;.....m.m.<;.....m.m.<;......m.m.<;....m.m.<;....m.m.<;......m.m.<;......m.m.<;......m.m.<;.......m.m.<;....m.m.<;....m.m.<;....m.m.<;
Fittest value: 2.8333333333333335 for chromosome ( ( h ) /\ ( m ) )
Solutions (23): ( ( h ) /\ ( [] ( m ) ) ) | ( ( ( m ) /\ ( X ( p ) ) ) \/ ( [] ( h ) ) ) | ( ( [] ( h ) ) W ( ( ! ( h ) ) U ( ( m ) /\ ( X ( p ) ) ) ) ) | ( ( ( m ) /\ ( X ( p ) ) ) W ( [] ( h ) ) ) | ( ( ( h ) /\ ( [] ( m ) ) ) \/ ( [] ( <> ( ( h ) /\ ( X ( ! ( p ) ) ) ) ) ) ) | ( ( h ) /\ ( m ) ) | ( [] ( ( ( m ) /\ ( X ( p ) ) ) \/ ( [] ( h ) ) ) ) | ( <> ( ( ( m ) /\ ( X ( p ) ) ) \/ ( [] ( h ) ) ) ) | ( ( X ( ( m ) /\ ( X ( p ) ) ) ) \/ ( [] ( [] ( h ) ) ) ) | ( X ( ( h ) /\ ( m ) ) ) | ( X ( ( h ) /\ ( [] ( m ) ) ) ) | ( ( ( h ) /\ ( [] ( m ) ) ) W ( ( [] ( h ) ) W ( ( ! ( h ) ) U ( ( m ) /\ ( X ( p ) ) ) ) ) ) | ( <> ( ( h ) /\ ( m ) ) ) | ( <> ( ( h ) /\ ( [] ( m ) ) ) ) | ( X ( X ( ( h ) /\ ( [] ( m ) ) ) ) ) | ( ( X ( h ) ) W ( ( ! ( h ) ) U ( ( m ) /\ ( X ( p ) ) ) ) ) | ( ( X ( ( h ) /\ ( m ) ) ) \/ ( ( h ) /\ ( [] ( m ) ) ) ) | ( ( ( h ) /\ ( [] ( m ) ) ) /\ ( m ) ) | ( ( m ) /\ ( h ) ) | ( ( ( h ) /\ ( m ) ) /\ ( ( h ) /\ ( m ) ) ) | ( ( ( h ) /\ ( m ) ) U ( ( h ) /\ ( m ) ) ) | ( ( ( h ) /\ ( m ) ) W ( ( h ) /\ ( m ) ) ) | ( ( ( h ) /\ ( m ) ) \/ ( ( h ) /\ ( m ) ) ) | 
Generation Time :0
Accumulated Learning Time :6
CALLs: 169    TIMEOUTs: 0    ERRORs: 0
REEVALUATIONS: 853 OF 1850

GENERATION 24/50
....m.m.<;....m.m.<;....m.m.<;.......m.m.<;....m.m.<;....m.m.<;.....m.m.<;....m.m.<;....m.m.<;........m.m.<;....m.m.<;....m.m.<;....m.m.<;....m.m.<;...i.m..<;.........m.m.<;....m.m.<;......m.m.<;........m.m.<;...i.m..<;...i.m.m.<;
Fittest value: 2.8333333333333335 for chromosome ( ( h ) /\ ( m ) )
Solutions (23): ( ( h ) /\ ( [] ( m ) ) ) | ( ( ( m ) /\ ( X ( p ) ) ) \/ ( [] ( h ) ) ) | ( ( [] ( h ) ) W ( ( ! ( h ) ) U ( ( m ) /\ ( X ( p ) ) ) ) ) | ( ( ( m ) /\ ( X ( p ) ) ) W ( [] ( h ) ) ) | ( ( ( h ) /\ ( [] ( m ) ) ) \/ ( [] ( <> ( ( h ) /\ ( X ( ! ( p ) ) ) ) ) ) ) | ( ( h ) /\ ( m ) ) | ( [] ( ( ( m ) /\ ( X ( p ) ) ) \/ ( [] ( h ) ) ) ) | ( <> ( ( ( m ) /\ ( X ( p ) ) ) \/ ( [] ( h ) ) ) ) | ( ( X ( ( m ) /\ ( X ( p ) ) ) ) \/ ( [] ( [] ( h ) ) ) ) | ( X ( ( h ) /\ ( m ) ) ) | ( X ( ( h ) /\ ( [] ( m ) ) ) ) | ( ( ( h ) /\ ( [] ( m ) ) ) W ( ( [] ( h ) ) W ( ( ! ( h ) ) U ( ( m ) /\ ( X ( p ) ) ) ) ) ) | ( <> ( ( h ) /\ ( m ) ) ) | ( <> ( ( h ) /\ ( [] ( m ) ) ) ) | ( X ( X ( ( h ) /\ ( [] ( m ) ) ) ) ) | ( ( X ( h ) ) W ( ( ! ( h ) ) U ( ( m ) /\ ( X ( p ) ) ) ) ) | ( ( X ( ( h ) /\ ( m ) ) ) \/ ( ( h ) /\ ( [] ( m ) ) ) ) | ( ( ( h ) /\ ( [] ( m ) ) ) /\ ( m ) ) | ( ( m ) /\ ( h ) ) | ( ( ( h ) /\ ( m ) ) /\ ( ( h ) /\ ( m ) ) ) | ( ( ( h ) /\ ( m ) ) U ( ( h ) /\ ( m ) ) ) | ( ( ( h ) /\ ( m ) ) W ( ( h ) /\ ( m ) ) ) | ( ( ( h ) /\ ( m ) ) \/ ( ( h ) /\ ( m ) ) ) | 
Generation Time :0
Accumulated Learning Time :6
CALLs: 145    TIMEOUTs: 0    ERRORs: 0
REEVALUATIONS: 899 OF 1929

GENERATION 25/50
.....m.m.<;....m.m.<;....m.m.<;.....m.m.<;.....m.m.<;....m.m.<;....m.m.<;....m.m.<;....m.m.<;.....m.m.<;....m.m.<;.......m.m.<;....m.m.<;....m.m.<;......m.m.<;....m.m.<;....m.m.<;....m.m.<;....m.m.<;....m.m.;..........m.m.<;......m.m.<;...i.m.m.<;...i.m.m.<;
Fittest value: 2.8333333333333335 for chromosome ( ( h ) /\ ( m ) )
Solutions (23): ( ( h ) /\ ( [] ( m ) ) ) | ( ( ( m ) /\ ( X ( p ) ) ) \/ ( [] ( h ) ) ) | ( ( [] ( h ) ) W ( ( ! ( h ) ) U ( ( m ) /\ ( X ( p ) ) ) ) ) | ( ( ( m ) /\ ( X ( p ) ) ) W ( [] ( h ) ) ) | ( ( ( h ) /\ ( [] ( m ) ) ) \/ ( [] ( <> ( ( h ) /\ ( X ( ! ( p ) ) ) ) ) ) ) | ( ( h ) /\ ( m ) ) | ( [] ( ( ( m ) /\ ( X ( p ) ) ) \/ ( [] ( h ) ) ) ) | ( <> ( ( ( m ) /\ ( X ( p ) ) ) \/ ( [] ( h ) ) ) ) | ( ( X ( ( m ) /\ ( X ( p ) ) ) ) \/ ( [] ( [] ( h ) ) ) ) | ( X ( ( h ) /\ ( m ) ) ) | ( X ( ( h ) /\ ( [] ( m ) ) ) ) | ( ( ( h ) /\ ( [] ( m ) ) ) W ( ( [] ( h ) ) W ( ( ! ( h ) ) U ( ( m ) /\ ( X ( p ) ) ) ) ) ) | ( <> ( ( h ) /\ ( m ) ) ) | ( <> ( ( h ) /\ ( [] ( m ) ) ) ) | ( X ( X ( ( h ) /\ ( [] ( m ) ) ) ) ) | ( ( X ( h ) ) W ( ( ! ( h ) ) U ( ( m ) /\ ( X ( p ) ) ) ) ) | ( ( X ( ( h ) /\ ( m ) ) ) \/ ( ( h ) /\ ( [] ( m ) ) ) ) | ( ( ( h ) /\ ( [] ( m ) ) ) /\ ( m ) ) | ( ( m ) /\ ( h ) ) | ( ( ( h ) /\ ( m ) ) /\ ( ( h ) /\ ( m ) ) ) | ( ( ( h ) /\ ( m ) ) U ( ( h ) /\ ( m ) ) ) | ( ( ( h ) /\ ( m ) ) W ( ( h ) /\ ( m ) ) ) | ( ( ( h ) /\ ( m ) ) \/ ( ( h ) /\ ( m ) ) ) | 
Generation Time :0
Accumulated Learning Time :6
CALLs: 161    TIMEOUTs: 0    ERRORs: 0
REEVALUATIONS: 950 OF 2018

GENERATION 26/50
........m.m.<;.....m.m.<;.......m.m.<;....m.m.<;....m.m.<;......m.m.<;.....m.m.<;....m.m.<;....m.m.<;....m.m.<;....m.m.<;....m.m.<;.......i.m.m.<;....m.m.<;
Fittest value: 2.8333333333333335 for chromosome ( ( h ) /\ ( m ) )
Solutions (23): ( ( h ) /\ ( [] ( m ) ) ) | ( ( ( m ) /\ ( X ( p ) ) ) \/ ( [] ( h ) ) ) | ( ( [] ( h ) ) W ( ( ! ( h ) ) U ( ( m ) /\ ( X ( p ) ) ) ) ) | ( ( ( m ) /\ ( X ( p ) ) ) W ( [] ( h ) ) ) | ( ( ( h ) /\ ( [] ( m ) ) ) \/ ( [] ( <> ( ( h ) /\ ( X ( ! ( p ) ) ) ) ) ) ) | ( ( h ) /\ ( m ) ) | ( [] ( ( ( m ) /\ ( X ( p ) ) ) \/ ( [] ( h ) ) ) ) | ( <> ( ( ( m ) /\ ( X ( p ) ) ) \/ ( [] ( h ) ) ) ) | ( ( X ( ( m ) /\ ( X ( p ) ) ) ) \/ ( [] ( [] ( h ) ) ) ) | ( X ( ( h ) /\ ( m ) ) ) | ( X ( ( h ) /\ ( [] ( m ) ) ) ) | ( ( ( h ) /\ ( [] ( m ) ) ) W ( ( [] ( h ) ) W ( ( ! ( h ) ) U ( ( m ) /\ ( X ( p ) ) ) ) ) ) | ( <> ( ( h ) /\ ( m ) ) ) | ( <> ( ( h ) /\ ( [] ( m ) ) ) ) | ( X ( X ( ( h ) /\ ( [] ( m ) ) ) ) ) | ( ( X ( h ) ) W ( ( ! ( h ) ) U ( ( m ) /\ ( X ( p ) ) ) ) ) | ( ( X ( ( h ) /\ ( m ) ) ) \/ ( ( h ) /\ ( [] ( m ) ) ) ) | ( ( ( h ) /\ ( [] ( m ) ) ) /\ ( m ) ) | ( ( m ) /\ ( h ) ) | ( ( ( h ) /\ ( m ) ) /\ ( ( h ) /\ ( m ) ) ) | ( ( ( h ) /\ ( m ) ) U ( ( h ) /\ ( m ) ) ) | ( ( ( h ) /\ ( m ) ) W ( ( h ) /\ ( m ) ) ) | ( ( ( h ) /\ ( m ) ) \/ ( ( h ) /\ ( m ) ) ) | 
Generation Time :0
Accumulated Learning Time :6
CALLs: 99    TIMEOUTs: 0    ERRORs: 0
REEVALUATIONS: 1010 OF 2103

GENERATION 27/50
....m.m.<;.....m.m.<;......m.m.<;....m.m.<;....m.m.<;....m.m.<;....m.m.<;.......m.m.<;.....m.m.<;......m.m.<;....m.m.<;...i.m..<;....m.m.<;......m.m.<;....m.m.<;....m.m.<;...i.m.m.<;
Fittest value: 2.8333333333333335 for chromosome ( ( h ) /\ ( m ) )
Solutions (23): ( ( h ) /\ ( [] ( m ) ) ) | ( ( ( m ) /\ ( X ( p ) ) ) \/ ( [] ( h ) ) ) | ( ( [] ( h ) ) W ( ( ! ( h ) ) U ( ( m ) /\ ( X ( p ) ) ) ) ) | ( ( ( m ) /\ ( X ( p ) ) ) W ( [] ( h ) ) ) | ( ( ( h ) /\ ( [] ( m ) ) ) \/ ( [] ( <> ( ( h ) /\ ( X ( ! ( p ) ) ) ) ) ) ) | ( ( h ) /\ ( m ) ) | ( [] ( ( ( m ) /\ ( X ( p ) ) ) \/ ( [] ( h ) ) ) ) | ( <> ( ( ( m ) /\ ( X ( p ) ) ) \/ ( [] ( h ) ) ) ) | ( ( X ( ( m ) /\ ( X ( p ) ) ) ) \/ ( [] ( [] ( h ) ) ) ) | ( X ( ( h ) /\ ( m ) ) ) | ( X ( ( h ) /\ ( [] ( m ) ) ) ) | ( ( ( h ) /\ ( [] ( m ) ) ) W ( ( [] ( h ) ) W ( ( ! ( h ) ) U ( ( m ) /\ ( X ( p ) ) ) ) ) ) | ( <> ( ( h ) /\ ( m ) ) ) | ( <> ( ( h ) /\ ( [] ( m ) ) ) ) | ( X ( X ( ( h ) /\ ( [] ( m ) ) ) ) ) | ( ( X ( h ) ) W ( ( ! ( h ) ) U ( ( m ) /\ ( X ( p ) ) ) ) ) | ( ( X ( ( h ) /\ ( m ) ) ) \/ ( ( h ) /\ ( [] ( m ) ) ) ) | ( ( ( h ) /\ ( [] ( m ) ) ) /\ ( m ) ) | ( ( m ) /\ ( h ) ) | ( ( ( h ) /\ ( m ) ) /\ ( ( h ) /\ ( m ) ) ) | ( ( ( h ) /\ ( m ) ) U ( ( h ) /\ ( m ) ) ) | ( ( ( h ) /\ ( m ) ) W ( ( h ) /\ ( m ) ) ) | ( ( ( h ) /\ ( m ) ) \/ ( ( h ) /\ ( m ) ) ) | 
Generation Time :0
Accumulated Learning Time :6
CALLs: 113    TIMEOUTs: 0    ERRORs: 0
REEVALUATIONS: 1063 OF 2180

GENERATION 28/50
.......m.m.<;....m.m.<;....m.m.<;....m.m.<;....m.m.<;.....m.m.<;....m.m.<;...i.m.m.<;....m.m.<;....m.m.<;....i.m.m.<;
Fittest value: 2.8333333333333335 for chromosome ( ( h ) /\ ( m ) )
Solutions (23): ( ( h ) /\ ( [] ( m ) ) ) | ( ( ( m ) /\ ( X ( p ) ) ) \/ ( [] ( h ) ) ) | ( ( [] ( h ) ) W ( ( ! ( h ) ) U ( ( m ) /\ ( X ( p ) ) ) ) ) | ( ( ( m ) /\ ( X ( p ) ) ) W ( [] ( h ) ) ) | ( ( ( h ) /\ ( [] ( m ) ) ) \/ ( [] ( <> ( ( h ) /\ ( X ( ! ( p ) ) ) ) ) ) ) | ( ( h ) /\ ( m ) ) | ( [] ( ( ( m ) /\ ( X ( p ) ) ) \/ ( [] ( h ) ) ) ) | ( <> ( ( ( m ) /\ ( X ( p ) ) ) \/ ( [] ( h ) ) ) ) | ( ( X ( ( m ) /\ ( X ( p ) ) ) ) \/ ( [] ( [] ( h ) ) ) ) | ( X ( ( h ) /\ ( m ) ) ) | ( X ( ( h ) /\ ( [] ( m ) ) ) ) | ( ( ( h ) /\ ( [] ( m ) ) ) W ( ( [] ( h ) ) W ( ( ! ( h ) ) U ( ( m ) /\ ( X ( p ) ) ) ) ) ) | ( <> ( ( h ) /\ ( m ) ) ) | ( <> ( ( h ) /\ ( [] ( m ) ) ) ) | ( X ( X ( ( h ) /\ ( [] ( m ) ) ) ) ) | ( ( X ( h ) ) W ( ( ! ( h ) ) U ( ( m ) /\ ( X ( p ) ) ) ) ) | ( ( X ( ( h ) /\ ( m ) ) ) \/ ( ( h ) /\ ( [] ( m ) ) ) ) | ( ( ( h ) /\ ( [] ( m ) ) ) /\ ( m ) ) | ( ( m ) /\ ( h ) ) | ( ( ( h ) /\ ( m ) ) /\ ( ( h ) /\ ( m ) ) ) | ( ( ( h ) /\ ( m ) ) U ( ( h ) /\ ( m ) ) ) | ( ( ( h ) /\ ( m ) ) W ( ( h ) /\ ( m ) ) ) | ( ( ( h ) /\ ( m ) ) \/ ( ( h ) /\ ( m ) ) ) | 
Generation Time :0
Accumulated Learning Time :7
CALLs: 71    TIMEOUTs: 0    ERRORs: 0
REEVALUATIONS: 1132 OF 2264

GENERATION 29/50
.....m.m.<;....m.m.<;....m.m.<;......m.m.<;...i.m.m.<;....m.m.<;....m.m.<;.....m.m.<;....m.m.<;
Fittest value: 2.8333333333333335 for chromosome ( ( h ) /\ ( m ) )
Solutions (23): ( ( h ) /\ ( [] ( m ) ) ) | ( ( ( m ) /\ ( X ( p ) ) ) \/ ( [] ( h ) ) ) | ( ( [] ( h ) ) W ( ( ! ( h ) ) U ( ( m ) /\ ( X ( p ) ) ) ) ) | ( ( ( m ) /\ ( X ( p ) ) ) W ( [] ( h ) ) ) | ( ( ( h ) /\ ( [] ( m ) ) ) \/ ( [] ( <> ( ( h ) /\ ( X ( ! ( p ) ) ) ) ) ) ) | ( ( h ) /\ ( m ) ) | ( [] ( ( ( m ) /\ ( X ( p ) ) ) \/ ( [] ( h ) ) ) ) | ( <> ( ( ( m ) /\ ( X ( p ) ) ) \/ ( [] ( h ) ) ) ) | ( ( X ( ( m ) /\ ( X ( p ) ) ) ) \/ ( [] ( [] ( h ) ) ) ) | ( X ( ( h ) /\ ( m ) ) ) | ( X ( ( h ) /\ ( [] ( m ) ) ) ) | ( ( ( h ) /\ ( [] ( m ) ) ) W ( ( [] ( h ) ) W ( ( ! ( h ) ) U ( ( m ) /\ ( X ( p ) ) ) ) ) ) | ( <> ( ( h ) /\ ( m ) ) ) | ( <> ( ( h ) /\ ( [] ( m ) ) ) ) | ( X ( X ( ( h ) /\ ( [] ( m ) ) ) ) ) | ( ( X ( h ) ) W ( ( ! ( h ) ) U ( ( m ) /\ ( X ( p ) ) ) ) ) | ( ( X ( ( h ) /\ ( m ) ) ) \/ ( ( h ) /\ ( [] ( m ) ) ) ) | ( ( ( h ) /\ ( [] ( m ) ) ) /\ ( m ) ) | ( ( m ) /\ ( h ) ) | ( ( ( h ) /\ ( m ) ) /\ ( ( h ) /\ ( m ) ) ) | ( ( ( h ) /\ ( m ) ) U ( ( h ) /\ ( m ) ) ) | ( ( ( h ) /\ ( m ) ) W ( ( h ) /\ ( m ) ) ) | ( ( ( h ) /\ ( m ) ) \/ ( ( h ) /\ ( m ) ) ) | 
Generation Time :0
Accumulated Learning Time :7
CALLs: 58    TIMEOUTs: 0    ERRORs: 0
REEVALUATIONS: 1200 OF 2344

GENERATION 30/50
....m.m.<;........m.m.<;....m.m.<;....m.m.<;.....m.m.<;
Fittest value: 2.8333333333333335 for chromosome ( ( h ) /\ ( m ) )
Solutions (23): ( ( h ) /\ ( [] ( m ) ) ) | ( ( ( m ) /\ ( X ( p ) ) ) \/ ( [] ( h ) ) ) | ( ( [] ( h ) ) W ( ( ! ( h ) ) U ( ( m ) /\ ( X ( p ) ) ) ) ) | ( ( ( m ) /\ ( X ( p ) ) ) W ( [] ( h ) ) ) | ( ( ( h ) /\ ( [] ( m ) ) ) \/ ( [] ( <> ( ( h ) /\ ( X ( ! ( p ) ) ) ) ) ) ) | ( ( h ) /\ ( m ) ) | ( [] ( ( ( m ) /\ ( X ( p ) ) ) \/ ( [] ( h ) ) ) ) | ( <> ( ( ( m ) /\ ( X ( p ) ) ) \/ ( [] ( h ) ) ) ) | ( ( X ( ( m ) /\ ( X ( p ) ) ) ) \/ ( [] ( [] ( h ) ) ) ) | ( X ( ( h ) /\ ( m ) ) ) | ( X ( ( h ) /\ ( [] ( m ) ) ) ) | ( ( ( h ) /\ ( [] ( m ) ) ) W ( ( [] ( h ) ) W ( ( ! ( h ) ) U ( ( m ) /\ ( X ( p ) ) ) ) ) ) | ( <> ( ( h ) /\ ( m ) ) ) | ( <> ( ( h ) /\ ( [] ( m ) ) ) ) | ( X ( X ( ( h ) /\ ( [] ( m ) ) ) ) ) | ( ( X ( h ) ) W ( ( ! ( h ) ) U ( ( m ) /\ ( X ( p ) ) ) ) ) | ( ( X ( ( h ) /\ ( m ) ) ) \/ ( ( h ) /\ ( [] ( m ) ) ) ) | ( ( ( h ) /\ ( [] ( m ) ) ) /\ ( m ) ) | ( ( m ) /\ ( h ) ) | ( ( ( h ) /\ ( m ) ) /\ ( ( h ) /\ ( m ) ) ) | ( ( ( h ) /\ ( m ) ) U ( ( h ) /\ ( m ) ) ) | ( ( ( h ) /\ ( m ) ) W ( ( h ) /\ ( m ) ) ) | ( ( ( h ) /\ ( m ) ) \/ ( ( h ) /\ ( m ) ) ) | 
Generation Time :0
Accumulated Learning Time :7
CALLs: 35    TIMEOUTs: 0    ERRORs: 0
REEVALUATIONS: 1271 OF 2423

GENERATION 31/50
......m.m.<;....m.m.<;....m.m.<;....m.m.<;....m.m.<;....m.m.<;....m.m.<;....m.m.<;......m.m.<;...i.m..<;
Fittest value: 2.8333333333333335 for chromosome ( ( h ) /\ ( m ) )
Solutions (23): ( ( h ) /\ ( [] ( m ) ) ) | ( ( ( m ) /\ ( X ( p ) ) ) \/ ( [] ( h ) ) ) | ( ( [] ( h ) ) W ( ( ! ( h ) ) U ( ( m ) /\ ( X ( p ) ) ) ) ) | ( ( ( m ) /\ ( X ( p ) ) ) W ( [] ( h ) ) ) | ( ( ( h ) /\ ( [] ( m ) ) ) \/ ( [] ( <> ( ( h ) /\ ( X ( ! ( p ) ) ) ) ) ) ) | ( ( h ) /\ ( m ) ) | ( [] ( ( ( m ) /\ ( X ( p ) ) ) \/ ( [] ( h ) ) ) ) | ( <> ( ( ( m ) /\ ( X ( p ) ) ) \/ ( [] ( h ) ) ) ) | ( ( X ( ( m ) /\ ( X ( p ) ) ) ) \/ ( [] ( [] ( h ) ) ) ) | ( X ( ( h ) /\ ( m ) ) ) | ( X ( ( h ) /\ ( [] ( m ) ) ) ) | ( ( ( h ) /\ ( [] ( m ) ) ) W ( ( [] ( h ) ) W ( ( ! ( h ) ) U ( ( m ) /\ ( X ( p ) ) ) ) ) ) | ( <> ( ( h ) /\ ( m ) ) ) | ( <> ( ( h ) /\ ( [] ( m ) ) ) ) | ( X ( X ( ( h ) /\ ( [] ( m ) ) ) ) ) | ( ( X ( h ) ) W ( ( ! ( h ) ) U ( ( m ) /\ ( X ( p ) ) ) ) ) | ( ( X ( ( h ) /\ ( m ) ) ) \/ ( ( h ) /\ ( [] ( m ) ) ) ) | ( ( ( h ) /\ ( [] ( m ) ) ) /\ ( m ) ) | ( ( m ) /\ ( h ) ) | ( ( ( h ) /\ ( m ) ) /\ ( ( h ) /\ ( m ) ) ) | ( ( ( h ) /\ ( m ) ) U ( ( h ) /\ ( m ) ) ) | ( ( ( h ) /\ ( m ) ) W ( ( h ) /\ ( m ) ) ) | ( ( ( h ) /\ ( m ) ) \/ ( ( h ) /\ ( m ) ) ) | 
Generation Time :0
Accumulated Learning Time :7
CALLs: 64    TIMEOUTs: 0    ERRORs: 0
REEVALUATIONS: 1337 OF 2502

GENERATION 32/50
....m.m.<;....m.m.<;....m.m.<;....m.m.<;....m.m.<;....m.m.<;.....i.m.m.<;...i.m.m.<;...i.m.m.<;...i.m.m.<;
Fittest value: 2.8333333333333335 for chromosome ( ( h ) /\ ( m ) )
Solutions (23): ( ( h ) /\ ( [] ( m ) ) ) | ( ( ( m ) /\ ( X ( p ) ) ) \/ ( [] ( h ) ) ) | ( ( [] ( h ) ) W ( ( ! ( h ) ) U ( ( m ) /\ ( X ( p ) ) ) ) ) | ( ( ( m ) /\ ( X ( p ) ) ) W ( [] ( h ) ) ) | ( ( ( h ) /\ ( [] ( m ) ) ) \/ ( [] ( <> ( ( h ) /\ ( X ( ! ( p ) ) ) ) ) ) ) | ( ( h ) /\ ( m ) ) | ( [] ( ( ( m ) /\ ( X ( p ) ) ) \/ ( [] ( h ) ) ) ) | ( <> ( ( ( m ) /\ ( X ( p ) ) ) \/ ( [] ( h ) ) ) ) | ( ( X ( ( m ) /\ ( X ( p ) ) ) ) \/ ( [] ( [] ( h ) ) ) ) | ( X ( ( h ) /\ ( m ) ) ) | ( X ( ( h ) /\ ( [] ( m ) ) ) ) | ( ( ( h ) /\ ( [] ( m ) ) ) W ( ( [] ( h ) ) W ( ( ! ( h ) ) U ( ( m ) /\ ( X ( p ) ) ) ) ) ) | ( <> ( ( h ) /\ ( m ) ) ) | ( <> ( ( h ) /\ ( [] ( m ) ) ) ) | ( X ( X ( ( h ) /\ ( [] ( m ) ) ) ) ) | ( ( X ( h ) ) W ( ( ! ( h ) ) U ( ( m ) /\ ( X ( p ) ) ) ) ) | ( ( X ( ( h ) /\ ( m ) ) ) \/ ( ( h ) /\ ( [] ( m ) ) ) ) | ( ( ( h ) /\ ( [] ( m ) ) ) /\ ( m ) ) | ( ( m ) /\ ( h ) ) | ( ( ( h ) /\ ( m ) ) /\ ( ( h ) /\ ( m ) ) ) | ( ( ( h ) /\ ( m ) ) U ( ( h ) /\ ( m ) ) ) | ( ( ( h ) /\ ( m ) ) W ( ( h ) /\ ( m ) ) ) | ( ( ( h ) /\ ( m ) ) \/ ( ( h ) /\ ( m ) ) ) | 
Generation Time :0
Accumulated Learning Time :7
CALLs: 62    TIMEOUTs: 0    ERRORs: 0
REEVALUATIONS: 1402 OF 2578

GENERATION 33/50
.....m.m.<;....m.m.<;....m.m.<;......m.m.<;..
Fittest value: 2.8333333333333335 for chromosome ( ( h ) /\ ( m ) )
Solutions (23): ( ( h ) /\ ( [] ( m ) ) ) | ( ( ( m ) /\ ( X ( p ) ) ) \/ ( [] ( h ) ) ) | ( ( [] ( h ) ) W ( ( ! ( h ) ) U ( ( m ) /\ ( X ( p ) ) ) ) ) | ( ( ( m ) /\ ( X ( p ) ) ) W ( [] ( h ) ) ) | ( ( ( h ) /\ ( [] ( m ) ) ) \/ ( [] ( <> ( ( h ) /\ ( X ( ! ( p ) ) ) ) ) ) ) | ( ( h ) /\ ( m ) ) | ( [] ( ( ( m ) /\ ( X ( p ) ) ) \/ ( [] ( h ) ) ) ) | ( <> ( ( ( m ) /\ ( X ( p ) ) ) \/ ( [] ( h ) ) ) ) | ( ( X ( ( m ) /\ ( X ( p ) ) ) ) \/ ( [] ( [] ( h ) ) ) ) | ( X ( ( h ) /\ ( m ) ) ) | ( X ( ( h ) /\ ( [] ( m ) ) ) ) | ( ( ( h ) /\ ( [] ( m ) ) ) W ( ( [] ( h ) ) W ( ( ! ( h ) ) U ( ( m ) /\ ( X ( p ) ) ) ) ) ) | ( <> ( ( h ) /\ ( m ) ) ) | ( <> ( ( h ) /\ ( [] ( m ) ) ) ) | ( X ( X ( ( h ) /\ ( [] ( m ) ) ) ) ) | ( ( X ( h ) ) W ( ( ! ( h ) ) U ( ( m ) /\ ( X ( p ) ) ) ) ) | ( ( X ( ( h ) /\ ( m ) ) ) \/ ( ( h ) /\ ( [] ( m ) ) ) ) | ( ( ( h ) /\ ( [] ( m ) ) ) /\ ( m ) ) | ( ( m ) /\ ( h ) ) | ( ( ( h ) /\ ( m ) ) /\ ( ( h ) /\ ( m ) ) ) | ( ( ( h ) /\ ( m ) ) U ( ( h ) /\ ( m ) ) ) | ( ( ( h ) /\ ( m ) ) W ( ( h ) /\ ( m ) ) ) | ( ( ( h ) /\ ( m ) ) \/ ( ( h ) /\ ( m ) ) ) | 
Generation Time :0
Accumulated Learning Time :7
CALLs: 29    TIMEOUTs: 0    ERRORs: 0
REEVALUATIONS: 1479 OF 2662

GENERATION 34/50
....m.m.<;....m.m.<;....m.m.<;......m.m.<;....m.m.<;...i.m.m.<;
Fittest value: 2.8333333333333335 for chromosome ( ( h ) /\ ( m ) )
Solutions (23): ( ( h ) /\ ( [] ( m ) ) ) | ( ( ( m ) /\ ( X ( p ) ) ) \/ ( [] ( h ) ) ) | ( ( [] ( h ) ) W ( ( ! ( h ) ) U ( ( m ) /\ ( X ( p ) ) ) ) ) | ( ( ( m ) /\ ( X ( p ) ) ) W ( [] ( h ) ) ) | ( ( ( h ) /\ ( [] ( m ) ) ) \/ ( [] ( <> ( ( h ) /\ ( X ( ! ( p ) ) ) ) ) ) ) | ( ( h ) /\ ( m ) ) | ( [] ( ( ( m ) /\ ( X ( p ) ) ) \/ ( [] ( h ) ) ) ) | ( <> ( ( ( m ) /\ ( X ( p ) ) ) \/ ( [] ( h ) ) ) ) | ( ( X ( ( m ) /\ ( X ( p ) ) ) ) \/ ( [] ( [] ( h ) ) ) ) | ( X ( ( h ) /\ ( m ) ) ) | ( X ( ( h ) /\ ( [] ( m ) ) ) ) | ( ( ( h ) /\ ( [] ( m ) ) ) W ( ( [] ( h ) ) W ( ( ! ( h ) ) U ( ( m ) /\ ( X ( p ) ) ) ) ) ) | ( <> ( ( h ) /\ ( m ) ) ) | ( <> ( ( h ) /\ ( [] ( m ) ) ) ) | ( X ( X ( ( h ) /\ ( [] ( m ) ) ) ) ) | ( ( X ( h ) ) W ( ( ! ( h ) ) U ( ( m ) /\ ( X ( p ) ) ) ) ) | ( ( X ( ( h ) /\ ( m ) ) ) \/ ( ( h ) /\ ( [] ( m ) ) ) ) | ( ( ( h ) /\ ( [] ( m ) ) ) /\ ( m ) ) | ( ( m ) /\ ( h ) ) | ( ( ( h ) /\ ( m ) ) /\ ( ( h ) /\ ( m ) ) ) | ( ( ( h ) /\ ( m ) ) U ( ( h ) /\ ( m ) ) ) | ( ( ( h ) /\ ( m ) ) W ( ( h ) /\ ( m ) ) ) | ( ( ( h ) /\ ( m ) ) \/ ( ( h ) /\ ( m ) ) ) | 
Generation Time :0
Accumulated Learning Time :7
CALLs: 38    TIMEOUTs: 0    ERRORs: 0
REEVALUATIONS: 1554 OF 2744

GENERATION 35/50
......m.m.<;....m.m.<;........i.m.m.<;...i.m.m.<;
Fittest value: 2.8333333333333335 for chromosome ( ( h ) /\ ( m ) )
Solutions (23): ( ( h ) /\ ( [] ( m ) ) ) | ( ( ( m ) /\ ( X ( p ) ) ) \/ ( [] ( h ) ) ) | ( ( [] ( h ) ) W ( ( ! ( h ) ) U ( ( m ) /\ ( X ( p ) ) ) ) ) | ( ( ( m ) /\ ( X ( p ) ) ) W ( [] ( h ) ) ) | ( ( ( h ) /\ ( [] ( m ) ) ) \/ ( [] ( <> ( ( h ) /\ ( X ( ! ( p ) ) ) ) ) ) ) | ( ( h ) /\ ( m ) ) | ( [] ( ( ( m ) /\ ( X ( p ) ) ) \/ ( [] ( h ) ) ) ) | ( <> ( ( ( m ) /\ ( X ( p ) ) ) \/ ( [] ( h ) ) ) ) | ( ( X ( ( m ) /\ ( X ( p ) ) ) ) \/ ( [] ( [] ( h ) ) ) ) | ( X ( ( h ) /\ ( m ) ) ) | ( X ( ( h ) /\ ( [] ( m ) ) ) ) | ( ( ( h ) /\ ( [] ( m ) ) ) W ( ( [] ( h ) ) W ( ( ! ( h ) ) U ( ( m ) /\ ( X ( p ) ) ) ) ) ) | ( <> ( ( h ) /\ ( m ) ) ) | ( <> ( ( h ) /\ ( [] ( m ) ) ) ) | ( X ( X ( ( h ) /\ ( [] ( m ) ) ) ) ) | ( ( X ( h ) ) W ( ( ! ( h ) ) U ( ( m ) /\ ( X ( p ) ) ) ) ) | ( ( X ( ( h ) /\ ( m ) ) ) \/ ( ( h ) /\ ( [] ( m ) ) ) ) | ( ( ( h ) /\ ( [] ( m ) ) ) /\ ( m ) ) | ( ( m ) /\ ( h ) ) | ( ( ( h ) /\ ( m ) ) /\ ( ( h ) /\ ( m ) ) ) | ( ( ( h ) /\ ( m ) ) U ( ( h ) /\ ( m ) ) ) | ( ( ( h ) /\ ( m ) ) W ( ( h ) /\ ( m ) ) ) | ( ( ( h ) /\ ( m ) ) \/ ( ( h ) /\ ( m ) ) ) | 
Generation Time :0
Accumulated Learning Time :7
CALLs: 31    TIMEOUTs: 0    ERRORs: 0
REEVALUATIONS: 1630 OF 2828

GENERATION 36/50
....m.m.<;......m.m.<;.......m.m.<;....m.m.<;....m.m.<;...i.m.m.<;
Fittest value: 2.8333333333333335 for chromosome ( ( h ) /\ ( m ) )
Solutions (23): ( ( h ) /\ ( [] ( m ) ) ) | ( ( ( m ) /\ ( X ( p ) ) ) \/ ( [] ( h ) ) ) | ( ( [] ( h ) ) W ( ( ! ( h ) ) U ( ( m ) /\ ( X ( p ) ) ) ) ) | ( ( ( m ) /\ ( X ( p ) ) ) W ( [] ( h ) ) ) | ( ( ( h ) /\ ( [] ( m ) ) ) \/ ( [] ( <> ( ( h ) /\ ( X ( ! ( p ) ) ) ) ) ) ) | ( ( h ) /\ ( m ) ) | ( [] ( ( ( m ) /\ ( X ( p ) ) ) \/ ( [] ( h ) ) ) ) | ( <> ( ( ( m ) /\ ( X ( p ) ) ) \/ ( [] ( h ) ) ) ) | ( ( X ( ( m ) /\ ( X ( p ) ) ) ) \/ ( [] ( [] ( h ) ) ) ) | ( X ( ( h ) /\ ( m ) ) ) | ( X ( ( h ) /\ ( [] ( m ) ) ) ) | ( ( ( h ) /\ ( [] ( m ) ) ) W ( ( [] ( h ) ) W ( ( ! ( h ) ) U ( ( m ) /\ ( X ( p ) ) ) ) ) ) | ( <> ( ( h ) /\ ( m ) ) ) | ( <> ( ( h ) /\ ( [] ( m ) ) ) ) | ( X ( X ( ( h ) /\ ( [] ( m ) ) ) ) ) | ( ( X ( h ) ) W ( ( ! ( h ) ) U ( ( m ) /\ ( X ( p ) ) ) ) ) | ( ( X ( ( h ) /\ ( m ) ) ) \/ ( ( h ) /\ ( [] ( m ) ) ) ) | ( ( ( h ) /\ ( [] ( m ) ) ) /\ ( m ) ) | ( ( m ) /\ ( h ) ) | ( ( ( h ) /\ ( m ) ) /\ ( ( h ) /\ ( m ) ) ) | ( ( ( h ) /\ ( m ) ) U ( ( h ) /\ ( m ) ) ) | ( ( ( h ) /\ ( m ) ) W ( ( h ) /\ ( m ) ) ) | ( ( ( h ) /\ ( m ) ) \/ ( ( h ) /\ ( m ) ) ) | 
Generation Time :0
Accumulated Learning Time :7
CALLs: 41    TIMEOUTs: 0    ERRORs: 0
REEVALUATIONS: 1700 OF 2907

GENERATION 37/50
....m.m.<;....m.m.<;....m.m.<;....m.m.<;....m.m.<;
Fittest value: 2.8333333333333335 for chromosome ( ( h ) /\ ( m ) )
Solutions (23): ( ( h ) /\ ( [] ( m ) ) ) | ( ( ( m ) /\ ( X ( p ) ) ) \/ ( [] ( h ) ) ) | ( ( [] ( h ) ) W ( ( ! ( h ) ) U ( ( m ) /\ ( X ( p ) ) ) ) ) | ( ( ( m ) /\ ( X ( p ) ) ) W ( [] ( h ) ) ) | ( ( ( h ) /\ ( [] ( m ) ) ) \/ ( [] ( <> ( ( h ) /\ ( X ( ! ( p ) ) ) ) ) ) ) | ( ( h ) /\ ( m ) ) | ( [] ( ( ( m ) /\ ( X ( p ) ) ) \/ ( [] ( h ) ) ) ) | ( <> ( ( ( m ) /\ ( X ( p ) ) ) \/ ( [] ( h ) ) ) ) | ( ( X ( ( m ) /\ ( X ( p ) ) ) ) \/ ( [] ( [] ( h ) ) ) ) | ( X ( ( h ) /\ ( m ) ) ) | ( X ( ( h ) /\ ( [] ( m ) ) ) ) | ( ( ( h ) /\ ( [] ( m ) ) ) W ( ( [] ( h ) ) W ( ( ! ( h ) ) U ( ( m ) /\ ( X ( p ) ) ) ) ) ) | ( <> ( ( h ) /\ ( m ) ) ) | ( <> ( ( h ) /\ ( [] ( m ) ) ) ) | ( X ( X ( ( h ) /\ ( [] ( m ) ) ) ) ) | ( ( X ( h ) ) W ( ( ! ( h ) ) U ( ( m ) /\ ( X ( p ) ) ) ) ) | ( ( X ( ( h ) /\ ( m ) ) ) \/ ( ( h ) /\ ( [] ( m ) ) ) ) | ( ( ( h ) /\ ( [] ( m ) ) ) /\ ( m ) ) | ( ( m ) /\ ( h ) ) | ( ( ( h ) /\ ( m ) ) /\ ( ( h ) /\ ( m ) ) ) | ( ( ( h ) /\ ( m ) ) U ( ( h ) /\ ( m ) ) ) | ( ( ( h ) /\ ( m ) ) W ( ( h ) /\ ( m ) ) ) | ( ( ( h ) /\ ( m ) ) \/ ( ( h ) /\ ( m ) ) ) | 
Generation Time :0
Accumulated Learning Time :7
CALLs: 30    TIMEOUTs: 0    ERRORs: 0
REEVALUATIONS: 1774 OF 2986

GENERATION 38/50
....m.m.<;.........m.m.<;....m.m.<;....m.m.<;....m.m.<;....m.m.<;....m.m.<;....m.m.<;....m.m.<;
Fittest value: 2.8333333333333335 for chromosome ( ( h ) /\ ( m ) )
Solutions (23): ( ( h ) /\ ( [] ( m ) ) ) | ( ( ( m ) /\ ( X ( p ) ) ) \/ ( [] ( h ) ) ) | ( ( [] ( h ) ) W ( ( ! ( h ) ) U ( ( m ) /\ ( X ( p ) ) ) ) ) | ( ( ( m ) /\ ( X ( p ) ) ) W ( [] ( h ) ) ) | ( ( ( h ) /\ ( [] ( m ) ) ) \/ ( [] ( <> ( ( h ) /\ ( X ( ! ( p ) ) ) ) ) ) ) | ( ( h ) /\ ( m ) ) | ( [] ( ( ( m ) /\ ( X ( p ) ) ) \/ ( [] ( h ) ) ) ) | ( <> ( ( ( m ) /\ ( X ( p ) ) ) \/ ( [] ( h ) ) ) ) | ( ( X ( ( m ) /\ ( X ( p ) ) ) ) \/ ( [] ( [] ( h ) ) ) ) | ( X ( ( h ) /\ ( m ) ) ) | ( X ( ( h ) /\ ( [] ( m ) ) ) ) | ( ( ( h ) /\ ( [] ( m ) ) ) W ( ( [] ( h ) ) W ( ( ! ( h ) ) U ( ( m ) /\ ( X ( p ) ) ) ) ) ) | ( <> ( ( h ) /\ ( m ) ) ) | ( <> ( ( h ) /\ ( [] ( m ) ) ) ) | ( X ( X ( ( h ) /\ ( [] ( m ) ) ) ) ) | ( ( X ( h ) ) W ( ( ! ( h ) ) U ( ( m ) /\ ( X ( p ) ) ) ) ) | ( ( X ( ( h ) /\ ( m ) ) ) \/ ( ( h ) /\ ( [] ( m ) ) ) ) | ( ( ( h ) /\ ( [] ( m ) ) ) /\ ( m ) ) | ( ( m ) /\ ( h ) ) | ( ( ( h ) /\ ( m ) ) /\ ( ( h ) /\ ( m ) ) ) | ( ( ( h ) /\ ( m ) ) U ( ( h ) /\ ( m ) ) ) | ( ( ( h ) /\ ( m ) ) W ( ( h ) /\ ( m ) ) ) | ( ( ( h ) /\ ( m ) ) \/ ( ( h ) /\ ( m ) ) ) | 
Generation Time :0
Accumulated Learning Time :7
CALLs: 59    TIMEOUTs: 0    ERRORs: 0
REEVALUATIONS: 1857 OF 3081

GENERATION 39/50
....m.m.<;.......m.m.<;
Fittest value: 2.8333333333333335 for chromosome ( ( h ) /\ ( m ) )
Solutions (23): ( ( h ) /\ ( [] ( m ) ) ) | ( ( ( m ) /\ ( X ( p ) ) ) \/ ( [] ( h ) ) ) | ( ( [] ( h ) ) W ( ( ! ( h ) ) U ( ( m ) /\ ( X ( p ) ) ) ) ) | ( ( ( m ) /\ ( X ( p ) ) ) W ( [] ( h ) ) ) | ( ( ( h ) /\ ( [] ( m ) ) ) \/ ( [] ( <> ( ( h ) /\ ( X ( ! ( p ) ) ) ) ) ) ) | ( ( h ) /\ ( m ) ) | ( [] ( ( ( m ) /\ ( X ( p ) ) ) \/ ( [] ( h ) ) ) ) | ( <> ( ( ( m ) /\ ( X ( p ) ) ) \/ ( [] ( h ) ) ) ) | ( ( X ( ( m ) /\ ( X ( p ) ) ) ) \/ ( [] ( [] ( h ) ) ) ) | ( X ( ( h ) /\ ( m ) ) ) | ( X ( ( h ) /\ ( [] ( m ) ) ) ) | ( ( ( h ) /\ ( [] ( m ) ) ) W ( ( [] ( h ) ) W ( ( ! ( h ) ) U ( ( m ) /\ ( X ( p ) ) ) ) ) ) | ( <> ( ( h ) /\ ( m ) ) ) | ( <> ( ( h ) /\ ( [] ( m ) ) ) ) | ( X ( X ( ( h ) /\ ( [] ( m ) ) ) ) ) | ( ( X ( h ) ) W ( ( ! ( h ) ) U ( ( m ) /\ ( X ( p ) ) ) ) ) | ( ( X ( ( h ) /\ ( m ) ) ) \/ ( ( h ) /\ ( [] ( m ) ) ) ) | ( ( ( h ) /\ ( [] ( m ) ) ) /\ ( m ) ) | ( ( m ) /\ ( h ) ) | ( ( ( h ) /\ ( m ) ) /\ ( ( h ) /\ ( m ) ) ) | ( ( ( h ) /\ ( m ) ) U ( ( h ) /\ ( m ) ) ) | ( ( ( h ) /\ ( m ) ) W ( ( h ) /\ ( m ) ) ) | ( ( ( h ) /\ ( m ) ) \/ ( ( h ) /\ ( m ) ) ) | 
Generation Time :0
Accumulated Learning Time :7
CALLs: 15    TIMEOUTs: 0    ERRORs: 0
REEVALUATIONS: 1935 OF 3163

GENERATION 40/50
....m.m.<;....m.m.<;....m.m.<;....m.m.<;....m.m.<;
Fittest value: 2.8333333333333335 for chromosome ( ( h ) /\ ( m ) )
Solutions (23): ( ( h ) /\ ( [] ( m ) ) ) | ( ( ( m ) /\ ( X ( p ) ) ) \/ ( [] ( h ) ) ) | ( ( [] ( h ) ) W ( ( ! ( h ) ) U ( ( m ) /\ ( X ( p ) ) ) ) ) | ( ( ( m ) /\ ( X ( p ) ) ) W ( [] ( h ) ) ) | ( ( ( h ) /\ ( [] ( m ) ) ) \/ ( [] ( <> ( ( h ) /\ ( X ( ! ( p ) ) ) ) ) ) ) | ( ( h ) /\ ( m ) ) | ( [] ( ( ( m ) /\ ( X ( p ) ) ) \/ ( [] ( h ) ) ) ) | ( <> ( ( ( m ) /\ ( X ( p ) ) ) \/ ( [] ( h ) ) ) ) | ( ( X ( ( m ) /\ ( X ( p ) ) ) ) \/ ( [] ( [] ( h ) ) ) ) | ( X ( ( h ) /\ ( m ) ) ) | ( X ( ( h ) /\ ( [] ( m ) ) ) ) | ( ( ( h ) /\ ( [] ( m ) ) ) W ( ( [] ( h ) ) W ( ( ! ( h ) ) U ( ( m ) /\ ( X ( p ) ) ) ) ) ) | ( <> ( ( h ) /\ ( m ) ) ) | ( <> ( ( h ) /\ ( [] ( m ) ) ) ) | ( X ( X ( ( h ) /\ ( [] ( m ) ) ) ) ) | ( ( X ( h ) ) W ( ( ! ( h ) ) U ( ( m ) /\ ( X ( p ) ) ) ) ) | ( ( X ( ( h ) /\ ( m ) ) ) \/ ( ( h ) /\ ( [] ( m ) ) ) ) | ( ( ( h ) /\ ( [] ( m ) ) ) /\ ( m ) ) | ( ( m ) /\ ( h ) ) | ( ( ( h ) /\ ( m ) ) /\ ( ( h ) /\ ( m ) ) ) | ( ( ( h ) /\ ( m ) ) U ( ( h ) /\ ( m ) ) ) | ( ( ( h ) /\ ( m ) ) W ( ( h ) /\ ( m ) ) ) | ( ( ( h ) /\ ( m ) ) \/ ( ( h ) /\ ( m ) ) ) | 
Generation Time :0
Accumulated Learning Time :7
CALLs: 30    TIMEOUTs: 0    ERRORs: 0
REEVALUATIONS: 2007 OF 3240

GENERATION 41/50
....m.m.<;....m.m.<;.....m.m.<;....m.m.<;....m.m.<;....i.m.m.<;
Fittest value: 2.8333333333333335 for chromosome ( ( h ) /\ ( m ) )
Solutions (23): ( ( h ) /\ ( [] ( m ) ) ) | ( ( ( m ) /\ ( X ( p ) ) ) \/ ( [] ( h ) ) ) | ( ( [] ( h ) ) W ( ( ! ( h ) ) U ( ( m ) /\ ( X ( p ) ) ) ) ) | ( ( ( m ) /\ ( X ( p ) ) ) W ( [] ( h ) ) ) | ( ( ( h ) /\ ( [] ( m ) ) ) \/ ( [] ( <> ( ( h ) /\ ( X ( ! ( p ) ) ) ) ) ) ) | ( ( h ) /\ ( m ) ) | ( [] ( ( ( m ) /\ ( X ( p ) ) ) \/ ( [] ( h ) ) ) ) | ( <> ( ( ( m ) /\ ( X ( p ) ) ) \/ ( [] ( h ) ) ) ) | ( ( X ( ( m ) /\ ( X ( p ) ) ) ) \/ ( [] ( [] ( h ) ) ) ) | ( X ( ( h ) /\ ( m ) ) ) | ( X ( ( h ) /\ ( [] ( m ) ) ) ) | ( ( ( h ) /\ ( [] ( m ) ) ) W ( ( [] ( h ) ) W ( ( ! ( h ) ) U ( ( m ) /\ ( X ( p ) ) ) ) ) ) | ( <> ( ( h ) /\ ( m ) ) ) | ( <> ( ( h ) /\ ( [] ( m ) ) ) ) | ( X ( X ( ( h ) /\ ( [] ( m ) ) ) ) ) | ( ( X ( h ) ) W ( ( ! ( h ) ) U ( ( m ) /\ ( X ( p ) ) ) ) ) | ( ( X ( ( h ) /\ ( m ) ) ) \/ ( ( h ) /\ ( [] ( m ) ) ) ) | ( ( ( h ) /\ ( [] ( m ) ) ) /\ ( m ) ) | ( ( m ) /\ ( h ) ) | ( ( ( h ) /\ ( m ) ) /\ ( ( h ) /\ ( m ) ) ) | ( ( ( h ) /\ ( m ) ) U ( ( h ) /\ ( m ) ) ) | ( ( ( h ) /\ ( m ) ) W ( ( h ) /\ ( m ) ) ) | ( ( ( h ) /\ ( m ) ) \/ ( ( h ) /\ ( m ) ) ) | 
Generation Time :0
Accumulated Learning Time :7
CALLs: 38    TIMEOUTs: 0    ERRORs: 0
REEVALUATIONS: 2088 OF 3329

GENERATION 42/50
....m.m.<;....m.m.<;....m.m.<;....m.m.<;...i.m.m.<;
Fittest value: 2.8333333333333335 for chromosome ( ( h ) /\ ( m ) )
Solutions (23): ( ( h ) /\ ( [] ( m ) ) ) | ( ( ( m ) /\ ( X ( p ) ) ) \/ ( [] ( h ) ) ) | ( ( [] ( h ) ) W ( ( ! ( h ) ) U ( ( m ) /\ ( X ( p ) ) ) ) ) | ( ( ( m ) /\ ( X ( p ) ) ) W ( [] ( h ) ) ) | ( ( ( h ) /\ ( [] ( m ) ) ) \/ ( [] ( <> ( ( h ) /\ ( X ( ! ( p ) ) ) ) ) ) ) | ( ( h ) /\ ( m ) ) | ( [] ( ( ( m ) /\ ( X ( p ) ) ) \/ ( [] ( h ) ) ) ) | ( <> ( ( ( m ) /\ ( X ( p ) ) ) \/ ( [] ( h ) ) ) ) | ( ( X ( ( m ) /\ ( X ( p ) ) ) ) \/ ( [] ( [] ( h ) ) ) ) | ( X ( ( h ) /\ ( m ) ) ) | ( X ( ( h ) /\ ( [] ( m ) ) ) ) | ( ( ( h ) /\ ( [] ( m ) ) ) W ( ( [] ( h ) ) W ( ( ! ( h ) ) U ( ( m ) /\ ( X ( p ) ) ) ) ) ) | ( <> ( ( h ) /\ ( m ) ) ) | ( <> ( ( h ) /\ ( [] ( m ) ) ) ) | ( X ( X ( ( h ) /\ ( [] ( m ) ) ) ) ) | ( ( X ( h ) ) W ( ( ! ( h ) ) U ( ( m ) /\ ( X ( p ) ) ) ) ) | ( ( X ( ( h ) /\ ( m ) ) ) \/ ( ( h ) /\ ( [] ( m ) ) ) ) | ( ( ( h ) /\ ( [] ( m ) ) ) /\ ( m ) ) | ( ( m ) /\ ( h ) ) | ( ( ( h ) /\ ( m ) ) /\ ( ( h ) /\ ( m ) ) ) | ( ( ( h ) /\ ( m ) ) U ( ( h ) /\ ( m ) ) ) | ( ( ( h ) /\ ( m ) ) W ( ( h ) /\ ( m ) ) ) | ( ( ( h ) /\ ( m ) ) \/ ( ( h ) /\ ( m ) ) ) | 
Generation Time :0
Accumulated Learning Time :7
CALLs: 30    TIMEOUTs: 0    ERRORs: 0
REEVALUATIONS: 2163 OF 3409

GENERATION 43/50
......m.m.<;
Fittest value: 2.8333333333333335 for chromosome ( ( h ) /\ ( m ) )
Solutions (23): ( ( h ) /\ ( [] ( m ) ) ) | ( ( ( m ) /\ ( X ( p ) ) ) \/ ( [] ( h ) ) ) | ( ( [] ( h ) ) W ( ( ! ( h ) ) U ( ( m ) /\ ( X ( p ) ) ) ) ) | ( ( ( m ) /\ ( X ( p ) ) ) W ( [] ( h ) ) ) | ( ( ( h ) /\ ( [] ( m ) ) ) \/ ( [] ( <> ( ( h ) /\ ( X ( ! ( p ) ) ) ) ) ) ) | ( ( h ) /\ ( m ) ) | ( [] ( ( ( m ) /\ ( X ( p ) ) ) \/ ( [] ( h ) ) ) ) | ( <> ( ( ( m ) /\ ( X ( p ) ) ) \/ ( [] ( h ) ) ) ) | ( ( X ( ( m ) /\ ( X ( p ) ) ) ) \/ ( [] ( [] ( h ) ) ) ) | ( X ( ( h ) /\ ( m ) ) ) | ( X ( ( h ) /\ ( [] ( m ) ) ) ) | ( ( ( h ) /\ ( [] ( m ) ) ) W ( ( [] ( h ) ) W ( ( ! ( h ) ) U ( ( m ) /\ ( X ( p ) ) ) ) ) ) | ( <> ( ( h ) /\ ( m ) ) ) | ( <> ( ( h ) /\ ( [] ( m ) ) ) ) | ( X ( X ( ( h ) /\ ( [] ( m ) ) ) ) ) | ( ( X ( h ) ) W ( ( ! ( h ) ) U ( ( m ) /\ ( X ( p ) ) ) ) ) | ( ( X ( ( h ) /\ ( m ) ) ) \/ ( ( h ) /\ ( [] ( m ) ) ) ) | ( ( ( h ) /\ ( [] ( m ) ) ) /\ ( m ) ) | ( ( m ) /\ ( h ) ) | ( ( ( h ) /\ ( m ) ) /\ ( ( h ) /\ ( m ) ) ) | ( ( ( h ) /\ ( m ) ) U ( ( h ) /\ ( m ) ) ) | ( ( ( h ) /\ ( m ) ) W ( ( h ) /\ ( m ) ) ) | ( ( ( h ) /\ ( m ) ) \/ ( ( h ) /\ ( m ) ) ) | 
Generation Time :0
Accumulated Learning Time :7
CALLs: 8    TIMEOUTs: 0    ERRORs: 0
REEVALUATIONS: 2241 OF 3489

GENERATION 44/50
....m.m.<;....m.m.<;
Fittest value: 2.8333333333333335 for chromosome ( ( h ) /\ ( m ) )
Solutions (23): ( ( h ) /\ ( [] ( m ) ) ) | ( ( ( m ) /\ ( X ( p ) ) ) \/ ( [] ( h ) ) ) | ( ( [] ( h ) ) W ( ( ! ( h ) ) U ( ( m ) /\ ( X ( p ) ) ) ) ) | ( ( ( m ) /\ ( X ( p ) ) ) W ( [] ( h ) ) ) | ( ( ( h ) /\ ( [] ( m ) ) ) \/ ( [] ( <> ( ( h ) /\ ( X ( ! ( p ) ) ) ) ) ) ) | ( ( h ) /\ ( m ) ) | ( [] ( ( ( m ) /\ ( X ( p ) ) ) \/ ( [] ( h ) ) ) ) | ( <> ( ( ( m ) /\ ( X ( p ) ) ) \/ ( [] ( h ) ) ) ) | ( ( X ( ( m ) /\ ( X ( p ) ) ) ) \/ ( [] ( [] ( h ) ) ) ) | ( X ( ( h ) /\ ( m ) ) ) | ( X ( ( h ) /\ ( [] ( m ) ) ) ) | ( ( ( h ) /\ ( [] ( m ) ) ) W ( ( [] ( h ) ) W ( ( ! ( h ) ) U ( ( m ) /\ ( X ( p ) ) ) ) ) ) | ( <> ( ( h ) /\ ( m ) ) ) | ( <> ( ( h ) /\ ( [] ( m ) ) ) ) | ( X ( X ( ( h ) /\ ( [] ( m ) ) ) ) ) | ( ( X ( h ) ) W ( ( ! ( h ) ) U ( ( m ) /\ ( X ( p ) ) ) ) ) | ( ( X ( ( h ) /\ ( m ) ) ) \/ ( ( h ) /\ ( [] ( m ) ) ) ) | ( ( ( h ) /\ ( [] ( m ) ) ) /\ ( m ) ) | ( ( m ) /\ ( h ) ) | ( ( ( h ) /\ ( m ) ) /\ ( ( h ) /\ ( m ) ) ) | ( ( ( h ) /\ ( m ) ) U ( ( h ) /\ ( m ) ) ) | ( ( ( h ) /\ ( m ) ) W ( ( h ) /\ ( m ) ) ) | ( ( ( h ) /\ ( m ) ) \/ ( ( h ) /\ ( m ) ) ) | 
Generation Time :0
Accumulated Learning Time :7
CALLs: 12    TIMEOUTs: 0    ERRORs: 0
REEVALUATIONS: 2312 OF 3562

GENERATION 45/50

Fittest value: 2.8333333333333335 for chromosome ( ( h ) /\ ( m ) )
Solutions (23): ( ( h ) /\ ( [] ( m ) ) ) | ( ( ( m ) /\ ( X ( p ) ) ) \/ ( [] ( h ) ) ) | ( ( [] ( h ) ) W ( ( ! ( h ) ) U ( ( m ) /\ ( X ( p ) ) ) ) ) | ( ( ( m ) /\ ( X ( p ) ) ) W ( [] ( h ) ) ) | ( ( ( h ) /\ ( [] ( m ) ) ) \/ ( [] ( <> ( ( h ) /\ ( X ( ! ( p ) ) ) ) ) ) ) | ( ( h ) /\ ( m ) ) | ( [] ( ( ( m ) /\ ( X ( p ) ) ) \/ ( [] ( h ) ) ) ) | ( <> ( ( ( m ) /\ ( X ( p ) ) ) \/ ( [] ( h ) ) ) ) | ( ( X ( ( m ) /\ ( X ( p ) ) ) ) \/ ( [] ( [] ( h ) ) ) ) | ( X ( ( h ) /\ ( m ) ) ) | ( X ( ( h ) /\ ( [] ( m ) ) ) ) | ( ( ( h ) /\ ( [] ( m ) ) ) W ( ( [] ( h ) ) W ( ( ! ( h ) ) U ( ( m ) /\ ( X ( p ) ) ) ) ) ) | ( <> ( ( h ) /\ ( m ) ) ) | ( <> ( ( h ) /\ ( [] ( m ) ) ) ) | ( X ( X ( ( h ) /\ ( [] ( m ) ) ) ) ) | ( ( X ( h ) ) W ( ( ! ( h ) ) U ( ( m ) /\ ( X ( p ) ) ) ) ) | ( ( X ( ( h ) /\ ( m ) ) ) \/ ( ( h ) /\ ( [] ( m ) ) ) ) | ( ( ( h ) /\ ( [] ( m ) ) ) /\ ( m ) ) | ( ( m ) /\ ( h ) ) | ( ( ( h ) /\ ( m ) ) /\ ( ( h ) /\ ( m ) ) ) | ( ( ( h ) /\ ( m ) ) U ( ( h ) /\ ( m ) ) ) | ( ( ( h ) /\ ( m ) ) W ( ( h ) /\ ( m ) ) ) | ( ( ( h ) /\ ( m ) ) \/ ( ( h ) /\ ( m ) ) ) | 
Generation Time :0
Accumulated Learning Time :7
CALLs: 0    TIMEOUTs: 0    ERRORs: 0
REEVALUATIONS: 2394 OF 3644

GENERATION 46/50
....m.m.<;....m.m.<;..
Fittest value: 2.8333333333333335 for chromosome ( ( h ) /\ ( m ) )
Solutions (23): ( ( h ) /\ ( [] ( m ) ) ) | ( ( ( m ) /\ ( X ( p ) ) ) \/ ( [] ( h ) ) ) | ( ( [] ( h ) ) W ( ( ! ( h ) ) U ( ( m ) /\ ( X ( p ) ) ) ) ) | ( ( ( m ) /\ ( X ( p ) ) ) W ( [] ( h ) ) ) | ( ( ( h ) /\ ( [] ( m ) ) ) \/ ( [] ( <> ( ( h ) /\ ( X ( ! ( p ) ) ) ) ) ) ) | ( ( h ) /\ ( m ) ) | ( [] ( ( ( m ) /\ ( X ( p ) ) ) \/ ( [] ( h ) ) ) ) | ( <> ( ( ( m ) /\ ( X ( p ) ) ) \/ ( [] ( h ) ) ) ) | ( ( X ( ( m ) /\ ( X ( p ) ) ) ) \/ ( [] ( [] ( h ) ) ) ) | ( X ( ( h ) /\ ( m ) ) ) | ( X ( ( h ) /\ ( [] ( m ) ) ) ) | ( ( ( h ) /\ ( [] ( m ) ) ) W ( ( [] ( h ) ) W ( ( ! ( h ) ) U ( ( m ) /\ ( X ( p ) ) ) ) ) ) | ( <> ( ( h ) /\ ( m ) ) ) | ( <> ( ( h ) /\ ( [] ( m ) ) ) ) | ( X ( X ( ( h ) /\ ( [] ( m ) ) ) ) ) | ( ( X ( h ) ) W ( ( ! ( h ) ) U ( ( m ) /\ ( X ( p ) ) ) ) ) | ( ( X ( ( h ) /\ ( m ) ) ) \/ ( ( h ) /\ ( [] ( m ) ) ) ) | ( ( ( h ) /\ ( [] ( m ) ) ) /\ ( m ) ) | ( ( m ) /\ ( h ) ) | ( ( ( h ) /\ ( m ) ) /\ ( ( h ) /\ ( m ) ) ) | ( ( ( h ) /\ ( m ) ) U ( ( h ) /\ ( m ) ) ) | ( ( ( h ) /\ ( m ) ) W ( ( h ) /\ ( m ) ) ) | ( ( ( h ) /\ ( m ) ) \/ ( ( h ) /\ ( m ) ) ) | 
Generation Time :0
Accumulated Learning Time :7
CALLs: 14    TIMEOUTs: 0    ERRORs: 0
REEVALUATIONS: 2480 OF 3734

GENERATION 47/50
........m.m.<;....m.m.<;....m.m.<;
Fittest value: 2.8333333333333335 for chromosome ( ( h ) /\ ( m ) )
Solutions (23): ( ( h ) /\ ( [] ( m ) ) ) | ( ( ( m ) /\ ( X ( p ) ) ) \/ ( [] ( h ) ) ) | ( ( [] ( h ) ) W ( ( ! ( h ) ) U ( ( m ) /\ ( X ( p ) ) ) ) ) | ( ( ( m ) /\ ( X ( p ) ) ) W ( [] ( h ) ) ) | ( ( ( h ) /\ ( [] ( m ) ) ) \/ ( [] ( <> ( ( h ) /\ ( X ( ! ( p ) ) ) ) ) ) ) | ( ( h ) /\ ( m ) ) | ( [] ( ( ( m ) /\ ( X ( p ) ) ) \/ ( [] ( h ) ) ) ) | ( <> ( ( ( m ) /\ ( X ( p ) ) ) \/ ( [] ( h ) ) ) ) | ( ( X ( ( m ) /\ ( X ( p ) ) ) ) \/ ( [] ( [] ( h ) ) ) ) | ( X ( ( h ) /\ ( m ) ) ) | ( X ( ( h ) /\ ( [] ( m ) ) ) ) | ( ( ( h ) /\ ( [] ( m ) ) ) W ( ( [] ( h ) ) W ( ( ! ( h ) ) U ( ( m ) /\ ( X ( p ) ) ) ) ) ) | ( <> ( ( h ) /\ ( m ) ) ) | ( <> ( ( h ) /\ ( [] ( m ) ) ) ) | ( X ( X ( ( h ) /\ ( [] ( m ) ) ) ) ) | ( ( X ( h ) ) W ( ( ! ( h ) ) U ( ( m ) /\ ( X ( p ) ) ) ) ) | ( ( X ( ( h ) /\ ( m ) ) ) \/ ( ( h ) /\ ( [] ( m ) ) ) ) | ( ( ( h ) /\ ( [] ( m ) ) ) /\ ( m ) ) | ( ( m ) /\ ( h ) ) | ( ( ( h ) /\ ( m ) ) /\ ( ( h ) /\ ( m ) ) ) | ( ( ( h ) /\ ( m ) ) U ( ( h ) /\ ( m ) ) ) | ( ( ( h ) /\ ( m ) ) W ( ( h ) /\ ( m ) ) ) | ( ( ( h ) /\ ( m ) ) \/ ( ( h ) /\ ( m ) ) ) | 
Generation Time :0
Accumulated Learning Time :7
CALLs: 22    TIMEOUTs: 0    ERRORs: 0
REEVALUATIONS: 2559 OF 3818

GENERATION 48/50
....m.m.<;
Fittest value: 2.8333333333333335 for chromosome ( ( h ) /\ ( m ) )
Solutions (23): ( ( h ) /\ ( [] ( m ) ) ) | ( ( ( m ) /\ ( X ( p ) ) ) \/ ( [] ( h ) ) ) | ( ( [] ( h ) ) W ( ( ! ( h ) ) U ( ( m ) /\ ( X ( p ) ) ) ) ) | ( ( ( m ) /\ ( X ( p ) ) ) W ( [] ( h ) ) ) | ( ( ( h ) /\ ( [] ( m ) ) ) \/ ( [] ( <> ( ( h ) /\ ( X ( ! ( p ) ) ) ) ) ) ) | ( ( h ) /\ ( m ) ) | ( [] ( ( ( m ) /\ ( X ( p ) ) ) \/ ( [] ( h ) ) ) ) | ( <> ( ( ( m ) /\ ( X ( p ) ) ) \/ ( [] ( h ) ) ) ) | ( ( X ( ( m ) /\ ( X ( p ) ) ) ) \/ ( [] ( [] ( h ) ) ) ) | ( X ( ( h ) /\ ( m ) ) ) | ( X ( ( h ) /\ ( [] ( m ) ) ) ) | ( ( ( h ) /\ ( [] ( m ) ) ) W ( ( [] ( h ) ) W ( ( ! ( h ) ) U ( ( m ) /\ ( X ( p ) ) ) ) ) ) | ( <> ( ( h ) /\ ( m ) ) ) | ( <> ( ( h ) /\ ( [] ( m ) ) ) ) | ( X ( X ( ( h ) /\ ( [] ( m ) ) ) ) ) | ( ( X ( h ) ) W ( ( ! ( h ) ) U ( ( m ) /\ ( X ( p ) ) ) ) ) | ( ( X ( ( h ) /\ ( m ) ) ) \/ ( ( h ) /\ ( [] ( m ) ) ) ) | ( ( ( h ) /\ ( [] ( m ) ) ) /\ ( m ) ) | ( ( m ) /\ ( h ) ) | ( ( ( h ) /\ ( m ) ) /\ ( ( h ) /\ ( m ) ) ) | ( ( ( h ) /\ ( m ) ) U ( ( h ) /\ ( m ) ) ) | ( ( ( h ) /\ ( m ) ) W ( ( h ) /\ ( m ) ) ) | ( ( ( h ) /\ ( m ) ) \/ ( ( h ) /\ ( m ) ) ) | 
Generation Time :0
Accumulated Learning Time :7
CALLs: 6    TIMEOUTs: 0    ERRORs: 0
REEVALUATIONS: 2642 OF 3902

GENERATION 49/50
....m.m.<;....i.m.m.<;
Fittest value: 2.8333333333333335 for chromosome ( ( h ) /\ ( m ) )
Solutions (23): ( ( h ) /\ ( [] ( m ) ) ) | ( ( ( m ) /\ ( X ( p ) ) ) \/ ( [] ( h ) ) ) | ( ( [] ( h ) ) W ( ( ! ( h ) ) U ( ( m ) /\ ( X ( p ) ) ) ) ) | ( ( ( m ) /\ ( X ( p ) ) ) W ( [] ( h ) ) ) | ( ( ( h ) /\ ( [] ( m ) ) ) \/ ( [] ( <> ( ( h ) /\ ( X ( ! ( p ) ) ) ) ) ) ) | ( ( h ) /\ ( m ) ) | ( [] ( ( ( m ) /\ ( X ( p ) ) ) \/ ( [] ( h ) ) ) ) | ( <> ( ( ( m ) /\ ( X ( p ) ) ) \/ ( [] ( h ) ) ) ) | ( ( X ( ( m ) /\ ( X ( p ) ) ) ) \/ ( [] ( [] ( h ) ) ) ) | ( X ( ( h ) /\ ( m ) ) ) | ( X ( ( h ) /\ ( [] ( m ) ) ) ) | ( ( ( h ) /\ ( [] ( m ) ) ) W ( ( [] ( h ) ) W ( ( ! ( h ) ) U ( ( m ) /\ ( X ( p ) ) ) ) ) ) | ( <> ( ( h ) /\ ( m ) ) ) | ( <> ( ( h ) /\ ( [] ( m ) ) ) ) | ( X ( X ( ( h ) /\ ( [] ( m ) ) ) ) ) | ( ( X ( h ) ) W ( ( ! ( h ) ) U ( ( m ) /\ ( X ( p ) ) ) ) ) | ( ( X ( ( h ) /\ ( m ) ) ) \/ ( ( h ) /\ ( [] ( m ) ) ) ) | ( ( ( h ) /\ ( [] ( m ) ) ) /\ ( m ) ) | ( ( m ) /\ ( h ) ) | ( ( ( h ) /\ ( m ) ) /\ ( ( h ) /\ ( m ) ) ) | ( ( ( h ) /\ ( m ) ) U ( ( h ) /\ ( m ) ) ) | ( ( ( h ) /\ ( m ) ) W ( ( h ) /\ ( m ) ) ) | ( ( ( h ) /\ ( m ) ) \/ ( ( h ) /\ ( m ) ) ) | 
Generation Time :0
Accumulated Learning Time :7
CALLs: 13    TIMEOUTs: 0    ERRORs: 0
REEVALUATIONS: 2721 OF 3984

GENERATION 50/50
...i.m.m.<;
Fittest value: 2.8333333333333335 for chromosome ( ( h ) /\ ( m ) )
Solutions (23): ( ( h ) /\ ( [] ( m ) ) ) | ( ( ( m ) /\ ( X ( p ) ) ) \/ ( [] ( h ) ) ) | ( ( [] ( h ) ) W ( ( ! ( h ) ) U ( ( m ) /\ ( X ( p ) ) ) ) ) | ( ( ( m ) /\ ( X ( p ) ) ) W ( [] ( h ) ) ) | ( ( ( h ) /\ ( [] ( m ) ) ) \/ ( [] ( <> ( ( h ) /\ ( X ( ! ( p ) ) ) ) ) ) ) | ( ( h ) /\ ( m ) ) | ( [] ( ( ( m ) /\ ( X ( p ) ) ) \/ ( [] ( h ) ) ) ) | ( <> ( ( ( m ) /\ ( X ( p ) ) ) \/ ( [] ( h ) ) ) ) | ( ( X ( ( m ) /\ ( X ( p ) ) ) ) \/ ( [] ( [] ( h ) ) ) ) | ( X ( ( h ) /\ ( m ) ) ) | ( X ( ( h ) /\ ( [] ( m ) ) ) ) | ( ( ( h ) /\ ( [] ( m ) ) ) W ( ( [] ( h ) ) W ( ( ! ( h ) ) U ( ( m ) /\ ( X ( p ) ) ) ) ) ) | ( <> ( ( h ) /\ ( m ) ) ) | ( <> ( ( h ) /\ ( [] ( m ) ) ) ) | ( X ( X ( ( h ) /\ ( [] ( m ) ) ) ) ) | ( ( X ( h ) ) W ( ( ! ( h ) ) U ( ( m ) /\ ( X ( p ) ) ) ) ) | ( ( X ( ( h ) /\ ( m ) ) ) \/ ( ( h ) /\ ( [] ( m ) ) ) ) | ( ( ( h ) /\ ( [] ( m ) ) ) /\ ( m ) ) | ( ( m ) /\ ( h ) ) | ( ( ( h ) /\ ( m ) ) /\ ( ( h ) /\ ( m ) ) ) | ( ( ( h ) /\ ( m ) ) U ( ( h ) /\ ( m ) ) ) | ( ( ( h ) /\ ( m ) ) W ( ( h ) /\ ( m ) ) ) | ( ( ( h ) /\ ( m ) ) \/ ( ( h ) /\ ( m ) ) ) | 
Generation Time :0
Accumulated Learning Time :7
CALLs: 6    TIMEOUTs: 0    ERRORs: 0
REEVALUATIONS: 2804 OF 4068


TOTAL Learing Time :7

Solutions: 23
( ( h ) /\ ( [] ( m ) ) )
( ( ( m ) /\ ( X ( p ) ) ) \/ ( [] ( h ) ) )
( ( [] ( h ) ) W ( ( ! ( h ) ) U ( ( m ) /\ ( X ( p ) ) ) ) )
( ( ( m ) /\ ( X ( p ) ) ) W ( [] ( h ) ) )
( ( ( h ) /\ ( [] ( m ) ) ) \/ ( [] ( <> ( ( h ) /\ ( X ( ! ( p ) ) ) ) ) ) )
( ( h ) /\ ( m ) )
( [] ( ( ( m ) /\ ( X ( p ) ) ) \/ ( [] ( h ) ) ) )
( <> ( ( ( m ) /\ ( X ( p ) ) ) \/ ( [] ( h ) ) ) )
( ( X ( ( m ) /\ ( X ( p ) ) ) ) \/ ( [] ( [] ( h ) ) ) )
( X ( ( h ) /\ ( m ) ) )
( X ( ( h ) /\ ( [] ( m ) ) ) )
( ( ( h ) /\ ( [] ( m ) ) ) W ( ( [] ( h ) ) W ( ( ! ( h ) ) U ( ( m ) /\ ( X ( p ) ) ) ) ) )
( <> ( ( h ) /\ ( m ) ) )
( <> ( ( h ) /\ ( [] ( m ) ) ) )
( X ( X ( ( h ) /\ ( [] ( m ) ) ) ) )
( ( X ( h ) ) W ( ( ! ( h ) ) U ( ( m ) /\ ( X ( p ) ) ) ) )
( ( X ( ( h ) /\ ( m ) ) ) \/ ( ( h ) /\ ( [] ( m ) ) ) )
( ( ( h ) /\ ( [] ( m ) ) ) /\ ( m ) )
( ( m ) /\ ( h ) )
( ( ( h ) /\ ( m ) ) /\ ( ( h ) /\ ( m ) ) )
( ( ( h ) /\ ( m ) ) U ( ( h ) /\ ( m ) ) )
( ( ( h ) /\ ( m ) ) W ( ( h ) /\ ( m ) ) )
( ( ( h ) /\ ( m ) ) \/ ( ( h ) /\ ( m ) ) )

..............................................................................................................................................................................
Non Equivalent Solutions: 16
( ( h ) /\ ( [] ( m ) ) )
( ( ( m ) /\ ( X ( p ) ) ) \/ ( [] ( h ) ) )
( ( [] ( h ) ) W ( ( ! ( h ) ) U ( ( m ) /\ ( X ( p ) ) ) ) )
( ( ( m ) /\ ( X ( p ) ) ) W ( [] ( h ) ) )
( ( ( h ) /\ ( [] ( m ) ) ) \/ ( [] ( <> ( ( h ) /\ ( X ( ! ( p ) ) ) ) ) ) )
( ( h ) /\ ( m ) )
( <> ( ( ( m ) /\ ( X ( p ) ) ) \/ ( [] ( h ) ) ) )
( ( X ( ( m ) /\ ( X ( p ) ) ) ) \/ ( [] ( [] ( h ) ) ) )
( X ( ( h ) /\ ( m ) ) )
( X ( ( h ) /\ ( [] ( m ) ) ) )
( ( ( h ) /\ ( [] ( m ) ) ) W ( ( [] ( h ) ) W ( ( ! ( h ) ) U ( ( m ) /\ ( X ( p ) ) ) ) ) )
( <> ( ( h ) /\ ( m ) ) )
( <> ( ( h ) /\ ( [] ( m ) ) ) )
( X ( X ( ( h ) /\ ( [] ( m ) ) ) ) )
( ( X ( h ) ) W ( ( ! ( h ) ) U ( ( m ) /\ ( X ( p ) ) ) ) )
( ( X ( ( h ) /\ ( m ) ) ) \/ ( ( h ) /\ ( [] ( m ) ) ) )
...................................................................................................................................................
Weakest Solutions: 3
( ( ( h ) /\ ( [] ( m ) ) ) \/ ( [] ( <> ( ( h ) /\ ( X ( ! ( p ) ) ) ) ) ) )
( <> ( ( ( m ) /\ ( X ( p ) ) ) \/ ( [] ( h ) ) ) )
( <> ( ( h ) /\ ( m ) ) )
TOTAL Time :8
CALLs: 6614    TIMEOUTs: 0    ERRORs: 0
CONFIGURATION
#Population: 100    #Iterations: 50    #ChromSize: 20
REEVALUATIONS: 2804 OF 4068
