DOM: [[] ( X(open) -> atfloor)]
GOALS: [[](call -> <>(open))]
Initial population size: 22
Total population size: 100

GENERATION 1/50
....m.<;....m.<;....m.<;....m.<;....m.<;....m.<;....m.<;....m.<;....m.<;...i..<;....m.<;...i.m.<;....m.<;....m.<;....m.<;...i.m.;....m.<;...i..<;.......m.<;.....m.<;....m.<;......m.<;....m.<;....m.<;....m.<;....m.;......m.<;....m.<;....m.<;
Fittest value: 2.75 for chromosome ( ( call ) /\ ( [] ( ! ( open ) ) ) )
Solutions (1): ( ( call ) /\ ( [] ( ! ( open ) ) ) ) | 
Generation Time :0
Accumulated Learning Time :0
CALLs: 153    TIMEOUTs: 0    ERRORs: 0
REEVALUATIONS: 17 OF 51

GENERATION 2/50
....m.<;....m.<;....m.<;.....m.<;....m.<;....m.<;......m.<;....m.<;....m.<;.....m.<;....m.<;....m.<;....m.<;.....m.<;......m.;....m.<;....m.<;......m.<;....m.<;.....m.<;....m.<;....m.<;....m.<;....m.<;...i..<;....m.<;....m.<;.......m.<;....m.<;....m.<;....m.<;....m.<;....m.<;....m.<;
Fittest value: 2.75 for chromosome ( ( call ) /\ ( [] ( ! ( open ) ) ) )
Solutions (1): ( ( call ) /\ ( [] ( ! ( open ) ) ) ) | 
Generation Time :0
Accumulated Learning Time :0
CALLs: 183    TIMEOUTs: 0    ERRORs: 0
REEVALUATIONS: 69 OF 146

GENERATION 3/50
....m.<;....m.<;....m.<;....m.<;......m.<;....m.<;....m.;....m.<;....m.<;....m.<;....m.<;.......m.<;........m.<;....i.m.;.....m.<;....m.<;....m.<;....m.<;....m.<;....m.<;.....m.;....m.<;....m.<;....m.<;.....m.<;......m.<;.....m.<;....m.;....m.<;....m.;....m.;.....m.<;....m.<;....m.<;....m.<;....m.;....m.<;....m.<;
Fittest value: 2.75 for chromosome ( ( call ) /\ ( [] ( ! ( open ) ) ) )
Solutions (1): ( ( call ) /\ ( [] ( ! ( open ) ) ) ) | 
Generation Time :0
Accumulated Learning Time :0
CALLs: 207    TIMEOUTs: 0    ERRORs: 0
REEVALUATIONS: 114 OF 242

GENERATION 4/50
.....m.<;....m.<;....m.<;....m.<;....m.<;........m.<;......m.<;....m.<;.......m.<;....m.<;......m.<;....m.<;......m.<;....m.<;......m.<;....m.<;....m.;........m.<;....m.<;....m.<;.....m.<;....m.<;...i.m.<;....m.<;....m.<;...i.m.<;...i.m.<;....m.<;....m.<;....m.<;
Fittest value: 2.75 for chromosome ( ( call ) /\ ( [] ( ! ( open ) ) ) )
Solutions (4): ( ( call ) /\ ( [] ( ! ( open ) ) ) ) | ( X ( ( call ) /\ ( [] ( ! ( open ) ) ) ) ) | ( [] ( ( call ) /\ ( [] ( ! ( open ) ) ) ) ) | ( ( <> ( ( call ) /\ ( [] ( ! ( open ) ) ) ) ) /\ ( ( ( atfloor ) U ( X ( open ) ) ) U ( ! ( call ) ) ) ) | 
Generation Time :0
Accumulated Learning Time :0
CALLs: 171    TIMEOUTs: 0    ERRORs: 0
REEVALUATIONS: 156 OF 327

GENERATION 5/50
....m.<;....m.<;....m.<;....m.<;....m.<;....m.<;....m.<;....m.<;....m.<;...i.m.<;....m.;....m.<;...i.m.<;....m.<;.....m.<;....m.<;....m.<;......m.<;....m.<;....m.<;....m.<;...i..<;....m.<;........m.<;......m.<;....m.<;.........m.<;....m.<;....m.<;....m.;.....m.<;....m.<;....m.<;.....m.<;....m.<;....m.<;....i.m.<;....m.<;...i.m.<;....m.<;....m.<;
Fittest value: 2.75 for chromosome ( ( call ) /\ ( [] ( ! ( open ) ) ) )
Solutions (7): ( ( call ) /\ ( [] ( ! ( open ) ) ) ) | ( X ( ( call ) /\ ( [] ( ! ( open ) ) ) ) ) | ( [] ( ( call ) /\ ( [] ( ! ( open ) ) ) ) ) | ( ( <> ( ( call ) /\ ( [] ( ! ( open ) ) ) ) ) /\ ( ( ( atfloor ) U ( X ( open ) ) ) U ( ! ( call ) ) ) ) | ( X ( <> ( ( call ) /\ ( [] ( ! ( open ) ) ) ) ) ) | ( ( call ) U ( ( ( [] ( ! ( open ) ) ) /\ ( call ) ) /\ ( call ) ) ) | ( ( <> ( ( ! ( call ) ) /\ ( <> ( atfloor ) ) ) ) U ( ( call ) /\ ( [] ( ! ( open ) ) ) ) ) | 
Generation Time :0
Accumulated Learning Time :1
CALLs: 222    TIMEOUTs: 0    ERRORs: 0
REEVALUATIONS: 195 OF 419

GENERATION 6/50
....m.<;........m.<;....m.<;....m.<;....m.<;....m.<;.....m.<;....m.<;....m.<;....m.<;....m.;.....m.<;....m.<;....m.<;.....m.<;....m.<;....m.<;....m.<;....m.<;......m.<;....m.<;....m.<;....m.;....m.<;....m.<;........m.<;....m.<;.....m.<;....m.<;....m.<;....m.<;....m.<;....m.<;....m.<;....m.<;....m.<;....m.<;....m.<;
Fittest value: 2.75 for chromosome ( ( call ) /\ ( [] ( ! ( open ) ) ) )
Solutions (7): ( ( call ) /\ ( [] ( ! ( open ) ) ) ) | ( X ( ( call ) /\ ( [] ( ! ( open ) ) ) ) ) | ( [] ( ( call ) /\ ( [] ( ! ( open ) ) ) ) ) | ( ( <> ( ( call ) /\ ( [] ( ! ( open ) ) ) ) ) /\ ( ( ( atfloor ) U ( X ( open ) ) ) U ( ! ( call ) ) ) ) | ( X ( <> ( ( call ) /\ ( [] ( ! ( open ) ) ) ) ) ) | ( ( call ) U ( ( ( [] ( ! ( open ) ) ) /\ ( call ) ) /\ ( call ) ) ) | ( ( <> ( ( ! ( call ) ) /\ ( <> ( atfloor ) ) ) ) U ( ( call ) /\ ( [] ( ! ( open ) ) ) ) ) | 
Generation Time :0
Accumulated Learning Time :1
CALLs: 204    TIMEOUTs: 0    ERRORs: 0
REEVALUATIONS: 237 OF 509

GENERATION 7/50
......m.<;....m.<;....m.<;....m.<;....m.<;....m.<;...i.m.<;....m.<;....m.<;....m.<;....i.m.;....m.;....m.<;....m.;....m.;....m.<;....m.<;....m.<;....m.<;......m.<;....m.<;....m.<;....m.<;....m.<;....m.<;....m.<;......m.<;....m.<;......m.<;.......m.<;....m.<;....m.<;....m.<;...i.m.<;...i.m.<;....m.<;...i.m.<;...i.m.<;...i.m.;
Fittest value: 2.75 for chromosome ( ( call ) /\ ( [] ( ! ( open ) ) ) )
Solutions (12): ( ( call ) /\ ( [] ( ! ( open ) ) ) ) | ( X ( ( call ) /\ ( [] ( ! ( open ) ) ) ) ) | ( [] ( ( call ) /\ ( [] ( ! ( open ) ) ) ) ) | ( ( <> ( ( call ) /\ ( [] ( ! ( open ) ) ) ) ) /\ ( ( ( atfloor ) U ( X ( open ) ) ) U ( ! ( call ) ) ) ) | ( X ( <> ( ( call ) /\ ( [] ( ! ( open ) ) ) ) ) ) | ( ( call ) U ( ( ( [] ( ! ( open ) ) ) /\ ( call ) ) /\ ( call ) ) ) | ( ( <> ( ( ! ( call ) ) /\ ( <> ( atfloor ) ) ) ) U ( ( call ) /\ ( [] ( ! ( open ) ) ) ) ) | ( [] ( ( call ) /\ ( ! ( open ) ) ) ) | ( ( ( call ) /\ ( [] ( ! ( open ) ) ) ) U ( ( call ) /\ ( [] ( ! ( open ) ) ) ) ) | ( ( call ) /\ ( ( call ) /\ ( [] ( ! ( open ) ) ) ) ) | ( [] ( [] ( ( call ) /\ ( [] ( ! ( open ) ) ) ) ) ) | ( ( [] ( ( call ) /\ ( [] ( ! ( open ) ) ) ) ) U ( ( call ) /\ ( [] ( ! ( open ) ) ) ) ) | 
Generation Time :0
Accumulated Learning Time :1
CALLs: 207    TIMEOUTs: 0    ERRORs: 0
REEVALUATIONS: 273 OF 591

GENERATION 8/50
....m.<;....m.;....m.<;.......m.<;....m.<;....m.<;....m.<;....m.;....m.<;.....m.<;....m.<;....m.<;...i.m.<;...i.m.;....m.<;....m.<;...i.m.;....m.<;....m.<;....m.;....m.;....m.;....m.;....m.<;........m.<;....m.;...i.m.<;...i.m.<;...i.m.<;
Fittest value: 2.75 for chromosome ( ( call ) /\ ( [] ( ! ( open ) ) ) )
Solutions (15): ( ( call ) /\ ( [] ( ! ( open ) ) ) ) | ( X ( ( call ) /\ ( [] ( ! ( open ) ) ) ) ) | ( [] ( ( call ) /\ ( [] ( ! ( open ) ) ) ) ) | ( ( <> ( ( call ) /\ ( [] ( ! ( open ) ) ) ) ) /\ ( ( ( atfloor ) U ( X ( open ) ) ) U ( ! ( call ) ) ) ) | ( X ( <> ( ( call ) /\ ( [] ( ! ( open ) ) ) ) ) ) | ( ( call ) U ( ( ( [] ( ! ( open ) ) ) /\ ( call ) ) /\ ( call ) ) ) | ( ( <> ( ( ! ( call ) ) /\ ( <> ( atfloor ) ) ) ) U ( ( call ) /\ ( [] ( ! ( open ) ) ) ) ) | ( [] ( ( call ) /\ ( ! ( open ) ) ) ) | ( ( ( call ) /\ ( [] ( ! ( open ) ) ) ) U ( ( call ) /\ ( [] ( ! ( open ) ) ) ) ) | ( ( call ) /\ ( ( call ) /\ ( [] ( ! ( open ) ) ) ) ) | ( [] ( [] ( ( call ) /\ ( [] ( ! ( open ) ) ) ) ) ) | ( ( [] ( ( call ) /\ ( [] ( ! ( open ) ) ) ) ) U ( ( call ) /\ ( [] ( ! ( open ) ) ) ) ) | ( ( ( call ) /\ ( [] ( ! ( open ) ) ) ) /\ ( ( call ) /\ ( [] ( ! ( open ) ) ) ) ) | ( ( ( call ) /\ ( [] ( ! ( open ) ) ) ) /\ ( ( call ) U ( [] ( ! ( open ) ) ) ) ) | ( [] ( X ( ( call ) /\ ( [] ( ! ( open ) ) ) ) ) ) | 
Generation Time :0
Accumulated Learning Time :2
CALLs: 153    TIMEOUTs: 0    ERRORs: 0
REEVALUATIONS: 321 OF 674

GENERATION 9/50
....m.<;....m.<;.....m.<;....m.<;....m.<;......m.<;....m.<;....m.<;....m.<;....m.<;....m.<;....m.<;....m.<;.....m.<;....m.<;....m.<;....m.<;....m.<;....m.;....m.<;....m.<;....m.<;....m.<;.....m.;....m.;...i.m.<;....m.<;....m.<;....m.<;....m.<;...i.m.<;...i.m.<;...i.m.;
Fittest value: 2.75 for chromosome ( ( call ) /\ ( [] ( ! ( open ) ) ) )
Solutions (16): ( ( call ) /\ ( [] ( ! ( open ) ) ) ) | ( X ( ( call ) /\ ( [] ( ! ( open ) ) ) ) ) | ( [] ( ( call ) /\ ( [] ( ! ( open ) ) ) ) ) | ( ( <> ( ( call ) /\ ( [] ( ! ( open ) ) ) ) ) /\ ( ( ( atfloor ) U ( X ( open ) ) ) U ( ! ( call ) ) ) ) | ( X ( <> ( ( call ) /\ ( [] ( ! ( open ) ) ) ) ) ) | ( ( call ) U ( ( ( [] ( ! ( open ) ) ) /\ ( call ) ) /\ ( call ) ) ) | ( ( <> ( ( ! ( call ) ) /\ ( <> ( atfloor ) ) ) ) U ( ( call ) /\ ( [] ( ! ( open ) ) ) ) ) | ( [] ( ( call ) /\ ( ! ( open ) ) ) ) | ( ( ( call ) /\ ( [] ( ! ( open ) ) ) ) U ( ( call ) /\ ( [] ( ! ( open ) ) ) ) ) | ( ( call ) /\ ( ( call ) /\ ( [] ( ! ( open ) ) ) ) ) | ( [] ( [] ( ( call ) /\ ( [] ( ! ( open ) ) ) ) ) ) | ( ( [] ( ( call ) /\ ( [] ( ! ( open ) ) ) ) ) U ( ( call ) /\ ( [] ( ! ( open ) ) ) ) ) | ( ( ( call ) /\ ( [] ( ! ( open ) ) ) ) /\ ( ( call ) /\ ( [] ( ! ( open ) ) ) ) ) | ( ( ( call ) /\ ( [] ( ! ( open ) ) ) ) /\ ( ( call ) U ( [] ( ! ( open ) ) ) ) ) | ( [] ( X ( ( call ) /\ ( [] ( ! ( open ) ) ) ) ) ) | ( ( ( call ) /\ ( [] ( ! ( open ) ) ) ) \/ ( ( call ) /\ ( [] ( ! ( open ) ) ) ) ) | 
Generation Time :0
Accumulated Learning Time :2
CALLs: 170    TIMEOUTs: 0    ERRORs: 0
REEVALUATIONS: 362 OF 753

GENERATION 10/50
....m.<;....m.<;....m.<;....m.;....m.<;....m.<;.....m.<;....m.<;......m.<;....m.<;.......m.<;.....m.<;....m.<;....m.<;....m.<;....m.<;....m.<;...i.m.<;....m.<;....m.<;...i.m.<;
Fittest value: 2.75 for chromosome ( ( call ) /\ ( [] ( ! ( open ) ) ) )
Solutions (16): ( ( call ) /\ ( [] ( ! ( open ) ) ) ) | ( X ( ( call ) /\ ( [] ( ! ( open ) ) ) ) ) | ( [] ( ( call ) /\ ( [] ( ! ( open ) ) ) ) ) | ( ( <> ( ( call ) /\ ( [] ( ! ( open ) ) ) ) ) /\ ( ( ( atfloor ) U ( X ( open ) ) ) U ( ! ( call ) ) ) ) | ( X ( <> ( ( call ) /\ ( [] ( ! ( open ) ) ) ) ) ) | ( ( call ) U ( ( ( [] ( ! ( open ) ) ) /\ ( call ) ) /\ ( call ) ) ) | ( ( <> ( ( ! ( call ) ) /\ ( <> ( atfloor ) ) ) ) U ( ( call ) /\ ( [] ( ! ( open ) ) ) ) ) | ( [] ( ( call ) /\ ( ! ( open ) ) ) ) | ( ( ( call ) /\ ( [] ( ! ( open ) ) ) ) U ( ( call ) /\ ( [] ( ! ( open ) ) ) ) ) | ( ( call ) /\ ( ( call ) /\ ( [] ( ! ( open ) ) ) ) ) | ( [] ( [] ( ( call ) /\ ( [] ( ! ( open ) ) ) ) ) ) | ( ( [] ( ( call ) /\ ( [] ( ! ( open ) ) ) ) ) U ( ( call ) /\ ( [] ( ! ( open ) ) ) ) ) | ( ( ( call ) /\ ( [] ( ! ( open ) ) ) ) /\ ( ( call ) /\ ( [] ( ! ( open ) ) ) ) ) | ( ( ( call ) /\ ( [] ( ! ( open ) ) ) ) /\ ( ( call ) U ( [] ( ! ( open ) ) ) ) ) | ( [] ( X ( ( call ) /\ ( [] ( ! ( open ) ) ) ) ) ) | ( ( ( call ) /\ ( [] ( ! ( open ) ) ) ) \/ ( ( call ) /\ ( [] ( ! ( open ) ) ) ) ) | 
Generation Time :0
Accumulated Learning Time :2
CALLs: 112    TIMEOUTs: 0    ERRORs: 0
REEVALUATIONS: 409 OF 827

GENERATION 11/50
....m.<;.........m.<;..........m.<;....m.<;....m.<;....m.<;......m.<;....m.;....m.<;...i.m.<;....m.<;
Fittest value: 2.75 for chromosome ( ( call ) /\ ( [] ( ! ( open ) ) ) )
Solutions (16): ( ( call ) /\ ( [] ( ! ( open ) ) ) ) | ( X ( ( call ) /\ ( [] ( ! ( open ) ) ) ) ) | ( [] ( ( call ) /\ ( [] ( ! ( open ) ) ) ) ) | ( ( <> ( ( call ) /\ ( [] ( ! ( open ) ) ) ) ) /\ ( ( ( atfloor ) U ( X ( open ) ) ) U ( ! ( call ) ) ) ) | ( X ( <> ( ( call ) /\ ( [] ( ! ( open ) ) ) ) ) ) | ( ( call ) U ( ( ( [] ( ! ( open ) ) ) /\ ( call ) ) /\ ( call ) ) ) | ( ( <> ( ( ! ( call ) ) /\ ( <> ( atfloor ) ) ) ) U ( ( call ) /\ ( [] ( ! ( open ) ) ) ) ) | ( [] ( ( call ) /\ ( ! ( open ) ) ) ) | ( ( ( call ) /\ ( [] ( ! ( open ) ) ) ) U ( ( call ) /\ ( [] ( ! ( open ) ) ) ) ) | ( ( call ) /\ ( ( call ) /\ ( [] ( ! ( open ) ) ) ) ) | ( [] ( [] ( ( call ) /\ ( [] ( ! ( open ) ) ) ) ) ) | ( ( [] ( ( call ) /\ ( [] ( ! ( open ) ) ) ) ) U ( ( call ) /\ ( [] ( ! ( open ) ) ) ) ) | ( ( ( call ) /\ ( [] ( ! ( open ) ) ) ) /\ ( ( call ) /\ ( [] ( ! ( open ) ) ) ) ) | ( ( ( call ) /\ ( [] ( ! ( open ) ) ) ) /\ ( ( call ) U ( [] ( ! ( open ) ) ) ) ) | ( [] ( X ( ( call ) /\ ( [] ( ! ( open ) ) ) ) ) ) | ( ( ( call ) /\ ( [] ( ! ( open ) ) ) ) \/ ( ( call ) /\ ( [] ( ! ( open ) ) ) ) ) | 
Generation Time :0
Accumulated Learning Time :2
CALLs: 68    TIMEOUTs: 0    ERRORs: 0
REEVALUATIONS: 478 OF 916

GENERATION 12/50
....m.<;....m.<;......m.<;....m.<;.....m.<;.....m.<;.....i.m.<;
Fittest value: 2.75 for chromosome ( ( call ) /\ ( [] ( ! ( open ) ) ) )
Solutions (16): ( ( call ) /\ ( [] ( ! ( open ) ) ) ) | ( X ( ( call ) /\ ( [] ( ! ( open ) ) ) ) ) | ( [] ( ( call ) /\ ( [] ( ! ( open ) ) ) ) ) | ( ( <> ( ( call ) /\ ( [] ( ! ( open ) ) ) ) ) /\ ( ( ( atfloor ) U ( X ( open ) ) ) U ( ! ( call ) ) ) ) | ( X ( <> ( ( call ) /\ ( [] ( ! ( open ) ) ) ) ) ) | ( ( call ) U ( ( ( [] ( ! ( open ) ) ) /\ ( call ) ) /\ ( call ) ) ) | ( ( <> ( ( ! ( call ) ) /\ ( <> ( atfloor ) ) ) ) U ( ( call ) /\ ( [] ( ! ( open ) ) ) ) ) | ( [] ( ( call ) /\ ( ! ( open ) ) ) ) | ( ( ( call ) /\ ( [] ( ! ( open ) ) ) ) U ( ( call ) /\ ( [] ( ! ( open ) ) ) ) ) | ( ( call ) /\ ( ( call ) /\ ( [] ( ! ( open ) ) ) ) ) | ( [] ( [] ( ( call ) /\ ( [] ( ! ( open ) ) ) ) ) ) | ( ( [] ( ( call ) /\ ( [] ( ! ( open ) ) ) ) ) U ( ( call ) /\ ( [] ( ! ( open ) ) ) ) ) | ( ( ( call ) /\ ( [] ( ! ( open ) ) ) ) /\ ( ( call ) /\ ( [] ( ! ( open ) ) ) ) ) | ( ( ( call ) /\ ( [] ( ! ( open ) ) ) ) /\ ( ( call ) U ( [] ( ! ( open ) ) ) ) ) | ( [] ( X ( ( call ) /\ ( [] ( ! ( open ) ) ) ) ) ) | ( ( ( call ) /\ ( [] ( ! ( open ) ) ) ) \/ ( ( call ) /\ ( [] ( ! ( open ) ) ) ) ) | 
Generation Time :0
Accumulated Learning Time :2
CALLs: 41    TIMEOUTs: 0    ERRORs: 0
REEVALUATIONS: 544 OF 993

GENERATION 13/50
......m.<;.........m.<;....m.<;....m.<;....m.<;....m.<;....m.<;....m.<;....m.<;....m.<;
Fittest value: 2.75 for chromosome ( ( call ) /\ ( [] ( ! ( open ) ) ) )
Solutions (16): ( ( call ) /\ ( [] ( ! ( open ) ) ) ) | ( X ( ( call ) /\ ( [] ( ! ( open ) ) ) ) ) | ( [] ( ( call ) /\ ( [] ( ! ( open ) ) ) ) ) | ( ( <> ( ( call ) /\ ( [] ( ! ( open ) ) ) ) ) /\ ( ( ( atfloor ) U ( X ( open ) ) ) U ( ! ( call ) ) ) ) | ( X ( <> ( ( call ) /\ ( [] ( ! ( open ) ) ) ) ) ) | ( ( call ) U ( ( ( [] ( ! ( open ) ) ) /\ ( call ) ) /\ ( call ) ) ) | ( ( <> ( ( ! ( call ) ) /\ ( <> ( atfloor ) ) ) ) U ( ( call ) /\ ( [] ( ! ( open ) ) ) ) ) | ( [] ( ( call ) /\ ( ! ( open ) ) ) ) | ( ( ( call ) /\ ( [] ( ! ( open ) ) ) ) U ( ( call ) /\ ( [] ( ! ( open ) ) ) ) ) | ( ( call ) /\ ( ( call ) /\ ( [] ( ! ( open ) ) ) ) ) | ( [] ( [] ( ( call ) /\ ( [] ( ! ( open ) ) ) ) ) ) | ( ( [] ( ( call ) /\ ( [] ( ! ( open ) ) ) ) ) U ( ( call ) /\ ( [] ( ! ( open ) ) ) ) ) | ( ( ( call ) /\ ( [] ( ! ( open ) ) ) ) /\ ( ( call ) /\ ( [] ( ! ( open ) ) ) ) ) | ( ( ( call ) /\ ( [] ( ! ( open ) ) ) ) /\ ( ( call ) U ( [] ( ! ( open ) ) ) ) ) | ( [] ( X ( ( call ) /\ ( [] ( ! ( open ) ) ) ) ) ) | ( ( ( call ) /\ ( [] ( ! ( open ) ) ) ) \/ ( ( call ) /\ ( [] ( ! ( open ) ) ) ) ) | 
Generation Time :0
Accumulated Learning Time :2
CALLs: 57    TIMEOUTs: 0    ERRORs: 0
REEVALUATIONS: 614 OF 1078

GENERATION 14/50
....m.<;....m.<;....m.<;....m.<;...i.m.<;
Fittest value: 2.75 for chromosome ( ( call ) /\ ( [] ( ! ( open ) ) ) )
Solutions (16): ( ( call ) /\ ( [] ( ! ( open ) ) ) ) | ( X ( ( call ) /\ ( [] ( ! ( open ) ) ) ) ) | ( [] ( ( call ) /\ ( [] ( ! ( open ) ) ) ) ) | ( ( <> ( ( call ) /\ ( [] ( ! ( open ) ) ) ) ) /\ ( ( ( atfloor ) U ( X ( open ) ) ) U ( ! ( call ) ) ) ) | ( X ( <> ( ( call ) /\ ( [] ( ! ( open ) ) ) ) ) ) | ( ( call ) U ( ( ( [] ( ! ( open ) ) ) /\ ( call ) ) /\ ( call ) ) ) | ( ( <> ( ( ! ( call ) ) /\ ( <> ( atfloor ) ) ) ) U ( ( call ) /\ ( [] ( ! ( open ) ) ) ) ) | ( [] ( ( call ) /\ ( ! ( open ) ) ) ) | ( ( ( call ) /\ ( [] ( ! ( open ) ) ) ) U ( ( call ) /\ ( [] ( ! ( open ) ) ) ) ) | ( ( call ) /\ ( ( call ) /\ ( [] ( ! ( open ) ) ) ) ) | ( [] ( [] ( ( call ) /\ ( [] ( ! ( open ) ) ) ) ) ) | ( ( [] ( ( call ) /\ ( [] ( ! ( open ) ) ) ) ) U ( ( call ) /\ ( [] ( ! ( open ) ) ) ) ) | ( ( ( call ) /\ ( [] ( ! ( open ) ) ) ) /\ ( ( call ) /\ ( [] ( ! ( open ) ) ) ) ) | ( ( ( call ) /\ ( [] ( ! ( open ) ) ) ) /\ ( ( call ) U ( [] ( ! ( open ) ) ) ) ) | ( [] ( X ( ( call ) /\ ( [] ( ! ( open ) ) ) ) ) ) | ( ( ( call ) /\ ( [] ( ! ( open ) ) ) ) \/ ( ( call ) /\ ( [] ( ! ( open ) ) ) ) ) | 
Generation Time :0
Accumulated Learning Time :2
CALLs: 25    TIMEOUTs: 0    ERRORs: 0
REEVALUATIONS: 686 OF 1155

GENERATION 15/50
.......m.<;....m.<;....m.<;....m.<;.....m.<;....m.<;....m.<;....m.<;........m.<;
Fittest value: 2.75 for chromosome ( ( call ) /\ ( [] ( ! ( open ) ) ) )
Solutions (16): ( ( call ) /\ ( [] ( ! ( open ) ) ) ) | ( X ( ( call ) /\ ( [] ( ! ( open ) ) ) ) ) | ( [] ( ( call ) /\ ( [] ( ! ( open ) ) ) ) ) | ( ( <> ( ( call ) /\ ( [] ( ! ( open ) ) ) ) ) /\ ( ( ( atfloor ) U ( X ( open ) ) ) U ( ! ( call ) ) ) ) | ( X ( <> ( ( call ) /\ ( [] ( ! ( open ) ) ) ) ) ) | ( ( call ) U ( ( ( [] ( ! ( open ) ) ) /\ ( call ) ) /\ ( call ) ) ) | ( ( <> ( ( ! ( call ) ) /\ ( <> ( atfloor ) ) ) ) U ( ( call ) /\ ( [] ( ! ( open ) ) ) ) ) | ( [] ( ( call ) /\ ( ! ( open ) ) ) ) | ( ( ( call ) /\ ( [] ( ! ( open ) ) ) ) U ( ( call ) /\ ( [] ( ! ( open ) ) ) ) ) | ( ( call ) /\ ( ( call ) /\ ( [] ( ! ( open ) ) ) ) ) | ( [] ( [] ( ( call ) /\ ( [] ( ! ( open ) ) ) ) ) ) | ( ( [] ( ( call ) /\ ( [] ( ! ( open ) ) ) ) ) U ( ( call ) /\ ( [] ( ! ( open ) ) ) ) ) | ( ( ( call ) /\ ( [] ( ! ( open ) ) ) ) /\ ( ( call ) /\ ( [] ( ! ( open ) ) ) ) ) | ( ( ( call ) /\ ( [] ( ! ( open ) ) ) ) /\ ( ( call ) U ( [] ( ! ( open ) ) ) ) ) | ( [] ( X ( ( call ) /\ ( [] ( ! ( open ) ) ) ) ) ) | ( ( ( call ) /\ ( [] ( ! ( open ) ) ) ) \/ ( ( call ) /\ ( [] ( ! ( open ) ) ) ) ) | 
Generation Time :0
Accumulated Learning Time :2
CALLs: 53    TIMEOUTs: 0    ERRORs: 0
REEVALUATIONS: 750 OF 1233

GENERATION 16/50
....m.<;....m.<;......m.<;....m.<;....m.<;....m.;....m.<;
Fittest value: 2.75 for chromosome ( ( call ) /\ ( [] ( ! ( open ) ) ) )
Solutions (16): ( ( call ) /\ ( [] ( ! ( open ) ) ) ) | ( X ( ( call ) /\ ( [] ( ! ( open ) ) ) ) ) | ( [] ( ( call ) /\ ( [] ( ! ( open ) ) ) ) ) | ( ( <> ( ( call ) /\ ( [] ( ! ( open ) ) ) ) ) /\ ( ( ( atfloor ) U ( X ( open ) ) ) U ( ! ( call ) ) ) ) | ( X ( <> ( ( call ) /\ ( [] ( ! ( open ) ) ) ) ) ) | ( ( call ) U ( ( ( [] ( ! ( open ) ) ) /\ ( call ) ) /\ ( call ) ) ) | ( ( <> ( ( ! ( call ) ) /\ ( <> ( atfloor ) ) ) ) U ( ( call ) /\ ( [] ( ! ( open ) ) ) ) ) | ( [] ( ( call ) /\ ( ! ( open ) ) ) ) | ( ( ( call ) /\ ( [] ( ! ( open ) ) ) ) U ( ( call ) /\ ( [] ( ! ( open ) ) ) ) ) | ( ( call ) /\ ( ( call ) /\ ( [] ( ! ( open ) ) ) ) ) | ( [] ( [] ( ( call ) /\ ( [] ( ! ( open ) ) ) ) ) ) | ( ( [] ( ( call ) /\ ( [] ( ! ( open ) ) ) ) ) U ( ( call ) /\ ( [] ( ! ( open ) ) ) ) ) | ( ( ( call ) /\ ( [] ( ! ( open ) ) ) ) /\ ( ( call ) /\ ( [] ( ! ( open ) ) ) ) ) | ( ( ( call ) /\ ( [] ( ! ( open ) ) ) ) /\ ( ( call ) U ( [] ( ! ( open ) ) ) ) ) | ( [] ( X ( ( call ) /\ ( [] ( ! ( open ) ) ) ) ) ) | ( ( ( call ) /\ ( [] ( ! ( open ) ) ) ) \/ ( ( call ) /\ ( [] ( ! ( open ) ) ) ) ) | 
Generation Time :0
Accumulated Learning Time :2
CALLs: 37    TIMEOUTs: 0    ERRORs: 0
REEVALUATIONS: 828 OF 1319

GENERATION 17/50
....m.<;....m.;....m.<;......m.<;....m.;.....m.<;
Fittest value: 2.75 for chromosome ( ( call ) /\ ( [] ( ! ( open ) ) ) )
Solutions (16): ( ( call ) /\ ( [] ( ! ( open ) ) ) ) | ( X ( ( call ) /\ ( [] ( ! ( open ) ) ) ) ) | ( [] ( ( call ) /\ ( [] ( ! ( open ) ) ) ) ) | ( ( <> ( ( call ) /\ ( [] ( ! ( open ) ) ) ) ) /\ ( ( ( atfloor ) U ( X ( open ) ) ) U ( ! ( call ) ) ) ) | ( X ( <> ( ( call ) /\ ( [] ( ! ( open ) ) ) ) ) ) | ( ( call ) U ( ( ( [] ( ! ( open ) ) ) /\ ( call ) ) /\ ( call ) ) ) | ( ( <> ( ( ! ( call ) ) /\ ( <> ( atfloor ) ) ) ) U ( ( call ) /\ ( [] ( ! ( open ) ) ) ) ) | ( [] ( ( call ) /\ ( ! ( open ) ) ) ) | ( ( ( call ) /\ ( [] ( ! ( open ) ) ) ) U ( ( call ) /\ ( [] ( ! ( open ) ) ) ) ) | ( ( call ) /\ ( ( call ) /\ ( [] ( ! ( open ) ) ) ) ) | ( [] ( [] ( ( call ) /\ ( [] ( ! ( open ) ) ) ) ) ) | ( ( [] ( ( call ) /\ ( [] ( ! ( open ) ) ) ) ) U ( ( call ) /\ ( [] ( ! ( open ) ) ) ) ) | ( ( ( call ) /\ ( [] ( ! ( open ) ) ) ) /\ ( ( call ) /\ ( [] ( ! ( open ) ) ) ) ) | ( ( ( call ) /\ ( [] ( ! ( open ) ) ) ) /\ ( ( call ) U ( [] ( ! ( open ) ) ) ) ) | ( [] ( X ( ( call ) /\ ( [] ( ! ( open ) ) ) ) ) ) | ( ( ( call ) /\ ( [] ( ! ( open ) ) ) ) \/ ( ( call ) /\ ( [] ( ! ( open ) ) ) ) ) | 
Generation Time :0
Accumulated Learning Time :2
CALLs: 33    TIMEOUTs: 0    ERRORs: 0
REEVALUATIONS: 899 OF 1399

GENERATION 18/50
....m.<;.....m.<;.....m.;....m.<;
Fittest value: 2.75 for chromosome ( ( call ) /\ ( [] ( ! ( open ) ) ) )
Solutions (16): ( ( call ) /\ ( [] ( ! ( open ) ) ) ) | ( X ( ( call ) /\ ( [] ( ! ( open ) ) ) ) ) | ( [] ( ( call ) /\ ( [] ( ! ( open ) ) ) ) ) | ( ( <> ( ( call ) /\ ( [] ( ! ( open ) ) ) ) ) /\ ( ( ( atfloor ) U ( X ( open ) ) ) U ( ! ( call ) ) ) ) | ( X ( <> ( ( call ) /\ ( [] ( ! ( open ) ) ) ) ) ) | ( ( call ) U ( ( ( [] ( ! ( open ) ) ) /\ ( call ) ) /\ ( call ) ) ) | ( ( <> ( ( ! ( call ) ) /\ ( <> ( atfloor ) ) ) ) U ( ( call ) /\ ( [] ( ! ( open ) ) ) ) ) | ( [] ( ( call ) /\ ( ! ( open ) ) ) ) | ( ( ( call ) /\ ( [] ( ! ( open ) ) ) ) U ( ( call ) /\ ( [] ( ! ( open ) ) ) ) ) | ( ( call ) /\ ( ( call ) /\ ( [] ( ! ( open ) ) ) ) ) | ( [] ( [] ( ( call ) /\ ( [] ( ! ( open ) ) ) ) ) ) | ( ( [] ( ( call ) /\ ( [] ( ! ( open ) ) ) ) ) U ( ( call ) /\ ( [] ( ! ( open ) ) ) ) ) | ( ( ( call ) /\ ( [] ( ! ( open ) ) ) ) /\ ( ( call ) /\ ( [] ( ! ( open ) ) ) ) ) | ( ( ( call ) /\ ( [] ( ! ( open ) ) ) ) /\ ( ( call ) U ( [] ( ! ( open ) ) ) ) ) | ( [] ( X ( ( call ) /\ ( [] ( ! ( open ) ) ) ) ) ) | ( ( ( call ) /\ ( [] ( ! ( open ) ) ) ) \/ ( ( call ) /\ ( [] ( ! ( open ) ) ) ) ) | 
Generation Time :0
Accumulated Learning Time :2
CALLs: 22    TIMEOUTs: 0    ERRORs: 0
REEVALUATIONS: 977 OF 1483

GENERATION 19/50
....m.<;......m.<;....m.<;....m.<;.......m.<;
Fittest value: 2.75 for chromosome ( ( call ) /\ ( [] ( ! ( open ) ) ) )
Solutions (16): ( ( call ) /\ ( [] ( ! ( open ) ) ) ) | ( X ( ( call ) /\ ( [] ( ! ( open ) ) ) ) ) | ( [] ( ( call ) /\ ( [] ( ! ( open ) ) ) ) ) | ( ( <> ( ( call ) /\ ( [] ( ! ( open ) ) ) ) ) /\ ( ( ( atfloor ) U ( X ( open ) ) ) U ( ! ( call ) ) ) ) | ( X ( <> ( ( call ) /\ ( [] ( ! ( open ) ) ) ) ) ) | ( ( call ) U ( ( ( [] ( ! ( open ) ) ) /\ ( call ) ) /\ ( call ) ) ) | ( ( <> ( ( ! ( call ) ) /\ ( <> ( atfloor ) ) ) ) U ( ( call ) /\ ( [] ( ! ( open ) ) ) ) ) | ( [] ( ( call ) /\ ( ! ( open ) ) ) ) | ( ( ( call ) /\ ( [] ( ! ( open ) ) ) ) U ( ( call ) /\ ( [] ( ! ( open ) ) ) ) ) | ( ( call ) /\ ( ( call ) /\ ( [] ( ! ( open ) ) ) ) ) | ( [] ( [] ( ( call ) /\ ( [] ( ! ( open ) ) ) ) ) ) | ( ( [] ( ( call ) /\ ( [] ( ! ( open ) ) ) ) ) U ( ( call ) /\ ( [] ( ! ( open ) ) ) ) ) | ( ( ( call ) /\ ( [] ( ! ( open ) ) ) ) /\ ( ( call ) /\ ( [] ( ! ( open ) ) ) ) ) | ( ( ( call ) /\ ( [] ( ! ( open ) ) ) ) /\ ( ( call ) U ( [] ( ! ( open ) ) ) ) ) | ( [] ( X ( ( call ) /\ ( [] ( ! ( open ) ) ) ) ) ) | ( ( ( call ) /\ ( [] ( ! ( open ) ) ) ) \/ ( ( call ) /\ ( [] ( ! ( open ) ) ) ) ) | 
Generation Time :0
Accumulated Learning Time :3
CALLs: 30    TIMEOUTs: 0    ERRORs: 0
REEVALUATIONS: 1052 OF 1566

GENERATION 20/50
....m.;....m.<;......m.<;....m.<;.......m.<;....m.<;....m.<;
Fittest value: 2.75 for chromosome ( ( call ) /\ ( [] ( ! ( open ) ) ) )
Solutions (16): ( ( call ) /\ ( [] ( ! ( open ) ) ) ) | ( X ( ( call ) /\ ( [] ( ! ( open ) ) ) ) ) | ( [] ( ( call ) /\ ( [] ( ! ( open ) ) ) ) ) | ( ( <> ( ( call ) /\ ( [] ( ! ( open ) ) ) ) ) /\ ( ( ( atfloor ) U ( X ( open ) ) ) U ( ! ( call ) ) ) ) | ( X ( <> ( ( call ) /\ ( [] ( ! ( open ) ) ) ) ) ) | ( ( call ) U ( ( ( [] ( ! ( open ) ) ) /\ ( call ) ) /\ ( call ) ) ) | ( ( <> ( ( ! ( call ) ) /\ ( <> ( atfloor ) ) ) ) U ( ( call ) /\ ( [] ( ! ( open ) ) ) ) ) | ( [] ( ( call ) /\ ( ! ( open ) ) ) ) | ( ( ( call ) /\ ( [] ( ! ( open ) ) ) ) U ( ( call ) /\ ( [] ( ! ( open ) ) ) ) ) | ( ( call ) /\ ( ( call ) /\ ( [] ( ! ( open ) ) ) ) ) | ( [] ( [] ( ( call ) /\ ( [] ( ! ( open ) ) ) ) ) ) | ( ( [] ( ( call ) /\ ( [] ( ! ( open ) ) ) ) ) U ( ( call ) /\ ( [] ( ! ( open ) ) ) ) ) | ( ( ( call ) /\ ( [] ( ! ( open ) ) ) ) /\ ( ( call ) /\ ( [] ( ! ( open ) ) ) ) ) | ( ( ( call ) /\ ( [] ( ! ( open ) ) ) ) /\ ( ( call ) U ( [] ( ! ( open ) ) ) ) ) | ( [] ( X ( ( call ) /\ ( [] ( ! ( open ) ) ) ) ) ) | ( ( ( call ) /\ ( [] ( ! ( open ) ) ) ) \/ ( ( call ) /\ ( [] ( ! ( open ) ) ) ) ) | 
Generation Time :0
Accumulated Learning Time :3
CALLs: 40    TIMEOUTs: 0    ERRORs: 0
REEVALUATIONS: 1120 OF 1644

GENERATION 21/50
......m.<;.....m.<;....m.<;
Fittest value: 2.75 for chromosome ( ( call ) /\ ( [] ( ! ( open ) ) ) )
Solutions (16): ( ( call ) /\ ( [] ( ! ( open ) ) ) ) | ( X ( ( call ) /\ ( [] ( ! ( open ) ) ) ) ) | ( [] ( ( call ) /\ ( [] ( ! ( open ) ) ) ) ) | ( ( <> ( ( call ) /\ ( [] ( ! ( open ) ) ) ) ) /\ ( ( ( atfloor ) U ( X ( open ) ) ) U ( ! ( call ) ) ) ) | ( X ( <> ( ( call ) /\ ( [] ( ! ( open ) ) ) ) ) ) | ( ( call ) U ( ( ( [] ( ! ( open ) ) ) /\ ( call ) ) /\ ( call ) ) ) | ( ( <> ( ( ! ( call ) ) /\ ( <> ( atfloor ) ) ) ) U ( ( call ) /\ ( [] ( ! ( open ) ) ) ) ) | ( [] ( ( call ) /\ ( ! ( open ) ) ) ) | ( ( ( call ) /\ ( [] ( ! ( open ) ) ) ) U ( ( call ) /\ ( [] ( ! ( open ) ) ) ) ) | ( ( call ) /\ ( ( call ) /\ ( [] ( ! ( open ) ) ) ) ) | ( [] ( [] ( ( call ) /\ ( [] ( ! ( open ) ) ) ) ) ) | ( ( [] ( ( call ) /\ ( [] ( ! ( open ) ) ) ) ) U ( ( call ) /\ ( [] ( ! ( open ) ) ) ) ) | ( ( ( call ) /\ ( [] ( ! ( open ) ) ) ) /\ ( ( call ) /\ ( [] ( ! ( open ) ) ) ) ) | ( ( ( call ) /\ ( [] ( ! ( open ) ) ) ) /\ ( ( call ) U ( [] ( ! ( open ) ) ) ) ) | ( [] ( X ( ( call ) /\ ( [] ( ! ( open ) ) ) ) ) ) | ( ( ( call ) /\ ( [] ( ! ( open ) ) ) ) \/ ( ( call ) /\ ( [] ( ! ( open ) ) ) ) ) | 
Generation Time :0
Accumulated Learning Time :3
CALLs: 18    TIMEOUTs: 0    ERRORs: 0
REEVALUATIONS: 1189 OF 1718

GENERATION 22/50
........m.<;....m.<;
Fittest value: 2.75 for chromosome ( ( call ) /\ ( [] ( ! ( open ) ) ) )
Solutions (16): ( ( call ) /\ ( [] ( ! ( open ) ) ) ) | ( X ( ( call ) /\ ( [] ( ! ( open ) ) ) ) ) | ( [] ( ( call ) /\ ( [] ( ! ( open ) ) ) ) ) | ( ( <> ( ( call ) /\ ( [] ( ! ( open ) ) ) ) ) /\ ( ( ( atfloor ) U ( X ( open ) ) ) U ( ! ( call ) ) ) ) | ( X ( <> ( ( call ) /\ ( [] ( ! ( open ) ) ) ) ) ) | ( ( call ) U ( ( ( [] ( ! ( open ) ) ) /\ ( call ) ) /\ ( call ) ) ) | ( ( <> ( ( ! ( call ) ) /\ ( <> ( atfloor ) ) ) ) U ( ( call ) /\ ( [] ( ! ( open ) ) ) ) ) | ( [] ( ( call ) /\ ( ! ( open ) ) ) ) | ( ( ( call ) /\ ( [] ( ! ( open ) ) ) ) U ( ( call ) /\ ( [] ( ! ( open ) ) ) ) ) | ( ( call ) /\ ( ( call ) /\ ( [] ( ! ( open ) ) ) ) ) | ( [] ( [] ( ( call ) /\ ( [] ( ! ( open ) ) ) ) ) ) | ( ( [] ( ( call ) /\ ( [] ( ! ( open ) ) ) ) ) U ( ( call ) /\ ( [] ( ! ( open ) ) ) ) ) | ( ( ( call ) /\ ( [] ( ! ( open ) ) ) ) /\ ( ( call ) /\ ( [] ( ! ( open ) ) ) ) ) | ( ( ( call ) /\ ( [] ( ! ( open ) ) ) ) /\ ( ( call ) U ( [] ( ! ( open ) ) ) ) ) | ( [] ( X ( ( call ) /\ ( [] ( ! ( open ) ) ) ) ) ) | ( ( ( call ) /\ ( [] ( ! ( open ) ) ) ) \/ ( ( call ) /\ ( [] ( ! ( open ) ) ) ) ) | 
Generation Time :0
Accumulated Learning Time :3
CALLs: 14    TIMEOUTs: 0    ERRORs: 0
REEVALUATIONS: 1267 OF 1800

GENERATION 23/50
....m.<;......m.<;....m.;....m.<;....m.<;....m.<;....m.<;....m.;....m.<;
Fittest value: 2.75 for chromosome ( ( call ) /\ ( [] ( ! ( open ) ) ) )
Solutions (16): ( ( call ) /\ ( [] ( ! ( open ) ) ) ) | ( X ( ( call ) /\ ( [] ( ! ( open ) ) ) ) ) | ( [] ( ( call ) /\ ( [] ( ! ( open ) ) ) ) ) | ( ( <> ( ( call ) /\ ( [] ( ! ( open ) ) ) ) ) /\ ( ( ( atfloor ) U ( X ( open ) ) ) U ( ! ( call ) ) ) ) | ( X ( <> ( ( call ) /\ ( [] ( ! ( open ) ) ) ) ) ) | ( ( call ) U ( ( ( [] ( ! ( open ) ) ) /\ ( call ) ) /\ ( call ) ) ) | ( ( <> ( ( ! ( call ) ) /\ ( <> ( atfloor ) ) ) ) U ( ( call ) /\ ( [] ( ! ( open ) ) ) ) ) | ( [] ( ( call ) /\ ( ! ( open ) ) ) ) | ( ( ( call ) /\ ( [] ( ! ( open ) ) ) ) U ( ( call ) /\ ( [] ( ! ( open ) ) ) ) ) | ( ( call ) /\ ( ( call ) /\ ( [] ( ! ( open ) ) ) ) ) | ( [] ( [] ( ( call ) /\ ( [] ( ! ( open ) ) ) ) ) ) | ( ( [] ( ( call ) /\ ( [] ( ! ( open ) ) ) ) ) U ( ( call ) /\ ( [] ( ! ( open ) ) ) ) ) | ( ( ( call ) /\ ( [] ( ! ( open ) ) ) ) /\ ( ( call ) /\ ( [] ( ! ( open ) ) ) ) ) | ( ( ( call ) /\ ( [] ( ! ( open ) ) ) ) /\ ( ( call ) U ( [] ( ! ( open ) ) ) ) ) | ( [] ( X ( ( call ) /\ ( [] ( ! ( open ) ) ) ) ) ) | ( ( ( call ) /\ ( [] ( ! ( open ) ) ) ) \/ ( ( call ) /\ ( [] ( ! ( open ) ) ) ) ) | 
Generation Time :0
Accumulated Learning Time :3
CALLs: 47    TIMEOUTs: 0    ERRORs: 0
REEVALUATIONS: 1333 OF 1876

GENERATION 24/50
....m.<;....m.<;....m.<;..........m.<;....m.<;
Fittest value: 2.75 for chromosome ( ( call ) /\ ( [] ( ! ( open ) ) ) )
Solutions (16): ( ( call ) /\ ( [] ( ! ( open ) ) ) ) | ( X ( ( call ) /\ ( [] ( ! ( open ) ) ) ) ) | ( [] ( ( call ) /\ ( [] ( ! ( open ) ) ) ) ) | ( ( <> ( ( call ) /\ ( [] ( ! ( open ) ) ) ) ) /\ ( ( ( atfloor ) U ( X ( open ) ) ) U ( ! ( call ) ) ) ) | ( X ( <> ( ( call ) /\ ( [] ( ! ( open ) ) ) ) ) ) | ( ( call ) U ( ( ( [] ( ! ( open ) ) ) /\ ( call ) ) /\ ( call ) ) ) | ( ( <> ( ( ! ( call ) ) /\ ( <> ( atfloor ) ) ) ) U ( ( call ) /\ ( [] ( ! ( open ) ) ) ) ) | ( [] ( ( call ) /\ ( ! ( open ) ) ) ) | ( ( ( call ) /\ ( [] ( ! ( open ) ) ) ) U ( ( call ) /\ ( [] ( ! ( open ) ) ) ) ) | ( ( call ) /\ ( ( call ) /\ ( [] ( ! ( open ) ) ) ) ) | ( [] ( [] ( ( call ) /\ ( [] ( ! ( open ) ) ) ) ) ) | ( ( [] ( ( call ) /\ ( [] ( ! ( open ) ) ) ) ) U ( ( call ) /\ ( [] ( ! ( open ) ) ) ) ) | ( ( ( call ) /\ ( [] ( ! ( open ) ) ) ) /\ ( ( call ) /\ ( [] ( ! ( open ) ) ) ) ) | ( ( ( call ) /\ ( [] ( ! ( open ) ) ) ) /\ ( ( call ) U ( [] ( ! ( open ) ) ) ) ) | ( [] ( X ( ( call ) /\ ( [] ( ! ( open ) ) ) ) ) ) | ( ( ( call ) /\ ( [] ( ! ( open ) ) ) ) \/ ( ( call ) /\ ( [] ( ! ( open ) ) ) ) ) | 
Generation Time :0
Accumulated Learning Time :3
CALLs: 31    TIMEOUTs: 0    ERRORs: 0
REEVALUATIONS: 1404 OF 1956

GENERATION 25/50
....m.<;.......m.<;....m.<;....m.<;....m.<;....m.<;......m.<;....m.<;
Fittest value: 2.75 for chromosome ( ( call ) /\ ( [] ( ! ( open ) ) ) )
Solutions (16): ( ( call ) /\ ( [] ( ! ( open ) ) ) ) | ( X ( ( call ) /\ ( [] ( ! ( open ) ) ) ) ) | ( [] ( ( call ) /\ ( [] ( ! ( open ) ) ) ) ) | ( ( <> ( ( call ) /\ ( [] ( ! ( open ) ) ) ) ) /\ ( ( ( atfloor ) U ( X ( open ) ) ) U ( ! ( call ) ) ) ) | ( X ( <> ( ( call ) /\ ( [] ( ! ( open ) ) ) ) ) ) | ( ( call ) U ( ( ( [] ( ! ( open ) ) ) /\ ( call ) ) /\ ( call ) ) ) | ( ( <> ( ( ! ( call ) ) /\ ( <> ( atfloor ) ) ) ) U ( ( call ) /\ ( [] ( ! ( open ) ) ) ) ) | ( [] ( ( call ) /\ ( ! ( open ) ) ) ) | ( ( ( call ) /\ ( [] ( ! ( open ) ) ) ) U ( ( call ) /\ ( [] ( ! ( open ) ) ) ) ) | ( ( call ) /\ ( ( call ) /\ ( [] ( ! ( open ) ) ) ) ) | ( [] ( [] ( ( call ) /\ ( [] ( ! ( open ) ) ) ) ) ) | ( ( [] ( ( call ) /\ ( [] ( ! ( open ) ) ) ) ) U ( ( call ) /\ ( [] ( ! ( open ) ) ) ) ) | ( ( ( call ) /\ ( [] ( ! ( open ) ) ) ) /\ ( ( call ) /\ ( [] ( ! ( open ) ) ) ) ) | ( ( ( call ) /\ ( [] ( ! ( open ) ) ) ) /\ ( ( call ) U ( [] ( ! ( open ) ) ) ) ) | ( [] ( X ( ( call ) /\ ( [] ( ! ( open ) ) ) ) ) ) | ( ( ( call ) /\ ( [] ( ! ( open ) ) ) ) \/ ( ( call ) /\ ( [] ( ! ( open ) ) ) ) ) | 
Generation Time :0
Accumulated Learning Time :3
CALLs: 45    TIMEOUTs: 0    ERRORs: 0
REEVALUATIONS: 1472 OF 2035

GENERATION 26/50
....m.<;....m.<;....m.<;....m.<;....m.<;
Fittest value: 2.75 for chromosome ( ( call ) /\ ( [] ( ! ( open ) ) ) )
Solutions (16): ( ( call ) /\ ( [] ( ! ( open ) ) ) ) | ( X ( ( call ) /\ ( [] ( ! ( open ) ) ) ) ) | ( [] ( ( call ) /\ ( [] ( ! ( open ) ) ) ) ) | ( ( <> ( ( call ) /\ ( [] ( ! ( open ) ) ) ) ) /\ ( ( ( atfloor ) U ( X ( open ) ) ) U ( ! ( call ) ) ) ) | ( X ( <> ( ( call ) /\ ( [] ( ! ( open ) ) ) ) ) ) | ( ( call ) U ( ( ( [] ( ! ( open ) ) ) /\ ( call ) ) /\ ( call ) ) ) | ( ( <> ( ( ! ( call ) ) /\ ( <> ( atfloor ) ) ) ) U ( ( call ) /\ ( [] ( ! ( open ) ) ) ) ) | ( [] ( ( call ) /\ ( ! ( open ) ) ) ) | ( ( ( call ) /\ ( [] ( ! ( open ) ) ) ) U ( ( call ) /\ ( [] ( ! ( open ) ) ) ) ) | ( ( call ) /\ ( ( call ) /\ ( [] ( ! ( open ) ) ) ) ) | ( [] ( [] ( ( call ) /\ ( [] ( ! ( open ) ) ) ) ) ) | ( ( [] ( ( call ) /\ ( [] ( ! ( open ) ) ) ) ) U ( ( call ) /\ ( [] ( ! ( open ) ) ) ) ) | ( ( ( call ) /\ ( [] ( ! ( open ) ) ) ) /\ ( ( call ) /\ ( [] ( ! ( open ) ) ) ) ) | ( ( ( call ) /\ ( [] ( ! ( open ) ) ) ) /\ ( ( call ) U ( [] ( ! ( open ) ) ) ) ) | ( [] ( X ( ( call ) /\ ( [] ( ! ( open ) ) ) ) ) ) | ( ( ( call ) /\ ( [] ( ! ( open ) ) ) ) \/ ( ( call ) /\ ( [] ( ! ( open ) ) ) ) ) | 
Generation Time :0
Accumulated Learning Time :3
CALLs: 25    TIMEOUTs: 0    ERRORs: 0
REEVALUATIONS: 1552 OF 2120

GENERATION 27/50
....m.<;....m.;......m.<;......m.<;.....m.<;
Fittest value: 2.75 for chromosome ( ( call ) /\ ( [] ( ! ( open ) ) ) )
Solutions (16): ( ( call ) /\ ( [] ( ! ( open ) ) ) ) | ( X ( ( call ) /\ ( [] ( ! ( open ) ) ) ) ) | ( [] ( ( call ) /\ ( [] ( ! ( open ) ) ) ) ) | ( ( <> ( ( call ) /\ ( [] ( ! ( open ) ) ) ) ) /\ ( ( ( atfloor ) U ( X ( open ) ) ) U ( ! ( call ) ) ) ) | ( X ( <> ( ( call ) /\ ( [] ( ! ( open ) ) ) ) ) ) | ( ( call ) U ( ( ( [] ( ! ( open ) ) ) /\ ( call ) ) /\ ( call ) ) ) | ( ( <> ( ( ! ( call ) ) /\ ( <> ( atfloor ) ) ) ) U ( ( call ) /\ ( [] ( ! ( open ) ) ) ) ) | ( [] ( ( call ) /\ ( ! ( open ) ) ) ) | ( ( ( call ) /\ ( [] ( ! ( open ) ) ) ) U ( ( call ) /\ ( [] ( ! ( open ) ) ) ) ) | ( ( call ) /\ ( ( call ) /\ ( [] ( ! ( open ) ) ) ) ) | ( [] ( [] ( ( call ) /\ ( [] ( ! ( open ) ) ) ) ) ) | ( ( [] ( ( call ) /\ ( [] ( ! ( open ) ) ) ) ) U ( ( call ) /\ ( [] ( ! ( open ) ) ) ) ) | ( ( ( call ) /\ ( [] ( ! ( open ) ) ) ) /\ ( ( call ) /\ ( [] ( ! ( open ) ) ) ) ) | ( ( ( call ) /\ ( [] ( ! ( open ) ) ) ) /\ ( ( call ) U ( [] ( ! ( open ) ) ) ) ) | ( [] ( X ( ( call ) /\ ( [] ( ! ( open ) ) ) ) ) ) | ( ( ( call ) /\ ( [] ( ! ( open ) ) ) ) \/ ( ( call ) /\ ( [] ( ! ( open ) ) ) ) ) | 
Generation Time :0
Accumulated Learning Time :3
CALLs: 30    TIMEOUTs: 0    ERRORs: 0
REEVALUATIONS: 1619 OF 2195

GENERATION 28/50
....m.<;..
Fittest value: 2.75 for chromosome ( ( call ) /\ ( [] ( ! ( open ) ) ) )
Solutions (16): ( ( call ) /\ ( [] ( ! ( open ) ) ) ) | ( X ( ( call ) /\ ( [] ( ! ( open ) ) ) ) ) | ( [] ( ( call ) /\ ( [] ( ! ( open ) ) ) ) ) | ( ( <> ( ( call ) /\ ( [] ( ! ( open ) ) ) ) ) /\ ( ( ( atfloor ) U ( X ( open ) ) ) U ( ! ( call ) ) ) ) | ( X ( <> ( ( call ) /\ ( [] ( ! ( open ) ) ) ) ) ) | ( ( call ) U ( ( ( [] ( ! ( open ) ) ) /\ ( call ) ) /\ ( call ) ) ) | ( ( <> ( ( ! ( call ) ) /\ ( <> ( atfloor ) ) ) ) U ( ( call ) /\ ( [] ( ! ( open ) ) ) ) ) | ( [] ( ( call ) /\ ( ! ( open ) ) ) ) | ( ( ( call ) /\ ( [] ( ! ( open ) ) ) ) U ( ( call ) /\ ( [] ( ! ( open ) ) ) ) ) | ( ( call ) /\ ( ( call ) /\ ( [] ( ! ( open ) ) ) ) ) | ( [] ( [] ( ( call ) /\ ( [] ( ! ( open ) ) ) ) ) ) | ( ( [] ( ( call ) /\ ( [] ( ! ( open ) ) ) ) ) U ( ( call ) /\ ( [] ( ! ( open ) ) ) ) ) | ( ( ( call ) /\ ( [] ( ! ( open ) ) ) ) /\ ( ( call ) /\ ( [] ( ! ( open ) ) ) ) ) | ( ( ( call ) /\ ( [] ( ! ( open ) ) ) ) /\ ( ( call ) U ( [] ( ! ( open ) ) ) ) ) | ( [] ( X ( ( call ) /\ ( [] ( ! ( open ) ) ) ) ) ) | ( ( ( call ) /\ ( [] ( ! ( open ) ) ) ) \/ ( ( call ) /\ ( [] ( ! ( open ) ) ) ) ) | 
Generation Time :0
Accumulated Learning Time :3
CALLs: 7    TIMEOUTs: 0    ERRORs: 0
REEVALUATIONS: 1691 OF 2269

GENERATION 29/50
....m.<;....m.<;....m.<;....m.<;....m.<;
Fittest value: 2.75 for chromosome ( ( call ) /\ ( [] ( ! ( open ) ) ) )
Solutions (16): ( ( call ) /\ ( [] ( ! ( open ) ) ) ) | ( X ( ( call ) /\ ( [] ( ! ( open ) ) ) ) ) | ( [] ( ( call ) /\ ( [] ( ! ( open ) ) ) ) ) | ( ( <> ( ( call ) /\ ( [] ( ! ( open ) ) ) ) ) /\ ( ( ( atfloor ) U ( X ( open ) ) ) U ( ! ( call ) ) ) ) | ( X ( <> ( ( call ) /\ ( [] ( ! ( open ) ) ) ) ) ) | ( ( call ) U ( ( ( [] ( ! ( open ) ) ) /\ ( call ) ) /\ ( call ) ) ) | ( ( <> ( ( ! ( call ) ) /\ ( <> ( atfloor ) ) ) ) U ( ( call ) /\ ( [] ( ! ( open ) ) ) ) ) | ( [] ( ( call ) /\ ( ! ( open ) ) ) ) | ( ( ( call ) /\ ( [] ( ! ( open ) ) ) ) U ( ( call ) /\ ( [] ( ! ( open ) ) ) ) ) | ( ( call ) /\ ( ( call ) /\ ( [] ( ! ( open ) ) ) ) ) | ( [] ( [] ( ( call ) /\ ( [] ( ! ( open ) ) ) ) ) ) | ( ( [] ( ( call ) /\ ( [] ( ! ( open ) ) ) ) ) U ( ( call ) /\ ( [] ( ! ( open ) ) ) ) ) | ( ( ( call ) /\ ( [] ( ! ( open ) ) ) ) /\ ( ( call ) /\ ( [] ( ! ( open ) ) ) ) ) | ( ( ( call ) /\ ( [] ( ! ( open ) ) ) ) /\ ( ( call ) U ( [] ( ! ( open ) ) ) ) ) | ( [] ( X ( ( call ) /\ ( [] ( ! ( open ) ) ) ) ) ) | ( ( ( call ) /\ ( [] ( ! ( open ) ) ) ) \/ ( ( call ) /\ ( [] ( ! ( open ) ) ) ) ) | 
Generation Time :0
Accumulated Learning Time :3
CALLs: 25    TIMEOUTs: 0    ERRORs: 0
REEVALUATIONS: 1762 OF 2345

GENERATION 30/50
....m.<;....m.<;....m.<;
Fittest value: 2.75 for chromosome ( ( call ) /\ ( [] ( ! ( open ) ) ) )
Solutions (16): ( ( call ) /\ ( [] ( ! ( open ) ) ) ) | ( X ( ( call ) /\ ( [] ( ! ( open ) ) ) ) ) | ( [] ( ( call ) /\ ( [] ( ! ( open ) ) ) ) ) | ( ( <> ( ( call ) /\ ( [] ( ! ( open ) ) ) ) ) /\ ( ( ( atfloor ) U ( X ( open ) ) ) U ( ! ( call ) ) ) ) | ( X ( <> ( ( call ) /\ ( [] ( ! ( open ) ) ) ) ) ) | ( ( call ) U ( ( ( [] ( ! ( open ) ) ) /\ ( call ) ) /\ ( call ) ) ) | ( ( <> ( ( ! ( call ) ) /\ ( <> ( atfloor ) ) ) ) U ( ( call ) /\ ( [] ( ! ( open ) ) ) ) ) | ( [] ( ( call ) /\ ( ! ( open ) ) ) ) | ( ( ( call ) /\ ( [] ( ! ( open ) ) ) ) U ( ( call ) /\ ( [] ( ! ( open ) ) ) ) ) | ( ( call ) /\ ( ( call ) /\ ( [] ( ! ( open ) ) ) ) ) | ( [] ( [] ( ( call ) /\ ( [] ( ! ( open ) ) ) ) ) ) | ( ( [] ( ( call ) /\ ( [] ( ! ( open ) ) ) ) ) U ( ( call ) /\ ( [] ( ! ( open ) ) ) ) ) | ( ( ( call ) /\ ( [] ( ! ( open ) ) ) ) /\ ( ( call ) /\ ( [] ( ! ( open ) ) ) ) ) | ( ( ( call ) /\ ( [] ( ! ( open ) ) ) ) /\ ( ( call ) U ( [] ( ! ( open ) ) ) ) ) | ( [] ( X ( ( call ) /\ ( [] ( ! ( open ) ) ) ) ) ) | ( ( ( call ) /\ ( [] ( ! ( open ) ) ) ) \/ ( ( call ) /\ ( [] ( ! ( open ) ) ) ) ) | 
Generation Time :0
Accumulated Learning Time :3
CALLs: 15    TIMEOUTs: 0    ERRORs: 0
REEVALUATIONS: 1836 OF 2422

GENERATION 31/50
....m.<;....m.<;....m.<;..
Fittest value: 2.75 for chromosome ( ( call ) /\ ( [] ( ! ( open ) ) ) )
Solutions (16): ( ( call ) /\ ( [] ( ! ( open ) ) ) ) | ( X ( ( call ) /\ ( [] ( ! ( open ) ) ) ) ) | ( [] ( ( call ) /\ ( [] ( ! ( open ) ) ) ) ) | ( ( <> ( ( call ) /\ ( [] ( ! ( open ) ) ) ) ) /\ ( ( ( atfloor ) U ( X ( open ) ) ) U ( ! ( call ) ) ) ) | ( X ( <> ( ( call ) /\ ( [] ( ! ( open ) ) ) ) ) ) | ( ( call ) U ( ( ( [] ( ! ( open ) ) ) /\ ( call ) ) /\ ( call ) ) ) | ( ( <> ( ( ! ( call ) ) /\ ( <> ( atfloor ) ) ) ) U ( ( call ) /\ ( [] ( ! ( open ) ) ) ) ) | ( [] ( ( call ) /\ ( ! ( open ) ) ) ) | ( ( ( call ) /\ ( [] ( ! ( open ) ) ) ) U ( ( call ) /\ ( [] ( ! ( open ) ) ) ) ) | ( ( call ) /\ ( ( call ) /\ ( [] ( ! ( open ) ) ) ) ) | ( [] ( [] ( ( call ) /\ ( [] ( ! ( open ) ) ) ) ) ) | ( ( [] ( ( call ) /\ ( [] ( ! ( open ) ) ) ) ) U ( ( call ) /\ ( [] ( ! ( open ) ) ) ) ) | ( ( ( call ) /\ ( [] ( ! ( open ) ) ) ) /\ ( ( call ) /\ ( [] ( ! ( open ) ) ) ) ) | ( ( ( call ) /\ ( [] ( ! ( open ) ) ) ) /\ ( ( call ) U ( [] ( ! ( open ) ) ) ) ) | ( [] ( X ( ( call ) /\ ( [] ( ! ( open ) ) ) ) ) ) | ( ( ( call ) /\ ( [] ( ! ( open ) ) ) ) \/ ( ( call ) /\ ( [] ( ! ( open ) ) ) ) ) | 
Generation Time :0
Accumulated Learning Time :3
CALLs: 17    TIMEOUTs: 0    ERRORs: 0
REEVALUATIONS: 1918 OF 2508

GENERATION 32/50
......m.<;.....m.<;...i.m.<;
Fittest value: 2.75 for chromosome ( ( call ) /\ ( [] ( ! ( open ) ) ) )
Solutions (16): ( ( call ) /\ ( [] ( ! ( open ) ) ) ) | ( X ( ( call ) /\ ( [] ( ! ( open ) ) ) ) ) | ( [] ( ( call ) /\ ( [] ( ! ( open ) ) ) ) ) | ( ( <> ( ( call ) /\ ( [] ( ! ( open ) ) ) ) ) /\ ( ( ( atfloor ) U ( X ( open ) ) ) U ( ! ( call ) ) ) ) | ( X ( <> ( ( call ) /\ ( [] ( ! ( open ) ) ) ) ) ) | ( ( call ) U ( ( ( [] ( ! ( open ) ) ) /\ ( call ) ) /\ ( call ) ) ) | ( ( <> ( ( ! ( call ) ) /\ ( <> ( atfloor ) ) ) ) U ( ( call ) /\ ( [] ( ! ( open ) ) ) ) ) | ( [] ( ( call ) /\ ( ! ( open ) ) ) ) | ( ( ( call ) /\ ( [] ( ! ( open ) ) ) ) U ( ( call ) /\ ( [] ( ! ( open ) ) ) ) ) | ( ( call ) /\ ( ( call ) /\ ( [] ( ! ( open ) ) ) ) ) | ( [] ( [] ( ( call ) /\ ( [] ( ! ( open ) ) ) ) ) ) | ( ( [] ( ( call ) /\ ( [] ( ! ( open ) ) ) ) ) U ( ( call ) /\ ( [] ( ! ( open ) ) ) ) ) | ( ( ( call ) /\ ( [] ( ! ( open ) ) ) ) /\ ( ( call ) /\ ( [] ( ! ( open ) ) ) ) ) | ( ( ( call ) /\ ( [] ( ! ( open ) ) ) ) /\ ( ( call ) U ( [] ( ! ( open ) ) ) ) ) | ( [] ( X ( ( call ) /\ ( [] ( ! ( open ) ) ) ) ) ) | ( ( ( call ) /\ ( [] ( ! ( open ) ) ) ) \/ ( ( call ) /\ ( [] ( ! ( open ) ) ) ) ) | 
Generation Time :0
Accumulated Learning Time :3
CALLs: 18    TIMEOUTs: 0    ERRORs: 0
REEVALUATIONS: 2000 OF 2595

GENERATION 33/50

Fittest value: 2.75 for chromosome ( ( call ) /\ ( [] ( ! ( open ) ) ) )
Solutions (16): ( ( call ) /\ ( [] ( ! ( open ) ) ) ) | ( X ( ( call ) /\ ( [] ( ! ( open ) ) ) ) ) | ( [] ( ( call ) /\ ( [] ( ! ( open ) ) ) ) ) | ( ( <> ( ( call ) /\ ( [] ( ! ( open ) ) ) ) ) /\ ( ( ( atfloor ) U ( X ( open ) ) ) U ( ! ( call ) ) ) ) | ( X ( <> ( ( call ) /\ ( [] ( ! ( open ) ) ) ) ) ) | ( ( call ) U ( ( ( [] ( ! ( open ) ) ) /\ ( call ) ) /\ ( call ) ) ) | ( ( <> ( ( ! ( call ) ) /\ ( <> ( atfloor ) ) ) ) U ( ( call ) /\ ( [] ( ! ( open ) ) ) ) ) | ( [] ( ( call ) /\ ( ! ( open ) ) ) ) | ( ( ( call ) /\ ( [] ( ! ( open ) ) ) ) U ( ( call ) /\ ( [] ( ! ( open ) ) ) ) ) | ( ( call ) /\ ( ( call ) /\ ( [] ( ! ( open ) ) ) ) ) | ( [] ( [] ( ( call ) /\ ( [] ( ! ( open ) ) ) ) ) ) | ( ( [] ( ( call ) /\ ( [] ( ! ( open ) ) ) ) ) U ( ( call ) /\ ( [] ( ! ( open ) ) ) ) ) | ( ( ( call ) /\ ( [] ( ! ( open ) ) ) ) /\ ( ( call ) /\ ( [] ( ! ( open ) ) ) ) ) | ( ( ( call ) /\ ( [] ( ! ( open ) ) ) ) /\ ( ( call ) U ( [] ( ! ( open ) ) ) ) ) | ( [] ( X ( ( call ) /\ ( [] ( ! ( open ) ) ) ) ) ) | ( ( ( call ) /\ ( [] ( ! ( open ) ) ) ) \/ ( ( call ) /\ ( [] ( ! ( open ) ) ) ) ) | 
Generation Time :0
Accumulated Learning Time :3
CALLs: 0    TIMEOUTs: 0    ERRORs: 0
REEVALUATIONS: 2080 OF 2675

GENERATION 34/50
....m.<;....m.<;......m.<;...i.m.<;
Fittest value: 2.75 for chromosome ( ( call ) /\ ( [] ( ! ( open ) ) ) )
Solutions (16): ( ( call ) /\ ( [] ( ! ( open ) ) ) ) | ( X ( ( call ) /\ ( [] ( ! ( open ) ) ) ) ) | ( [] ( ( call ) /\ ( [] ( ! ( open ) ) ) ) ) | ( ( <> ( ( call ) /\ ( [] ( ! ( open ) ) ) ) ) /\ ( ( ( atfloor ) U ( X ( open ) ) ) U ( ! ( call ) ) ) ) | ( X ( <> ( ( call ) /\ ( [] ( ! ( open ) ) ) ) ) ) | ( ( call ) U ( ( ( [] ( ! ( open ) ) ) /\ ( call ) ) /\ ( call ) ) ) | ( ( <> ( ( ! ( call ) ) /\ ( <> ( atfloor ) ) ) ) U ( ( call ) /\ ( [] ( ! ( open ) ) ) ) ) | ( [] ( ( call ) /\ ( ! ( open ) ) ) ) | ( ( ( call ) /\ ( [] ( ! ( open ) ) ) ) U ( ( call ) /\ ( [] ( ! ( open ) ) ) ) ) | ( ( call ) /\ ( ( call ) /\ ( [] ( ! ( open ) ) ) ) ) | ( [] ( [] ( ( call ) /\ ( [] ( ! ( open ) ) ) ) ) ) | ( ( [] ( ( call ) /\ ( [] ( ! ( open ) ) ) ) ) U ( ( call ) /\ ( [] ( ! ( open ) ) ) ) ) | ( ( ( call ) /\ ( [] ( ! ( open ) ) ) ) /\ ( ( call ) /\ ( [] ( ! ( open ) ) ) ) ) | ( ( ( call ) /\ ( [] ( ! ( open ) ) ) ) /\ ( ( call ) U ( [] ( ! ( open ) ) ) ) ) | ( [] ( X ( ( call ) /\ ( [] ( ! ( open ) ) ) ) ) ) | ( ( ( call ) /\ ( [] ( ! ( open ) ) ) ) \/ ( ( call ) /\ ( [] ( ! ( open ) ) ) ) ) | 
Generation Time :0
Accumulated Learning Time :3
CALLs: 22    TIMEOUTs: 0    ERRORs: 0
REEVALUATIONS: 2147 OF 2747

GENERATION 35/50
....m.<;......m.<;..
Fittest value: 2.75 for chromosome ( ( call ) /\ ( [] ( ! ( open ) ) ) )
Solutions (16): ( ( call ) /\ ( [] ( ! ( open ) ) ) ) | ( X ( ( call ) /\ ( [] ( ! ( open ) ) ) ) ) | ( [] ( ( call ) /\ ( [] ( ! ( open ) ) ) ) ) | ( ( <> ( ( call ) /\ ( [] ( ! ( open ) ) ) ) ) /\ ( ( ( atfloor ) U ( X ( open ) ) ) U ( ! ( call ) ) ) ) | ( X ( <> ( ( call ) /\ ( [] ( ! ( open ) ) ) ) ) ) | ( ( call ) U ( ( ( [] ( ! ( open ) ) ) /\ ( call ) ) /\ ( call ) ) ) | ( ( <> ( ( ! ( call ) ) /\ ( <> ( atfloor ) ) ) ) U ( ( call ) /\ ( [] ( ! ( open ) ) ) ) ) | ( [] ( ( call ) /\ ( ! ( open ) ) ) ) | ( ( ( call ) /\ ( [] ( ! ( open ) ) ) ) U ( ( call ) /\ ( [] ( ! ( open ) ) ) ) ) | ( ( call ) /\ ( ( call ) /\ ( [] ( ! ( open ) ) ) ) ) | ( [] ( [] ( ( call ) /\ ( [] ( ! ( open ) ) ) ) ) ) | ( ( [] ( ( call ) /\ ( [] ( ! ( open ) ) ) ) ) U ( ( call ) /\ ( [] ( ! ( open ) ) ) ) ) | ( ( ( call ) /\ ( [] ( ! ( open ) ) ) ) /\ ( ( call ) /\ ( [] ( ! ( open ) ) ) ) ) | ( ( ( call ) /\ ( [] ( ! ( open ) ) ) ) /\ ( ( call ) U ( [] ( ! ( open ) ) ) ) ) | ( [] ( X ( ( call ) /\ ( [] ( ! ( open ) ) ) ) ) ) | ( ( ( call ) /\ ( [] ( ! ( open ) ) ) ) \/ ( ( call ) /\ ( [] ( ! ( open ) ) ) ) ) | 
Generation Time :0
Accumulated Learning Time :3
CALLs: 14    TIMEOUTs: 0    ERRORs: 0
REEVALUATIONS: 2223 OF 2827

GENERATION 36/50
....m.<;......m.<;......m.<;....m.<;....m.<;
Fittest value: 2.75 for chromosome ( ( call ) /\ ( [] ( ! ( open ) ) ) )
Solutions (16): ( ( call ) /\ ( [] ( ! ( open ) ) ) ) | ( X ( ( call ) /\ ( [] ( ! ( open ) ) ) ) ) | ( [] ( ( call ) /\ ( [] ( ! ( open ) ) ) ) ) | ( ( <> ( ( call ) /\ ( [] ( ! ( open ) ) ) ) ) /\ ( ( ( atfloor ) U ( X ( open ) ) ) U ( ! ( call ) ) ) ) | ( X ( <> ( ( call ) /\ ( [] ( ! ( open ) ) ) ) ) ) | ( ( call ) U ( ( ( [] ( ! ( open ) ) ) /\ ( call ) ) /\ ( call ) ) ) | ( ( <> ( ( ! ( call ) ) /\ ( <> ( atfloor ) ) ) ) U ( ( call ) /\ ( [] ( ! ( open ) ) ) ) ) | ( [] ( ( call ) /\ ( ! ( open ) ) ) ) | ( ( ( call ) /\ ( [] ( ! ( open ) ) ) ) U ( ( call ) /\ ( [] ( ! ( open ) ) ) ) ) | ( ( call ) /\ ( ( call ) /\ ( [] ( ! ( open ) ) ) ) ) | ( [] ( [] ( ( call ) /\ ( [] ( ! ( open ) ) ) ) ) ) | ( ( [] ( ( call ) /\ ( [] ( ! ( open ) ) ) ) ) U ( ( call ) /\ ( [] ( ! ( open ) ) ) ) ) | ( ( ( call ) /\ ( [] ( ! ( open ) ) ) ) /\ ( ( call ) /\ ( [] ( ! ( open ) ) ) ) ) | ( ( ( call ) /\ ( [] ( ! ( open ) ) ) ) /\ ( ( call ) U ( [] ( ! ( open ) ) ) ) ) | ( [] ( X ( ( call ) /\ ( [] ( ! ( open ) ) ) ) ) ) | ( ( ( call ) /\ ( [] ( ! ( open ) ) ) ) \/ ( ( call ) /\ ( [] ( ! ( open ) ) ) ) ) | 
Generation Time :0
Accumulated Learning Time :3
CALLs: 29    TIMEOUTs: 0    ERRORs: 0
REEVALUATIONS: 2290 OF 2901

GENERATION 37/50
.....m.;....m.<;
Fittest value: 2.75 for chromosome ( ( call ) /\ ( [] ( ! ( open ) ) ) )
Solutions (16): ( ( call ) /\ ( [] ( ! ( open ) ) ) ) | ( X ( ( call ) /\ ( [] ( ! ( open ) ) ) ) ) | ( [] ( ( call ) /\ ( [] ( ! ( open ) ) ) ) ) | ( ( <> ( ( call ) /\ ( [] ( ! ( open ) ) ) ) ) /\ ( ( ( atfloor ) U ( X ( open ) ) ) U ( ! ( call ) ) ) ) | ( X ( <> ( ( call ) /\ ( [] ( ! ( open ) ) ) ) ) ) | ( ( call ) U ( ( ( [] ( ! ( open ) ) ) /\ ( call ) ) /\ ( call ) ) ) | ( ( <> ( ( ! ( call ) ) /\ ( <> ( atfloor ) ) ) ) U ( ( call ) /\ ( [] ( ! ( open ) ) ) ) ) | ( [] ( ( call ) /\ ( ! ( open ) ) ) ) | ( ( ( call ) /\ ( [] ( ! ( open ) ) ) ) U ( ( call ) /\ ( [] ( ! ( open ) ) ) ) ) | ( ( call ) /\ ( ( call ) /\ ( [] ( ! ( open ) ) ) ) ) | ( [] ( [] ( ( call ) /\ ( [] ( ! ( open ) ) ) ) ) ) | ( ( [] ( ( call ) /\ ( [] ( ! ( open ) ) ) ) ) U ( ( call ) /\ ( [] ( ! ( open ) ) ) ) ) | ( ( ( call ) /\ ( [] ( ! ( open ) ) ) ) /\ ( ( call ) /\ ( [] ( ! ( open ) ) ) ) ) | ( ( ( call ) /\ ( [] ( ! ( open ) ) ) ) /\ ( ( call ) U ( [] ( ! ( open ) ) ) ) ) | ( [] ( X ( ( call ) /\ ( [] ( ! ( open ) ) ) ) ) ) | ( ( ( call ) /\ ( [] ( ! ( open ) ) ) ) \/ ( ( call ) /\ ( [] ( ! ( open ) ) ) ) ) | 
Generation Time :0
Accumulated Learning Time :3
CALLs: 11    TIMEOUTs: 0    ERRORs: 0
REEVALUATIONS: 2369 OF 2983

GENERATION 38/50
....m.<;
Fittest value: 2.75 for chromosome ( ( call ) /\ ( [] ( ! ( open ) ) ) )
Solutions (16): ( ( call ) /\ ( [] ( ! ( open ) ) ) ) | ( X ( ( call ) /\ ( [] ( ! ( open ) ) ) ) ) | ( [] ( ( call ) /\ ( [] ( ! ( open ) ) ) ) ) | ( ( <> ( ( call ) /\ ( [] ( ! ( open ) ) ) ) ) /\ ( ( ( atfloor ) U ( X ( open ) ) ) U ( ! ( call ) ) ) ) | ( X ( <> ( ( call ) /\ ( [] ( ! ( open ) ) ) ) ) ) | ( ( call ) U ( ( ( [] ( ! ( open ) ) ) /\ ( call ) ) /\ ( call ) ) ) | ( ( <> ( ( ! ( call ) ) /\ ( <> ( atfloor ) ) ) ) U ( ( call ) /\ ( [] ( ! ( open ) ) ) ) ) | ( [] ( ( call ) /\ ( ! ( open ) ) ) ) | ( ( ( call ) /\ ( [] ( ! ( open ) ) ) ) U ( ( call ) /\ ( [] ( ! ( open ) ) ) ) ) | ( ( call ) /\ ( ( call ) /\ ( [] ( ! ( open ) ) ) ) ) | ( [] ( [] ( ( call ) /\ ( [] ( ! ( open ) ) ) ) ) ) | ( ( [] ( ( call ) /\ ( [] ( ! ( open ) ) ) ) ) U ( ( call ) /\ ( [] ( ! ( open ) ) ) ) ) | ( ( ( call ) /\ ( [] ( ! ( open ) ) ) ) /\ ( ( call ) /\ ( [] ( ! ( open ) ) ) ) ) | ( ( ( call ) /\ ( [] ( ! ( open ) ) ) ) /\ ( ( call ) U ( [] ( ! ( open ) ) ) ) ) | ( [] ( X ( ( call ) /\ ( [] ( ! ( open ) ) ) ) ) ) | ( ( ( call ) /\ ( [] ( ! ( open ) ) ) ) \/ ( ( call ) /\ ( [] ( ! ( open ) ) ) ) ) | 
Generation Time :0
Accumulated Learning Time :3
CALLs: 5    TIMEOUTs: 0    ERRORs: 0
REEVALUATIONS: 2448 OF 3063

GENERATION 39/50
....m.;....
Fittest value: 2.75 for chromosome ( ( call ) /\ ( [] ( ! ( open ) ) ) )
Solutions (16): ( ( call ) /\ ( [] ( ! ( open ) ) ) ) | ( X ( ( call ) /\ ( [] ( ! ( open ) ) ) ) ) | ( [] ( ( call ) /\ ( [] ( ! ( open ) ) ) ) ) | ( ( <> ( ( call ) /\ ( [] ( ! ( open ) ) ) ) ) /\ ( ( ( atfloor ) U ( X ( open ) ) ) U ( ! ( call ) ) ) ) | ( X ( <> ( ( call ) /\ ( [] ( ! ( open ) ) ) ) ) ) | ( ( call ) U ( ( ( [] ( ! ( open ) ) ) /\ ( call ) ) /\ ( call ) ) ) | ( ( <> ( ( ! ( call ) ) /\ ( <> ( atfloor ) ) ) ) U ( ( call ) /\ ( [] ( ! ( open ) ) ) ) ) | ( [] ( ( call ) /\ ( ! ( open ) ) ) ) | ( ( ( call ) /\ ( [] ( ! ( open ) ) ) ) U ( ( call ) /\ ( [] ( ! ( open ) ) ) ) ) | ( ( call ) /\ ( ( call ) /\ ( [] ( ! ( open ) ) ) ) ) | ( [] ( [] ( ( call ) /\ ( [] ( ! ( open ) ) ) ) ) ) | ( ( [] ( ( call ) /\ ( [] ( ! ( open ) ) ) ) ) U ( ( call ) /\ ( [] ( ! ( open ) ) ) ) ) | ( ( ( call ) /\ ( [] ( ! ( open ) ) ) ) /\ ( ( call ) /\ ( [] ( ! ( open ) ) ) ) ) | ( ( ( call ) /\ ( [] ( ! ( open ) ) ) ) /\ ( ( call ) U ( [] ( ! ( open ) ) ) ) ) | ( [] ( X ( ( call ) /\ ( [] ( ! ( open ) ) ) ) ) ) | ( ( ( call ) /\ ( [] ( ! ( open ) ) ) ) \/ ( ( call ) /\ ( [] ( ! ( open ) ) ) ) ) | 
Generation Time :0
Accumulated Learning Time :3
CALLs: 9    TIMEOUTs: 0    ERRORs: 0
REEVALUATIONS: 2525 OF 3144

GENERATION 40/50
.....m.;....m.<;......m.<;
Fittest value: 2.75 for chromosome ( ( call ) /\ ( [] ( ! ( open ) ) ) )
Solutions (16): ( ( call ) /\ ( [] ( ! ( open ) ) ) ) | ( X ( ( call ) /\ ( [] ( ! ( open ) ) ) ) ) | ( [] ( ( call ) /\ ( [] ( ! ( open ) ) ) ) ) | ( ( <> ( ( call ) /\ ( [] ( ! ( open ) ) ) ) ) /\ ( ( ( atfloor ) U ( X ( open ) ) ) U ( ! ( call ) ) ) ) | ( X ( <> ( ( call ) /\ ( [] ( ! ( open ) ) ) ) ) ) | ( ( call ) U ( ( ( [] ( ! ( open ) ) ) /\ ( call ) ) /\ ( call ) ) ) | ( ( <> ( ( ! ( call ) ) /\ ( <> ( atfloor ) ) ) ) U ( ( call ) /\ ( [] ( ! ( open ) ) ) ) ) | ( [] ( ( call ) /\ ( ! ( open ) ) ) ) | ( ( ( call ) /\ ( [] ( ! ( open ) ) ) ) U ( ( call ) /\ ( [] ( ! ( open ) ) ) ) ) | ( ( call ) /\ ( ( call ) /\ ( [] ( ! ( open ) ) ) ) ) | ( [] ( [] ( ( call ) /\ ( [] ( ! ( open ) ) ) ) ) ) | ( ( [] ( ( call ) /\ ( [] ( ! ( open ) ) ) ) ) U ( ( call ) /\ ( [] ( ! ( open ) ) ) ) ) | ( ( ( call ) /\ ( [] ( ! ( open ) ) ) ) /\ ( ( call ) /\ ( [] ( ! ( open ) ) ) ) ) | ( ( ( call ) /\ ( [] ( ! ( open ) ) ) ) /\ ( ( call ) U ( [] ( ! ( open ) ) ) ) ) | ( [] ( X ( ( call ) /\ ( [] ( ! ( open ) ) ) ) ) ) | ( ( ( call ) /\ ( [] ( ! ( open ) ) ) ) \/ ( ( call ) /\ ( [] ( ! ( open ) ) ) ) ) | 
Generation Time :0
Accumulated Learning Time :3
CALLs: 18    TIMEOUTs: 0    ERRORs: 0
REEVALUATIONS: 2598 OF 3222

GENERATION 41/50
....m.<;
Fittest value: 2.75 for chromosome ( ( call ) /\ ( [] ( ! ( open ) ) ) )
Solutions (16): ( ( call ) /\ ( [] ( ! ( open ) ) ) ) | ( X ( ( call ) /\ ( [] ( ! ( open ) ) ) ) ) | ( [] ( ( call ) /\ ( [] ( ! ( open ) ) ) ) ) | ( ( <> ( ( call ) /\ ( [] ( ! ( open ) ) ) ) ) /\ ( ( ( atfloor ) U ( X ( open ) ) ) U ( ! ( call ) ) ) ) | ( X ( <> ( ( call ) /\ ( [] ( ! ( open ) ) ) ) ) ) | ( ( call ) U ( ( ( [] ( ! ( open ) ) ) /\ ( call ) ) /\ ( call ) ) ) | ( ( <> ( ( ! ( call ) ) /\ ( <> ( atfloor ) ) ) ) U ( ( call ) /\ ( [] ( ! ( open ) ) ) ) ) | ( [] ( ( call ) /\ ( ! ( open ) ) ) ) | ( ( ( call ) /\ ( [] ( ! ( open ) ) ) ) U ( ( call ) /\ ( [] ( ! ( open ) ) ) ) ) | ( ( call ) /\ ( ( call ) /\ ( [] ( ! ( open ) ) ) ) ) | ( [] ( [] ( ( call ) /\ ( [] ( ! ( open ) ) ) ) ) ) | ( ( [] ( ( call ) /\ ( [] ( ! ( open ) ) ) ) ) U ( ( call ) /\ ( [] ( ! ( open ) ) ) ) ) | ( ( ( call ) /\ ( [] ( ! ( open ) ) ) ) /\ ( ( call ) /\ ( [] ( ! ( open ) ) ) ) ) | ( ( ( call ) /\ ( [] ( ! ( open ) ) ) ) /\ ( ( call ) U ( [] ( ! ( open ) ) ) ) ) | ( [] ( X ( ( call ) /\ ( [] ( ! ( open ) ) ) ) ) ) | ( ( ( call ) /\ ( [] ( ! ( open ) ) ) ) \/ ( ( call ) /\ ( [] ( ! ( open ) ) ) ) ) | 
Generation Time :0
Accumulated Learning Time :3
CALLs: 5    TIMEOUTs: 0    ERRORs: 0
REEVALUATIONS: 2683 OF 3308

GENERATION 42/50
....m.;....m.;....m.<;.
Fittest value: 2.75 for chromosome ( ( call ) /\ ( [] ( ! ( open ) ) ) )
Solutions (16): ( ( call ) /\ ( [] ( ! ( open ) ) ) ) | ( X ( ( call ) /\ ( [] ( ! ( open ) ) ) ) ) | ( [] ( ( call ) /\ ( [] ( ! ( open ) ) ) ) ) | ( ( <> ( ( call ) /\ ( [] ( ! ( open ) ) ) ) ) /\ ( ( ( atfloor ) U ( X ( open ) ) ) U ( ! ( call ) ) ) ) | ( X ( <> ( ( call ) /\ ( [] ( ! ( open ) ) ) ) ) ) | ( ( call ) U ( ( ( [] ( ! ( open ) ) ) /\ ( call ) ) /\ ( call ) ) ) | ( ( <> ( ( ! ( call ) ) /\ ( <> ( atfloor ) ) ) ) U ( ( call ) /\ ( [] ( ! ( open ) ) ) ) ) | ( [] ( ( call ) /\ ( ! ( open ) ) ) ) | ( ( ( call ) /\ ( [] ( ! ( open ) ) ) ) U ( ( call ) /\ ( [] ( ! ( open ) ) ) ) ) | ( ( call ) /\ ( ( call ) /\ ( [] ( ! ( open ) ) ) ) ) | ( [] ( [] ( ( call ) /\ ( [] ( ! ( open ) ) ) ) ) ) | ( ( [] ( ( call ) /\ ( [] ( ! ( open ) ) ) ) ) U ( ( call ) /\ ( [] ( ! ( open ) ) ) ) ) | ( ( ( call ) /\ ( [] ( ! ( open ) ) ) ) /\ ( ( call ) /\ ( [] ( ! ( open ) ) ) ) ) | ( ( ( call ) /\ ( [] ( ! ( open ) ) ) ) /\ ( ( call ) U ( [] ( ! ( open ) ) ) ) ) | ( [] ( X ( ( call ) /\ ( [] ( ! ( open ) ) ) ) ) ) | ( ( ( call ) /\ ( [] ( ! ( open ) ) ) ) \/ ( ( call ) /\ ( [] ( ! ( open ) ) ) ) ) | 
Generation Time :0
Accumulated Learning Time :3
CALLs: 16    TIMEOUTs: 0    ERRORs: 0
REEVALUATIONS: 2768 OF 3397

GENERATION 43/50
.
Fittest value: 2.75 for chromosome ( ( call ) /\ ( [] ( ! ( open ) ) ) )
Solutions (16): ( ( call ) /\ ( [] ( ! ( open ) ) ) ) | ( X ( ( call ) /\ ( [] ( ! ( open ) ) ) ) ) | ( [] ( ( call ) /\ ( [] ( ! ( open ) ) ) ) ) | ( ( <> ( ( call ) /\ ( [] ( ! ( open ) ) ) ) ) /\ ( ( ( atfloor ) U ( X ( open ) ) ) U ( ! ( call ) ) ) ) | ( X ( <> ( ( call ) /\ ( [] ( ! ( open ) ) ) ) ) ) | ( ( call ) U ( ( ( [] ( ! ( open ) ) ) /\ ( call ) ) /\ ( call ) ) ) | ( ( <> ( ( ! ( call ) ) /\ ( <> ( atfloor ) ) ) ) U ( ( call ) /\ ( [] ( ! ( open ) ) ) ) ) | ( [] ( ( call ) /\ ( ! ( open ) ) ) ) | ( ( ( call ) /\ ( [] ( ! ( open ) ) ) ) U ( ( call ) /\ ( [] ( ! ( open ) ) ) ) ) | ( ( call ) /\ ( ( call ) /\ ( [] ( ! ( open ) ) ) ) ) | ( [] ( [] ( ( call ) /\ ( [] ( ! ( open ) ) ) ) ) ) | ( ( [] ( ( call ) /\ ( [] ( ! ( open ) ) ) ) ) U ( ( call ) /\ ( [] ( ! ( open ) ) ) ) ) | ( ( ( call ) /\ ( [] ( ! ( open ) ) ) ) /\ ( ( call ) /\ ( [] ( ! ( open ) ) ) ) ) | ( ( ( call ) /\ ( [] ( ! ( open ) ) ) ) /\ ( ( call ) U ( [] ( ! ( open ) ) ) ) ) | ( [] ( X ( ( call ) /\ ( [] ( ! ( open ) ) ) ) ) ) | ( ( ( call ) /\ ( [] ( ! ( open ) ) ) ) \/ ( ( call ) /\ ( [] ( ! ( open ) ) ) ) ) | 
Generation Time :0
Accumulated Learning Time :4
CALLs: 1    TIMEOUTs: 0    ERRORs: 0
REEVALUATIONS: 2845 OF 3475

GENERATION 44/50
....m.<;....m.<;....m.<;....m.<;....m.<;
Fittest value: 2.75 for chromosome ( ( call ) /\ ( [] ( ! ( open ) ) ) )
Solutions (16): ( ( call ) /\ ( [] ( ! ( open ) ) ) ) | ( X ( ( call ) /\ ( [] ( ! ( open ) ) ) ) ) | ( [] ( ( call ) /\ ( [] ( ! ( open ) ) ) ) ) | ( ( <> ( ( call ) /\ ( [] ( ! ( open ) ) ) ) ) /\ ( ( ( atfloor ) U ( X ( open ) ) ) U ( ! ( call ) ) ) ) | ( X ( <> ( ( call ) /\ ( [] ( ! ( open ) ) ) ) ) ) | ( ( call ) U ( ( ( [] ( ! ( open ) ) ) /\ ( call ) ) /\ ( call ) ) ) | ( ( <> ( ( ! ( call ) ) /\ ( <> ( atfloor ) ) ) ) U ( ( call ) /\ ( [] ( ! ( open ) ) ) ) ) | ( [] ( ( call ) /\ ( ! ( open ) ) ) ) | ( ( ( call ) /\ ( [] ( ! ( open ) ) ) ) U ( ( call ) /\ ( [] ( ! ( open ) ) ) ) ) | ( ( call ) /\ ( ( call ) /\ ( [] ( ! ( open ) ) ) ) ) | ( [] ( [] ( ( call ) /\ ( [] ( ! ( open ) ) ) ) ) ) | ( ( [] ( ( call ) /\ ( [] ( ! ( open ) ) ) ) ) U ( ( call ) /\ ( [] ( ! ( open ) ) ) ) ) | ( ( ( call ) /\ ( [] ( ! ( open ) ) ) ) /\ ( ( call ) /\ ( [] ( ! ( open ) ) ) ) ) | ( ( ( call ) /\ ( [] ( ! ( open ) ) ) ) /\ ( ( call ) U ( [] ( ! ( open ) ) ) ) ) | ( [] ( X ( ( call ) /\ ( [] ( ! ( open ) ) ) ) ) ) | ( ( ( call ) /\ ( [] ( ! ( open ) ) ) ) \/ ( ( call ) /\ ( [] ( ! ( open ) ) ) ) ) | 
Generation Time :0
Accumulated Learning Time :4
CALLs: 25    TIMEOUTs: 0    ERRORs: 0
REEVALUATIONS: 2922 OF 3557

GENERATION 45/50
....m.<;....m.<;....m.<;....m.<;....m.<;
Fittest value: 2.75 for chromosome ( ( call ) /\ ( [] ( ! ( open ) ) ) )
Solutions (16): ( ( call ) /\ ( [] ( ! ( open ) ) ) ) | ( X ( ( call ) /\ ( [] ( ! ( open ) ) ) ) ) | ( [] ( ( call ) /\ ( [] ( ! ( open ) ) ) ) ) | ( ( <> ( ( call ) /\ ( [] ( ! ( open ) ) ) ) ) /\ ( ( ( atfloor ) U ( X ( open ) ) ) U ( ! ( call ) ) ) ) | ( X ( <> ( ( call ) /\ ( [] ( ! ( open ) ) ) ) ) ) | ( ( call ) U ( ( ( [] ( ! ( open ) ) ) /\ ( call ) ) /\ ( call ) ) ) | ( ( <> ( ( ! ( call ) ) /\ ( <> ( atfloor ) ) ) ) U ( ( call ) /\ ( [] ( ! ( open ) ) ) ) ) | ( [] ( ( call ) /\ ( ! ( open ) ) ) ) | ( ( ( call ) /\ ( [] ( ! ( open ) ) ) ) U ( ( call ) /\ ( [] ( ! ( open ) ) ) ) ) | ( ( call ) /\ ( ( call ) /\ ( [] ( ! ( open ) ) ) ) ) | ( [] ( [] ( ( call ) /\ ( [] ( ! ( open ) ) ) ) ) ) | ( ( [] ( ( call ) /\ ( [] ( ! ( open ) ) ) ) ) U ( ( call ) /\ ( [] ( ! ( open ) ) ) ) ) | ( ( ( call ) /\ ( [] ( ! ( open ) ) ) ) /\ ( ( call ) /\ ( [] ( ! ( open ) ) ) ) ) | ( ( ( call ) /\ ( [] ( ! ( open ) ) ) ) /\ ( ( call ) U ( [] ( ! ( open ) ) ) ) ) | ( [] ( X ( ( call ) /\ ( [] ( ! ( open ) ) ) ) ) ) | ( ( ( call ) /\ ( [] ( ! ( open ) ) ) ) \/ ( ( call ) /\ ( [] ( ! ( open ) ) ) ) ) | 
Generation Time :0
Accumulated Learning Time :4
CALLs: 25    TIMEOUTs: 0    ERRORs: 0
REEVALUATIONS: 2996 OF 3636

GENERATION 46/50
....m.<;......m.<;....m.<;
Fittest value: 2.75 for chromosome ( ( call ) /\ ( [] ( ! ( open ) ) ) )
Solutions (16): ( ( call ) /\ ( [] ( ! ( open ) ) ) ) | ( X ( ( call ) /\ ( [] ( ! ( open ) ) ) ) ) | ( [] ( ( call ) /\ ( [] ( ! ( open ) ) ) ) ) | ( ( <> ( ( call ) /\ ( [] ( ! ( open ) ) ) ) ) /\ ( ( ( atfloor ) U ( X ( open ) ) ) U ( ! ( call ) ) ) ) | ( X ( <> ( ( call ) /\ ( [] ( ! ( open ) ) ) ) ) ) | ( ( call ) U ( ( ( [] ( ! ( open ) ) ) /\ ( call ) ) /\ ( call ) ) ) | ( ( <> ( ( ! ( call ) ) /\ ( <> ( atfloor ) ) ) ) U ( ( call ) /\ ( [] ( ! ( open ) ) ) ) ) | ( [] ( ( call ) /\ ( ! ( open ) ) ) ) | ( ( ( call ) /\ ( [] ( ! ( open ) ) ) ) U ( ( call ) /\ ( [] ( ! ( open ) ) ) ) ) | ( ( call ) /\ ( ( call ) /\ ( [] ( ! ( open ) ) ) ) ) | ( [] ( [] ( ( call ) /\ ( [] ( ! ( open ) ) ) ) ) ) | ( ( [] ( ( call ) /\ ( [] ( ! ( open ) ) ) ) ) U ( ( call ) /\ ( [] ( ! ( open ) ) ) ) ) | ( ( ( call ) /\ ( [] ( ! ( open ) ) ) ) /\ ( ( call ) /\ ( [] ( ! ( open ) ) ) ) ) | ( ( ( call ) /\ ( [] ( ! ( open ) ) ) ) /\ ( ( call ) U ( [] ( ! ( open ) ) ) ) ) | ( [] ( X ( ( call ) /\ ( [] ( ! ( open ) ) ) ) ) ) | ( ( ( call ) /\ ( [] ( ! ( open ) ) ) ) \/ ( ( call ) /\ ( [] ( ! ( open ) ) ) ) ) | 
Generation Time :0
Accumulated Learning Time :4
CALLs: 17    TIMEOUTs: 0    ERRORs: 0
REEVALUATIONS: 3073 OF 3717

GENERATION 47/50
....m.<;......m.<;.....m.<;....m.<;.
Fittest value: 2.75 for chromosome ( ( call ) /\ ( [] ( ! ( open ) ) ) )
Solutions (16): ( ( call ) /\ ( [] ( ! ( open ) ) ) ) | ( X ( ( call ) /\ ( [] ( ! ( open ) ) ) ) ) | ( [] ( ( call ) /\ ( [] ( ! ( open ) ) ) ) ) | ( ( <> ( ( call ) /\ ( [] ( ! ( open ) ) ) ) ) /\ ( ( ( atfloor ) U ( X ( open ) ) ) U ( ! ( call ) ) ) ) | ( X ( <> ( ( call ) /\ ( [] ( ! ( open ) ) ) ) ) ) | ( ( call ) U ( ( ( [] ( ! ( open ) ) ) /\ ( call ) ) /\ ( call ) ) ) | ( ( <> ( ( ! ( call ) ) /\ ( <> ( atfloor ) ) ) ) U ( ( call ) /\ ( [] ( ! ( open ) ) ) ) ) | ( [] ( ( call ) /\ ( ! ( open ) ) ) ) | ( ( ( call ) /\ ( [] ( ! ( open ) ) ) ) U ( ( call ) /\ ( [] ( ! ( open ) ) ) ) ) | ( ( call ) /\ ( ( call ) /\ ( [] ( ! ( open ) ) ) ) ) | ( [] ( [] ( ( call ) /\ ( [] ( ! ( open ) ) ) ) ) ) | ( ( [] ( ( call ) /\ ( [] ( ! ( open ) ) ) ) ) U ( ( call ) /\ ( [] ( ! ( open ) ) ) ) ) | ( ( ( call ) /\ ( [] ( ! ( open ) ) ) ) /\ ( ( call ) /\ ( [] ( ! ( open ) ) ) ) ) | ( ( ( call ) /\ ( [] ( ! ( open ) ) ) ) /\ ( ( call ) U ( [] ( ! ( open ) ) ) ) ) | ( [] ( X ( ( call ) /\ ( [] ( ! ( open ) ) ) ) ) ) | ( ( ( call ) /\ ( [] ( ! ( open ) ) ) ) \/ ( ( call ) /\ ( [] ( ! ( open ) ) ) ) ) | 
Generation Time :0
Accumulated Learning Time :4
CALLs: 24    TIMEOUTs: 0    ERRORs: 0
REEVALUATIONS: 3144 OF 3795

GENERATION 48/50
....m.;....m.<;....m.<;....
Fittest value: 2.75 for chromosome ( ( call ) /\ ( [] ( ! ( open ) ) ) )
Solutions (16): ( ( call ) /\ ( [] ( ! ( open ) ) ) ) | ( X ( ( call ) /\ ( [] ( ! ( open ) ) ) ) ) | ( [] ( ( call ) /\ ( [] ( ! ( open ) ) ) ) ) | ( ( <> ( ( call ) /\ ( [] ( ! ( open ) ) ) ) ) /\ ( ( ( atfloor ) U ( X ( open ) ) ) U ( ! ( call ) ) ) ) | ( X ( <> ( ( call ) /\ ( [] ( ! ( open ) ) ) ) ) ) | ( ( call ) U ( ( ( [] ( ! ( open ) ) ) /\ ( call ) ) /\ ( call ) ) ) | ( ( <> ( ( ! ( call ) ) /\ ( <> ( atfloor ) ) ) ) U ( ( call ) /\ ( [] ( ! ( open ) ) ) ) ) | ( [] ( ( call ) /\ ( ! ( open ) ) ) ) | ( ( ( call ) /\ ( [] ( ! ( open ) ) ) ) U ( ( call ) /\ ( [] ( ! ( open ) ) ) ) ) | ( ( call ) /\ ( ( call ) /\ ( [] ( ! ( open ) ) ) ) ) | ( [] ( [] ( ( call ) /\ ( [] ( ! ( open ) ) ) ) ) ) | ( ( [] ( ( call ) /\ ( [] ( ! ( open ) ) ) ) ) U ( ( call ) /\ ( [] ( ! ( open ) ) ) ) ) | ( ( ( call ) /\ ( [] ( ! ( open ) ) ) ) /\ ( ( call ) /\ ( [] ( ! ( open ) ) ) ) ) | ( ( ( call ) /\ ( [] ( ! ( open ) ) ) ) /\ ( ( call ) U ( [] ( ! ( open ) ) ) ) ) | ( [] ( X ( ( call ) /\ ( [] ( ! ( open ) ) ) ) ) ) | ( ( ( call ) /\ ( [] ( ! ( open ) ) ) ) \/ ( ( call ) /\ ( [] ( ! ( open ) ) ) ) ) | 
Generation Time :0
Accumulated Learning Time :4
CALLs: 19    TIMEOUTs: 0    ERRORs: 0
REEVALUATIONS: 3214 OF 3870

GENERATION 49/50
.
Fittest value: 2.75 for chromosome ( ( call ) /\ ( [] ( ! ( open ) ) ) )
Solutions (16): ( ( call ) /\ ( [] ( ! ( open ) ) ) ) | ( X ( ( call ) /\ ( [] ( ! ( open ) ) ) ) ) | ( [] ( ( call ) /\ ( [] ( ! ( open ) ) ) ) ) | ( ( <> ( ( call ) /\ ( [] ( ! ( open ) ) ) ) ) /\ ( ( ( atfloor ) U ( X ( open ) ) ) U ( ! ( call ) ) ) ) | ( X ( <> ( ( call ) /\ ( [] ( ! ( open ) ) ) ) ) ) | ( ( call ) U ( ( ( [] ( ! ( open ) ) ) /\ ( call ) ) /\ ( call ) ) ) | ( ( <> ( ( ! ( call ) ) /\ ( <> ( atfloor ) ) ) ) U ( ( call ) /\ ( [] ( ! ( open ) ) ) ) ) | ( [] ( ( call ) /\ ( ! ( open ) ) ) ) | ( ( ( call ) /\ ( [] ( ! ( open ) ) ) ) U ( ( call ) /\ ( [] ( ! ( open ) ) ) ) ) | ( ( call ) /\ ( ( call ) /\ ( [] ( ! ( open ) ) ) ) ) | ( [] ( [] ( ( call ) /\ ( [] ( ! ( open ) ) ) ) ) ) | ( ( [] ( ( call ) /\ ( [] ( ! ( open ) ) ) ) ) U ( ( call ) /\ ( [] ( ! ( open ) ) ) ) ) | ( ( ( call ) /\ ( [] ( ! ( open ) ) ) ) /\ ( ( call ) /\ ( [] ( ! ( open ) ) ) ) ) | ( ( ( call ) /\ ( [] ( ! ( open ) ) ) ) /\ ( ( call ) U ( [] ( ! ( open ) ) ) ) ) | ( [] ( X ( ( call ) /\ ( [] ( ! ( open ) ) ) ) ) ) | ( ( ( call ) /\ ( [] ( ! ( open ) ) ) ) \/ ( ( call ) /\ ( [] ( ! ( open ) ) ) ) ) | 
Generation Time :0
Accumulated Learning Time :4
CALLs: 1    TIMEOUTs: 0    ERRORs: 0
REEVALUATIONS: 3292 OF 3949

GENERATION 50/50
...
Fittest value: 2.75 for chromosome ( ( call ) /\ ( [] ( ! ( open ) ) ) )
Solutions (16): ( ( call ) /\ ( [] ( ! ( open ) ) ) ) | ( X ( ( call ) /\ ( [] ( ! ( open ) ) ) ) ) | ( [] ( ( call ) /\ ( [] ( ! ( open ) ) ) ) ) | ( ( <> ( ( call ) /\ ( [] ( ! ( open ) ) ) ) ) /\ ( ( ( atfloor ) U ( X ( open ) ) ) U ( ! ( call ) ) ) ) | ( X ( <> ( ( call ) /\ ( [] ( ! ( open ) ) ) ) ) ) | ( ( call ) U ( ( ( [] ( ! ( open ) ) ) /\ ( call ) ) /\ ( call ) ) ) | ( ( <> ( ( ! ( call ) ) /\ ( <> ( atfloor ) ) ) ) U ( ( call ) /\ ( [] ( ! ( open ) ) ) ) ) | ( [] ( ( call ) /\ ( ! ( open ) ) ) ) | ( ( ( call ) /\ ( [] ( ! ( open ) ) ) ) U ( ( call ) /\ ( [] ( ! ( open ) ) ) ) ) | ( ( call ) /\ ( ( call ) /\ ( [] ( ! ( open ) ) ) ) ) | ( [] ( [] ( ( call ) /\ ( [] ( ! ( open ) ) ) ) ) ) | ( ( [] ( ( call ) /\ ( [] ( ! ( open ) ) ) ) ) U ( ( call ) /\ ( [] ( ! ( open ) ) ) ) ) | ( ( ( call ) /\ ( [] ( ! ( open ) ) ) ) /\ ( ( call ) /\ ( [] ( ! ( open ) ) ) ) ) | ( ( ( call ) /\ ( [] ( ! ( open ) ) ) ) /\ ( ( call ) U ( [] ( ! ( open ) ) ) ) ) | ( [] ( X ( ( call ) /\ ( [] ( ! ( open ) ) ) ) ) ) | ( ( ( call ) /\ ( [] ( ! ( open ) ) ) ) \/ ( ( call ) /\ ( [] ( ! ( open ) ) ) ) ) | 
Generation Time :0
Accumulated Learning Time :4
CALLs: 3    TIMEOUTs: 0    ERRORs: 0
REEVALUATIONS: 3375 OF 4034


TOTAL Learing Time :4

Solutions: 16
( ( call ) /\ ( [] ( ! ( open ) ) ) )
( X ( ( call ) /\ ( [] ( ! ( open ) ) ) ) )
( [] ( ( call ) /\ ( [] ( ! ( open ) ) ) ) )
( ( <> ( ( call ) /\ ( [] ( ! ( open ) ) ) ) ) /\ ( ( ( atfloor ) U ( X ( open ) ) ) U ( ! ( call ) ) ) )
( X ( <> ( ( call ) /\ ( [] ( ! ( open ) ) ) ) ) )
( ( call ) U ( ( ( [] ( ! ( open ) ) ) /\ ( call ) ) /\ ( call ) ) )
( ( <> ( ( ! ( call ) ) /\ ( <> ( atfloor ) ) ) ) U ( ( call ) /\ ( [] ( ! ( open ) ) ) ) )
( [] ( ( call ) /\ ( ! ( open ) ) ) )
( ( ( call ) /\ ( [] ( ! ( open ) ) ) ) U ( ( call ) /\ ( [] ( ! ( open ) ) ) ) )
( ( call ) /\ ( ( call ) /\ ( [] ( ! ( open ) ) ) ) )
( [] ( [] ( ( call ) /\ ( [] ( ! ( open ) ) ) ) ) )
( ( [] ( ( call ) /\ ( [] ( ! ( open ) ) ) ) ) U ( ( call ) /\ ( [] ( ! ( open ) ) ) ) )
( ( ( call ) /\ ( [] ( ! ( open ) ) ) ) /\ ( ( call ) /\ ( [] ( ! ( open ) ) ) ) )
( ( ( call ) /\ ( [] ( ! ( open ) ) ) ) /\ ( ( call ) U ( [] ( ! ( open ) ) ) ) )
( [] ( X ( ( call ) /\ ( [] ( ! ( open ) ) ) ) ) )
( ( ( call ) /\ ( [] ( ! ( open ) ) ) ) \/ ( ( call ) /\ ( [] ( ! ( open ) ) ) ) )

...............................................................
Non Equivalent Solutions: 8
( ( call ) /\ ( [] ( ! ( open ) ) ) )
( X ( ( call ) /\ ( [] ( ! ( open ) ) ) ) )
( ( <> ( ( call ) /\ ( [] ( ! ( open ) ) ) ) ) /\ ( ( ( atfloor ) U ( X ( open ) ) ) U ( ! ( call ) ) ) )
( X ( <> ( ( call ) /\ ( [] ( ! ( open ) ) ) ) ) )
( ( call ) U ( ( ( [] ( ! ( open ) ) ) /\ ( call ) ) /\ ( call ) ) )
( ( <> ( ( ! ( call ) ) /\ ( <> ( atfloor ) ) ) ) U ( ( call ) /\ ( [] ( ! ( open ) ) ) ) )
( [] ( ( call ) /\ ( ! ( open ) ) ) )
( [] ( X ( ( call ) /\ ( [] ( ! ( open ) ) ) ) ) )
..................................
Weakest Solutions: 3
( X ( <> ( ( call ) /\ ( [] ( ! ( open ) ) ) ) ) )
( ( call ) U ( ( ( [] ( ! ( open ) ) ) /\ ( call ) ) /\ ( call ) ) )
( ( <> ( ( ! ( call ) ) /\ ( <> ( atfloor ) ) ) ) U ( ( call ) /\ ( [] ( ! ( open ) ) ) ) )
TOTAL Time :4
CALLs: 2821    TIMEOUTs: 0    ERRORs: 0
CONFIGURATION
#Population: 100    #Iterations: 50    #ChromSize: 20
REEVALUATIONS: 3375 OF 4034
