DOM: [[] ( X(open) -> atfloor)]
GOALS: [[](call -> <>(open))]
Initial population size: 22
Total population size: 100

GENERATION 1/50
....m.<;....m.<;....m.<;....m.<;....m.<;....m.<;....m.<;....m.<;....m.<;...i..<;....m.<;...i.m.<;....m.<;....m.<;....m.<;...i.m.;....m.<;...i..<;........m.<;.....m.<;....m.<;...i..<;....m.<;...i..<;....m.<;....m.<;....m.;
Fittest value: 2.75 for chromosome ( ( call ) /\ ( [] ( ! ( open ) ) ) )
Solutions (1): ( ( call ) /\ ( [] ( ! ( open ) ) ) ) | 
Generation Time :0
Accumulated Learning Time :0
CALLs: 140    TIMEOUTs: 0    ERRORs: 0
REEVALUATIONS: 18 OF 48

GENERATION 2/50
......m.<;.....m.<;....m.;....m.<;....m.<;.......i..<;....m.<;......m.<;..........m.;....m.;....m.<;....m.<;....m.<;......m.<;....m.<;......m.<;....m.;......m.<;.....m.<;....m.<;......m.;....m.<;....m.<;....m.<;
Fittest value: 2.75 for chromosome ( ( call ) /\ ( [] ( ! ( open ) ) ) )
Solutions (1): ( ( call ) /\ ( [] ( ! ( open ) ) ) ) | 
Generation Time :0
Accumulated Learning Time :0
CALLs: 144    TIMEOUTs: 0    ERRORs: 0
REEVALUATIONS: 75 OF 145

GENERATION 3/50
....m.<;....m.<;....m.<;....m.<;....m.<;....m.<;....m.<;....m.<;....m.<;....m.<;....m.;.........m.<;...i..<;........m.<;....m.<;....m.<;......m.<;....m.<;....m.<;....m.;....m.<;....m.<;......m.<;....m.<;....m.<;....m.<;....m.<;
Fittest value: 2.75 for chromosome ( ( call ) /\ ( [] ( ! ( open ) ) ) )
Solutions (1): ( ( call ) /\ ( [] ( ! ( open ) ) ) ) | 
Generation Time :0
Accumulated Learning Time :0
CALLs: 148    TIMEOUTs: 0    ERRORs: 0
REEVALUATIONS: 131 OF 236

GENERATION 4/50
....m.<;....m.<;....m.<;....m.;....m.;....m.<;....m.;.....m.<;.....m.<;....m.<;....m.<;....m.<;.....m.<;....m.<;....m.<;......m.<;....m.;.......m.<;....m.<;....m.<;....m.<;.........m.<;....m.<;.....m.<;....m.<;....m.<;.....m.;....m.<;....m.<;...i.m.<;....m.<;...i.m.<;.
Fittest value: 2.75 for chromosome ( ( call ) /\ ( [] ( ! ( open ) ) ) )
Solutions (3): ( ( call ) /\ ( [] ( ! ( open ) ) ) ) | ( X ( ( call ) /\ ( [] ( ! ( open ) ) ) ) ) | ( X ( <> ( ( call ) /\ ( [] ( ! ( open ) ) ) ) ) ) | 
Generation Time :0
Accumulated Learning Time :0
CALLs: 176    TIMEOUTs: 0    ERRORs: 0
REEVALUATIONS: 178 OF 328

GENERATION 5/50
.......m.<;....m.<;....m.<;....m.<;....m.<;....m.<;....m.;....m.<;....m.;.....m.<;....m.<;....m.<;....m.<;....m.<;.....m.<;......m.<;....m.<;.....m.<;....m.<;....m.;....m.<;....m.;....m.<;....m.<;....m.<;.......m.<;.....m.<;.....m.;....m.<;...i.m.<;....m.;....m.<;....m.<;....m.<;
Fittest value: 2.75 for chromosome ( ( call ) /\ ( [] ( ! ( open ) ) ) )
Solutions (4): ( ( call ) /\ ( [] ( ! ( open ) ) ) ) | ( X ( ( call ) /\ ( [] ( ! ( open ) ) ) ) ) | ( X ( <> ( ( call ) /\ ( [] ( ! ( open ) ) ) ) ) ) | ( ( ( call ) /\ ( [] ( ! ( open ) ) ) ) /\ ( ( call ) /\ ( [] ( ! ( open ) ) ) ) ) | 
Generation Time :0
Accumulated Learning Time :1
CALLs: 183    TIMEOUTs: 0    ERRORs: 0
REEVALUATIONS: 210 OF 405

GENERATION 6/50
....m.<;....m.<;....m.<;....m.<;....m.<;....m.<;....m.<;....m.<;....m.<;....m.<;....m.<;....m.<;....m.<;....m.<;....m.;....m.;....m.;....m.<;....m.<;......m.<;....m.<;........m.<;......m.<;....m.<;........m.<;......m.<;....m.<;....m.<;....m.<;....m.;......m.<;...i.m.<;...i.m.<;....m.<;....m.<;....m.<;....m.<;....m.<;
Fittest value: 2.75 for chromosome ( ( call ) /\ ( [] ( ! ( open ) ) ) )
Solutions (6): ( ( call ) /\ ( [] ( ! ( open ) ) ) ) | ( X ( ( call ) /\ ( [] ( ! ( open ) ) ) ) ) | ( X ( <> ( ( call ) /\ ( [] ( ! ( open ) ) ) ) ) ) | ( ( ( call ) /\ ( [] ( ! ( open ) ) ) ) /\ ( ( call ) /\ ( [] ( ! ( open ) ) ) ) ) | ( [] ( ( call ) /\ ( [] ( ! ( open ) ) ) ) ) | ( ( ( call ) /\ ( [] ( ! ( open ) ) ) ) W ( ( call ) /\ ( [] ( ! ( open ) ) ) ) ) | 
Generation Time :0
Accumulated Learning Time :1
CALLs: 206    TIMEOUTs: 0    ERRORs: 0
REEVALUATIONS: 244 OF 487

GENERATION 7/50
....m.<;....m.<;....m.<;......m.<;....m.<;....m.<;.....m.<;....m.<;....m.<;.....m.<;....m.<;....m.;....i.m.<;....m.<;....m.<;....m.<;....m.<;.......m.;....m.<;....m.<;....m.<;....m.<;....m.<;....m.<;....m.;.....m.<;....m.<;....m.;....m.<;....m.;....m.<;....m.<;....m.<;.......m.<;....m.<;....m.<;....m.;....m.<;.
Fittest value: 2.75 for chromosome ( ( call ) /\ ( [] ( ! ( open ) ) ) )
Solutions (6): ( ( call ) /\ ( [] ( ! ( open ) ) ) ) | ( X ( ( call ) /\ ( [] ( ! ( open ) ) ) ) ) | ( X ( <> ( ( call ) /\ ( [] ( ! ( open ) ) ) ) ) ) | ( ( ( call ) /\ ( [] ( ! ( open ) ) ) ) /\ ( ( call ) /\ ( [] ( ! ( open ) ) ) ) ) | ( [] ( ( call ) /\ ( [] ( ! ( open ) ) ) ) ) | ( ( ( call ) /\ ( [] ( ! ( open ) ) ) ) W ( ( call ) /\ ( [] ( ! ( open ) ) ) ) ) | 
Generation Time :0
Accumulated Learning Time :1
CALLs: 203    TIMEOUTs: 0    ERRORs: 0
REEVALUATIONS: 282 OF 573

GENERATION 8/50
....m.<;....m.<;....m.<;....m.<;....m.<;......m.<;....m.<;....m.<;....m.<;....m.<;....m.<;...i.m.<;....m.<;....m.;....m.<;....m.;....m.;.....m.<;....m.<;....m.<;.....m.<;....m.<;....m.<;....m.<;.....m.<;....m.<;....m.<;....m.<;....m.<;....m.<;....m.<;...i.m.<;...i.m.<;....m.<;...i.m.<;
Fittest value: 2.75 for chromosome ( ( call ) /\ ( [] ( ! ( open ) ) ) )
Solutions (10): ( ( call ) /\ ( [] ( ! ( open ) ) ) ) | ( X ( ( call ) /\ ( [] ( ! ( open ) ) ) ) ) | ( X ( <> ( ( call ) /\ ( [] ( ! ( open ) ) ) ) ) ) | ( ( ( call ) /\ ( [] ( ! ( open ) ) ) ) /\ ( ( call ) /\ ( [] ( ! ( open ) ) ) ) ) | ( [] ( ( call ) /\ ( [] ( ! ( open ) ) ) ) ) | ( ( ( call ) /\ ( [] ( ! ( open ) ) ) ) W ( ( call ) /\ ( [] ( ! ( open ) ) ) ) ) | ( ( ( call ) /\ ( [] ( ! ( open ) ) ) ) U ( ( call ) /\ ( [] ( ! ( open ) ) ) ) ) | ( X ( [] ( ( call ) /\ ( [] ( ! ( open ) ) ) ) ) ) | ( <> ( X ( ( call ) /\ ( [] ( ! ( open ) ) ) ) ) ) | ( X ( X ( ( call ) /\ ( [] ( ! ( open ) ) ) ) ) ) | 
Generation Time :0
Accumulated Learning Time :1
CALLs: 180    TIMEOUTs: 0    ERRORs: 0
REEVALUATIONS: 315 OF 645

GENERATION 9/50
...........m.<;....m.<;....m.<;....m.<;......m.<;....m.<;..........m.<;....m.<;....m.<;....m.<;....m.<;....m.<;....m.<;....m.<;....m.<;....m.;....m.<;....m.<;....m.<;...i.m.<;....m.<;
Fittest value: 2.75 for chromosome ( ( call ) /\ ( [] ( ! ( open ) ) ) )
Solutions (10): ( ( call ) /\ ( [] ( ! ( open ) ) ) ) | ( X ( ( call ) /\ ( [] ( ! ( open ) ) ) ) ) | ( X ( <> ( ( call ) /\ ( [] ( ! ( open ) ) ) ) ) ) | ( ( ( call ) /\ ( [] ( ! ( open ) ) ) ) /\ ( ( call ) /\ ( [] ( ! ( open ) ) ) ) ) | ( [] ( ( call ) /\ ( [] ( ! ( open ) ) ) ) ) | ( ( ( call ) /\ ( [] ( ! ( open ) ) ) ) W ( ( call ) /\ ( [] ( ! ( open ) ) ) ) ) | ( ( ( call ) /\ ( [] ( ! ( open ) ) ) ) U ( ( call ) /\ ( [] ( ! ( open ) ) ) ) ) | ( X ( [] ( ( call ) /\ ( [] ( ! ( open ) ) ) ) ) ) | ( <> ( X ( ( call ) /\ ( [] ( ! ( open ) ) ) ) ) ) | ( X ( X ( ( call ) /\ ( [] ( ! ( open ) ) ) ) ) ) | 
Generation Time :0
Accumulated Learning Time :1
CALLs: 120    TIMEOUTs: 0    ERRORs: 0
REEVALUATIONS: 368 OF 729

GENERATION 10/50
.....m.<;....m.;....m.<;....m.;......m.<;....m.<;....m.<;....m.;....m.<;....m.<;....m.<;.....m.<;....m.<;....m.<;....m.<;....m.<;....m.<;....m.<;....m.<;.........m.<;....m.<;...i.m.<;
Fittest value: 2.75 for chromosome ( ( call ) /\ ( [] ( ! ( open ) ) ) )
Solutions (10): ( ( call ) /\ ( [] ( ! ( open ) ) ) ) | ( X ( ( call ) /\ ( [] ( ! ( open ) ) ) ) ) | ( X ( <> ( ( call ) /\ ( [] ( ! ( open ) ) ) ) ) ) | ( ( ( call ) /\ ( [] ( ! ( open ) ) ) ) /\ ( ( call ) /\ ( [] ( ! ( open ) ) ) ) ) | ( [] ( ( call ) /\ ( [] ( ! ( open ) ) ) ) ) | ( ( ( call ) /\ ( [] ( ! ( open ) ) ) ) W ( ( call ) /\ ( [] ( ! ( open ) ) ) ) ) | ( ( ( call ) /\ ( [] ( ! ( open ) ) ) ) U ( ( call ) /\ ( [] ( ! ( open ) ) ) ) ) | ( X ( [] ( ( call ) /\ ( [] ( ! ( open ) ) ) ) ) ) | ( <> ( X ( ( call ) /\ ( [] ( ! ( open ) ) ) ) ) ) | ( X ( X ( ( call ) /\ ( [] ( ! ( open ) ) ) ) ) ) | 
Generation Time :0
Accumulated Learning Time :1
CALLs: 119    TIMEOUTs: 0    ERRORs: 0
REEVALUATIONS: 413 OF 803

GENERATION 11/50
....m.<;....m.<;....m.<;....m.<;....m.<;........m.<;....m.<;.....m.<;....m.<;....m.<;.....m.<;..
Fittest value: 2.75 for chromosome ( ( call ) /\ ( [] ( ! ( open ) ) ) )
Solutions (10): ( ( call ) /\ ( [] ( ! ( open ) ) ) ) | ( X ( ( call ) /\ ( [] ( ! ( open ) ) ) ) ) | ( X ( <> ( ( call ) /\ ( [] ( ! ( open ) ) ) ) ) ) | ( ( ( call ) /\ ( [] ( ! ( open ) ) ) ) /\ ( ( call ) /\ ( [] ( ! ( open ) ) ) ) ) | ( [] ( ( call ) /\ ( [] ( ! ( open ) ) ) ) ) | ( ( ( call ) /\ ( [] ( ! ( open ) ) ) ) W ( ( call ) /\ ( [] ( ! ( open ) ) ) ) ) | ( ( ( call ) /\ ( [] ( ! ( open ) ) ) ) U ( ( call ) /\ ( [] ( ! ( open ) ) ) ) ) | ( X ( [] ( ( call ) /\ ( [] ( ! ( open ) ) ) ) ) ) | ( <> ( X ( ( call ) /\ ( [] ( ! ( open ) ) ) ) ) ) | ( X ( X ( ( call ) /\ ( [] ( ! ( open ) ) ) ) ) ) | 
Generation Time :0
Accumulated Learning Time :2
CALLs: 63    TIMEOUTs: 0    ERRORs: 0
REEVALUATIONS: 477 OF 884

GENERATION 12/50
....m.<;....m.<;....m.<;.....m.<;....m.<;....m.<;....m.<;....m.<;....m.<;......m.<;....m.<;.....i.m.<;
Fittest value: 2.75 for chromosome ( ( call ) /\ ( [] ( ! ( open ) ) ) )
Solutions (10): ( ( call ) /\ ( [] ( ! ( open ) ) ) ) | ( X ( ( call ) /\ ( [] ( ! ( open ) ) ) ) ) | ( X ( <> ( ( call ) /\ ( [] ( ! ( open ) ) ) ) ) ) | ( ( ( call ) /\ ( [] ( ! ( open ) ) ) ) /\ ( ( call ) /\ ( [] ( ! ( open ) ) ) ) ) | ( [] ( ( call ) /\ ( [] ( ! ( open ) ) ) ) ) | ( ( ( call ) /\ ( [] ( ! ( open ) ) ) ) W ( ( call ) /\ ( [] ( ! ( open ) ) ) ) ) | ( ( ( call ) /\ ( [] ( ! ( open ) ) ) ) U ( ( call ) /\ ( [] ( ! ( open ) ) ) ) ) | ( X ( [] ( ( call ) /\ ( [] ( ! ( open ) ) ) ) ) ) | ( <> ( X ( ( call ) /\ ( [] ( ! ( open ) ) ) ) ) ) | ( X ( X ( ( call ) /\ ( [] ( ! ( open ) ) ) ) ) ) | 
Generation Time :0
Accumulated Learning Time :2
CALLs: 65    TIMEOUTs: 0    ERRORs: 0
REEVALUATIONS: 544 OF 966

GENERATION 13/50
.....m.<;....m.<;....m.<;....m.<;....m.<;......m.<;.......m.<;....m.<;....m.<;
Fittest value: 2.75 for chromosome ( ( call ) /\ ( [] ( ! ( open ) ) ) )
Solutions (10): ( ( call ) /\ ( [] ( ! ( open ) ) ) ) | ( X ( ( call ) /\ ( [] ( ! ( open ) ) ) ) ) | ( X ( <> ( ( call ) /\ ( [] ( ! ( open ) ) ) ) ) ) | ( ( ( call ) /\ ( [] ( ! ( open ) ) ) ) /\ ( ( call ) /\ ( [] ( ! ( open ) ) ) ) ) | ( [] ( ( call ) /\ ( [] ( ! ( open ) ) ) ) ) | ( ( ( call ) /\ ( [] ( ! ( open ) ) ) ) W ( ( call ) /\ ( [] ( ! ( open ) ) ) ) ) | ( ( ( call ) /\ ( [] ( ! ( open ) ) ) ) U ( ( call ) /\ ( [] ( ! ( open ) ) ) ) ) | ( X ( [] ( ( call ) /\ ( [] ( ! ( open ) ) ) ) ) ) | ( <> ( X ( ( call ) /\ ( [] ( ! ( open ) ) ) ) ) ) | ( X ( X ( ( call ) /\ ( [] ( ! ( open ) ) ) ) ) ) | 
Generation Time :0
Accumulated Learning Time :2
CALLs: 51    TIMEOUTs: 0    ERRORs: 0
REEVALUATIONS: 615 OF 1050

GENERATION 14/50
....m.<;....m.<;.....m.<;....m.<;......m.<;.
Fittest value: 2.75 for chromosome ( ( call ) /\ ( [] ( ! ( open ) ) ) )
Solutions (10): ( ( call ) /\ ( [] ( ! ( open ) ) ) ) | ( X ( ( call ) /\ ( [] ( ! ( open ) ) ) ) ) | ( X ( <> ( ( call ) /\ ( [] ( ! ( open ) ) ) ) ) ) | ( ( ( call ) /\ ( [] ( ! ( open ) ) ) ) /\ ( ( call ) /\ ( [] ( ! ( open ) ) ) ) ) | ( [] ( ( call ) /\ ( [] ( ! ( open ) ) ) ) ) | ( ( ( call ) /\ ( [] ( ! ( open ) ) ) ) W ( ( call ) /\ ( [] ( ! ( open ) ) ) ) ) | ( ( ( call ) /\ ( [] ( ! ( open ) ) ) ) U ( ( call ) /\ ( [] ( ! ( open ) ) ) ) ) | ( X ( [] ( ( call ) /\ ( [] ( ! ( open ) ) ) ) ) ) | ( <> ( X ( ( call ) /\ ( [] ( ! ( open ) ) ) ) ) ) | ( X ( X ( ( call ) /\ ( [] ( ! ( open ) ) ) ) ) ) | 
Generation Time :0
Accumulated Learning Time :2
CALLs: 29    TIMEOUTs: 0    ERRORs: 0
REEVALUATIONS: 687 OF 1131

GENERATION 15/50
....m.<;....m.<;....m.<;....m.<;.......m.<;..
Fittest value: 2.75 for chromosome ( ( call ) /\ ( [] ( ! ( open ) ) ) )
Solutions (10): ( ( call ) /\ ( [] ( ! ( open ) ) ) ) | ( X ( ( call ) /\ ( [] ( ! ( open ) ) ) ) ) | ( X ( <> ( ( call ) /\ ( [] ( ! ( open ) ) ) ) ) ) | ( ( ( call ) /\ ( [] ( ! ( open ) ) ) ) /\ ( ( call ) /\ ( [] ( ! ( open ) ) ) ) ) | ( [] ( ( call ) /\ ( [] ( ! ( open ) ) ) ) ) | ( ( ( call ) /\ ( [] ( ! ( open ) ) ) ) W ( ( call ) /\ ( [] ( ! ( open ) ) ) ) ) | ( ( ( call ) /\ ( [] ( ! ( open ) ) ) ) U ( ( call ) /\ ( [] ( ! ( open ) ) ) ) ) | ( X ( [] ( ( call ) /\ ( [] ( ! ( open ) ) ) ) ) ) | ( <> ( X ( ( call ) /\ ( [] ( ! ( open ) ) ) ) ) ) | ( X ( X ( ( call ) /\ ( [] ( ! ( open ) ) ) ) ) ) | 
Generation Time :0
Accumulated Learning Time :2
CALLs: 30    TIMEOUTs: 0    ERRORs: 0
REEVALUATIONS: 758 OF 1210

GENERATION 16/50
........m.<;..........m.<;
Fittest value: 2.75 for chromosome ( ( call ) /\ ( [] ( ! ( open ) ) ) )
Solutions (10): ( ( call ) /\ ( [] ( ! ( open ) ) ) ) | ( X ( ( call ) /\ ( [] ( ! ( open ) ) ) ) ) | ( X ( <> ( ( call ) /\ ( [] ( ! ( open ) ) ) ) ) ) | ( ( ( call ) /\ ( [] ( ! ( open ) ) ) ) /\ ( ( call ) /\ ( [] ( ! ( open ) ) ) ) ) | ( [] ( ( call ) /\ ( [] ( ! ( open ) ) ) ) ) | ( ( ( call ) /\ ( [] ( ! ( open ) ) ) ) W ( ( call ) /\ ( [] ( ! ( open ) ) ) ) ) | ( ( ( call ) /\ ( [] ( ! ( open ) ) ) ) U ( ( call ) /\ ( [] ( ! ( open ) ) ) ) ) | ( X ( [] ( ( call ) /\ ( [] ( ! ( open ) ) ) ) ) ) | ( <> ( X ( ( call ) /\ ( [] ( ! ( open ) ) ) ) ) ) | ( X ( X ( ( call ) /\ ( [] ( ! ( open ) ) ) ) ) ) | 
Generation Time :0
Accumulated Learning Time :2
CALLs: 20    TIMEOUTs: 0    ERRORs: 0
REEVALUATIONS: 832 OF 1291

GENERATION 17/50
......m.<;....m.<;....m.<;....m.<;....m.<;....m.<;....m.<;....m.<;.....m.<;
Fittest value: 2.75 for chromosome ( ( call ) /\ ( [] ( ! ( open ) ) ) )
Solutions (10): ( ( call ) /\ ( [] ( ! ( open ) ) ) ) | ( X ( ( call ) /\ ( [] ( ! ( open ) ) ) ) ) | ( X ( <> ( ( call ) /\ ( [] ( ! ( open ) ) ) ) ) ) | ( ( ( call ) /\ ( [] ( ! ( open ) ) ) ) /\ ( ( call ) /\ ( [] ( ! ( open ) ) ) ) ) | ( [] ( ( call ) /\ ( [] ( ! ( open ) ) ) ) ) | ( ( ( call ) /\ ( [] ( ! ( open ) ) ) ) W ( ( call ) /\ ( [] ( ! ( open ) ) ) ) ) | ( ( ( call ) /\ ( [] ( ! ( open ) ) ) ) U ( ( call ) /\ ( [] ( ! ( open ) ) ) ) ) | ( X ( [] ( ( call ) /\ ( [] ( ! ( open ) ) ) ) ) ) | ( <> ( X ( ( call ) /\ ( [] ( ! ( open ) ) ) ) ) ) | ( X ( X ( ( call ) /\ ( [] ( ! ( open ) ) ) ) ) ) | 
Generation Time :0
Accumulated Learning Time :2
CALLs: 48    TIMEOUTs: 0    ERRORs: 0
REEVALUATIONS: 914 OF 1384

GENERATION 18/50
......m.<;
Fittest value: 2.75 for chromosome ( ( call ) /\ ( [] ( ! ( open ) ) ) )
Solutions (10): ( ( call ) /\ ( [] ( ! ( open ) ) ) ) | ( X ( ( call ) /\ ( [] ( ! ( open ) ) ) ) ) | ( X ( <> ( ( call ) /\ ( [] ( ! ( open ) ) ) ) ) ) | ( ( ( call ) /\ ( [] ( ! ( open ) ) ) ) /\ ( ( call ) /\ ( [] ( ! ( open ) ) ) ) ) | ( [] ( ( call ) /\ ( [] ( ! ( open ) ) ) ) ) | ( ( ( call ) /\ ( [] ( ! ( open ) ) ) ) W ( ( call ) /\ ( [] ( ! ( open ) ) ) ) ) | ( ( ( call ) /\ ( [] ( ! ( open ) ) ) ) U ( ( call ) /\ ( [] ( ! ( open ) ) ) ) ) | ( X ( [] ( ( call ) /\ ( [] ( ! ( open ) ) ) ) ) ) | ( <> ( X ( ( call ) /\ ( [] ( ! ( open ) ) ) ) ) ) | ( X ( X ( ( call ) /\ ( [] ( ! ( open ) ) ) ) ) ) | 
Generation Time :0
Accumulated Learning Time :2
CALLs: 7    TIMEOUTs: 0    ERRORs: 0
REEVALUATIONS: 992 OF 1464

GENERATION 19/50
....m.<;....m.<;........m.<;....m.<;....m.<;
Fittest value: 2.75 for chromosome ( ( call ) /\ ( [] ( ! ( open ) ) ) )
Solutions (10): ( ( call ) /\ ( [] ( ! ( open ) ) ) ) | ( X ( ( call ) /\ ( [] ( ! ( open ) ) ) ) ) | ( X ( <> ( ( call ) /\ ( [] ( ! ( open ) ) ) ) ) ) | ( ( ( call ) /\ ( [] ( ! ( open ) ) ) ) /\ ( ( call ) /\ ( [] ( ! ( open ) ) ) ) ) | ( [] ( ( call ) /\ ( [] ( ! ( open ) ) ) ) ) | ( ( ( call ) /\ ( [] ( ! ( open ) ) ) ) W ( ( call ) /\ ( [] ( ! ( open ) ) ) ) ) | ( ( ( call ) /\ ( [] ( ! ( open ) ) ) ) U ( ( call ) /\ ( [] ( ! ( open ) ) ) ) ) | ( X ( [] ( ( call ) /\ ( [] ( ! ( open ) ) ) ) ) ) | ( <> ( X ( ( call ) /\ ( [] ( ! ( open ) ) ) ) ) ) | ( X ( X ( ( call ) /\ ( [] ( ! ( open ) ) ) ) ) ) | 
Generation Time :0
Accumulated Learning Time :2
CALLs: 29    TIMEOUTs: 0    ERRORs: 0
REEVALUATIONS: 1061 OF 1540

GENERATION 20/50
....m.<;....m.<;....m.<;....m.<;.....m.<;...i.m.<;
Fittest value: 2.75 for chromosome ( ( call ) /\ ( [] ( ! ( open ) ) ) )
Solutions (10): ( ( call ) /\ ( [] ( ! ( open ) ) ) ) | ( X ( ( call ) /\ ( [] ( ! ( open ) ) ) ) ) | ( X ( <> ( ( call ) /\ ( [] ( ! ( open ) ) ) ) ) ) | ( ( ( call ) /\ ( [] ( ! ( open ) ) ) ) /\ ( ( call ) /\ ( [] ( ! ( open ) ) ) ) ) | ( [] ( ( call ) /\ ( [] ( ! ( open ) ) ) ) ) | ( ( ( call ) /\ ( [] ( ! ( open ) ) ) ) W ( ( call ) /\ ( [] ( ! ( open ) ) ) ) ) | ( ( ( call ) /\ ( [] ( ! ( open ) ) ) ) U ( ( call ) /\ ( [] ( ! ( open ) ) ) ) ) | ( X ( [] ( ( call ) /\ ( [] ( ! ( open ) ) ) ) ) ) | ( <> ( X ( ( call ) /\ ( [] ( ! ( open ) ) ) ) ) ) | ( X ( X ( ( call ) /\ ( [] ( ! ( open ) ) ) ) ) ) | 
Generation Time :0
Accumulated Learning Time :2
CALLs: 31    TIMEOUTs: 0    ERRORs: 0
REEVALUATIONS: 1134 OF 1620

GENERATION 21/50
......m.<;......m.<;......m.<;....m.<;
Fittest value: 2.75 for chromosome ( ( call ) /\ ( [] ( ! ( open ) ) ) )
Solutions (10): ( ( call ) /\ ( [] ( ! ( open ) ) ) ) | ( X ( ( call ) /\ ( [] ( ! ( open ) ) ) ) ) | ( X ( <> ( ( call ) /\ ( [] ( ! ( open ) ) ) ) ) ) | ( ( ( call ) /\ ( [] ( ! ( open ) ) ) ) /\ ( ( call ) /\ ( [] ( ! ( open ) ) ) ) ) | ( [] ( ( call ) /\ ( [] ( ! ( open ) ) ) ) ) | ( ( ( call ) /\ ( [] ( ! ( open ) ) ) ) W ( ( call ) /\ ( [] ( ! ( open ) ) ) ) ) | ( ( ( call ) /\ ( [] ( ! ( open ) ) ) ) U ( ( call ) /\ ( [] ( ! ( open ) ) ) ) ) | ( X ( [] ( ( call ) /\ ( [] ( ! ( open ) ) ) ) ) ) | ( <> ( X ( ( call ) /\ ( [] ( ! ( open ) ) ) ) ) ) | ( X ( X ( ( call ) /\ ( [] ( ! ( open ) ) ) ) ) ) | 
Generation Time :0
Accumulated Learning Time :2
CALLs: 26    TIMEOUTs: 0    ERRORs: 0
REEVALUATIONS: 1200 OF 1694

GENERATION 22/50
......m.<;.......m.<;....m.<;
Fittest value: 2.75 for chromosome ( ( call ) /\ ( [] ( ! ( open ) ) ) )
Solutions (10): ( ( call ) /\ ( [] ( ! ( open ) ) ) ) | ( X ( ( call ) /\ ( [] ( ! ( open ) ) ) ) ) | ( X ( <> ( ( call ) /\ ( [] ( ! ( open ) ) ) ) ) ) | ( ( ( call ) /\ ( [] ( ! ( open ) ) ) ) /\ ( ( call ) /\ ( [] ( ! ( open ) ) ) ) ) | ( [] ( ( call ) /\ ( [] ( ! ( open ) ) ) ) ) | ( ( ( call ) /\ ( [] ( ! ( open ) ) ) ) W ( ( call ) /\ ( [] ( ! ( open ) ) ) ) ) | ( ( ( call ) /\ ( [] ( ! ( open ) ) ) ) U ( ( call ) /\ ( [] ( ! ( open ) ) ) ) ) | ( X ( [] ( ( call ) /\ ( [] ( ! ( open ) ) ) ) ) ) | ( <> ( X ( ( call ) /\ ( [] ( ! ( open ) ) ) ) ) ) | ( X ( X ( ( call ) /\ ( [] ( ! ( open ) ) ) ) ) ) | 
Generation Time :0
Accumulated Learning Time :2
CALLs: 20    TIMEOUTs: 0    ERRORs: 0
REEVALUATIONS: 1270 OF 1770

GENERATION 23/50
.......m.<;....m.<;.......m.<;
Fittest value: 2.75 for chromosome ( ( call ) /\ ( [] ( ! ( open ) ) ) )
Solutions (10): ( ( call ) /\ ( [] ( ! ( open ) ) ) ) | ( X ( ( call ) /\ ( [] ( ! ( open ) ) ) ) ) | ( X ( <> ( ( call ) /\ ( [] ( ! ( open ) ) ) ) ) ) | ( ( ( call ) /\ ( [] ( ! ( open ) ) ) ) /\ ( ( call ) /\ ( [] ( ! ( open ) ) ) ) ) | ( [] ( ( call ) /\ ( [] ( ! ( open ) ) ) ) ) | ( ( ( call ) /\ ( [] ( ! ( open ) ) ) ) W ( ( call ) /\ ( [] ( ! ( open ) ) ) ) ) | ( ( ( call ) /\ ( [] ( ! ( open ) ) ) ) U ( ( call ) /\ ( [] ( ! ( open ) ) ) ) ) | ( X ( [] ( ( call ) /\ ( [] ( ! ( open ) ) ) ) ) ) | ( <> ( X ( ( call ) /\ ( [] ( ! ( open ) ) ) ) ) ) | ( X ( X ( ( call ) /\ ( [] ( ! ( open ) ) ) ) ) ) | 
Generation Time :0
Accumulated Learning Time :2
CALLs: 21    TIMEOUTs: 0    ERRORs: 0
REEVALUATIONS: 1341 OF 1848

GENERATION 24/50
......m.<;........m.;....m.<;....m.<;
Fittest value: 2.75 for chromosome ( ( call ) /\ ( [] ( ! ( open ) ) ) )
Solutions (10): ( ( call ) /\ ( [] ( ! ( open ) ) ) ) | ( X ( ( call ) /\ ( [] ( ! ( open ) ) ) ) ) | ( X ( <> ( ( call ) /\ ( [] ( ! ( open ) ) ) ) ) ) | ( ( ( call ) /\ ( [] ( ! ( open ) ) ) ) /\ ( ( call ) /\ ( [] ( ! ( open ) ) ) ) ) | ( [] ( ( call ) /\ ( [] ( ! ( open ) ) ) ) ) | ( ( ( call ) /\ ( [] ( ! ( open ) ) ) ) W ( ( call ) /\ ( [] ( ! ( open ) ) ) ) ) | ( ( ( call ) /\ ( [] ( ! ( open ) ) ) ) U ( ( call ) /\ ( [] ( ! ( open ) ) ) ) ) | ( X ( [] ( ( call ) /\ ( [] ( ! ( open ) ) ) ) ) ) | ( <> ( X ( ( call ) /\ ( [] ( ! ( open ) ) ) ) ) ) | ( X ( X ( ( call ) /\ ( [] ( ! ( open ) ) ) ) ) ) | 
Generation Time :0
Accumulated Learning Time :2
CALLs: 26    TIMEOUTs: 0    ERRORs: 0
REEVALUATIONS: 1409 OF 1923

GENERATION 25/50
....m.<;....m.<;....m.<;.....m.<;....m.<;....m.<;......m.<;
Fittest value: 2.75 for chromosome ( ( call ) /\ ( [] ( ! ( open ) ) ) )
Solutions (10): ( ( call ) /\ ( [] ( ! ( open ) ) ) ) | ( X ( ( call ) /\ ( [] ( ! ( open ) ) ) ) ) | ( X ( <> ( ( call ) /\ ( [] ( ! ( open ) ) ) ) ) ) | ( ( ( call ) /\ ( [] ( ! ( open ) ) ) ) /\ ( ( call ) /\ ( [] ( ! ( open ) ) ) ) ) | ( [] ( ( call ) /\ ( [] ( ! ( open ) ) ) ) ) | ( ( ( call ) /\ ( [] ( ! ( open ) ) ) ) W ( ( call ) /\ ( [] ( ! ( open ) ) ) ) ) | ( ( ( call ) /\ ( [] ( ! ( open ) ) ) ) U ( ( call ) /\ ( [] ( ! ( open ) ) ) ) ) | ( X ( [] ( ( call ) /\ ( [] ( ! ( open ) ) ) ) ) ) | ( <> ( X ( ( call ) /\ ( [] ( ! ( open ) ) ) ) ) ) | ( X ( X ( ( call ) /\ ( [] ( ! ( open ) ) ) ) ) ) | 
Generation Time :0
Accumulated Learning Time :2
CALLs: 38    TIMEOUTs: 0    ERRORs: 0
REEVALUATIONS: 1482 OF 2005

GENERATION 26/50
....m.<;....m.<;....m.<;
Fittest value: 2.75 for chromosome ( ( call ) /\ ( [] ( ! ( open ) ) ) )
Solutions (10): ( ( call ) /\ ( [] ( ! ( open ) ) ) ) | ( X ( ( call ) /\ ( [] ( ! ( open ) ) ) ) ) | ( X ( <> ( ( call ) /\ ( [] ( ! ( open ) ) ) ) ) ) | ( ( ( call ) /\ ( [] ( ! ( open ) ) ) ) /\ ( ( call ) /\ ( [] ( ! ( open ) ) ) ) ) | ( [] ( ( call ) /\ ( [] ( ! ( open ) ) ) ) ) | ( ( ( call ) /\ ( [] ( ! ( open ) ) ) ) W ( ( call ) /\ ( [] ( ! ( open ) ) ) ) ) | ( ( ( call ) /\ ( [] ( ! ( open ) ) ) ) U ( ( call ) /\ ( [] ( ! ( open ) ) ) ) ) | ( X ( [] ( ( call ) /\ ( [] ( ! ( open ) ) ) ) ) ) | ( <> ( X ( ( call ) /\ ( [] ( ! ( open ) ) ) ) ) ) | ( X ( X ( ( call ) /\ ( [] ( ! ( open ) ) ) ) ) ) | 
Generation Time :0
Accumulated Learning Time :2
CALLs: 15    TIMEOUTs: 0    ERRORs: 0
REEVALUATIONS: 1554 OF 2080

GENERATION 27/50
....m.<;....m.<;....m.<;....m.<;
Fittest value: 2.75 for chromosome ( ( call ) /\ ( [] ( ! ( open ) ) ) )
Solutions (10): ( ( call ) /\ ( [] ( ! ( open ) ) ) ) | ( X ( ( call ) /\ ( [] ( ! ( open ) ) ) ) ) | ( X ( <> ( ( call ) /\ ( [] ( ! ( open ) ) ) ) ) ) | ( ( ( call ) /\ ( [] ( ! ( open ) ) ) ) /\ ( ( call ) /\ ( [] ( ! ( open ) ) ) ) ) | ( [] ( ( call ) /\ ( [] ( ! ( open ) ) ) ) ) | ( ( ( call ) /\ ( [] ( ! ( open ) ) ) ) W ( ( call ) /\ ( [] ( ! ( open ) ) ) ) ) | ( ( ( call ) /\ ( [] ( ! ( open ) ) ) ) U ( ( call ) /\ ( [] ( ! ( open ) ) ) ) ) | ( X ( [] ( ( call ) /\ ( [] ( ! ( open ) ) ) ) ) ) | ( <> ( X ( ( call ) /\ ( [] ( ! ( open ) ) ) ) ) ) | ( X ( X ( ( call ) /\ ( [] ( ! ( open ) ) ) ) ) ) | 
Generation Time :0
Accumulated Learning Time :2
CALLs: 20    TIMEOUTs: 0    ERRORs: 0
REEVALUATIONS: 1626 OF 2156

GENERATION 28/50
....m.<;....m.<;....m.<;
Fittest value: 2.75 for chromosome ( ( call ) /\ ( [] ( ! ( open ) ) ) )
Solutions (10): ( ( call ) /\ ( [] ( ! ( open ) ) ) ) | ( X ( ( call ) /\ ( [] ( ! ( open ) ) ) ) ) | ( X ( <> ( ( call ) /\ ( [] ( ! ( open ) ) ) ) ) ) | ( ( ( call ) /\ ( [] ( ! ( open ) ) ) ) /\ ( ( call ) /\ ( [] ( ! ( open ) ) ) ) ) | ( [] ( ( call ) /\ ( [] ( ! ( open ) ) ) ) ) | ( ( ( call ) /\ ( [] ( ! ( open ) ) ) ) W ( ( call ) /\ ( [] ( ! ( open ) ) ) ) ) | ( ( ( call ) /\ ( [] ( ! ( open ) ) ) ) U ( ( call ) /\ ( [] ( ! ( open ) ) ) ) ) | ( X ( [] ( ( call ) /\ ( [] ( ! ( open ) ) ) ) ) ) | ( <> ( X ( ( call ) /\ ( [] ( ! ( open ) ) ) ) ) ) | ( X ( X ( ( call ) /\ ( [] ( ! ( open ) ) ) ) ) ) | 
Generation Time :0
Accumulated Learning Time :2
CALLs: 15    TIMEOUTs: 0    ERRORs: 0
REEVALUATIONS: 1696 OF 2229

GENERATION 29/50
....m.<;....m.;.
Fittest value: 2.75 for chromosome ( ( call ) /\ ( [] ( ! ( open ) ) ) )
Solutions (10): ( ( call ) /\ ( [] ( ! ( open ) ) ) ) | ( X ( ( call ) /\ ( [] ( ! ( open ) ) ) ) ) | ( X ( <> ( ( call ) /\ ( [] ( ! ( open ) ) ) ) ) ) | ( ( ( call ) /\ ( [] ( ! ( open ) ) ) ) /\ ( ( call ) /\ ( [] ( ! ( open ) ) ) ) ) | ( [] ( ( call ) /\ ( [] ( ! ( open ) ) ) ) ) | ( ( ( call ) /\ ( [] ( ! ( open ) ) ) ) W ( ( call ) /\ ( [] ( ! ( open ) ) ) ) ) | ( ( ( call ) /\ ( [] ( ! ( open ) ) ) ) U ( ( call ) /\ ( [] ( ! ( open ) ) ) ) ) | ( X ( [] ( ( call ) /\ ( [] ( ! ( open ) ) ) ) ) ) | ( <> ( X ( ( call ) /\ ( [] ( ! ( open ) ) ) ) ) ) | ( X ( X ( ( call ) /\ ( [] ( ! ( open ) ) ) ) ) ) | 
Generation Time :0
Accumulated Learning Time :2
CALLs: 11    TIMEOUTs: 0    ERRORs: 0
REEVALUATIONS: 1772 OF 2308

GENERATION 30/50
....m.<;....m.;....m.<;.......m.<;....m.<;
Fittest value: 2.75 for chromosome ( ( call ) /\ ( [] ( ! ( open ) ) ) )
Solutions (10): ( ( call ) /\ ( [] ( ! ( open ) ) ) ) | ( X ( ( call ) /\ ( [] ( ! ( open ) ) ) ) ) | ( X ( <> ( ( call ) /\ ( [] ( ! ( open ) ) ) ) ) ) | ( ( ( call ) /\ ( [] ( ! ( open ) ) ) ) /\ ( ( call ) /\ ( [] ( ! ( open ) ) ) ) ) | ( [] ( ( call ) /\ ( [] ( ! ( open ) ) ) ) ) | ( ( ( call ) /\ ( [] ( ! ( open ) ) ) ) W ( ( call ) /\ ( [] ( ! ( open ) ) ) ) ) | ( ( ( call ) /\ ( [] ( ! ( open ) ) ) ) U ( ( call ) /\ ( [] ( ! ( open ) ) ) ) ) | ( X ( [] ( ( call ) /\ ( [] ( ! ( open ) ) ) ) ) ) | ( <> ( X ( ( call ) /\ ( [] ( ! ( open ) ) ) ) ) ) | ( X ( X ( ( call ) /\ ( [] ( ! ( open ) ) ) ) ) ) | 
Generation Time :0
Accumulated Learning Time :3
CALLs: 28    TIMEOUTs: 0    ERRORs: 0
REEVALUATIONS: 1856 OF 2399

GENERATION 31/50
....m.<;....m.<;.....m.<;....
Fittest value: 2.75 for chromosome ( ( call ) /\ ( [] ( ! ( open ) ) ) )
Solutions (10): ( ( call ) /\ ( [] ( ! ( open ) ) ) ) | ( X ( ( call ) /\ ( [] ( ! ( open ) ) ) ) ) | ( X ( <> ( ( call ) /\ ( [] ( ! ( open ) ) ) ) ) ) | ( ( ( call ) /\ ( [] ( ! ( open ) ) ) ) /\ ( ( call ) /\ ( [] ( ! ( open ) ) ) ) ) | ( [] ( ( call ) /\ ( [] ( ! ( open ) ) ) ) ) | ( ( ( call ) /\ ( [] ( ! ( open ) ) ) ) W ( ( call ) /\ ( [] ( ! ( open ) ) ) ) ) | ( ( ( call ) /\ ( [] ( ! ( open ) ) ) ) U ( ( call ) /\ ( [] ( ! ( open ) ) ) ) ) | ( X ( [] ( ( call ) /\ ( [] ( ! ( open ) ) ) ) ) ) | ( <> ( X ( ( call ) /\ ( [] ( ! ( open ) ) ) ) ) ) | ( X ( X ( ( call ) /\ ( [] ( ! ( open ) ) ) ) ) ) | 
Generation Time :0
Accumulated Learning Time :3
CALLs: 20    TIMEOUTs: 0    ERRORs: 0
REEVALUATIONS: 1932 OF 2481

GENERATION 32/50
....m.;.........m.<;......m.<;
Fittest value: 2.75 for chromosome ( ( call ) /\ ( [] ( ! ( open ) ) ) )
Solutions (10): ( ( call ) /\ ( [] ( ! ( open ) ) ) ) | ( X ( ( call ) /\ ( [] ( ! ( open ) ) ) ) ) | ( X ( <> ( ( call ) /\ ( [] ( ! ( open ) ) ) ) ) ) | ( ( ( call ) /\ ( [] ( ! ( open ) ) ) ) /\ ( ( call ) /\ ( [] ( ! ( open ) ) ) ) ) | ( [] ( ( call ) /\ ( [] ( ! ( open ) ) ) ) ) | ( ( ( call ) /\ ( [] ( ! ( open ) ) ) ) W ( ( call ) /\ ( [] ( ! ( open ) ) ) ) ) | ( ( ( call ) /\ ( [] ( ! ( open ) ) ) ) U ( ( call ) /\ ( [] ( ! ( open ) ) ) ) ) | ( X ( [] ( ( call ) /\ ( [] ( ! ( open ) ) ) ) ) ) | ( <> ( X ( ( call ) /\ ( [] ( ! ( open ) ) ) ) ) ) | ( X ( X ( ( call ) /\ ( [] ( ! ( open ) ) ) ) ) ) | 
Generation Time :0
Accumulated Learning Time :3
CALLs: 22    TIMEOUTs: 0    ERRORs: 0
REEVALUATIONS: 2003 OF 2559

GENERATION 33/50
....m.<;....m.<;......m.<;.....m.<;
Fittest value: 2.75 for chromosome ( ( call ) /\ ( [] ( ! ( open ) ) ) )
Solutions (10): ( ( call ) /\ ( [] ( ! ( open ) ) ) ) | ( X ( ( call ) /\ ( [] ( ! ( open ) ) ) ) ) | ( X ( <> ( ( call ) /\ ( [] ( ! ( open ) ) ) ) ) ) | ( ( ( call ) /\ ( [] ( ! ( open ) ) ) ) /\ ( ( call ) /\ ( [] ( ! ( open ) ) ) ) ) | ( [] ( ( call ) /\ ( [] ( ! ( open ) ) ) ) ) | ( ( ( call ) /\ ( [] ( ! ( open ) ) ) ) W ( ( call ) /\ ( [] ( ! ( open ) ) ) ) ) | ( ( ( call ) /\ ( [] ( ! ( open ) ) ) ) U ( ( call ) /\ ( [] ( ! ( open ) ) ) ) ) | ( X ( [] ( ( call ) /\ ( [] ( ! ( open ) ) ) ) ) ) | ( <> ( X ( ( call ) /\ ( [] ( ! ( open ) ) ) ) ) ) | ( X ( X ( ( call ) /\ ( [] ( ! ( open ) ) ) ) ) ) | 
Generation Time :0
Accumulated Learning Time :3
CALLs: 23    TIMEOUTs: 0    ERRORs: 0
REEVALUATIONS: 2080 OF 2642

GENERATION 34/50
......m.<;....m.;.
Fittest value: 2.75 for chromosome ( ( call ) /\ ( [] ( ! ( open ) ) ) )
Solutions (10): ( ( call ) /\ ( [] ( ! ( open ) ) ) ) | ( X ( ( call ) /\ ( [] ( ! ( open ) ) ) ) ) | ( X ( <> ( ( call ) /\ ( [] ( ! ( open ) ) ) ) ) ) | ( ( ( call ) /\ ( [] ( ! ( open ) ) ) ) /\ ( ( call ) /\ ( [] ( ! ( open ) ) ) ) ) | ( [] ( ( call ) /\ ( [] ( ! ( open ) ) ) ) ) | ( ( ( call ) /\ ( [] ( ! ( open ) ) ) ) W ( ( call ) /\ ( [] ( ! ( open ) ) ) ) ) | ( ( ( call ) /\ ( [] ( ! ( open ) ) ) ) U ( ( call ) /\ ( [] ( ! ( open ) ) ) ) ) | ( X ( [] ( ( call ) /\ ( [] ( ! ( open ) ) ) ) ) ) | ( <> ( X ( ( call ) /\ ( [] ( ! ( open ) ) ) ) ) ) | ( X ( X ( ( call ) /\ ( [] ( ! ( open ) ) ) ) ) ) | 
Generation Time :0
Accumulated Learning Time :3
CALLs: 13    TIMEOUTs: 0    ERRORs: 0
REEVALUATIONS: 2156 OF 2722

GENERATION 35/50
.....m.<;....m.<;...i.m.<;
Fittest value: 2.75 for chromosome ( ( call ) /\ ( [] ( ! ( open ) ) ) )
Solutions (10): ( ( call ) /\ ( [] ( ! ( open ) ) ) ) | ( X ( ( call ) /\ ( [] ( ! ( open ) ) ) ) ) | ( X ( <> ( ( call ) /\ ( [] ( ! ( open ) ) ) ) ) ) | ( ( ( call ) /\ ( [] ( ! ( open ) ) ) ) /\ ( ( call ) /\ ( [] ( ! ( open ) ) ) ) ) | ( [] ( ( call ) /\ ( [] ( ! ( open ) ) ) ) ) | ( ( ( call ) /\ ( [] ( ! ( open ) ) ) ) W ( ( call ) /\ ( [] ( ! ( open ) ) ) ) ) | ( ( ( call ) /\ ( [] ( ! ( open ) ) ) ) U ( ( call ) /\ ( [] ( ! ( open ) ) ) ) ) | ( X ( [] ( ( call ) /\ ( [] ( ! ( open ) ) ) ) ) ) | ( <> ( X ( ( call ) /\ ( [] ( ! ( open ) ) ) ) ) ) | ( X ( X ( ( call ) /\ ( [] ( ! ( open ) ) ) ) ) ) | 
Generation Time :0
Accumulated Learning Time :3
CALLs: 16    TIMEOUTs: 0    ERRORs: 0
REEVALUATIONS: 2233 OF 2803

GENERATION 36/50
......m.<;....m.<;....m.<;..
Fittest value: 2.75 for chromosome ( ( call ) /\ ( [] ( ! ( open ) ) ) )
Solutions (10): ( ( call ) /\ ( [] ( ! ( open ) ) ) ) | ( X ( ( call ) /\ ( [] ( ! ( open ) ) ) ) ) | ( X ( <> ( ( call ) /\ ( [] ( ! ( open ) ) ) ) ) ) | ( ( ( call ) /\ ( [] ( ! ( open ) ) ) ) /\ ( ( call ) /\ ( [] ( ! ( open ) ) ) ) ) | ( [] ( ( call ) /\ ( [] ( ! ( open ) ) ) ) ) | ( ( ( call ) /\ ( [] ( ! ( open ) ) ) ) W ( ( call ) /\ ( [] ( ! ( open ) ) ) ) ) | ( ( ( call ) /\ ( [] ( ! ( open ) ) ) ) U ( ( call ) /\ ( [] ( ! ( open ) ) ) ) ) | ( X ( [] ( ( call ) /\ ( [] ( ! ( open ) ) ) ) ) ) | ( <> ( X ( ( call ) /\ ( [] ( ! ( open ) ) ) ) ) ) | ( X ( X ( ( call ) /\ ( [] ( ! ( open ) ) ) ) ) ) | 
Generation Time :0
Accumulated Learning Time :3
CALLs: 19    TIMEOUTs: 0    ERRORs: 0
REEVALUATIONS: 2311 OF 2886

GENERATION 37/50
......m.<;....m.<;....m.;
Fittest value: 2.75 for chromosome ( ( call ) /\ ( [] ( ! ( open ) ) ) )
Solutions (10): ( ( call ) /\ ( [] ( ! ( open ) ) ) ) | ( X ( ( call ) /\ ( [] ( ! ( open ) ) ) ) ) | ( X ( <> ( ( call ) /\ ( [] ( ! ( open ) ) ) ) ) ) | ( ( ( call ) /\ ( [] ( ! ( open ) ) ) ) /\ ( ( call ) /\ ( [] ( ! ( open ) ) ) ) ) | ( [] ( ( call ) /\ ( [] ( ! ( open ) ) ) ) ) | ( ( ( call ) /\ ( [] ( ! ( open ) ) ) ) W ( ( call ) /\ ( [] ( ! ( open ) ) ) ) ) | ( ( ( call ) /\ ( [] ( ! ( open ) ) ) ) U ( ( call ) /\ ( [] ( ! ( open ) ) ) ) ) | ( X ( [] ( ( call ) /\ ( [] ( ! ( open ) ) ) ) ) ) | ( <> ( X ( ( call ) /\ ( [] ( ! ( open ) ) ) ) ) ) | ( X ( X ( ( call ) /\ ( [] ( ! ( open ) ) ) ) ) ) | 
Generation Time :0
Accumulated Learning Time :3
CALLs: 17    TIMEOUTs: 0    ERRORs: 0
REEVALUATIONS: 2389 OF 2968

GENERATION 38/50
....m.;......m.<;....m.<;....m.<;
Fittest value: 2.75 for chromosome ( ( call ) /\ ( [] ( ! ( open ) ) ) )
Solutions (10): ( ( call ) /\ ( [] ( ! ( open ) ) ) ) | ( X ( ( call ) /\ ( [] ( ! ( open ) ) ) ) ) | ( X ( <> ( ( call ) /\ ( [] ( ! ( open ) ) ) ) ) ) | ( ( ( call ) /\ ( [] ( ! ( open ) ) ) ) /\ ( ( call ) /\ ( [] ( ! ( open ) ) ) ) ) | ( [] ( ( call ) /\ ( [] ( ! ( open ) ) ) ) ) | ( ( ( call ) /\ ( [] ( ! ( open ) ) ) ) W ( ( call ) /\ ( [] ( ! ( open ) ) ) ) ) | ( ( ( call ) /\ ( [] ( ! ( open ) ) ) ) U ( ( call ) /\ ( [] ( ! ( open ) ) ) ) ) | ( X ( [] ( ( call ) /\ ( [] ( ! ( open ) ) ) ) ) ) | ( <> ( X ( ( call ) /\ ( [] ( ! ( open ) ) ) ) ) ) | ( X ( X ( ( call ) /\ ( [] ( ! ( open ) ) ) ) ) ) | 
Generation Time :0
Accumulated Learning Time :3
CALLs: 22    TIMEOUTs: 0    ERRORs: 0
REEVALUATIONS: 2461 OF 3045

GENERATION 39/50
.....m.<;....m.<;....m.;....m.;.
Fittest value: 2.75 for chromosome ( ( call ) /\ ( [] ( ! ( open ) ) ) )
Solutions (10): ( ( call ) /\ ( [] ( ! ( open ) ) ) ) | ( X ( ( call ) /\ ( [] ( ! ( open ) ) ) ) ) | ( X ( <> ( ( call ) /\ ( [] ( ! ( open ) ) ) ) ) ) | ( ( ( call ) /\ ( [] ( ! ( open ) ) ) ) /\ ( ( call ) /\ ( [] ( ! ( open ) ) ) ) ) | ( [] ( ( call ) /\ ( [] ( ! ( open ) ) ) ) ) | ( ( ( call ) /\ ( [] ( ! ( open ) ) ) ) W ( ( call ) /\ ( [] ( ! ( open ) ) ) ) ) | ( ( ( call ) /\ ( [] ( ! ( open ) ) ) ) U ( ( call ) /\ ( [] ( ! ( open ) ) ) ) ) | ( X ( [] ( ( call ) /\ ( [] ( ! ( open ) ) ) ) ) ) | ( <> ( X ( ( call ) /\ ( [] ( ! ( open ) ) ) ) ) ) | ( X ( X ( ( call ) /\ ( [] ( ! ( open ) ) ) ) ) ) | 
Generation Time :0
Accumulated Learning Time :3
CALLs: 22    TIMEOUTs: 0    ERRORs: 0
REEVALUATIONS: 2532 OF 3122

GENERATION 40/50
.....m.<;....m.<;
Fittest value: 2.75 for chromosome ( ( call ) /\ ( [] ( ! ( open ) ) ) )
Solutions (10): ( ( call ) /\ ( [] ( ! ( open ) ) ) ) | ( X ( ( call ) /\ ( [] ( ! ( open ) ) ) ) ) | ( X ( <> ( ( call ) /\ ( [] ( ! ( open ) ) ) ) ) ) | ( ( ( call ) /\ ( [] ( ! ( open ) ) ) ) /\ ( ( call ) /\ ( [] ( ! ( open ) ) ) ) ) | ( [] ( ( call ) /\ ( [] ( ! ( open ) ) ) ) ) | ( ( ( call ) /\ ( [] ( ! ( open ) ) ) ) W ( ( call ) /\ ( [] ( ! ( open ) ) ) ) ) | ( ( ( call ) /\ ( [] ( ! ( open ) ) ) ) U ( ( call ) /\ ( [] ( ! ( open ) ) ) ) ) | ( X ( [] ( ( call ) /\ ( [] ( ! ( open ) ) ) ) ) ) | ( <> ( X ( ( call ) /\ ( [] ( ! ( open ) ) ) ) ) ) | ( X ( X ( ( call ) /\ ( [] ( ! ( open ) ) ) ) ) ) | 
Generation Time :0
Accumulated Learning Time :3
CALLs: 11    TIMEOUTs: 0    ERRORs: 0
REEVALUATIONS: 2613 OF 3206

GENERATION 41/50
..
Fittest value: 2.75 for chromosome ( ( call ) /\ ( [] ( ! ( open ) ) ) )
Solutions (10): ( ( call ) /\ ( [] ( ! ( open ) ) ) ) | ( X ( ( call ) /\ ( [] ( ! ( open ) ) ) ) ) | ( X ( <> ( ( call ) /\ ( [] ( ! ( open ) ) ) ) ) ) | ( ( ( call ) /\ ( [] ( ! ( open ) ) ) ) /\ ( ( call ) /\ ( [] ( ! ( open ) ) ) ) ) | ( [] ( ( call ) /\ ( [] ( ! ( open ) ) ) ) ) | ( ( ( call ) /\ ( [] ( ! ( open ) ) ) ) W ( ( call ) /\ ( [] ( ! ( open ) ) ) ) ) | ( ( ( call ) /\ ( [] ( ! ( open ) ) ) ) U ( ( call ) /\ ( [] ( ! ( open ) ) ) ) ) | ( X ( [] ( ( call ) /\ ( [] ( ! ( open ) ) ) ) ) ) | ( <> ( X ( ( call ) /\ ( [] ( ! ( open ) ) ) ) ) ) | ( X ( X ( ( call ) /\ ( [] ( ! ( open ) ) ) ) ) ) | 
Generation Time :0
Accumulated Learning Time :3
CALLs: 2    TIMEOUTs: 0    ERRORs: 0
REEVALUATIONS: 2692 OF 3286

GENERATION 42/50
....m.<;....m.<;
Fittest value: 2.75 for chromosome ( ( call ) /\ ( [] ( ! ( open ) ) ) )
Solutions (10): ( ( call ) /\ ( [] ( ! ( open ) ) ) ) | ( X ( ( call ) /\ ( [] ( ! ( open ) ) ) ) ) | ( X ( <> ( ( call ) /\ ( [] ( ! ( open ) ) ) ) ) ) | ( ( ( call ) /\ ( [] ( ! ( open ) ) ) ) /\ ( ( call ) /\ ( [] ( ! ( open ) ) ) ) ) | ( [] ( ( call ) /\ ( [] ( ! ( open ) ) ) ) ) | ( ( ( call ) /\ ( [] ( ! ( open ) ) ) ) W ( ( call ) /\ ( [] ( ! ( open ) ) ) ) ) | ( ( ( call ) /\ ( [] ( ! ( open ) ) ) ) U ( ( call ) /\ ( [] ( ! ( open ) ) ) ) ) | ( X ( [] ( ( call ) /\ ( [] ( ! ( open ) ) ) ) ) ) | ( <> ( X ( ( call ) /\ ( [] ( ! ( open ) ) ) ) ) ) | ( X ( X ( ( call ) /\ ( [] ( ! ( open ) ) ) ) ) ) | 
Generation Time :0
Accumulated Learning Time :3
CALLs: 10    TIMEOUTs: 0    ERRORs: 0
REEVALUATIONS: 2771 OF 3367

GENERATION 43/50
....m.<;......m.<;.
Fittest value: 2.75 for chromosome ( ( call ) /\ ( [] ( ! ( open ) ) ) )
Solutions (10): ( ( call ) /\ ( [] ( ! ( open ) ) ) ) | ( X ( ( call ) /\ ( [] ( ! ( open ) ) ) ) ) | ( X ( <> ( ( call ) /\ ( [] ( ! ( open ) ) ) ) ) ) | ( ( ( call ) /\ ( [] ( ! ( open ) ) ) ) /\ ( ( call ) /\ ( [] ( ! ( open ) ) ) ) ) | ( [] ( ( call ) /\ ( [] ( ! ( open ) ) ) ) ) | ( ( ( call ) /\ ( [] ( ! ( open ) ) ) ) W ( ( call ) /\ ( [] ( ! ( open ) ) ) ) ) | ( ( ( call ) /\ ( [] ( ! ( open ) ) ) ) U ( ( call ) /\ ( [] ( ! ( open ) ) ) ) ) | ( X ( [] ( ( call ) /\ ( [] ( ! ( open ) ) ) ) ) ) | ( <> ( X ( ( call ) /\ ( [] ( ! ( open ) ) ) ) ) ) | ( X ( X ( ( call ) /\ ( [] ( ! ( open ) ) ) ) ) ) | 
Generation Time :0
Accumulated Learning Time :3
CALLs: 13    TIMEOUTs: 0    ERRORs: 0
REEVALUATIONS: 2843 OF 3443

GENERATION 44/50
....m.<;....m.<;....m.<;.....m.<;....m.<;
Fittest value: 2.75 for chromosome ( ( call ) /\ ( [] ( ! ( open ) ) ) )
Solutions (10): ( ( call ) /\ ( [] ( ! ( open ) ) ) ) | ( X ( ( call ) /\ ( [] ( ! ( open ) ) ) ) ) | ( X ( <> ( ( call ) /\ ( [] ( ! ( open ) ) ) ) ) ) | ( ( ( call ) /\ ( [] ( ! ( open ) ) ) ) /\ ( ( call ) /\ ( [] ( ! ( open ) ) ) ) ) | ( [] ( ( call ) /\ ( [] ( ! ( open ) ) ) ) ) | ( ( ( call ) /\ ( [] ( ! ( open ) ) ) ) W ( ( call ) /\ ( [] ( ! ( open ) ) ) ) ) | ( ( ( call ) /\ ( [] ( ! ( open ) ) ) ) U ( ( call ) /\ ( [] ( ! ( open ) ) ) ) ) | ( X ( [] ( ( call ) /\ ( [] ( ! ( open ) ) ) ) ) ) | ( <> ( X ( ( call ) /\ ( [] ( ! ( open ) ) ) ) ) ) | ( X ( X ( ( call ) /\ ( [] ( ! ( open ) ) ) ) ) ) | 
Generation Time :0
Accumulated Learning Time :3
CALLs: 26    TIMEOUTs: 0    ERRORs: 0
REEVALUATIONS: 2909 OF 3515

GENERATION 45/50
....m.<;
Fittest value: 2.75 for chromosome ( ( call ) /\ ( [] ( ! ( open ) ) ) )
Solutions (10): ( ( call ) /\ ( [] ( ! ( open ) ) ) ) | ( X ( ( call ) /\ ( [] ( ! ( open ) ) ) ) ) | ( X ( <> ( ( call ) /\ ( [] ( ! ( open ) ) ) ) ) ) | ( ( ( call ) /\ ( [] ( ! ( open ) ) ) ) /\ ( ( call ) /\ ( [] ( ! ( open ) ) ) ) ) | ( [] ( ( call ) /\ ( [] ( ! ( open ) ) ) ) ) | ( ( ( call ) /\ ( [] ( ! ( open ) ) ) ) W ( ( call ) /\ ( [] ( ! ( open ) ) ) ) ) | ( ( ( call ) /\ ( [] ( ! ( open ) ) ) ) U ( ( call ) /\ ( [] ( ! ( open ) ) ) ) ) | ( X ( [] ( ( call ) /\ ( [] ( ! ( open ) ) ) ) ) ) | ( <> ( X ( ( call ) /\ ( [] ( ! ( open ) ) ) ) ) ) | ( X ( X ( ( call ) /\ ( [] ( ! ( open ) ) ) ) ) ) | 
Generation Time :0
Accumulated Learning Time :3
CALLs: 5    TIMEOUTs: 0    ERRORs: 0
REEVALUATIONS: 2980 OF 3587

GENERATION 46/50
....m.<;......m.<;
Fittest value: 2.75 for chromosome ( ( call ) /\ ( [] ( ! ( open ) ) ) )
Solutions (10): ( ( call ) /\ ( [] ( ! ( open ) ) ) ) | ( X ( ( call ) /\ ( [] ( ! ( open ) ) ) ) ) | ( X ( <> ( ( call ) /\ ( [] ( ! ( open ) ) ) ) ) ) | ( ( ( call ) /\ ( [] ( ! ( open ) ) ) ) /\ ( ( call ) /\ ( [] ( ! ( open ) ) ) ) ) | ( [] ( ( call ) /\ ( [] ( ! ( open ) ) ) ) ) | ( ( ( call ) /\ ( [] ( ! ( open ) ) ) ) W ( ( call ) /\ ( [] ( ! ( open ) ) ) ) ) | ( ( ( call ) /\ ( [] ( ! ( open ) ) ) ) U ( ( call ) /\ ( [] ( ! ( open ) ) ) ) ) | ( X ( [] ( ( call ) /\ ( [] ( ! ( open ) ) ) ) ) ) | ( <> ( X ( ( call ) /\ ( [] ( ! ( open ) ) ) ) ) ) | ( X ( X ( ( call ) /\ ( [] ( ! ( open ) ) ) ) ) ) | 
Generation Time :0
Accumulated Learning Time :3
CALLs: 12    TIMEOUTs: 0    ERRORs: 0
REEVALUATIONS: 3061 OF 3671

GENERATION 47/50
....m.<;
Fittest value: 2.75 for chromosome ( ( call ) /\ ( [] ( ! ( open ) ) ) )
Solutions (10): ( ( call ) /\ ( [] ( ! ( open ) ) ) ) | ( X ( ( call ) /\ ( [] ( ! ( open ) ) ) ) ) | ( X ( <> ( ( call ) /\ ( [] ( ! ( open ) ) ) ) ) ) | ( ( ( call ) /\ ( [] ( ! ( open ) ) ) ) /\ ( ( call ) /\ ( [] ( ! ( open ) ) ) ) ) | ( [] ( ( call ) /\ ( [] ( ! ( open ) ) ) ) ) | ( ( ( call ) /\ ( [] ( ! ( open ) ) ) ) W ( ( call ) /\ ( [] ( ! ( open ) ) ) ) ) | ( ( ( call ) /\ ( [] ( ! ( open ) ) ) ) U ( ( call ) /\ ( [] ( ! ( open ) ) ) ) ) | ( X ( [] ( ( call ) /\ ( [] ( ! ( open ) ) ) ) ) ) | ( <> ( X ( ( call ) /\ ( [] ( ! ( open ) ) ) ) ) ) | ( X ( X ( ( call ) /\ ( [] ( ! ( open ) ) ) ) ) ) | 
Generation Time :0
Accumulated Learning Time :3
CALLs: 5    TIMEOUTs: 0    ERRORs: 0
REEVALUATIONS: 3143 OF 3754

GENERATION 48/50
....m.<;
Fittest value: 2.75 for chromosome ( ( call ) /\ ( [] ( ! ( open ) ) ) )
Solutions (10): ( ( call ) /\ ( [] ( ! ( open ) ) ) ) | ( X ( ( call ) /\ ( [] ( ! ( open ) ) ) ) ) | ( X ( <> ( ( call ) /\ ( [] ( ! ( open ) ) ) ) ) ) | ( ( ( call ) /\ ( [] ( ! ( open ) ) ) ) /\ ( ( call ) /\ ( [] ( ! ( open ) ) ) ) ) | ( [] ( ( call ) /\ ( [] ( ! ( open ) ) ) ) ) | ( ( ( call ) /\ ( [] ( ! ( open ) ) ) ) W ( ( call ) /\ ( [] ( ! ( open ) ) ) ) ) | ( ( ( call ) /\ ( [] ( ! ( open ) ) ) ) U ( ( call ) /\ ( [] ( ! ( open ) ) ) ) ) | ( X ( [] ( ( call ) /\ ( [] ( ! ( open ) ) ) ) ) ) | ( <> ( X ( ( call ) /\ ( [] ( ! ( open ) ) ) ) ) ) | ( X ( X ( ( call ) /\ ( [] ( ! ( open ) ) ) ) ) ) | 
Generation Time :0
Accumulated Learning Time :3
CALLs: 5    TIMEOUTs: 0    ERRORs: 0
REEVALUATIONS: 3230 OF 3842

GENERATION 49/50
....m.<;
Fittest value: 2.75 for chromosome ( ( call ) /\ ( [] ( ! ( open ) ) ) )
Solutions (10): ( ( call ) /\ ( [] ( ! ( open ) ) ) ) | ( X ( ( call ) /\ ( [] ( ! ( open ) ) ) ) ) | ( X ( <> ( ( call ) /\ ( [] ( ! ( open ) ) ) ) ) ) | ( ( ( call ) /\ ( [] ( ! ( open ) ) ) ) /\ ( ( call ) /\ ( [] ( ! ( open ) ) ) ) ) | ( [] ( ( call ) /\ ( [] ( ! ( open ) ) ) ) ) | ( ( ( call ) /\ ( [] ( ! ( open ) ) ) ) W ( ( call ) /\ ( [] ( ! ( open ) ) ) ) ) | ( ( ( call ) /\ ( [] ( ! ( open ) ) ) ) U ( ( call ) /\ ( [] ( ! ( open ) ) ) ) ) | ( X ( [] ( ( call ) /\ ( [] ( ! ( open ) ) ) ) ) ) | ( <> ( X ( ( call ) /\ ( [] ( ! ( open ) ) ) ) ) ) | ( X ( X ( ( call ) /\ ( [] ( ! ( open ) ) ) ) ) ) | 
Generation Time :0
Accumulated Learning Time :3
CALLs: 5    TIMEOUTs: 0    ERRORs: 0
REEVALUATIONS: 3310 OF 3923

GENERATION 50/50
....m.<;......m.<;
Fittest value: 2.75 for chromosome ( ( call ) /\ ( [] ( ! ( open ) ) ) )
Solutions (10): ( ( call ) /\ ( [] ( ! ( open ) ) ) ) | ( X ( ( call ) /\ ( [] ( ! ( open ) ) ) ) ) | ( X ( <> ( ( call ) /\ ( [] ( ! ( open ) ) ) ) ) ) | ( ( ( call ) /\ ( [] ( ! ( open ) ) ) ) /\ ( ( call ) /\ ( [] ( ! ( open ) ) ) ) ) | ( [] ( ( call ) /\ ( [] ( ! ( open ) ) ) ) ) | ( ( ( call ) /\ ( [] ( ! ( open ) ) ) ) W ( ( call ) /\ ( [] ( ! ( open ) ) ) ) ) | ( ( ( call ) /\ ( [] ( ! ( open ) ) ) ) U ( ( call ) /\ ( [] ( ! ( open ) ) ) ) ) | ( X ( [] ( ( call ) /\ ( [] ( ! ( open ) ) ) ) ) ) | ( <> ( X ( ( call ) /\ ( [] ( ! ( open ) ) ) ) ) ) | ( X ( X ( ( call ) /\ ( [] ( ! ( open ) ) ) ) ) ) | 
Generation Time :0
Accumulated Learning Time :3
CALLs: 12    TIMEOUTs: 0    ERRORs: 0
REEVALUATIONS: 3385 OF 4001


TOTAL Learing Time :3

Solutions: 10
( ( call ) /\ ( [] ( ! ( open ) ) ) )
( X ( ( call ) /\ ( [] ( ! ( open ) ) ) ) )
( X ( <> ( ( call ) /\ ( [] ( ! ( open ) ) ) ) ) )
( ( ( call ) /\ ( [] ( ! ( open ) ) ) ) /\ ( ( call ) /\ ( [] ( ! ( open ) ) ) ) )
( [] ( ( call ) /\ ( [] ( ! ( open ) ) ) ) )
( ( ( call ) /\ ( [] ( ! ( open ) ) ) ) W ( ( call ) /\ ( [] ( ! ( open ) ) ) ) )
( ( ( call ) /\ ( [] ( ! ( open ) ) ) ) U ( ( call ) /\ ( [] ( ! ( open ) ) ) ) )
( X ( [] ( ( call ) /\ ( [] ( ! ( open ) ) ) ) ) )
( <> ( X ( ( call ) /\ ( [] ( ! ( open ) ) ) ) ) )
( X ( X ( ( call ) /\ ( [] ( ! ( open ) ) ) ) ) )

...............................
Non Equivalent Solutions: 6
( ( call ) /\ ( [] ( ! ( open ) ) ) )
( X ( ( call ) /\ ( [] ( ! ( open ) ) ) ) )
( X ( <> ( ( call ) /\ ( [] ( ! ( open ) ) ) ) ) )
( [] ( ( call ) /\ ( [] ( ! ( open ) ) ) ) )
( X ( [] ( ( call ) /\ ( [] ( ! ( open ) ) ) ) ) )
( X ( X ( ( call ) /\ ( [] ( ! ( open ) ) ) ) ) )
..................
Weakest Solutions: 2
( ( call ) /\ ( [] ( ! ( open ) ) ) )
( X ( <> ( ( call ) /\ ( [] ( ! ( open ) ) ) ) ) )
TOTAL Time :3
CALLs: 2541    TIMEOUTs: 0    ERRORs: 0
CONFIGURATION
#Population: 100    #Iterations: 50    #ChromSize: 20
REEVALUATIONS: 3385 OF 4001
