DOM: [[] ( X(open) -> atfloor)]
GOALS: [[](call -> <>(open))]
Initial population size: 22
Total population size: 100

GENERATION 1/50
....m.<;....m.<;....m.<;....m.<;....m.<;....m.<;....m.<;....m.<;....m.<;...i..<;....m.<;...i.m.<;....m.<;....m.<;....m.<;...i.m.;....m.<;...i..<;.....m.<;....m.<;.....m.<;....m.<;........m.<;........m.<;....m.<;....m.<;....m.<;....m.<;....m.;....m.<;
Fittest value: 2.75 for chromosome ( ( call ) /\ ( [] ( ! ( open ) ) ) )
Solutions (1): ( ( call ) /\ ( [] ( ! ( open ) ) ) ) | 
Generation Time :0
Accumulated Learning Time :0
CALLs: 160    TIMEOUTs: 0    ERRORs: 0
REEVALUATIONS: 17 OF 53

GENERATION 2/50
.....m.<;.......m.<;....m.<;....m.<;....m.<;....m.<;....m.<;....m.<;.........m.<;....m.<;........m.<;....m.<;....m.<;....m.<;....m.<;......m.<;....m.<;....m.<;....m.<;.....m.<;....m.<;....m.<;...i..<;....m.<;......m.<;....m.<;....m.;....m.;....m.<;....m.<;...i.m.<;
Fittest value: 2.75 for chromosome ( ( call ) /\ ( [] ( ! ( open ) ) ) )
Solutions (2): ( ( call ) /\ ( [] ( ! ( open ) ) ) ) | ( [] ( ( call ) /\ ( [] ( ! ( open ) ) ) ) ) | 
Generation Time :0
Accumulated Learning Time :0
CALLs: 173    TIMEOUTs: 0    ERRORs: 0
REEVALUATIONS: 66 OF 144

GENERATION 3/50
......m.<;....m.<;....m.<;....m.<;.....m.<;....m.<;....m.<;....m.<;....m.<;......m.<;....m.<;....m.<;.....m.<;.....m.<;....m.<;....m.<;......m.<;....m.<;.......m.<;......m.;....m.<;....m.<;....m.<;.....m.<;....m.<;.....m.<;....m.;....m.<;....m.<;....m.<;....m.<;....m.<;
Fittest value: 2.75 for chromosome ( ( call ) /\ ( [] ( ! ( open ) ) ) )
Solutions (2): ( ( call ) /\ ( [] ( ! ( open ) ) ) ) | ( [] ( ( call ) /\ ( [] ( ! ( open ) ) ) ) ) | 
Generation Time :0
Accumulated Learning Time :0
CALLs: 176    TIMEOUTs: 0    ERRORs: 0
REEVALUATIONS: 112 OF 233

GENERATION 4/50
.....m.<;....m.<;....m.<;....m.<;....m.<;....m.;......m.<;....m.;....m.<;....m.<;....m.<;......m.<;....m.<;....m.<;....m.<;....m.<;....m.<;....m.<;.....m.<;....m.<;....m.<;......m.<;.......m.<;....m.;.......m.<;....m.<;....m.<;.....m.<;....m.<;....m.<;...i.m.<;....m.<;....m.<;.....m.<;.......m.<;....m.<;....m.<;...i.m.<;
Fittest value: 2.75 for chromosome ( ( call ) /\ ( [] ( ! ( open ) ) ) )
Solutions (4): ( ( call ) /\ ( [] ( ! ( open ) ) ) ) | ( [] ( ( call ) /\ ( [] ( ! ( open ) ) ) ) ) | ( ( [] ( ! ( open ) ) ) /\ ( call ) ) | ( ( call ) U ( ( call ) /\ ( [] ( ! ( open ) ) ) ) ) | 
Generation Time :0
Accumulated Learning Time :0
CALLs: 209    TIMEOUTs: 0    ERRORs: 0
REEVALUATIONS: 149 OF 322

GENERATION 5/50
....m.<;....m.<;......m.<;....m.<;....m.<;.....m.<;....m.<;....m.<;.....i.m.<;....m.<;....m.<;...i.m.<;....m.<;....m.<;......m.<;....m.<;......m.<;....m.<;....m.<;....m.<;....m.<;.....m.<;......m.<;.....m.<;....m.<;....m.<;....m.<;.......m.<;....m.<;....m.<;....m.<;....m.<;....m.<;....m.<;....m.<;....m.<;
Fittest value: 2.75 for chromosome ( ( call ) /\ ( [] ( ! ( open ) ) ) )
Solutions (5): ( ( call ) /\ ( [] ( ! ( open ) ) ) ) | ( [] ( ( call ) /\ ( [] ( ! ( open ) ) ) ) ) | ( ( [] ( ! ( open ) ) ) /\ ( call ) ) | ( ( call ) U ( ( call ) /\ ( [] ( ! ( open ) ) ) ) ) | ( [] ( ( call ) /\ ( X ( ! ( open ) ) ) ) ) | 
Generation Time :0
Accumulated Learning Time :1
CALLs: 196    TIMEOUTs: 0    ERRORs: 0
REEVALUATIONS: 185 OF 404

GENERATION 6/50
....m.<;....m.<;....m.<;....m.<;.....m.<;......m.<;....m.<;......m.<;......m.<;.....m.<;....m.<;....m.<;....m.<;....m.<;....m.<;....m.<;....m.<;....m.<;....i.m.<;....m.;....m.<;..........m.<;....m.<;.......m.;....m.;....m.<;....m.<;....m.<;....m.<;....m.<;....m.<;......m.<;....m.<;....m.<;....m.<;....m.;....m.<;....m.<;....m.<;...i.m.<;
Fittest value: 2.75 for chromosome ( ( call ) /\ ( [] ( ! ( open ) ) ) )
Solutions (7): ( ( call ) /\ ( [] ( ! ( open ) ) ) ) | ( [] ( ( call ) /\ ( [] ( ! ( open ) ) ) ) ) | ( ( [] ( ! ( open ) ) ) /\ ( call ) ) | ( ( call ) U ( ( call ) /\ ( [] ( ! ( open ) ) ) ) ) | ( [] ( ( call ) /\ ( X ( ! ( open ) ) ) ) ) | ( X ( ( call ) /\ ( [] ( ! ( open ) ) ) ) ) | ( ( call ) /\ ( [] ( ( call ) /\ ( [] ( ! ( open ) ) ) ) ) ) | 
Generation Time :0
Accumulated Learning Time :1
CALLs: 220    TIMEOUTs: 0    ERRORs: 0
REEVALUATIONS: 216 OF 488

GENERATION 7/50
....m.;.....m.<;....m.<;....m.<;....m.<;....m.<;....m.<;....m.<;....m.<;....m.<;....m.<;....m.<;......m.<;....m.<;....m.<;....m.<;....m.<;....m.<;....m.<;...i.m.<;....m.<;....m.<;.....m.<;....m.<;....m.<;....m.<;....m.<;.....m.;....m.<;.....m.<;....m.<;....m.<;....m.<;...i.m.<;....m.<;...i.m.<;....m.<;....m.<;
Fittest value: 2.75 for chromosome ( ( call ) /\ ( [] ( ! ( open ) ) ) )
Solutions (10): ( ( call ) /\ ( [] ( ! ( open ) ) ) ) | ( [] ( ( call ) /\ ( [] ( ! ( open ) ) ) ) ) | ( ( [] ( ! ( open ) ) ) /\ ( call ) ) | ( ( call ) U ( ( call ) /\ ( [] ( ! ( open ) ) ) ) ) | ( [] ( ( call ) /\ ( X ( ! ( open ) ) ) ) ) | ( X ( ( call ) /\ ( [] ( ! ( open ) ) ) ) ) | ( ( call ) /\ ( [] ( ( call ) /\ ( [] ( ! ( open ) ) ) ) ) ) | ( ( call ) /\ ( ( call ) /\ ( [] ( ! ( open ) ) ) ) ) | ( ( ( call ) /\ ( [] ( ! ( open ) ) ) ) \/ ( [] ( ( call ) /\ ( [] ( ! ( open ) ) ) ) ) ) | ( ( [] ( ( call ) /\ ( [] ( ! ( open ) ) ) ) ) W ( ( call ) /\ ( [] ( ! ( open ) ) ) ) ) | 
Generation Time :0
Accumulated Learning Time :1
CALLs: 196    TIMEOUTs: 0    ERRORs: 0
REEVALUATIONS: 252 OF 567

GENERATION 8/50
.....m.;....m.<;....m.<;.....m.<;....m.<;.....m.<;....m.<;....m.<;....m.<;.....m.<;.....m.<;....m.<;......m.<;....m.<;....m.;......m.<;....m.<;....m.<;....m.<;....m.<;....m.<;....m.<;...i.m.<;....m.<;...i.m.<;...i.m.<;....m.<;
Fittest value: 2.75 for chromosome ( ( call ) /\ ( [] ( ! ( open ) ) ) )
Solutions (13): ( ( call ) /\ ( [] ( ! ( open ) ) ) ) | ( [] ( ( call ) /\ ( [] ( ! ( open ) ) ) ) ) | ( ( [] ( ! ( open ) ) ) /\ ( call ) ) | ( ( call ) U ( ( call ) /\ ( [] ( ! ( open ) ) ) ) ) | ( [] ( ( call ) /\ ( X ( ! ( open ) ) ) ) ) | ( X ( ( call ) /\ ( [] ( ! ( open ) ) ) ) ) | ( ( call ) /\ ( [] ( ( call ) /\ ( [] ( ! ( open ) ) ) ) ) ) | ( ( call ) /\ ( ( call ) /\ ( [] ( ! ( open ) ) ) ) ) | ( ( ( call ) /\ ( [] ( ! ( open ) ) ) ) \/ ( [] ( ( call ) /\ ( [] ( ! ( open ) ) ) ) ) ) | ( ( [] ( ( call ) /\ ( [] ( ! ( open ) ) ) ) ) W ( ( call ) /\ ( [] ( ! ( open ) ) ) ) ) | ( ( ( call ) /\ ( [] ( ! ( open ) ) ) ) /\ ( ( call ) /\ ( [] ( ! ( open ) ) ) ) ) | ( [] ( ( [] ( ! ( open ) ) ) /\ ( call ) ) ) | ( ( call ) /\ ( [] ( [] ( ! ( open ) ) ) ) ) | 
Generation Time :0
Accumulated Learning Time :1
CALLs: 144    TIMEOUTs: 0    ERRORs: 0
REEVALUATIONS: 293 OF 643

GENERATION 9/50
....m.<;....m.<;......m.;....m.<;....m.;....m.<;....m.<;....m.<;....m.<;....m.;....m.<;....m.<;....m.<;....m.<;....m.<;....m.<;....m.<;....m.<;.....m.<;....m.<;....m.<;....m.<;....m.;....m.<;....m.<;....m.<;.....m.<;....m.<;....m.<;....m.<;...i.m.<;....m.<;...i.m.<;...i.m.<;...i.m.<;
Fittest value: 2.75 for chromosome ( ( call ) /\ ( [] ( ! ( open ) ) ) )
Solutions (15): ( ( call ) /\ ( [] ( ! ( open ) ) ) ) | ( [] ( ( call ) /\ ( [] ( ! ( open ) ) ) ) ) | ( ( [] ( ! ( open ) ) ) /\ ( call ) ) | ( ( call ) U ( ( call ) /\ ( [] ( ! ( open ) ) ) ) ) | ( [] ( ( call ) /\ ( X ( ! ( open ) ) ) ) ) | ( X ( ( call ) /\ ( [] ( ! ( open ) ) ) ) ) | ( ( call ) /\ ( [] ( ( call ) /\ ( [] ( ! ( open ) ) ) ) ) ) | ( ( call ) /\ ( ( call ) /\ ( [] ( ! ( open ) ) ) ) ) | ( ( ( call ) /\ ( [] ( ! ( open ) ) ) ) \/ ( [] ( ( call ) /\ ( [] ( ! ( open ) ) ) ) ) ) | ( ( [] ( ( call ) /\ ( [] ( ! ( open ) ) ) ) ) W ( ( call ) /\ ( [] ( ! ( open ) ) ) ) ) | ( ( ( call ) /\ ( [] ( ! ( open ) ) ) ) /\ ( ( call ) /\ ( [] ( ! ( open ) ) ) ) ) | ( [] ( ( [] ( ! ( open ) ) ) /\ ( call ) ) ) | ( ( call ) /\ ( [] ( [] ( ! ( open ) ) ) ) ) | ( ( ( call ) /\ ( [] ( ! ( open ) ) ) ) /\ ( [] ( ! ( open ) ) ) ) | ( ( ( call ) /\ ( [] ( ! ( open ) ) ) ) U ( ( call ) /\ ( [] ( ! ( open ) ) ) ) ) | 
Generation Time :0
Accumulated Learning Time :1
CALLs: 179    TIMEOUTs: 0    ERRORs: 0
REEVALUATIONS: 342 OF 730

GENERATION 10/50
..........m.<;....m.<;....m.<;....m.<;....m.<;.....m.<;....m.<;....m.<;....m.<;......m.;.....m.<;......m.<;....m.<;....m.<;.....m.<;....m.<;....m.<;....m.<;......m.<;.....m.<;....m.<;...i.m.<;...i.m.<;
Fittest value: 2.75 for chromosome ( ( call ) /\ ( [] ( ! ( open ) ) ) )
Solutions (15): ( ( call ) /\ ( [] ( ! ( open ) ) ) ) | ( [] ( ( call ) /\ ( [] ( ! ( open ) ) ) ) ) | ( ( [] ( ! ( open ) ) ) /\ ( call ) ) | ( ( call ) U ( ( call ) /\ ( [] ( ! ( open ) ) ) ) ) | ( [] ( ( call ) /\ ( X ( ! ( open ) ) ) ) ) | ( X ( ( call ) /\ ( [] ( ! ( open ) ) ) ) ) | ( ( call ) /\ ( [] ( ( call ) /\ ( [] ( ! ( open ) ) ) ) ) ) | ( ( call ) /\ ( ( call ) /\ ( [] ( ! ( open ) ) ) ) ) | ( ( ( call ) /\ ( [] ( ! ( open ) ) ) ) \/ ( [] ( ( call ) /\ ( [] ( ! ( open ) ) ) ) ) ) | ( ( [] ( ( call ) /\ ( [] ( ! ( open ) ) ) ) ) W ( ( call ) /\ ( [] ( ! ( open ) ) ) ) ) | ( ( ( call ) /\ ( [] ( ! ( open ) ) ) ) /\ ( ( call ) /\ ( [] ( ! ( open ) ) ) ) ) | ( [] ( ( [] ( ! ( open ) ) ) /\ ( call ) ) ) | ( ( call ) /\ ( [] ( [] ( ! ( open ) ) ) ) ) | ( ( ( call ) /\ ( [] ( ! ( open ) ) ) ) /\ ( [] ( ! ( open ) ) ) ) | ( ( ( call ) /\ ( [] ( ! ( open ) ) ) ) U ( ( call ) /\ ( [] ( ! ( open ) ) ) ) ) | 
Generation Time :0
Accumulated Learning Time :2
CALLs: 131    TIMEOUTs: 0    ERRORs: 0
REEVALUATIONS: 390 OF 813

GENERATION 11/50
.....m.<;....m.<;......m.<;....m.<;....m.<;....m.<;....m.<;....m.<;....m.<;.....m.<;..
Fittest value: 2.75 for chromosome ( ( call ) /\ ( [] ( ! ( open ) ) ) )
Solutions (15): ( ( call ) /\ ( [] ( ! ( open ) ) ) ) | ( [] ( ( call ) /\ ( [] ( ! ( open ) ) ) ) ) | ( ( [] ( ! ( open ) ) ) /\ ( call ) ) | ( ( call ) U ( ( call ) /\ ( [] ( ! ( open ) ) ) ) ) | ( [] ( ( call ) /\ ( X ( ! ( open ) ) ) ) ) | ( X ( ( call ) /\ ( [] ( ! ( open ) ) ) ) ) | ( ( call ) /\ ( [] ( ( call ) /\ ( [] ( ! ( open ) ) ) ) ) ) | ( ( call ) /\ ( ( call ) /\ ( [] ( ! ( open ) ) ) ) ) | ( ( ( call ) /\ ( [] ( ! ( open ) ) ) ) \/ ( [] ( ( call ) /\ ( [] ( ! ( open ) ) ) ) ) ) | ( ( [] ( ( call ) /\ ( [] ( ! ( open ) ) ) ) ) W ( ( call ) /\ ( [] ( ! ( open ) ) ) ) ) | ( ( ( call ) /\ ( [] ( ! ( open ) ) ) ) /\ ( ( call ) /\ ( [] ( ! ( open ) ) ) ) ) | ( [] ( ( [] ( ! ( open ) ) ) /\ ( call ) ) ) | ( ( call ) /\ ( [] ( [] ( ! ( open ) ) ) ) ) | ( ( ( call ) /\ ( [] ( ! ( open ) ) ) ) /\ ( [] ( ! ( open ) ) ) ) | ( ( ( call ) /\ ( [] ( ! ( open ) ) ) ) U ( ( call ) /\ ( [] ( ! ( open ) ) ) ) ) | 
Generation Time :0
Accumulated Learning Time :2
CALLs: 56    TIMEOUTs: 0    ERRORs: 0
REEVALUATIONS: 453 OF 891

GENERATION 12/50
....m.<;....m.<;....m.<;.......m.<;....m.<;.....m.<;.....m.<;....m.<;
Fittest value: 2.75 for chromosome ( ( call ) /\ ( [] ( ! ( open ) ) ) )
Solutions (15): ( ( call ) /\ ( [] ( ! ( open ) ) ) ) | ( [] ( ( call ) /\ ( [] ( ! ( open ) ) ) ) ) | ( ( [] ( ! ( open ) ) ) /\ ( call ) ) | ( ( call ) U ( ( call ) /\ ( [] ( ! ( open ) ) ) ) ) | ( [] ( ( call ) /\ ( X ( ! ( open ) ) ) ) ) | ( X ( ( call ) /\ ( [] ( ! ( open ) ) ) ) ) | ( ( call ) /\ ( [] ( ( call ) /\ ( [] ( ! ( open ) ) ) ) ) ) | ( ( call ) /\ ( ( call ) /\ ( [] ( ! ( open ) ) ) ) ) | ( ( ( call ) /\ ( [] ( ! ( open ) ) ) ) \/ ( [] ( ( call ) /\ ( [] ( ! ( open ) ) ) ) ) ) | ( ( [] ( ( call ) /\ ( [] ( ! ( open ) ) ) ) ) W ( ( call ) /\ ( [] ( ! ( open ) ) ) ) ) | ( ( ( call ) /\ ( [] ( ! ( open ) ) ) ) /\ ( ( call ) /\ ( [] ( ! ( open ) ) ) ) ) | ( [] ( ( [] ( ! ( open ) ) ) /\ ( call ) ) ) | ( ( call ) /\ ( [] ( [] ( ! ( open ) ) ) ) ) | ( ( ( call ) /\ ( [] ( ! ( open ) ) ) ) /\ ( [] ( ! ( open ) ) ) ) | ( ( ( call ) /\ ( [] ( ! ( open ) ) ) ) U ( ( call ) /\ ( [] ( ! ( open ) ) ) ) ) | 
Generation Time :0
Accumulated Learning Time :2
CALLs: 45    TIMEOUTs: 0    ERRORs: 0
REEVALUATIONS: 527 OF 977

GENERATION 13/50
....m.<;....m.<;......m.<;.......m.<;....i.m.<;
Fittest value: 2.75 for chromosome ( ( call ) /\ ( [] ( ! ( open ) ) ) )
Solutions (15): ( ( call ) /\ ( [] ( ! ( open ) ) ) ) | ( [] ( ( call ) /\ ( [] ( ! ( open ) ) ) ) ) | ( ( [] ( ! ( open ) ) ) /\ ( call ) ) | ( ( call ) U ( ( call ) /\ ( [] ( ! ( open ) ) ) ) ) | ( [] ( ( call ) /\ ( X ( ! ( open ) ) ) ) ) | ( X ( ( call ) /\ ( [] ( ! ( open ) ) ) ) ) | ( ( call ) /\ ( [] ( ( call ) /\ ( [] ( ! ( open ) ) ) ) ) ) | ( ( call ) /\ ( ( call ) /\ ( [] ( ! ( open ) ) ) ) ) | ( ( ( call ) /\ ( [] ( ! ( open ) ) ) ) \/ ( [] ( ( call ) /\ ( [] ( ! ( open ) ) ) ) ) ) | ( ( [] ( ( call ) /\ ( [] ( ! ( open ) ) ) ) ) W ( ( call ) /\ ( [] ( ! ( open ) ) ) ) ) | ( ( ( call ) /\ ( [] ( ! ( open ) ) ) ) /\ ( ( call ) /\ ( [] ( ! ( open ) ) ) ) ) | ( [] ( ( [] ( ! ( open ) ) ) /\ ( call ) ) ) | ( ( call ) /\ ( [] ( [] ( ! ( open ) ) ) ) ) | ( ( ( call ) /\ ( [] ( ! ( open ) ) ) ) /\ ( [] ( ! ( open ) ) ) ) | ( ( ( call ) /\ ( [] ( ! ( open ) ) ) ) U ( ( call ) /\ ( [] ( ! ( open ) ) ) ) ) | 
Generation Time :0
Accumulated Learning Time :2
CALLs: 31    TIMEOUTs: 0    ERRORs: 0
REEVALUATIONS: 596 OF 1055

GENERATION 14/50
....m.<;....m.<;.......m.<;....m.;......m.<;....m.<;....m.<;....m.<;
Fittest value: 2.75 for chromosome ( ( call ) /\ ( [] ( ! ( open ) ) ) )
Solutions (15): ( ( call ) /\ ( [] ( ! ( open ) ) ) ) | ( [] ( ( call ) /\ ( [] ( ! ( open ) ) ) ) ) | ( ( [] ( ! ( open ) ) ) /\ ( call ) ) | ( ( call ) U ( ( call ) /\ ( [] ( ! ( open ) ) ) ) ) | ( [] ( ( call ) /\ ( X ( ! ( open ) ) ) ) ) | ( X ( ( call ) /\ ( [] ( ! ( open ) ) ) ) ) | ( ( call ) /\ ( [] ( ( call ) /\ ( [] ( ! ( open ) ) ) ) ) ) | ( ( call ) /\ ( ( call ) /\ ( [] ( ! ( open ) ) ) ) ) | ( ( ( call ) /\ ( [] ( ! ( open ) ) ) ) \/ ( [] ( ( call ) /\ ( [] ( ! ( open ) ) ) ) ) ) | ( ( [] ( ( call ) /\ ( [] ( ! ( open ) ) ) ) ) W ( ( call ) /\ ( [] ( ! ( open ) ) ) ) ) | ( ( ( call ) /\ ( [] ( ! ( open ) ) ) ) /\ ( ( call ) /\ ( [] ( ! ( open ) ) ) ) ) | ( [] ( ( [] ( ! ( open ) ) ) /\ ( call ) ) ) | ( ( call ) /\ ( [] ( [] ( ! ( open ) ) ) ) ) | ( ( ( call ) /\ ( [] ( ! ( open ) ) ) ) /\ ( [] ( ! ( open ) ) ) ) | ( ( ( call ) /\ ( [] ( ! ( open ) ) ) ) U ( ( call ) /\ ( [] ( ! ( open ) ) ) ) ) | 
Generation Time :0
Accumulated Learning Time :2
CALLs: 45    TIMEOUTs: 0    ERRORs: 0
REEVALUATIONS: 667 OF 1138

GENERATION 15/50
....m.<;....m.<;....m.<;....m.<;....m.<;....m.<;....m.<;
Fittest value: 2.75 for chromosome ( ( call ) /\ ( [] ( ! ( open ) ) ) )
Solutions (15): ( ( call ) /\ ( [] ( ! ( open ) ) ) ) | ( [] ( ( call ) /\ ( [] ( ! ( open ) ) ) ) ) | ( ( [] ( ! ( open ) ) ) /\ ( call ) ) | ( ( call ) U ( ( call ) /\ ( [] ( ! ( open ) ) ) ) ) | ( [] ( ( call ) /\ ( X ( ! ( open ) ) ) ) ) | ( X ( ( call ) /\ ( [] ( ! ( open ) ) ) ) ) | ( ( call ) /\ ( [] ( ( call ) /\ ( [] ( ! ( open ) ) ) ) ) ) | ( ( call ) /\ ( ( call ) /\ ( [] ( ! ( open ) ) ) ) ) | ( ( ( call ) /\ ( [] ( ! ( open ) ) ) ) \/ ( [] ( ( call ) /\ ( [] ( ! ( open ) ) ) ) ) ) | ( ( [] ( ( call ) /\ ( [] ( ! ( open ) ) ) ) ) W ( ( call ) /\ ( [] ( ! ( open ) ) ) ) ) | ( ( ( call ) /\ ( [] ( ! ( open ) ) ) ) /\ ( ( call ) /\ ( [] ( ! ( open ) ) ) ) ) | ( [] ( ( [] ( ! ( open ) ) ) /\ ( call ) ) ) | ( ( call ) /\ ( [] ( [] ( ! ( open ) ) ) ) ) | ( ( ( call ) /\ ( [] ( ! ( open ) ) ) ) /\ ( [] ( ! ( open ) ) ) ) | ( ( ( call ) /\ ( [] ( ! ( open ) ) ) ) U ( ( call ) /\ ( [] ( ! ( open ) ) ) ) ) | 
Generation Time :0
Accumulated Learning Time :2
CALLs: 35    TIMEOUTs: 0    ERRORs: 0
REEVALUATIONS: 741 OF 1219

GENERATION 16/50
......m.<;....m.<;......m.<;.....m.<;....m.;......m.<;....m.<;....m.<;
Fittest value: 2.75 for chromosome ( ( call ) /\ ( [] ( ! ( open ) ) ) )
Solutions (15): ( ( call ) /\ ( [] ( ! ( open ) ) ) ) | ( [] ( ( call ) /\ ( [] ( ! ( open ) ) ) ) ) | ( ( [] ( ! ( open ) ) ) /\ ( call ) ) | ( ( call ) U ( ( call ) /\ ( [] ( ! ( open ) ) ) ) ) | ( [] ( ( call ) /\ ( X ( ! ( open ) ) ) ) ) | ( X ( ( call ) /\ ( [] ( ! ( open ) ) ) ) ) | ( ( call ) /\ ( [] ( ( call ) /\ ( [] ( ! ( open ) ) ) ) ) ) | ( ( call ) /\ ( ( call ) /\ ( [] ( ! ( open ) ) ) ) ) | ( ( ( call ) /\ ( [] ( ! ( open ) ) ) ) \/ ( [] ( ( call ) /\ ( [] ( ! ( open ) ) ) ) ) ) | ( ( [] ( ( call ) /\ ( [] ( ! ( open ) ) ) ) ) W ( ( call ) /\ ( [] ( ! ( open ) ) ) ) ) | ( ( ( call ) /\ ( [] ( ! ( open ) ) ) ) /\ ( ( call ) /\ ( [] ( ! ( open ) ) ) ) ) | ( [] ( ( [] ( ! ( open ) ) ) /\ ( call ) ) ) | ( ( call ) /\ ( [] ( [] ( ! ( open ) ) ) ) ) | ( ( ( call ) /\ ( [] ( ! ( open ) ) ) ) /\ ( [] ( ! ( open ) ) ) ) | ( ( ( call ) /\ ( [] ( ! ( open ) ) ) ) U ( ( call ) /\ ( [] ( ! ( open ) ) ) ) ) | 
Generation Time :0
Accumulated Learning Time :2
CALLs: 47    TIMEOUTs: 0    ERRORs: 0
REEVALUATIONS: 820 OF 1311

GENERATION 17/50
.....m.<;....m.<;....m.<;....m.<;
Fittest value: 2.75 for chromosome ( ( call ) /\ ( [] ( ! ( open ) ) ) )
Solutions (15): ( ( call ) /\ ( [] ( ! ( open ) ) ) ) | ( [] ( ( call ) /\ ( [] ( ! ( open ) ) ) ) ) | ( ( [] ( ! ( open ) ) ) /\ ( call ) ) | ( ( call ) U ( ( call ) /\ ( [] ( ! ( open ) ) ) ) ) | ( [] ( ( call ) /\ ( X ( ! ( open ) ) ) ) ) | ( X ( ( call ) /\ ( [] ( ! ( open ) ) ) ) ) | ( ( call ) /\ ( [] ( ( call ) /\ ( [] ( ! ( open ) ) ) ) ) ) | ( ( call ) /\ ( ( call ) /\ ( [] ( ! ( open ) ) ) ) ) | ( ( ( call ) /\ ( [] ( ! ( open ) ) ) ) \/ ( [] ( ( call ) /\ ( [] ( ! ( open ) ) ) ) ) ) | ( ( [] ( ( call ) /\ ( [] ( ! ( open ) ) ) ) ) W ( ( call ) /\ ( [] ( ! ( open ) ) ) ) ) | ( ( ( call ) /\ ( [] ( ! ( open ) ) ) ) /\ ( ( call ) /\ ( [] ( ! ( open ) ) ) ) ) | ( [] ( ( [] ( ! ( open ) ) ) /\ ( call ) ) ) | ( ( call ) /\ ( [] ( [] ( ! ( open ) ) ) ) ) | ( ( ( call ) /\ ( [] ( ! ( open ) ) ) ) /\ ( [] ( ! ( open ) ) ) ) | ( ( ( call ) /\ ( [] ( ! ( open ) ) ) ) U ( ( call ) /\ ( [] ( ! ( open ) ) ) ) ) | 
Generation Time :0
Accumulated Learning Time :2
CALLs: 21    TIMEOUTs: 0    ERRORs: 0
REEVALUATIONS: 899 OF 1395

GENERATION 18/50
....m.<;....m.<;....m.<;....m.<;....m.<;....m.<;
Fittest value: 2.75 for chromosome ( ( call ) /\ ( [] ( ! ( open ) ) ) )
Solutions (15): ( ( call ) /\ ( [] ( ! ( open ) ) ) ) | ( [] ( ( call ) /\ ( [] ( ! ( open ) ) ) ) ) | ( ( [] ( ! ( open ) ) ) /\ ( call ) ) | ( ( call ) U ( ( call ) /\ ( [] ( ! ( open ) ) ) ) ) | ( [] ( ( call ) /\ ( X ( ! ( open ) ) ) ) ) | ( X ( ( call ) /\ ( [] ( ! ( open ) ) ) ) ) | ( ( call ) /\ ( [] ( ( call ) /\ ( [] ( ! ( open ) ) ) ) ) ) | ( ( call ) /\ ( ( call ) /\ ( [] ( ! ( open ) ) ) ) ) | ( ( ( call ) /\ ( [] ( ! ( open ) ) ) ) \/ ( [] ( ( call ) /\ ( [] ( ! ( open ) ) ) ) ) ) | ( ( [] ( ( call ) /\ ( [] ( ! ( open ) ) ) ) ) W ( ( call ) /\ ( [] ( ! ( open ) ) ) ) ) | ( ( ( call ) /\ ( [] ( ! ( open ) ) ) ) /\ ( ( call ) /\ ( [] ( ! ( open ) ) ) ) ) | ( [] ( ( [] ( ! ( open ) ) ) /\ ( call ) ) ) | ( ( call ) /\ ( [] ( [] ( ! ( open ) ) ) ) ) | ( ( ( call ) /\ ( [] ( ! ( open ) ) ) ) /\ ( [] ( ! ( open ) ) ) ) | ( ( ( call ) /\ ( [] ( ! ( open ) ) ) ) U ( ( call ) /\ ( [] ( ! ( open ) ) ) ) ) | 
Generation Time :0
Accumulated Learning Time :2
CALLs: 30    TIMEOUTs: 0    ERRORs: 0
REEVALUATIONS: 973 OF 1475

GENERATION 19/50
.....m.<;.....m.<;....m.<;....m.;
Fittest value: 2.75 for chromosome ( ( call ) /\ ( [] ( ! ( open ) ) ) )
Solutions (15): ( ( call ) /\ ( [] ( ! ( open ) ) ) ) | ( [] ( ( call ) /\ ( [] ( ! ( open ) ) ) ) ) | ( ( [] ( ! ( open ) ) ) /\ ( call ) ) | ( ( call ) U ( ( call ) /\ ( [] ( ! ( open ) ) ) ) ) | ( [] ( ( call ) /\ ( X ( ! ( open ) ) ) ) ) | ( X ( ( call ) /\ ( [] ( ! ( open ) ) ) ) ) | ( ( call ) /\ ( [] ( ( call ) /\ ( [] ( ! ( open ) ) ) ) ) ) | ( ( call ) /\ ( ( call ) /\ ( [] ( ! ( open ) ) ) ) ) | ( ( ( call ) /\ ( [] ( ! ( open ) ) ) ) \/ ( [] ( ( call ) /\ ( [] ( ! ( open ) ) ) ) ) ) | ( ( [] ( ( call ) /\ ( [] ( ! ( open ) ) ) ) ) W ( ( call ) /\ ( [] ( ! ( open ) ) ) ) ) | ( ( ( call ) /\ ( [] ( ! ( open ) ) ) ) /\ ( ( call ) /\ ( [] ( ! ( open ) ) ) ) ) | ( [] ( ( [] ( ! ( open ) ) ) /\ ( call ) ) ) | ( ( call ) /\ ( [] ( [] ( ! ( open ) ) ) ) ) | ( ( ( call ) /\ ( [] ( ! ( open ) ) ) ) /\ ( [] ( ! ( open ) ) ) ) | ( ( ( call ) /\ ( [] ( ! ( open ) ) ) ) U ( ( call ) /\ ( [] ( ! ( open ) ) ) ) ) | 
Generation Time :0
Accumulated Learning Time :2
CALLs: 22    TIMEOUTs: 0    ERRORs: 0
REEVALUATIONS: 1046 OF 1554

GENERATION 20/50
....m.<;....m.;....m.<;.
Fittest value: 2.75 for chromosome ( ( call ) /\ ( [] ( ! ( open ) ) ) )
Solutions (15): ( ( call ) /\ ( [] ( ! ( open ) ) ) ) | ( [] ( ( call ) /\ ( [] ( ! ( open ) ) ) ) ) | ( ( [] ( ! ( open ) ) ) /\ ( call ) ) | ( ( call ) U ( ( call ) /\ ( [] ( ! ( open ) ) ) ) ) | ( [] ( ( call ) /\ ( X ( ! ( open ) ) ) ) ) | ( X ( ( call ) /\ ( [] ( ! ( open ) ) ) ) ) | ( ( call ) /\ ( [] ( ( call ) /\ ( [] ( ! ( open ) ) ) ) ) ) | ( ( call ) /\ ( ( call ) /\ ( [] ( ! ( open ) ) ) ) ) | ( ( ( call ) /\ ( [] ( ! ( open ) ) ) ) \/ ( [] ( ( call ) /\ ( [] ( ! ( open ) ) ) ) ) ) | ( ( [] ( ( call ) /\ ( [] ( ! ( open ) ) ) ) ) W ( ( call ) /\ ( [] ( ! ( open ) ) ) ) ) | ( ( ( call ) /\ ( [] ( ! ( open ) ) ) ) /\ ( ( call ) /\ ( [] ( ! ( open ) ) ) ) ) | ( [] ( ( [] ( ! ( open ) ) ) /\ ( call ) ) ) | ( ( call ) /\ ( [] ( [] ( ! ( open ) ) ) ) ) | ( ( ( call ) /\ ( [] ( ! ( open ) ) ) ) /\ ( [] ( ! ( open ) ) ) ) | ( ( ( call ) /\ ( [] ( ! ( open ) ) ) ) U ( ( call ) /\ ( [] ( ! ( open ) ) ) ) ) | 
Generation Time :0
Accumulated Learning Time :2
CALLs: 16    TIMEOUTs: 0    ERRORs: 0
REEVALUATIONS: 1120 OF 1632

GENERATION 21/50
......m.<;.....m.<;....m.<;......m.<;....m.<;
Fittest value: 2.75 for chromosome ( ( call ) /\ ( [] ( ! ( open ) ) ) )
Solutions (15): ( ( call ) /\ ( [] ( ! ( open ) ) ) ) | ( [] ( ( call ) /\ ( [] ( ! ( open ) ) ) ) ) | ( ( [] ( ! ( open ) ) ) /\ ( call ) ) | ( ( call ) U ( ( call ) /\ ( [] ( ! ( open ) ) ) ) ) | ( [] ( ( call ) /\ ( X ( ! ( open ) ) ) ) ) | ( X ( ( call ) /\ ( [] ( ! ( open ) ) ) ) ) | ( ( call ) /\ ( [] ( ( call ) /\ ( [] ( ! ( open ) ) ) ) ) ) | ( ( call ) /\ ( ( call ) /\ ( [] ( ! ( open ) ) ) ) ) | ( ( ( call ) /\ ( [] ( ! ( open ) ) ) ) \/ ( [] ( ( call ) /\ ( [] ( ! ( open ) ) ) ) ) ) | ( ( [] ( ( call ) /\ ( [] ( ! ( open ) ) ) ) ) W ( ( call ) /\ ( [] ( ! ( open ) ) ) ) ) | ( ( ( call ) /\ ( [] ( ! ( open ) ) ) ) /\ ( ( call ) /\ ( [] ( ! ( open ) ) ) ) ) | ( [] ( ( [] ( ! ( open ) ) ) /\ ( call ) ) ) | ( ( call ) /\ ( [] ( [] ( ! ( open ) ) ) ) ) | ( ( ( call ) /\ ( [] ( ! ( open ) ) ) ) /\ ( [] ( ! ( open ) ) ) ) | ( ( ( call ) /\ ( [] ( ! ( open ) ) ) ) U ( ( call ) /\ ( [] ( ! ( open ) ) ) ) ) | 
Generation Time :0
Accumulated Learning Time :2
CALLs: 30    TIMEOUTs: 0    ERRORs: 0
REEVALUATIONS: 1183 OF 1703

GENERATION 22/50
....m.<;....m.<;....m.<;....m.;....m.<;
Fittest value: 2.75 for chromosome ( ( call ) /\ ( [] ( ! ( open ) ) ) )
Solutions (15): ( ( call ) /\ ( [] ( ! ( open ) ) ) ) | ( [] ( ( call ) /\ ( [] ( ! ( open ) ) ) ) ) | ( ( [] ( ! ( open ) ) ) /\ ( call ) ) | ( ( call ) U ( ( call ) /\ ( [] ( ! ( open ) ) ) ) ) | ( [] ( ( call ) /\ ( X ( ! ( open ) ) ) ) ) | ( X ( ( call ) /\ ( [] ( ! ( open ) ) ) ) ) | ( ( call ) /\ ( [] ( ( call ) /\ ( [] ( ! ( open ) ) ) ) ) ) | ( ( call ) /\ ( ( call ) /\ ( [] ( ! ( open ) ) ) ) ) | ( ( ( call ) /\ ( [] ( ! ( open ) ) ) ) \/ ( [] ( ( call ) /\ ( [] ( ! ( open ) ) ) ) ) ) | ( ( [] ( ( call ) /\ ( [] ( ! ( open ) ) ) ) ) W ( ( call ) /\ ( [] ( ! ( open ) ) ) ) ) | ( ( ( call ) /\ ( [] ( ! ( open ) ) ) ) /\ ( ( call ) /\ ( [] ( ! ( open ) ) ) ) ) | ( [] ( ( [] ( ! ( open ) ) ) /\ ( call ) ) ) | ( ( call ) /\ ( [] ( [] ( ! ( open ) ) ) ) ) | ( ( ( call ) /\ ( [] ( ! ( open ) ) ) ) /\ ( [] ( ! ( open ) ) ) ) | ( ( ( call ) /\ ( [] ( ! ( open ) ) ) ) U ( ( call ) /\ ( [] ( ! ( open ) ) ) ) ) | 
Generation Time :0
Accumulated Learning Time :2
CALLs: 25    TIMEOUTs: 0    ERRORs: 0
REEVALUATIONS: 1249 OF 1774

GENERATION 23/50
........m.<;....m.<;....m.<;....m.<;....m.<;....m.<;
Fittest value: 2.75 for chromosome ( ( call ) /\ ( [] ( ! ( open ) ) ) )
Solutions (15): ( ( call ) /\ ( [] ( ! ( open ) ) ) ) | ( [] ( ( call ) /\ ( [] ( ! ( open ) ) ) ) ) | ( ( [] ( ! ( open ) ) ) /\ ( call ) ) | ( ( call ) U ( ( call ) /\ ( [] ( ! ( open ) ) ) ) ) | ( [] ( ( call ) /\ ( X ( ! ( open ) ) ) ) ) | ( X ( ( call ) /\ ( [] ( ! ( open ) ) ) ) ) | ( ( call ) /\ ( [] ( ( call ) /\ ( [] ( ! ( open ) ) ) ) ) ) | ( ( call ) /\ ( ( call ) /\ ( [] ( ! ( open ) ) ) ) ) | ( ( ( call ) /\ ( [] ( ! ( open ) ) ) ) \/ ( [] ( ( call ) /\ ( [] ( ! ( open ) ) ) ) ) ) | ( ( [] ( ( call ) /\ ( [] ( ! ( open ) ) ) ) ) W ( ( call ) /\ ( [] ( ! ( open ) ) ) ) ) | ( ( ( call ) /\ ( [] ( ! ( open ) ) ) ) /\ ( ( call ) /\ ( [] ( ! ( open ) ) ) ) ) | ( [] ( ( [] ( ! ( open ) ) ) /\ ( call ) ) ) | ( ( call ) /\ ( [] ( [] ( ! ( open ) ) ) ) ) | ( ( ( call ) /\ ( [] ( ! ( open ) ) ) ) /\ ( [] ( ! ( open ) ) ) ) | ( ( ( call ) /\ ( [] ( ! ( open ) ) ) ) U ( ( call ) /\ ( [] ( ! ( open ) ) ) ) ) | 
Generation Time :0
Accumulated Learning Time :2
CALLs: 34    TIMEOUTs: 0    ERRORs: 0
REEVALUATIONS: 1318 OF 1851

GENERATION 24/50
....m.<;....m.<;
Fittest value: 2.75 for chromosome ( ( call ) /\ ( [] ( ! ( open ) ) ) )
Solutions (15): ( ( call ) /\ ( [] ( ! ( open ) ) ) ) | ( [] ( ( call ) /\ ( [] ( ! ( open ) ) ) ) ) | ( ( [] ( ! ( open ) ) ) /\ ( call ) ) | ( ( call ) U ( ( call ) /\ ( [] ( ! ( open ) ) ) ) ) | ( [] ( ( call ) /\ ( X ( ! ( open ) ) ) ) ) | ( X ( ( call ) /\ ( [] ( ! ( open ) ) ) ) ) | ( ( call ) /\ ( [] ( ( call ) /\ ( [] ( ! ( open ) ) ) ) ) ) | ( ( call ) /\ ( ( call ) /\ ( [] ( ! ( open ) ) ) ) ) | ( ( ( call ) /\ ( [] ( ! ( open ) ) ) ) \/ ( [] ( ( call ) /\ ( [] ( ! ( open ) ) ) ) ) ) | ( ( [] ( ( call ) /\ ( [] ( ! ( open ) ) ) ) ) W ( ( call ) /\ ( [] ( ! ( open ) ) ) ) ) | ( ( ( call ) /\ ( [] ( ! ( open ) ) ) ) /\ ( ( call ) /\ ( [] ( ! ( open ) ) ) ) ) | ( [] ( ( [] ( ! ( open ) ) ) /\ ( call ) ) ) | ( ( call ) /\ ( [] ( [] ( ! ( open ) ) ) ) ) | ( ( ( call ) /\ ( [] ( ! ( open ) ) ) ) /\ ( [] ( ! ( open ) ) ) ) | ( ( ( call ) /\ ( [] ( ! ( open ) ) ) ) U ( ( call ) /\ ( [] ( ! ( open ) ) ) ) ) | 
Generation Time :0
Accumulated Learning Time :2
CALLs: 10    TIMEOUTs: 0    ERRORs: 0
REEVALUATIONS: 1402 OF 1937

GENERATION 25/50
....m.<;....m.<;....m.<;....m.<;......m.<;
Fittest value: 2.75 for chromosome ( ( call ) /\ ( [] ( ! ( open ) ) ) )
Solutions (15): ( ( call ) /\ ( [] ( ! ( open ) ) ) ) | ( [] ( ( call ) /\ ( [] ( ! ( open ) ) ) ) ) | ( ( [] ( ! ( open ) ) ) /\ ( call ) ) | ( ( call ) U ( ( call ) /\ ( [] ( ! ( open ) ) ) ) ) | ( [] ( ( call ) /\ ( X ( ! ( open ) ) ) ) ) | ( X ( ( call ) /\ ( [] ( ! ( open ) ) ) ) ) | ( ( call ) /\ ( [] ( ( call ) /\ ( [] ( ! ( open ) ) ) ) ) ) | ( ( call ) /\ ( ( call ) /\ ( [] ( ! ( open ) ) ) ) ) | ( ( ( call ) /\ ( [] ( ! ( open ) ) ) ) \/ ( [] ( ( call ) /\ ( [] ( ! ( open ) ) ) ) ) ) | ( ( [] ( ( call ) /\ ( [] ( ! ( open ) ) ) ) ) W ( ( call ) /\ ( [] ( ! ( open ) ) ) ) ) | ( ( ( call ) /\ ( [] ( ! ( open ) ) ) ) /\ ( ( call ) /\ ( [] ( ! ( open ) ) ) ) ) | ( [] ( ( [] ( ! ( open ) ) ) /\ ( call ) ) ) | ( ( call ) /\ ( [] ( [] ( ! ( open ) ) ) ) ) | ( ( ( call ) /\ ( [] ( ! ( open ) ) ) ) /\ ( [] ( ! ( open ) ) ) ) | ( ( ( call ) /\ ( [] ( ! ( open ) ) ) ) U ( ( call ) /\ ( [] ( ! ( open ) ) ) ) ) | 
Generation Time :0
Accumulated Learning Time :2
CALLs: 27    TIMEOUTs: 0    ERRORs: 0
REEVALUATIONS: 1470 OF 2011

GENERATION 26/50
....m.<;....m.<;....m.<;....m.<;....m.<;..
Fittest value: 2.75 for chromosome ( ( call ) /\ ( [] ( ! ( open ) ) ) )
Solutions (15): ( ( call ) /\ ( [] ( ! ( open ) ) ) ) | ( [] ( ( call ) /\ ( [] ( ! ( open ) ) ) ) ) | ( ( [] ( ! ( open ) ) ) /\ ( call ) ) | ( ( call ) U ( ( call ) /\ ( [] ( ! ( open ) ) ) ) ) | ( [] ( ( call ) /\ ( X ( ! ( open ) ) ) ) ) | ( X ( ( call ) /\ ( [] ( ! ( open ) ) ) ) ) | ( ( call ) /\ ( [] ( ( call ) /\ ( [] ( ! ( open ) ) ) ) ) ) | ( ( call ) /\ ( ( call ) /\ ( [] ( ! ( open ) ) ) ) ) | ( ( ( call ) /\ ( [] ( ! ( open ) ) ) ) \/ ( [] ( ( call ) /\ ( [] ( ! ( open ) ) ) ) ) ) | ( ( [] ( ( call ) /\ ( [] ( ! ( open ) ) ) ) ) W ( ( call ) /\ ( [] ( ! ( open ) ) ) ) ) | ( ( ( call ) /\ ( [] ( ! ( open ) ) ) ) /\ ( ( call ) /\ ( [] ( ! ( open ) ) ) ) ) | ( [] ( ( [] ( ! ( open ) ) ) /\ ( call ) ) ) | ( ( call ) /\ ( [] ( [] ( ! ( open ) ) ) ) ) | ( ( ( call ) /\ ( [] ( ! ( open ) ) ) ) /\ ( [] ( ! ( open ) ) ) ) | ( ( ( call ) /\ ( [] ( ! ( open ) ) ) ) U ( ( call ) /\ ( [] ( ! ( open ) ) ) ) ) | 
Generation Time :0
Accumulated Learning Time :2
CALLs: 27    TIMEOUTs: 0    ERRORs: 0
REEVALUATIONS: 1550 OF 2097

GENERATION 27/50
......m.;....m.<;....m.<;....m.;..
Fittest value: 2.75 for chromosome ( ( call ) /\ ( [] ( ! ( open ) ) ) )
Solutions (15): ( ( call ) /\ ( [] ( ! ( open ) ) ) ) | ( [] ( ( call ) /\ ( [] ( ! ( open ) ) ) ) ) | ( ( [] ( ! ( open ) ) ) /\ ( call ) ) | ( ( call ) U ( ( call ) /\ ( [] ( ! ( open ) ) ) ) ) | ( [] ( ( call ) /\ ( X ( ! ( open ) ) ) ) ) | ( X ( ( call ) /\ ( [] ( ! ( open ) ) ) ) ) | ( ( call ) /\ ( [] ( ( call ) /\ ( [] ( ! ( open ) ) ) ) ) ) | ( ( call ) /\ ( ( call ) /\ ( [] ( ! ( open ) ) ) ) ) | ( ( ( call ) /\ ( [] ( ! ( open ) ) ) ) \/ ( [] ( ( call ) /\ ( [] ( ! ( open ) ) ) ) ) ) | ( ( [] ( ( call ) /\ ( [] ( ! ( open ) ) ) ) ) W ( ( call ) /\ ( [] ( ! ( open ) ) ) ) ) | ( ( ( call ) /\ ( [] ( ! ( open ) ) ) ) /\ ( ( call ) /\ ( [] ( ! ( open ) ) ) ) ) | ( [] ( ( [] ( ! ( open ) ) ) /\ ( call ) ) ) | ( ( call ) /\ ( [] ( [] ( ! ( open ) ) ) ) ) | ( ( ( call ) /\ ( [] ( ! ( open ) ) ) ) /\ ( [] ( ! ( open ) ) ) ) | ( ( ( call ) /\ ( [] ( ! ( open ) ) ) ) U ( ( call ) /\ ( [] ( ! ( open ) ) ) ) ) | 
Generation Time :0
Accumulated Learning Time :3
CALLs: 24    TIMEOUTs: 0    ERRORs: 0
REEVALUATIONS: 1616 OF 2169

GENERATION 28/50
.....m.;....m.<;
Fittest value: 2.75 for chromosome ( ( call ) /\ ( [] ( ! ( open ) ) ) )
Solutions (15): ( ( call ) /\ ( [] ( ! ( open ) ) ) ) | ( [] ( ( call ) /\ ( [] ( ! ( open ) ) ) ) ) | ( ( [] ( ! ( open ) ) ) /\ ( call ) ) | ( ( call ) U ( ( call ) /\ ( [] ( ! ( open ) ) ) ) ) | ( [] ( ( call ) /\ ( X ( ! ( open ) ) ) ) ) | ( X ( ( call ) /\ ( [] ( ! ( open ) ) ) ) ) | ( ( call ) /\ ( [] ( ( call ) /\ ( [] ( ! ( open ) ) ) ) ) ) | ( ( call ) /\ ( ( call ) /\ ( [] ( ! ( open ) ) ) ) ) | ( ( ( call ) /\ ( [] ( ! ( open ) ) ) ) \/ ( [] ( ( call ) /\ ( [] ( ! ( open ) ) ) ) ) ) | ( ( [] ( ( call ) /\ ( [] ( ! ( open ) ) ) ) ) W ( ( call ) /\ ( [] ( ! ( open ) ) ) ) ) | ( ( ( call ) /\ ( [] ( ! ( open ) ) ) ) /\ ( ( call ) /\ ( [] ( ! ( open ) ) ) ) ) | ( [] ( ( [] ( ! ( open ) ) ) /\ ( call ) ) ) | ( ( call ) /\ ( [] ( [] ( ! ( open ) ) ) ) ) | ( ( ( call ) /\ ( [] ( ! ( open ) ) ) ) /\ ( [] ( ! ( open ) ) ) ) | ( ( ( call ) /\ ( [] ( ! ( open ) ) ) ) U ( ( call ) /\ ( [] ( ! ( open ) ) ) ) ) | 
Generation Time :0
Accumulated Learning Time :3
CALLs: 11    TIMEOUTs: 0    ERRORs: 0
REEVALUATIONS: 1691 OF 2247

GENERATION 29/50
....m.<;.
Fittest value: 2.75 for chromosome ( ( call ) /\ ( [] ( ! ( open ) ) ) )
Solutions (15): ( ( call ) /\ ( [] ( ! ( open ) ) ) ) | ( [] ( ( call ) /\ ( [] ( ! ( open ) ) ) ) ) | ( ( [] ( ! ( open ) ) ) /\ ( call ) ) | ( ( call ) U ( ( call ) /\ ( [] ( ! ( open ) ) ) ) ) | ( [] ( ( call ) /\ ( X ( ! ( open ) ) ) ) ) | ( X ( ( call ) /\ ( [] ( ! ( open ) ) ) ) ) | ( ( call ) /\ ( [] ( ( call ) /\ ( [] ( ! ( open ) ) ) ) ) ) | ( ( call ) /\ ( ( call ) /\ ( [] ( ! ( open ) ) ) ) ) | ( ( ( call ) /\ ( [] ( ! ( open ) ) ) ) \/ ( [] ( ( call ) /\ ( [] ( ! ( open ) ) ) ) ) ) | ( ( [] ( ( call ) /\ ( [] ( ! ( open ) ) ) ) ) W ( ( call ) /\ ( [] ( ! ( open ) ) ) ) ) | ( ( ( call ) /\ ( [] ( ! ( open ) ) ) ) /\ ( ( call ) /\ ( [] ( ! ( open ) ) ) ) ) | ( [] ( ( [] ( ! ( open ) ) ) /\ ( call ) ) ) | ( ( call ) /\ ( [] ( [] ( ! ( open ) ) ) ) ) | ( ( ( call ) /\ ( [] ( ! ( open ) ) ) ) /\ ( [] ( ! ( open ) ) ) ) | ( ( ( call ) /\ ( [] ( ! ( open ) ) ) ) U ( ( call ) /\ ( [] ( ! ( open ) ) ) ) ) | 
Generation Time :0
Accumulated Learning Time :3
CALLs: 6    TIMEOUTs: 0    ERRORs: 0
REEVALUATIONS: 1766 OF 2324

GENERATION 30/50
......m.<;......m.<;....m.<;..
Fittest value: 2.75 for chromosome ( ( call ) /\ ( [] ( ! ( open ) ) ) )
Solutions (15): ( ( call ) /\ ( [] ( ! ( open ) ) ) ) | ( [] ( ( call ) /\ ( [] ( ! ( open ) ) ) ) ) | ( ( [] ( ! ( open ) ) ) /\ ( call ) ) | ( ( call ) U ( ( call ) /\ ( [] ( ! ( open ) ) ) ) ) | ( [] ( ( call ) /\ ( X ( ! ( open ) ) ) ) ) | ( X ( ( call ) /\ ( [] ( ! ( open ) ) ) ) ) | ( ( call ) /\ ( [] ( ( call ) /\ ( [] ( ! ( open ) ) ) ) ) ) | ( ( call ) /\ ( ( call ) /\ ( [] ( ! ( open ) ) ) ) ) | ( ( ( call ) /\ ( [] ( ! ( open ) ) ) ) \/ ( [] ( ( call ) /\ ( [] ( ! ( open ) ) ) ) ) ) | ( ( [] ( ( call ) /\ ( [] ( ! ( open ) ) ) ) ) W ( ( call ) /\ ( [] ( ! ( open ) ) ) ) ) | ( ( ( call ) /\ ( [] ( ! ( open ) ) ) ) /\ ( ( call ) /\ ( [] ( ! ( open ) ) ) ) ) | ( [] ( ( [] ( ! ( open ) ) ) /\ ( call ) ) ) | ( ( call ) /\ ( [] ( [] ( ! ( open ) ) ) ) ) | ( ( ( call ) /\ ( [] ( ! ( open ) ) ) ) /\ ( [] ( ! ( open ) ) ) ) | ( ( ( call ) /\ ( [] ( ! ( open ) ) ) ) U ( ( call ) /\ ( [] ( ! ( open ) ) ) ) ) | 
Generation Time :0
Accumulated Learning Time :3
CALLs: 21    TIMEOUTs: 0    ERRORs: 0
REEVALUATIONS: 1842 OF 2406

GENERATION 31/50

Fittest value: 2.75 for chromosome ( ( call ) /\ ( [] ( ! ( open ) ) ) )
Solutions (15): ( ( call ) /\ ( [] ( ! ( open ) ) ) ) | ( [] ( ( call ) /\ ( [] ( ! ( open ) ) ) ) ) | ( ( [] ( ! ( open ) ) ) /\ ( call ) ) | ( ( call ) U ( ( call ) /\ ( [] ( ! ( open ) ) ) ) ) | ( [] ( ( call ) /\ ( X ( ! ( open ) ) ) ) ) | ( X ( ( call ) /\ ( [] ( ! ( open ) ) ) ) ) | ( ( call ) /\ ( [] ( ( call ) /\ ( [] ( ! ( open ) ) ) ) ) ) | ( ( call ) /\ ( ( call ) /\ ( [] ( ! ( open ) ) ) ) ) | ( ( ( call ) /\ ( [] ( ! ( open ) ) ) ) \/ ( [] ( ( call ) /\ ( [] ( ! ( open ) ) ) ) ) ) | ( ( [] ( ( call ) /\ ( [] ( ! ( open ) ) ) ) ) W ( ( call ) /\ ( [] ( ! ( open ) ) ) ) ) | ( ( ( call ) /\ ( [] ( ! ( open ) ) ) ) /\ ( ( call ) /\ ( [] ( ! ( open ) ) ) ) ) | ( [] ( ( [] ( ! ( open ) ) ) /\ ( call ) ) ) | ( ( call ) /\ ( [] ( [] ( ! ( open ) ) ) ) ) | ( ( ( call ) /\ ( [] ( ! ( open ) ) ) ) /\ ( [] ( ! ( open ) ) ) ) | ( ( ( call ) /\ ( [] ( ! ( open ) ) ) ) U ( ( call ) /\ ( [] ( ! ( open ) ) ) ) ) | 
Generation Time :0
Accumulated Learning Time :3
CALLs: 0    TIMEOUTs: 0    ERRORs: 0
REEVALUATIONS: 1925 OF 2489

GENERATION 32/50
.....m.<;....m.<;....m.;
Fittest value: 2.75 for chromosome ( ( call ) /\ ( [] ( ! ( open ) ) ) )
Solutions (15): ( ( call ) /\ ( [] ( ! ( open ) ) ) ) | ( [] ( ( call ) /\ ( [] ( ! ( open ) ) ) ) ) | ( ( [] ( ! ( open ) ) ) /\ ( call ) ) | ( ( call ) U ( ( call ) /\ ( [] ( ! ( open ) ) ) ) ) | ( [] ( ( call ) /\ ( X ( ! ( open ) ) ) ) ) | ( X ( ( call ) /\ ( [] ( ! ( open ) ) ) ) ) | ( ( call ) /\ ( [] ( ( call ) /\ ( [] ( ! ( open ) ) ) ) ) ) | ( ( call ) /\ ( ( call ) /\ ( [] ( ! ( open ) ) ) ) ) | ( ( ( call ) /\ ( [] ( ! ( open ) ) ) ) \/ ( [] ( ( call ) /\ ( [] ( ! ( open ) ) ) ) ) ) | ( ( [] ( ( call ) /\ ( [] ( ! ( open ) ) ) ) ) W ( ( call ) /\ ( [] ( ! ( open ) ) ) ) ) | ( ( ( call ) /\ ( [] ( ! ( open ) ) ) ) /\ ( ( call ) /\ ( [] ( ! ( open ) ) ) ) ) | ( [] ( ( [] ( ! ( open ) ) ) /\ ( call ) ) ) | ( ( call ) /\ ( [] ( [] ( ! ( open ) ) ) ) ) | ( ( ( call ) /\ ( [] ( ! ( open ) ) ) ) /\ ( [] ( ! ( open ) ) ) ) | ( ( ( call ) /\ ( [] ( ! ( open ) ) ) ) U ( ( call ) /\ ( [] ( ! ( open ) ) ) ) ) | 
Generation Time :0
Accumulated Learning Time :3
CALLs: 16    TIMEOUTs: 0    ERRORs: 0
REEVALUATIONS: 2002 OF 2570

GENERATION 33/50
....m.<;....m.<;....m.<;..
Fittest value: 2.75 for chromosome ( ( call ) /\ ( [] ( ! ( open ) ) ) )
Solutions (15): ( ( call ) /\ ( [] ( ! ( open ) ) ) ) | ( [] ( ( call ) /\ ( [] ( ! ( open ) ) ) ) ) | ( ( [] ( ! ( open ) ) ) /\ ( call ) ) | ( ( call ) U ( ( call ) /\ ( [] ( ! ( open ) ) ) ) ) | ( [] ( ( call ) /\ ( X ( ! ( open ) ) ) ) ) | ( X ( ( call ) /\ ( [] ( ! ( open ) ) ) ) ) | ( ( call ) /\ ( [] ( ( call ) /\ ( [] ( ! ( open ) ) ) ) ) ) | ( ( call ) /\ ( ( call ) /\ ( [] ( ! ( open ) ) ) ) ) | ( ( ( call ) /\ ( [] ( ! ( open ) ) ) ) \/ ( [] ( ( call ) /\ ( [] ( ! ( open ) ) ) ) ) ) | ( ( [] ( ( call ) /\ ( [] ( ! ( open ) ) ) ) ) W ( ( call ) /\ ( [] ( ! ( open ) ) ) ) ) | ( ( ( call ) /\ ( [] ( ! ( open ) ) ) ) /\ ( ( call ) /\ ( [] ( ! ( open ) ) ) ) ) | ( [] ( ( [] ( ! ( open ) ) ) /\ ( call ) ) ) | ( ( call ) /\ ( [] ( [] ( ! ( open ) ) ) ) ) | ( ( ( call ) /\ ( [] ( ! ( open ) ) ) ) /\ ( [] ( ! ( open ) ) ) ) | ( ( ( call ) /\ ( [] ( ! ( open ) ) ) ) U ( ( call ) /\ ( [] ( ! ( open ) ) ) ) ) | 
Generation Time :0
Accumulated Learning Time :3
CALLs: 17    TIMEOUTs: 0    ERRORs: 0
REEVALUATIONS: 2077 OF 2650

GENERATION 34/50
....m.<;....m.<;......m.<;....m.<;.......m.<;
Fittest value: 2.75 for chromosome ( ( call ) /\ ( [] ( ! ( open ) ) ) )
Solutions (15): ( ( call ) /\ ( [] ( ! ( open ) ) ) ) | ( [] ( ( call ) /\ ( [] ( ! ( open ) ) ) ) ) | ( ( [] ( ! ( open ) ) ) /\ ( call ) ) | ( ( call ) U ( ( call ) /\ ( [] ( ! ( open ) ) ) ) ) | ( [] ( ( call ) /\ ( X ( ! ( open ) ) ) ) ) | ( X ( ( call ) /\ ( [] ( ! ( open ) ) ) ) ) | ( ( call ) /\ ( [] ( ( call ) /\ ( [] ( ! ( open ) ) ) ) ) ) | ( ( call ) /\ ( ( call ) /\ ( [] ( ! ( open ) ) ) ) ) | ( ( ( call ) /\ ( [] ( ! ( open ) ) ) ) \/ ( [] ( ( call ) /\ ( [] ( ! ( open ) ) ) ) ) ) | ( ( [] ( ( call ) /\ ( [] ( ! ( open ) ) ) ) ) W ( ( call ) /\ ( [] ( ! ( open ) ) ) ) ) | ( ( ( call ) /\ ( [] ( ! ( open ) ) ) ) /\ ( ( call ) /\ ( [] ( ! ( open ) ) ) ) ) | ( [] ( ( [] ( ! ( open ) ) ) /\ ( call ) ) ) | ( ( call ) /\ ( [] ( [] ( ! ( open ) ) ) ) ) | ( ( ( call ) /\ ( [] ( ! ( open ) ) ) ) /\ ( [] ( ! ( open ) ) ) ) | ( ( ( call ) /\ ( [] ( ! ( open ) ) ) ) U ( ( call ) /\ ( [] ( ! ( open ) ) ) ) ) | 
Generation Time :0
Accumulated Learning Time :3
CALLs: 30    TIMEOUTs: 0    ERRORs: 0
REEVALUATIONS: 2149 OF 2731

GENERATION 35/50
.......m.<;..
Fittest value: 2.75 for chromosome ( ( call ) /\ ( [] ( ! ( open ) ) ) )
Solutions (15): ( ( call ) /\ ( [] ( ! ( open ) ) ) ) | ( [] ( ( call ) /\ ( [] ( ! ( open ) ) ) ) ) | ( ( [] ( ! ( open ) ) ) /\ ( call ) ) | ( ( call ) U ( ( call ) /\ ( [] ( ! ( open ) ) ) ) ) | ( [] ( ( call ) /\ ( X ( ! ( open ) ) ) ) ) | ( X ( ( call ) /\ ( [] ( ! ( open ) ) ) ) ) | ( ( call ) /\ ( [] ( ( call ) /\ ( [] ( ! ( open ) ) ) ) ) ) | ( ( call ) /\ ( ( call ) /\ ( [] ( ! ( open ) ) ) ) ) | ( ( ( call ) /\ ( [] ( ! ( open ) ) ) ) \/ ( [] ( ( call ) /\ ( [] ( ! ( open ) ) ) ) ) ) | ( ( [] ( ( call ) /\ ( [] ( ! ( open ) ) ) ) ) W ( ( call ) /\ ( [] ( ! ( open ) ) ) ) ) | ( ( ( call ) /\ ( [] ( ! ( open ) ) ) ) /\ ( ( call ) /\ ( [] ( ! ( open ) ) ) ) ) | ( [] ( ( [] ( ! ( open ) ) ) /\ ( call ) ) ) | ( ( call ) /\ ( [] ( [] ( ! ( open ) ) ) ) ) | ( ( ( call ) /\ ( [] ( ! ( open ) ) ) ) /\ ( [] ( ! ( open ) ) ) ) | ( ( ( call ) /\ ( [] ( ! ( open ) ) ) ) U ( ( call ) /\ ( [] ( ! ( open ) ) ) ) ) | 
Generation Time :0
Accumulated Learning Time :3
CALLs: 10    TIMEOUTs: 0    ERRORs: 0
REEVALUATIONS: 2228 OF 2814

GENERATION 36/50
....m.<;....m.<;....m.<;....m.;....m.<;
Fittest value: 2.75 for chromosome ( ( call ) /\ ( [] ( ! ( open ) ) ) )
Solutions (15): ( ( call ) /\ ( [] ( ! ( open ) ) ) ) | ( [] ( ( call ) /\ ( [] ( ! ( open ) ) ) ) ) | ( ( [] ( ! ( open ) ) ) /\ ( call ) ) | ( ( call ) U ( ( call ) /\ ( [] ( ! ( open ) ) ) ) ) | ( [] ( ( call ) /\ ( X ( ! ( open ) ) ) ) ) | ( X ( ( call ) /\ ( [] ( ! ( open ) ) ) ) ) | ( ( call ) /\ ( [] ( ( call ) /\ ( [] ( ! ( open ) ) ) ) ) ) | ( ( call ) /\ ( ( call ) /\ ( [] ( ! ( open ) ) ) ) ) | ( ( ( call ) /\ ( [] ( ! ( open ) ) ) ) \/ ( [] ( ( call ) /\ ( [] ( ! ( open ) ) ) ) ) ) | ( ( [] ( ( call ) /\ ( [] ( ! ( open ) ) ) ) ) W ( ( call ) /\ ( [] ( ! ( open ) ) ) ) ) | ( ( ( call ) /\ ( [] ( ! ( open ) ) ) ) /\ ( ( call ) /\ ( [] ( ! ( open ) ) ) ) ) | ( [] ( ( [] ( ! ( open ) ) ) /\ ( call ) ) ) | ( ( call ) /\ ( [] ( [] ( ! ( open ) ) ) ) ) | ( ( ( call ) /\ ( [] ( ! ( open ) ) ) ) /\ ( [] ( ! ( open ) ) ) ) | ( ( ( call ) /\ ( [] ( ! ( open ) ) ) ) U ( ( call ) /\ ( [] ( ! ( open ) ) ) ) ) | 
Generation Time :0
Accumulated Learning Time :3
CALLs: 25    TIMEOUTs: 0    ERRORs: 0
REEVALUATIONS: 2309 OF 2900

GENERATION 37/50
......m.<;....m.<;.....m.<;
Fittest value: 2.75 for chromosome ( ( call ) /\ ( [] ( ! ( open ) ) ) )
Solutions (15): ( ( call ) /\ ( [] ( ! ( open ) ) ) ) | ( [] ( ( call ) /\ ( [] ( ! ( open ) ) ) ) ) | ( ( [] ( ! ( open ) ) ) /\ ( call ) ) | ( ( call ) U ( ( call ) /\ ( [] ( ! ( open ) ) ) ) ) | ( [] ( ( call ) /\ ( X ( ! ( open ) ) ) ) ) | ( X ( ( call ) /\ ( [] ( ! ( open ) ) ) ) ) | ( ( call ) /\ ( [] ( ( call ) /\ ( [] ( ! ( open ) ) ) ) ) ) | ( ( call ) /\ ( ( call ) /\ ( [] ( ! ( open ) ) ) ) ) | ( ( ( call ) /\ ( [] ( ! ( open ) ) ) ) \/ ( [] ( ( call ) /\ ( [] ( ! ( open ) ) ) ) ) ) | ( ( [] ( ( call ) /\ ( [] ( ! ( open ) ) ) ) ) W ( ( call ) /\ ( [] ( ! ( open ) ) ) ) ) | ( ( ( call ) /\ ( [] ( ! ( open ) ) ) ) /\ ( ( call ) /\ ( [] ( ! ( open ) ) ) ) ) | ( [] ( ( [] ( ! ( open ) ) ) /\ ( call ) ) ) | ( ( call ) /\ ( [] ( [] ( ! ( open ) ) ) ) ) | ( ( ( call ) /\ ( [] ( ! ( open ) ) ) ) /\ ( [] ( ! ( open ) ) ) ) | ( ( ( call ) /\ ( [] ( ! ( open ) ) ) ) U ( ( call ) /\ ( [] ( ! ( open ) ) ) ) ) | 
Generation Time :0
Accumulated Learning Time :3
CALLs: 18    TIMEOUTs: 0    ERRORs: 0
REEVALUATIONS: 2381 OF 2977

GENERATION 38/50
......m.<;
Fittest value: 2.75 for chromosome ( ( call ) /\ ( [] ( ! ( open ) ) ) )
Solutions (15): ( ( call ) /\ ( [] ( ! ( open ) ) ) ) | ( [] ( ( call ) /\ ( [] ( ! ( open ) ) ) ) ) | ( ( [] ( ! ( open ) ) ) /\ ( call ) ) | ( ( call ) U ( ( call ) /\ ( [] ( ! ( open ) ) ) ) ) | ( [] ( ( call ) /\ ( X ( ! ( open ) ) ) ) ) | ( X ( ( call ) /\ ( [] ( ! ( open ) ) ) ) ) | ( ( call ) /\ ( [] ( ( call ) /\ ( [] ( ! ( open ) ) ) ) ) ) | ( ( call ) /\ ( ( call ) /\ ( [] ( ! ( open ) ) ) ) ) | ( ( ( call ) /\ ( [] ( ! ( open ) ) ) ) \/ ( [] ( ( call ) /\ ( [] ( ! ( open ) ) ) ) ) ) | ( ( [] ( ( call ) /\ ( [] ( ! ( open ) ) ) ) ) W ( ( call ) /\ ( [] ( ! ( open ) ) ) ) ) | ( ( ( call ) /\ ( [] ( ! ( open ) ) ) ) /\ ( ( call ) /\ ( [] ( ! ( open ) ) ) ) ) | ( [] ( ( [] ( ! ( open ) ) ) /\ ( call ) ) ) | ( ( call ) /\ ( [] ( [] ( ! ( open ) ) ) ) ) | ( ( ( call ) /\ ( [] ( ! ( open ) ) ) ) /\ ( [] ( ! ( open ) ) ) ) | ( ( ( call ) /\ ( [] ( ! ( open ) ) ) ) U ( ( call ) /\ ( [] ( ! ( open ) ) ) ) ) | 
Generation Time :0
Accumulated Learning Time :3
CALLs: 7    TIMEOUTs: 0    ERRORs: 0
REEVALUATIONS: 2464 OF 3062

GENERATION 39/50
....m.<;.....m.<;
Fittest value: 2.75 for chromosome ( ( call ) /\ ( [] ( ! ( open ) ) ) )
Solutions (15): ( ( call ) /\ ( [] ( ! ( open ) ) ) ) | ( [] ( ( call ) /\ ( [] ( ! ( open ) ) ) ) ) | ( ( [] ( ! ( open ) ) ) /\ ( call ) ) | ( ( call ) U ( ( call ) /\ ( [] ( ! ( open ) ) ) ) ) | ( [] ( ( call ) /\ ( X ( ! ( open ) ) ) ) ) | ( X ( ( call ) /\ ( [] ( ! ( open ) ) ) ) ) | ( ( call ) /\ ( [] ( ( call ) /\ ( [] ( ! ( open ) ) ) ) ) ) | ( ( call ) /\ ( ( call ) /\ ( [] ( ! ( open ) ) ) ) ) | ( ( ( call ) /\ ( [] ( ! ( open ) ) ) ) \/ ( [] ( ( call ) /\ ( [] ( ! ( open ) ) ) ) ) ) | ( ( [] ( ( call ) /\ ( [] ( ! ( open ) ) ) ) ) W ( ( call ) /\ ( [] ( ! ( open ) ) ) ) ) | ( ( ( call ) /\ ( [] ( ! ( open ) ) ) ) /\ ( ( call ) /\ ( [] ( ! ( open ) ) ) ) ) | ( [] ( ( [] ( ! ( open ) ) ) /\ ( call ) ) ) | ( ( call ) /\ ( [] ( [] ( ! ( open ) ) ) ) ) | ( ( ( call ) /\ ( [] ( ! ( open ) ) ) ) /\ ( [] ( ! ( open ) ) ) ) | ( ( ( call ) /\ ( [] ( ! ( open ) ) ) ) U ( ( call ) /\ ( [] ( ! ( open ) ) ) ) ) | 
Generation Time :0
Accumulated Learning Time :3
CALLs: 11    TIMEOUTs: 0    ERRORs: 0
REEVALUATIONS: 2548 OF 3149

GENERATION 40/50
......m.<;....m.<;....m.<;
Fittest value: 2.75 for chromosome ( ( call ) /\ ( [] ( ! ( open ) ) ) )
Solutions (15): ( ( call ) /\ ( [] ( ! ( open ) ) ) ) | ( [] ( ( call ) /\ ( [] ( ! ( open ) ) ) ) ) | ( ( [] ( ! ( open ) ) ) /\ ( call ) ) | ( ( call ) U ( ( call ) /\ ( [] ( ! ( open ) ) ) ) ) | ( [] ( ( call ) /\ ( X ( ! ( open ) ) ) ) ) | ( X ( ( call ) /\ ( [] ( ! ( open ) ) ) ) ) | ( ( call ) /\ ( [] ( ( call ) /\ ( [] ( ! ( open ) ) ) ) ) ) | ( ( call ) /\ ( ( call ) /\ ( [] ( ! ( open ) ) ) ) ) | ( ( ( call ) /\ ( [] ( ! ( open ) ) ) ) \/ ( [] ( ( call ) /\ ( [] ( ! ( open ) ) ) ) ) ) | ( ( [] ( ( call ) /\ ( [] ( ! ( open ) ) ) ) ) W ( ( call ) /\ ( [] ( ! ( open ) ) ) ) ) | ( ( ( call ) /\ ( [] ( ! ( open ) ) ) ) /\ ( ( call ) /\ ( [] ( ! ( open ) ) ) ) ) | ( [] ( ( [] ( ! ( open ) ) ) /\ ( call ) ) ) | ( ( call ) /\ ( [] ( [] ( ! ( open ) ) ) ) ) | ( ( ( call ) /\ ( [] ( ! ( open ) ) ) ) /\ ( [] ( ! ( open ) ) ) ) | ( ( ( call ) /\ ( [] ( ! ( open ) ) ) ) U ( ( call ) /\ ( [] ( ! ( open ) ) ) ) ) | 
Generation Time :0
Accumulated Learning Time :3
CALLs: 17    TIMEOUTs: 0    ERRORs: 0
REEVALUATIONS: 2627 OF 3232

GENERATION 41/50
......m.<;..
Fittest value: 2.75 for chromosome ( ( call ) /\ ( [] ( ! ( open ) ) ) )
Solutions (15): ( ( call ) /\ ( [] ( ! ( open ) ) ) ) | ( [] ( ( call ) /\ ( [] ( ! ( open ) ) ) ) ) | ( ( [] ( ! ( open ) ) ) /\ ( call ) ) | ( ( call ) U ( ( call ) /\ ( [] ( ! ( open ) ) ) ) ) | ( [] ( ( call ) /\ ( X ( ! ( open ) ) ) ) ) | ( X ( ( call ) /\ ( [] ( ! ( open ) ) ) ) ) | ( ( call ) /\ ( [] ( ( call ) /\ ( [] ( ! ( open ) ) ) ) ) ) | ( ( call ) /\ ( ( call ) /\ ( [] ( ! ( open ) ) ) ) ) | ( ( ( call ) /\ ( [] ( ! ( open ) ) ) ) \/ ( [] ( ( call ) /\ ( [] ( ! ( open ) ) ) ) ) ) | ( ( [] ( ( call ) /\ ( [] ( ! ( open ) ) ) ) ) W ( ( call ) /\ ( [] ( ! ( open ) ) ) ) ) | ( ( ( call ) /\ ( [] ( ! ( open ) ) ) ) /\ ( ( call ) /\ ( [] ( ! ( open ) ) ) ) ) | ( [] ( ( [] ( ! ( open ) ) ) /\ ( call ) ) ) | ( ( call ) /\ ( [] ( [] ( ! ( open ) ) ) ) ) | ( ( ( call ) /\ ( [] ( ! ( open ) ) ) ) /\ ( [] ( ! ( open ) ) ) ) | ( ( ( call ) /\ ( [] ( ! ( open ) ) ) ) U ( ( call ) /\ ( [] ( ! ( open ) ) ) ) ) | 
Generation Time :0
Accumulated Learning Time :3
CALLs: 9    TIMEOUTs: 0    ERRORs: 0
REEVALUATIONS: 2702 OF 3310

GENERATION 42/50
....m.<;....m.<;....m.<;.
Fittest value: 2.75 for chromosome ( ( call ) /\ ( [] ( ! ( open ) ) ) )
Solutions (15): ( ( call ) /\ ( [] ( ! ( open ) ) ) ) | ( [] ( ( call ) /\ ( [] ( ! ( open ) ) ) ) ) | ( ( [] ( ! ( open ) ) ) /\ ( call ) ) | ( ( call ) U ( ( call ) /\ ( [] ( ! ( open ) ) ) ) ) | ( [] ( ( call ) /\ ( X ( ! ( open ) ) ) ) ) | ( X ( ( call ) /\ ( [] ( ! ( open ) ) ) ) ) | ( ( call ) /\ ( [] ( ( call ) /\ ( [] ( ! ( open ) ) ) ) ) ) | ( ( call ) /\ ( ( call ) /\ ( [] ( ! ( open ) ) ) ) ) | ( ( ( call ) /\ ( [] ( ! ( open ) ) ) ) \/ ( [] ( ( call ) /\ ( [] ( ! ( open ) ) ) ) ) ) | ( ( [] ( ( call ) /\ ( [] ( ! ( open ) ) ) ) ) W ( ( call ) /\ ( [] ( ! ( open ) ) ) ) ) | ( ( ( call ) /\ ( [] ( ! ( open ) ) ) ) /\ ( ( call ) /\ ( [] ( ! ( open ) ) ) ) ) | ( [] ( ( [] ( ! ( open ) ) ) /\ ( call ) ) ) | ( ( call ) /\ ( [] ( [] ( ! ( open ) ) ) ) ) | ( ( ( call ) /\ ( [] ( ! ( open ) ) ) ) /\ ( [] ( ! ( open ) ) ) ) | ( ( ( call ) /\ ( [] ( ! ( open ) ) ) ) U ( ( call ) /\ ( [] ( ! ( open ) ) ) ) ) | 
Generation Time :0
Accumulated Learning Time :3
CALLs: 16    TIMEOUTs: 0    ERRORs: 0
REEVALUATIONS: 2772 OF 3384

GENERATION 43/50
....m.<;......m.<;...
Fittest value: 2.75 for chromosome ( ( call ) /\ ( [] ( ! ( open ) ) ) )
Solutions (15): ( ( call ) /\ ( [] ( ! ( open ) ) ) ) | ( [] ( ( call ) /\ ( [] ( ! ( open ) ) ) ) ) | ( ( [] ( ! ( open ) ) ) /\ ( call ) ) | ( ( call ) U ( ( call ) /\ ( [] ( ! ( open ) ) ) ) ) | ( [] ( ( call ) /\ ( X ( ! ( open ) ) ) ) ) | ( X ( ( call ) /\ ( [] ( ! ( open ) ) ) ) ) | ( ( call ) /\ ( [] ( ( call ) /\ ( [] ( ! ( open ) ) ) ) ) ) | ( ( call ) /\ ( ( call ) /\ ( [] ( ! ( open ) ) ) ) ) | ( ( ( call ) /\ ( [] ( ! ( open ) ) ) ) \/ ( [] ( ( call ) /\ ( [] ( ! ( open ) ) ) ) ) ) | ( ( [] ( ( call ) /\ ( [] ( ! ( open ) ) ) ) ) W ( ( call ) /\ ( [] ( ! ( open ) ) ) ) ) | ( ( ( call ) /\ ( [] ( ! ( open ) ) ) ) /\ ( ( call ) /\ ( [] ( ! ( open ) ) ) ) ) | ( [] ( ( [] ( ! ( open ) ) ) /\ ( call ) ) ) | ( ( call ) /\ ( [] ( [] ( ! ( open ) ) ) ) ) | ( ( ( call ) /\ ( [] ( ! ( open ) ) ) ) /\ ( [] ( ! ( open ) ) ) ) | ( ( ( call ) /\ ( [] ( ! ( open ) ) ) ) U ( ( call ) /\ ( [] ( ! ( open ) ) ) ) ) | 
Generation Time :0
Accumulated Learning Time :3
CALLs: 15    TIMEOUTs: 0    ERRORs: 0
REEVALUATIONS: 2841 OF 3458

GENERATION 44/50
......m.<;...
Fittest value: 2.75 for chromosome ( ( call ) /\ ( [] ( ! ( open ) ) ) )
Solutions (15): ( ( call ) /\ ( [] ( ! ( open ) ) ) ) | ( [] ( ( call ) /\ ( [] ( ! ( open ) ) ) ) ) | ( ( [] ( ! ( open ) ) ) /\ ( call ) ) | ( ( call ) U ( ( call ) /\ ( [] ( ! ( open ) ) ) ) ) | ( [] ( ( call ) /\ ( X ( ! ( open ) ) ) ) ) | ( X ( ( call ) /\ ( [] ( ! ( open ) ) ) ) ) | ( ( call ) /\ ( [] ( ( call ) /\ ( [] ( ! ( open ) ) ) ) ) ) | ( ( call ) /\ ( ( call ) /\ ( [] ( ! ( open ) ) ) ) ) | ( ( ( call ) /\ ( [] ( ! ( open ) ) ) ) \/ ( [] ( ( call ) /\ ( [] ( ! ( open ) ) ) ) ) ) | ( ( [] ( ( call ) /\ ( [] ( ! ( open ) ) ) ) ) W ( ( call ) /\ ( [] ( ! ( open ) ) ) ) ) | ( ( ( call ) /\ ( [] ( ! ( open ) ) ) ) /\ ( ( call ) /\ ( [] ( ! ( open ) ) ) ) ) | ( [] ( ( [] ( ! ( open ) ) ) /\ ( call ) ) ) | ( ( call ) /\ ( [] ( [] ( ! ( open ) ) ) ) ) | ( ( ( call ) /\ ( [] ( ! ( open ) ) ) ) /\ ( [] ( ! ( open ) ) ) ) | ( ( ( call ) /\ ( [] ( ! ( open ) ) ) ) U ( ( call ) /\ ( [] ( ! ( open ) ) ) ) ) | 
Generation Time :0
Accumulated Learning Time :3
CALLs: 10    TIMEOUTs: 0    ERRORs: 0
REEVALUATIONS: 2919 OF 3540

GENERATION 45/50
....m.<;....m.<;....m.<;
Fittest value: 2.75 for chromosome ( ( call ) /\ ( [] ( ! ( open ) ) ) )
Solutions (15): ( ( call ) /\ ( [] ( ! ( open ) ) ) ) | ( [] ( ( call ) /\ ( [] ( ! ( open ) ) ) ) ) | ( ( [] ( ! ( open ) ) ) /\ ( call ) ) | ( ( call ) U ( ( call ) /\ ( [] ( ! ( open ) ) ) ) ) | ( [] ( ( call ) /\ ( X ( ! ( open ) ) ) ) ) | ( X ( ( call ) /\ ( [] ( ! ( open ) ) ) ) ) | ( ( call ) /\ ( [] ( ( call ) /\ ( [] ( ! ( open ) ) ) ) ) ) | ( ( call ) /\ ( ( call ) /\ ( [] ( ! ( open ) ) ) ) ) | ( ( ( call ) /\ ( [] ( ! ( open ) ) ) ) \/ ( [] ( ( call ) /\ ( [] ( ! ( open ) ) ) ) ) ) | ( ( [] ( ( call ) /\ ( [] ( ! ( open ) ) ) ) ) W ( ( call ) /\ ( [] ( ! ( open ) ) ) ) ) | ( ( ( call ) /\ ( [] ( ! ( open ) ) ) ) /\ ( ( call ) /\ ( [] ( ! ( open ) ) ) ) ) | ( [] ( ( [] ( ! ( open ) ) ) /\ ( call ) ) ) | ( ( call ) /\ ( [] ( [] ( ! ( open ) ) ) ) ) | ( ( ( call ) /\ ( [] ( ! ( open ) ) ) ) /\ ( [] ( ! ( open ) ) ) ) | ( ( ( call ) /\ ( [] ( ! ( open ) ) ) ) U ( ( call ) /\ ( [] ( ! ( open ) ) ) ) ) | 
Generation Time :0
Accumulated Learning Time :3
CALLs: 15    TIMEOUTs: 0    ERRORs: 0
REEVALUATIONS: 2995 OF 3619

GENERATION 46/50
......m.<;
Fittest value: 2.75 for chromosome ( ( call ) /\ ( [] ( ! ( open ) ) ) )
Solutions (15): ( ( call ) /\ ( [] ( ! ( open ) ) ) ) | ( [] ( ( call ) /\ ( [] ( ! ( open ) ) ) ) ) | ( ( [] ( ! ( open ) ) ) /\ ( call ) ) | ( ( call ) U ( ( call ) /\ ( [] ( ! ( open ) ) ) ) ) | ( [] ( ( call ) /\ ( X ( ! ( open ) ) ) ) ) | ( X ( ( call ) /\ ( [] ( ! ( open ) ) ) ) ) | ( ( call ) /\ ( [] ( ( call ) /\ ( [] ( ! ( open ) ) ) ) ) ) | ( ( call ) /\ ( ( call ) /\ ( [] ( ! ( open ) ) ) ) ) | ( ( ( call ) /\ ( [] ( ! ( open ) ) ) ) \/ ( [] ( ( call ) /\ ( [] ( ! ( open ) ) ) ) ) ) | ( ( [] ( ( call ) /\ ( [] ( ! ( open ) ) ) ) ) W ( ( call ) /\ ( [] ( ! ( open ) ) ) ) ) | ( ( ( call ) /\ ( [] ( ! ( open ) ) ) ) /\ ( ( call ) /\ ( [] ( ! ( open ) ) ) ) ) | ( [] ( ( [] ( ! ( open ) ) ) /\ ( call ) ) ) | ( ( call ) /\ ( [] ( [] ( ! ( open ) ) ) ) ) | ( ( ( call ) /\ ( [] ( ! ( open ) ) ) ) /\ ( [] ( ! ( open ) ) ) ) | ( ( ( call ) /\ ( [] ( ! ( open ) ) ) ) U ( ( call ) /\ ( [] ( ! ( open ) ) ) ) ) | 
Generation Time :0
Accumulated Learning Time :3
CALLs: 7    TIMEOUTs: 0    ERRORs: 0
REEVALUATIONS: 3071 OF 3697

GENERATION 47/50
....m.<;....m.<;....m.<;....m.<;...
Fittest value: 2.75 for chromosome ( ( call ) /\ ( [] ( ! ( open ) ) ) )
Solutions (15): ( ( call ) /\ ( [] ( ! ( open ) ) ) ) | ( [] ( ( call ) /\ ( [] ( ! ( open ) ) ) ) ) | ( ( [] ( ! ( open ) ) ) /\ ( call ) ) | ( ( call ) U ( ( call ) /\ ( [] ( ! ( open ) ) ) ) ) | ( [] ( ( call ) /\ ( X ( ! ( open ) ) ) ) ) | ( X ( ( call ) /\ ( [] ( ! ( open ) ) ) ) ) | ( ( call ) /\ ( [] ( ( call ) /\ ( [] ( ! ( open ) ) ) ) ) ) | ( ( call ) /\ ( ( call ) /\ ( [] ( ! ( open ) ) ) ) ) | ( ( ( call ) /\ ( [] ( ! ( open ) ) ) ) \/ ( [] ( ( call ) /\ ( [] ( ! ( open ) ) ) ) ) ) | ( ( [] ( ( call ) /\ ( [] ( ! ( open ) ) ) ) ) W ( ( call ) /\ ( [] ( ! ( open ) ) ) ) ) | ( ( ( call ) /\ ( [] ( ! ( open ) ) ) ) /\ ( ( call ) /\ ( [] ( ! ( open ) ) ) ) ) | ( [] ( ( [] ( ! ( open ) ) ) /\ ( call ) ) ) | ( ( call ) /\ ( [] ( [] ( ! ( open ) ) ) ) ) | ( ( ( call ) /\ ( [] ( ! ( open ) ) ) ) /\ ( [] ( ! ( open ) ) ) ) | ( ( ( call ) /\ ( [] ( ! ( open ) ) ) ) U ( ( call ) /\ ( [] ( ! ( open ) ) ) ) ) | 
Generation Time :0
Accumulated Learning Time :3
CALLs: 23    TIMEOUTs: 0    ERRORs: 0
REEVALUATIONS: 3145 OF 3777

GENERATION 48/50
....m.;.....m.<;
Fittest value: 2.75 for chromosome ( ( call ) /\ ( [] ( ! ( open ) ) ) )
Solutions (15): ( ( call ) /\ ( [] ( ! ( open ) ) ) ) | ( [] ( ( call ) /\ ( [] ( ! ( open ) ) ) ) ) | ( ( [] ( ! ( open ) ) ) /\ ( call ) ) | ( ( call ) U ( ( call ) /\ ( [] ( ! ( open ) ) ) ) ) | ( [] ( ( call ) /\ ( X ( ! ( open ) ) ) ) ) | ( X ( ( call ) /\ ( [] ( ! ( open ) ) ) ) ) | ( ( call ) /\ ( [] ( ( call ) /\ ( [] ( ! ( open ) ) ) ) ) ) | ( ( call ) /\ ( ( call ) /\ ( [] ( ! ( open ) ) ) ) ) | ( ( ( call ) /\ ( [] ( ! ( open ) ) ) ) \/ ( [] ( ( call ) /\ ( [] ( ! ( open ) ) ) ) ) ) | ( ( [] ( ( call ) /\ ( [] ( ! ( open ) ) ) ) ) W ( ( call ) /\ ( [] ( ! ( open ) ) ) ) ) | ( ( ( call ) /\ ( [] ( ! ( open ) ) ) ) /\ ( ( call ) /\ ( [] ( ! ( open ) ) ) ) ) | ( [] ( ( [] ( ! ( open ) ) ) /\ ( call ) ) ) | ( ( call ) /\ ( [] ( [] ( ! ( open ) ) ) ) ) | ( ( ( call ) /\ ( [] ( ! ( open ) ) ) ) /\ ( [] ( ! ( open ) ) ) ) | ( ( ( call ) /\ ( [] ( ! ( open ) ) ) ) U ( ( call ) /\ ( [] ( ! ( open ) ) ) ) ) | 
Generation Time :0
Accumulated Learning Time :3
CALLs: 11    TIMEOUTs: 0    ERRORs: 0
REEVALUATIONS: 3228 OF 3863

GENERATION 49/50
....m.;..
Fittest value: 2.75 for chromosome ( ( call ) /\ ( [] ( ! ( open ) ) ) )
Solutions (15): ( ( call ) /\ ( [] ( ! ( open ) ) ) ) | ( [] ( ( call ) /\ ( [] ( ! ( open ) ) ) ) ) | ( ( [] ( ! ( open ) ) ) /\ ( call ) ) | ( ( call ) U ( ( call ) /\ ( [] ( ! ( open ) ) ) ) ) | ( [] ( ( call ) /\ ( X ( ! ( open ) ) ) ) ) | ( X ( ( call ) /\ ( [] ( ! ( open ) ) ) ) ) | ( ( call ) /\ ( [] ( ( call ) /\ ( [] ( ! ( open ) ) ) ) ) ) | ( ( call ) /\ ( ( call ) /\ ( [] ( ! ( open ) ) ) ) ) | ( ( ( call ) /\ ( [] ( ! ( open ) ) ) ) \/ ( [] ( ( call ) /\ ( [] ( ! ( open ) ) ) ) ) ) | ( ( [] ( ( call ) /\ ( [] ( ! ( open ) ) ) ) ) W ( ( call ) /\ ( [] ( ! ( open ) ) ) ) ) | ( ( ( call ) /\ ( [] ( ! ( open ) ) ) ) /\ ( ( call ) /\ ( [] ( ! ( open ) ) ) ) ) | ( [] ( ( [] ( ! ( open ) ) ) /\ ( call ) ) ) | ( ( call ) /\ ( [] ( [] ( ! ( open ) ) ) ) ) | ( ( ( call ) /\ ( [] ( ! ( open ) ) ) ) /\ ( [] ( ! ( open ) ) ) ) | ( ( ( call ) /\ ( [] ( ! ( open ) ) ) ) U ( ( call ) /\ ( [] ( ! ( open ) ) ) ) ) | 
Generation Time :0
Accumulated Learning Time :3
CALLs: 7    TIMEOUTs: 0    ERRORs: 0
REEVALUATIONS: 3311 OF 3948

GENERATION 50/50
.........m.<;....m.<;....m.<;
Fittest value: 2.75 for chromosome ( ( call ) /\ ( [] ( ! ( open ) ) ) )
Solutions (15): ( ( call ) /\ ( [] ( ! ( open ) ) ) ) | ( [] ( ( call ) /\ ( [] ( ! ( open ) ) ) ) ) | ( ( [] ( ! ( open ) ) ) /\ ( call ) ) | ( ( call ) U ( ( call ) /\ ( [] ( ! ( open ) ) ) ) ) | ( [] ( ( call ) /\ ( X ( ! ( open ) ) ) ) ) | ( X ( ( call ) /\ ( [] ( ! ( open ) ) ) ) ) | ( ( call ) /\ ( [] ( ( call ) /\ ( [] ( ! ( open ) ) ) ) ) ) | ( ( call ) /\ ( ( call ) /\ ( [] ( ! ( open ) ) ) ) ) | ( ( ( call ) /\ ( [] ( ! ( open ) ) ) ) \/ ( [] ( ( call ) /\ ( [] ( ! ( open ) ) ) ) ) ) | ( ( [] ( ( call ) /\ ( [] ( ! ( open ) ) ) ) ) W ( ( call ) /\ ( [] ( ! ( open ) ) ) ) ) | ( ( ( call ) /\ ( [] ( ! ( open ) ) ) ) /\ ( ( call ) /\ ( [] ( ! ( open ) ) ) ) ) | ( [] ( ( [] ( ! ( open ) ) ) /\ ( call ) ) ) | ( ( call ) /\ ( [] ( [] ( ! ( open ) ) ) ) ) | ( ( ( call ) /\ ( [] ( ! ( open ) ) ) ) /\ ( [] ( ! ( open ) ) ) ) | ( ( ( call ) /\ ( [] ( ! ( open ) ) ) ) U ( ( call ) /\ ( [] ( ! ( open ) ) ) ) ) | 
Generation Time :0
Accumulated Learning Time :3
CALLs: 20    TIMEOUTs: 0    ERRORs: 0
REEVALUATIONS: 3388 OF 4031


TOTAL Learing Time :3

Solutions: 15
( ( call ) /\ ( [] ( ! ( open ) ) ) )
( [] ( ( call ) /\ ( [] ( ! ( open ) ) ) ) )
( ( [] ( ! ( open ) ) ) /\ ( call ) )
( ( call ) U ( ( call ) /\ ( [] ( ! ( open ) ) ) ) )
( [] ( ( call ) /\ ( X ( ! ( open ) ) ) ) )
( X ( ( call ) /\ ( [] ( ! ( open ) ) ) ) )
( ( call ) /\ ( [] ( ( call ) /\ ( [] ( ! ( open ) ) ) ) ) )
( ( call ) /\ ( ( call ) /\ ( [] ( ! ( open ) ) ) ) )
( ( ( call ) /\ ( [] ( ! ( open ) ) ) ) \/ ( [] ( ( call ) /\ ( [] ( ! ( open ) ) ) ) ) )
( ( [] ( ( call ) /\ ( [] ( ! ( open ) ) ) ) ) W ( ( call ) /\ ( [] ( ! ( open ) ) ) ) )
( ( ( call ) /\ ( [] ( ! ( open ) ) ) ) /\ ( ( call ) /\ ( [] ( ! ( open ) ) ) ) )
( [] ( ( [] ( ! ( open ) ) ) /\ ( call ) ) )
( ( call ) /\ ( [] ( [] ( ! ( open ) ) ) ) )
( ( ( call ) /\ ( [] ( ! ( open ) ) ) ) /\ ( [] ( ! ( open ) ) ) )
( ( ( call ) /\ ( [] ( ! ( open ) ) ) ) U ( ( call ) /\ ( [] ( ! ( open ) ) ) ) )

....................................
Non Equivalent Solutions: 5
( ( call ) /\ ( [] ( ! ( open ) ) ) )
( [] ( ( call ) /\ ( [] ( ! ( open ) ) ) ) )
( ( call ) U ( ( call ) /\ ( [] ( ! ( open ) ) ) ) )
( [] ( ( call ) /\ ( X ( ! ( open ) ) ) ) )
( X ( ( call ) /\ ( [] ( ! ( open ) ) ) ) )
..............
Weakest Solutions: 2
( ( call ) U ( ( call ) /\ ( [] ( ! ( open ) ) ) ) )
( X ( ( call ) /\ ( [] ( ! ( open ) ) ) ) )
TOTAL Time :3
CALLs: 2681    TIMEOUTs: 0    ERRORs: 0
CONFIGURATION
#Population: 100    #Iterations: 50    #ChromSize: 20
REEVALUATIONS: 3388 OF 4031
