Min. 26 - Accumulated Learning Time : 387 - Best. 31 Accumulated Learning Time: 512 Total time: 687 Sols: 2135 NonEq. 9
Min. 37 - Accumulated Learning Time : 28546 - Best. 50 Accumulated Learning Time: 33687 Total time: 33913 Sols: 914 NonEq. 19
Min. 15 - Accumulated Learning Time : 257 - Best. 48 Accumulated Learning Time: 361 Total time: 394 Sols: 3118 NonEq. 17
Min. 42 - Accumulated Learning Time : 523 - Best. 42 Accumulated Learning Time: 523 Total time: 782 Sols: 486 NonEq. 9