DOM: [[](o -> ! c), [](c -> ! f), [](o -> ! f)]
GOALS: [[](c  -> (c  U (f || d)) ), [](c  -> (c  U (o || d)) )]
Initial population size: 42
Total population size: 500

GENERATION 1/50
....m.m.<;...i...<;....m.m.<;....m.m.<;....m.m.<;...i...<;....m.m.<;.....m.m.<;....m.m.<;....m.m.<;...i...<;....m.m.<;...i...<;....m.m.<;....m.m.<;....m.m.<;...i...<;....m.m.<;.....m.m.<;....m.m.<;....m.m.<;.....m.m.<;....m.m.<;....m.m.<;....m.m.<;....m.m.<;.....m.m.<;...i...<;....m.m.<;....m.m.<;....m.m.<;....m.m.<;....m.m.<;....m.m.<;....m.m.;....m.m.<;......i...<;......m.m.<;...i...<;....m.m.<;.......m.m.<;.....m.m.<;.....m.m.<;....m.m.<;....m.m.<;....m.m.;....m.m.<;....m.m.<;....m.m.<;....m.m.<;
Best fitness value: ( ( c ) /\ ( o ) ) 1.5
Generation Time :0
Accumulated Learning Time :0
CALLs: 314    TIMEOUTs: 0    ERRORs: 0
REEVALUATIONS: 23 OF 84

GENERATION 2/50
.....m.m.<;......m.m.<;....m.m.<;....m.m.<;....m.m.<;....m.m.<;....m.m.<;....m.m.<;....m.m.<;....m.m.<;....m.m.<;....m.m.<;....m.m.<;....m.m.<;....m.m.<;....m.m.<;...i...<;....m.m.<;....m.m.<;....m.m.<;....m.m.<;....m.m.<;....m.m.<;......m.m.<;...i...<;....m.m.<;....m.m.<;.....m.m.<;..........m.m.<;......m.m.<;....m.m.<;....m.m.<;....m.m.<;.....m.m.<;....m.m.<;....m.m.<;....m.m.<;...i...<;.....m.m.<;....m.m.<;....m.m.<;....m.m.<;....m.m.<;....m.m.<;....m.m.<;....m.m.<;....m.m.<;....m.m.<;....m.m.;....m.m.;......m.m.<;.....m.m.<;....m.m.<;...i...<;.....m.m.<;....m.m.<;....m.m.;.....m.m.<;....m.m.<;....m.m.<;....m.m.<;....m.m.<;....m.m.<;....m.m.<;...i...<;......m.m.<;....m.m.<;....m.m.<;......m.m.<;....m.m.<;....m.m.<;....m.m.<;....m.m.;....m.m.<;......m.m.<;.......m.m.<;......m.m.;....m.m.<;........m.m.<;....m.m.<;....m.m.<;....m.m.<;....m.m.<;....m.m.<;....m.m.<;......m.m.<;....m.m.<;....m.m.<;....m.m.<;....m.m.<;....m.m.<;....m.m.<;......m.m.<;....m.m.<;......m.m.<;....m.m.<;....m.m.<;....m.m.<;.....m.m.<;.....m.m.<;........m.m.<;......m.m.<;......m.m.<;....m.m.<;....m.m.<;....m.m.<;....m.m.<;...i...<;......m.m.<;....m.m.<;....m.m.<;....m.m.<;....m.m.<;....m.m.<;....m.m.<;....m.m.<;...i...<;....m.m.<;....m.m.<;......m.m.<;....m.m.<;.....m.m.<;......m.m.;....m.m.<;......m.m.;....m.m.<;....m.m.<;......m.m.<;.....m.m.<;....m.m.<;....m.m.<;......m.m.<;....m.m.<;....m.m.<;.....i...<;....m.m.<;....m.m.<;....m.m.<;....m.m.<;....m.m.<;........m.m.<;....m.m.<;.....m.m.<;....m.m.<;....m.m.<;.....m.m.<;....m.m.<;....m.m.<;......m.m.<;.....m.m.<;....m.m.<;....m.m.<;......m.m.<;....m.m.<;....m.m.<;....m.m.<;....m.m.<;....m.m.<;....m.m.<;...i...<;....m.m.<;....m.m.<;....m.m.<;....m.m.<;....m.m.<;...i...<;....m.m.<;....m.m.;....m.m.<;....m.m.<;....m.m.<;....m.m.<;....m.m.<;....m.m.<;
Best fitness value: ( ! ( o ) ) 1.5
Generation Time :1
Accumulated Learning Time :1
CALLs: 1123    TIMEOUTs: 0    ERRORs: 0
REEVALUATIONS: 252 OF 536

GENERATION 3/50
.....m.m.<;....m.m.<;.....m.m.<;....m.m.<;......m.m.<;......m.m.<;....m.m.<;....m.m.<;....m.m.<;....m.m.<;....m.m.<;....m.m.<;....m.m.<;.....m.m.<;.........m.m.<;....m.m.<;..........m.m.<;.........m.m.<;.......m.m.<;.....m.m.<;.....m.m.<;....m.m.<;......m.m.<;.......m.m.<;....m.m.<;....m.m.<;....m.m.<;.....m.m.<;...........m.m.<;....m.m.<;....m.m.<;....m.m.<;....m.m.<;....m.m.<;....m.m.<;....m.m.<;....m.m.<;......m.m.<;....m.m.<;....m.m.<;....m.m.<;......m.m.<;....m.m.<;....m.m.<;....m.m.<;......m.m.<;....m.m.<;....m.m.<;....m.m.<;....m.m.;....m.m.<;......m.m.<;.......m.m.<;....m.m.<;....m.m.<;....m.m.<;....m.m.<;....m.m.<;....m.m.<;....m.m.<;.....m.m.<;.....m.m.<;....m.m.;....m.m.<;....m.m.<;....m.m.<;....m.m.<;....m.m.<;...i...<;....m.m.;.....i...<;......m.m.;.....m.m.<;....m.m.<;....m.m.<;....m.m.<;....m.m.<;.....m.m.<;....m.m.;.......m.m.<;....m.m.<;.....m.m.<;....m.m.<;.....m.m.<;....m.m.<;....m.m.<;...i...<;....m.m.<;....m.m.<;.....m.m.<;....m.m.<;....m.m.<;...i...<;....m.m.<;....m.m.<;.....m.m.<;....m.m.<;....m.m.<;....m.m.<;....m.m.<;......m.m.<;....m.m.<;....m.m.<;.....m.m.<;....m.m.<;....m.m.<;...i...<;....m.m.<;....m.m.<;....m.m.<;....m.m.<;....m.m.;.....m.m.<;....m.m.<;....m.m.<;..........m.m.<;....m.m.<;....m.m.<;....m.m.<;....m.m.<;....m.m.<;....m.m.<;.....m.m.<;....m.m.<;......m.m.<;.....m.m.<;.......m.m.<;......m.m.<;....m.m.<;...i...<;....m.m.<;....m.m.;........m.m.<;......m.m.<;....m.m.<;....m.m.;....m.m.<;....m.m.<;....m.m.<;....m.m.<;....m.m.<;...i...<;....m.m.<;....m.m.<;....m.m.<;....m.m.<;....m.m.<;....m.m.<;....m.m.<;....m.m.;....m.m.<;....m.m.<;....m.m.<;....m.m.;....m.m.<;....m.m.<;....m.m.<;....m.m.<;....m.m.<;...i...<;....m.m.<;......m.m.<;....m.m.<;....m.m.<;...i...<;....m.m.<;....m.m.<;....m.m.<;....m.m.<;....m.m.<;
Best fitness value: ( ( c ) /\ ( o ) ) 1.5
Generation Time :1
Accumulated Learning Time :3
CALLs: 1114    TIMEOUTs: 0    ERRORs: 0
REEVALUATIONS: 473 OF 990

GENERATION 4/50
....m.m.<;....m.m.<;....m.m.<;....m.m.<;........m.m.<;....m.m.<;......m.m.<;......m.m.<;....m.m.<;....m.m.<;....m.m.<;......m.m.<;....m.m.<;...i...<;....m.m.<;....m.m.<;....m.m.<;....m.m.<;....m.m.;....m.m.<;....m.m.<;....m.m.<;....m.m.<;......m.m.<;....m.m.<;....m.m.<;....m.m.<;....m.m.<;....m.m.<;....m.m.<;....m.m.<;....m.m.<;....m.m.<;....m.m.<;....m.m.;....m.m.<;....m.m.<;.....m.m.<;....m.m.<;....m.m.<;....m.m.<;...i...<;.....m.m.<;....m.m.<;....m.m.<;....m.m.<;.........m.m.<;...i...<;....m.m.<;.......m.m.<;....m.m.<;....m.m.<;....m.m.<;....m.m.<;....m.m.<;....m.m.<;....m.m.<;....m.m.<;....m.m.<;....m.m.<;.....m.m.<;....m.m.<;.....m.m.<;....m.m.<;.....m.m.<;.....m.m.<;......m.m.<;....m.m.<;......m.m.<;....m.m.<;....m.m.<;....m.m.<;.....m.m.<;.......m.m.<;........m.m.<;....m.m.<;...i...<;......m.m.<;....m.m.;....m.m.<;....m.m.<;......m.m.<;......m.m.<;....m.m.<;....m.m.<;.....m.m.<;....m.m.<;....m.m.<;....i...<;....m.m.<;....m.m.<;....m.m.<;....m.m.<;.......m.m.;....m.m.<;.......m.m.<;......m.m.<;....m.m.<;....m.m.<;....m.m.<;....m.m.<;....m.m.<;....m.m.<;....m.m.<;....m.m.<;.....m.m.<;....m.m.<;....m.m.<;......m.m.<;.......m.m.<;....m.m.<;....m.m.<;....m.m.<;....m.m.<;....m.m.;......m.m.<;.....m.m.<;....m.m.<;......m.m.<;......m.m.<;....m.m.<;....m.m.<;....m.m.<;......m.m.<;....m.m.<;....m.m.<;....m.m.<;....m.m.;....m.m.<;....m.m.<;....m.m.;....m.m.<;......m.m.<;....m.m.;......m.m.<;........m.m.<;....m.m.<;....m.m.<;......m.m.<;....m.m.<;....m.m.<;....m.m.<;......m.m.<;....m.m.<;.....m.m.<;....m.m.<;....m.m.<;.....m.m.<;....m.m.<;......m.m.<;.....m.m.<;......m.m.<;....m.m.<;....m.m.<;....m.m.<;....m.m.<;....m.m.<;....m.m.<;....m.m.<;....m.m.<;....m.m.<;....m.m.<;....m.m.<;...i...<;....m.m.<;....m.m.<;....m.m.<;....m.m.<;....m.m.<;....m.m.<;....m.m.<;....m.m.<;......m.m.<;....m.m.<;....m.m.<;....m.m.<;....m.m.<;....m.m.<;....m.m.<;.
Best fitness value: ( ! ( o ) ) 1.5
Generation Time :1
Accumulated Learning Time :4
CALLs: 1165    TIMEOUTs: 0    ERRORs: 0
REEVALUATIONS: 699 OF 1454

GENERATION 5/50
....m.m.<;....m.m.<;......m.m.<;....m.m.<;....m.m.<;.....m.m.<;....m.m.<;......m.m.<;....m.m.<;.....m.m.<;.....m.m.<;....m.m.<;....m.m.<;....m.m.<;....m.m.<;....m.m.<;....m.m.<;..........m.m.<;....m.m.<;......m.m.<;....m.m.<;....m.m.<;....m.m.<;....m.m.<;....m.m.<;....m.m.<;....m.m.<;....m.m.<;....m.m.<;....m.m.<;....m.m.<;..........m.m.<;....m.m.<;....m.m.<;....m.m.<;....m.m.<;....m.m.<;.....m.m.<;....m.m.<;....m.m.<;....m.m.<;....m.m.<;....m.m.<;....m.m.<;....m.m.<;....i...<;....m.m.<;......m.m.<;....m.m.<;....m.m.<;....m.m.<;....m.m.<;....m.m.<;......m.m.<;....m.m.<;......m.m.<;....m.m.<;......m.m.<;....m.m.<;....m.m.<;....m.m.<;....m.m.<;......m.m.<;....m.m.<;.......m.m.<;....m.m.<;....m.m.<;....m.m.<;....m.m.<;....m.m.<;....m.m.<;....m.m.<;....m.m.<;....m.m.<;.........m.m.<;....m.m.<;....i...<;......m.m.<;....m.m.<;....m.m.<;........m.m.<;....m.m.<;....m.m.<;....m.m.<;....m.m.<;......m.m.<;......m.m.<;....m.m.<;....m.m.<;....m.m.<;....m.m.<;......m.m.<;....m.m.<;....m.m.<;....m.m.<;....m.m.<;....m.m.<;....m.m.<;....m.m.<;....m.m.<;....m.m.<;....m.m.<;....m.m.<;......m.m.<;....m.m.<;....m.m.<;.....m.m.<;.......m.m.<;....m.m.<;.......m.m.<;....m.m.;....m.m.<;....m.m.<;.....m.m.<;....m.m.<;......m.m.<;.........m.m.<;....m.m.<;....m.m.<;......m.m.<;.....m.m.<;....m.m.<;....m.m.<;....m.m.<;....m.m.<;....m.m.<;....m.m.<;.....m.m.<;....m.m.<;.........m.m.<;....m.m.<;....m.m.<;....m.m.<;....m.m.<;.....m.m.<;....m.m.<;....m.m.<;....m.m.<;....m.m.<;....m.m.<;....m.m.<;....m.m.<;...i...<;....m.m.<;....m.m.<;....m.m.<;....m.m.<;....m.m.<;....m.m.<;....m.m.<;....m.m.<;....m.m.<;....m.m.<;....m.m.<;....m.m.<;....m.m.<;
Best fitness value: ( ( c ) /\ ( o ) ) 1.5
Generation Time :1
Accumulated Learning Time :5
CALLs: 1017    TIMEOUTs: 0    ERRORs: 0
REEVALUATIONS: 926 OF 1888

GENERATION 6/50
....m.m.<;......m.m.<;....m.m.<;....m.m.<;....m.m.<;....m.m.<;....m.m.<;....m.m.<;....m.m.<;....m.m.<;....m.m.<;....m.m.<;.....m.m.<;....m.m.<;..............m.m.<;....m.m.<;....m.m.<;....m.m.<;....m.m.<;....m.m.<;....m.m.<;....m.m.<;....m.m.<;....m.m.<;...i...<;....m.m.<;....m.m.<;.......m.m.<;....m.m.<;.......m.m.<;....m.m.<;....m.m.<;..........m.m.<;..............m.m.<;....m.m.<;....m.m.<;....m.m.<;.....m.m.<;....m.m.<;....m.m.<;....m.m.<;.....m.m.<;.....m.m.<;....m.m.<;......m.m.<;....m.m.<;....m.m.<;....m.m.<;......m.m.<;....m.m.<;....m.m.<;....m.m.<;....m.m.<;........m.m.<;......m.m.<;....m.m.<;....m.m.<;....m.m.<;....m.m.<;....m.m.<;....m.m.<;....m.m.<;......m.m.<;....m.m.;....m.m.<;....m.m.<;....m.m.<;....m.m.<;.......m.m.<;......m.m.<;....m.m.<;....m.m.<;....m.m.<;....m.m.<;....m.m.<;......m.m.<;....m.m.<;....m.m.<;....m.m.<;....m.m.<;....m.m.<;....m.m.<;.......m.m.<;....m.m.<;......m.m.<;....m.m.<;....m.m.<;......m.m.<;....m.m.<;....m.m.<;.....m.m.<;......m.m.<;.........m.m.<;....m.m.<;..........m.m.<;........m.m.<;....m.m.<;....m.m.<;....m.m.<;....m.m.<;.....m.m.<;.....m.m.<;....m.m.<;....m.m.<;....m.m.<;.....m.m.<;......m.m.<;.....i...<;....m.m.<;.....m.m.<;....m.m.<;....m.m.<;......m.m.<;......m.m.<;.......m.m.<;.....m.m.<;....m.m.<;....m.m.<;.....m.m.<;....m.m.<;........m.m.<;....m.m.<;....m.m.<;....m.m.<;....m.m.<;....m.m.<;....m.m.<;....m.m.<;....m.m.<;....m.m.<;...i...<;...i...<;....m.m.<;....m.m.<;....m.m.<;....m.m.<;....m.m.<;....m.m.<;
Best fitness value: ( ! ( o ) ) 1.5
Generation Time :1
Accumulated Learning Time :6
CALLs: 931    TIMEOUTs: 0    ERRORs: 0
REEVALUATIONS: 1171 OF 2335

GENERATION 7/50
....m.m.<;.........m.m.<;....m.m.<;....m.m.<;......m.m.<;....m.m.;....m.m.<;.....m.m.<;................m.m.<;.........m.m.<;....m.m.<;....m.m.<;....m.m.<;....m.m.<;....m.m.<;....m.m.<;....m.m.<;.....m.m.<;....m.m.<;....m.m.;....m.m.<;....m.m.<;.......m.m.<;......m.m.<;....m.m.<;....m.m.<;....m.m.<;....m.m.<;....m.m.<;.....m.m.<;......m.m.<;.....m.m.<;....m.m.<;......m.m.<;.......m.m.<;......m.m.<;....m.m.<;....m.m.<;......m.m.<;.......m.m.<;........m.m.<;....m.m.<;....m.m.<;....m.m.<;......m.m.<;....m.m.<;....m.m.<;....m.m.<;....m.m.<;....m.m.<;....m.m.<;....m.m.<;......m.m.<;....m.m.<;........m.m.<;....m.m.<;....m.m.<;....m.m.<;....m.m.<;....m.m.<;....m.m.<;....m.m.<;....m.m.<;........m.m.<;....m.m.<;....m.m.<;......m.m.<;........m.m.<;....m.m.<;.......m.m.<;....m.m.<;....m.m.<;....m.m.<;....m.m.<;....m.m.<;......m.m.<;.......m.m.<;....m.m.<;.....m.m.<;....m.m.<;....m.m.<;......m.m.<;....m.m.<;.....m.m.<;....m.m.<;....m.m.<;....i...<;....m.m.<;......m.m.<;..........m.m.<;....m.m.<;....m.m.<;......m.m.<;........m.m.<;....m.m.<;....m.m.<;....m.m.<;......m.m.<;.....m.m.<;....m.m.<;......m.m.<;....m.m.<;....m.m.<;....m.m.<;.....m.m.<;.....m.m.<;....m.m.<;....m.m.<;....m.m.<;....m.m.<;....m.m.<;.....m.m.<;....m.m.<;....m.m.<;....m.m.<;.....m.m.<;....m.m.<;....m.m.<;....m.m.<;....m.m.<;....m.m.<;....m.m.<;....m.m.<;....m.m.<;....m.m.<;....m.m.<;....m.m.<;....m.m.<;....m.m.<;....m.m.<;....m.m.<;....m.m.<;....m.m.<;....m.m.<;....m.m.<;....m.m.<;....m.m.<;....m.m.<;....m.m.<;....m.m.<;
Best fitness value: ( ( c ) /\ ( o ) ) 1.5
Generation Time :1
Accumulated Learning Time :7
CALLs: 945    TIMEOUTs: 0    ERRORs: 0
REEVALUATIONS: 1418 OF 2789

GENERATION 8/50
....m.m.<;....m.m.<;......m.m.<;......m.m.<;.......m.m.<;....m.m.<;....m.m.<;.......m.m.<;......m.m.<;.....m.m.<;....m.m.<;......m.m.<;....m.m.<;....m.m.<;.........m.m.<;....m.m.<;....m.m.<;.......m.m.<;......m.m.<;...i...<;.....m.m.<;....m.m.<;.......m.m.<;....m.m.<;....m.m.<;......m.m.<;....m.m.<;....m.m.<;....m.m.<;....m.m.<;....m.m.<;....m.m.<;....m.m.<;....m.m.<;....m.m.<;....m.m.<;.....m.m.<;....m.m.<;...i...<;.....m.m.<;....m.m.<;....m.m.<;....m.m.<;....m.m.<;....m.m.<;....m.m.<;....m.m.<;....m.m.<;......m.m.<;....m.m.<;....m.m.<;....m.m.<;......m.m.<;....m.m.<;....m.m.<;....m.m.<;....m.m.<;....m.m.<;....m.m.<;....m.m.<;......m.m.<;....m.m.<;......m.m.<;....m.m.<;....m.m.<;.....m.m.<;....m.m.<;....m.m.<;........m.m.<;....m.m.<;....m.m.<;....m.m.<;....m.m.<;....m.m.<;....m.m.<;....m.m.<;....m.m.<;....m.m.<;....m.m.<;....m.m.<;....m.m.<;......m.m.<;....m.m.<;....m.m.<;....m.m.<;.....m.m.<;....m.m.<;...i...<;....m.m.<;.......m.m.<;....m.m.<;....m.m.;......m.m.<;....m.m.<;....m.m.;.....m.m.<;.....m.m.<;....m.m.<;....m.m.<;....m.m.<;....m.m.<;....m.m.<;....m.m.<;......m.m.<;....m.m.<;....m.m.<;.......m.m.<;....m.m.<;.....m.m.<;....m.m.<;....m.m.;......m.m.<;.....m.m.<;.........m.m.<;......m.m.<;....m.m.<;....m.m.<;....m.m.<;....m.m.<;....m.m.<;....m.m.<;....m.m.<;....m.m.<;....m.m.<;....m.m.<;....m.m.<;....m.m.<;.....m.m.<;.....m.m.<;....m.m.<;....m.m.<;...i...<;....m.m.<;....m.m.<;....m.m.<;....m.m.<;....m.m.<;....m.m.<;....m.m.<;....m.m.<;....m.m.<;....m.m.<;....m.m.<;....m.m.;....m.m.<;....m.m.<;....m.m.<;....m.m.<;....m.m.<;.....m.m.<;....m.m.<;....m.m.<;....m.m.<;....m.m.<;....m.m.<;
Best fitness value: ( ! ( o ) ) 1.5
Generation Time :1
Accumulated Learning Time :8
CALLs: 1005    TIMEOUTs: 0    ERRORs: 0
REEVALUATIONS: 1670 OF 3247

GENERATION 9/50
....m.m.<;....m.m.<;....m.m.<;....m.m.<;.....m.m.<;....m.m.<;....m.m.<;....m.m.<;....m.m.<;....m.m.<;....m.m.<;....m.m.<;....m.m.<;....m.m.<;....m.m.<;....m.m.<;....m.m.<;.........m.m.<;......m.m.<;......m.m.<;......m.m.<;...........i...<;....m.m.<;....m.m.<;....m.m.<;....m.m.<;.......m.m.<;....m.m.<;.....m.m.<;....m.m.<;....m.m.<;....m.m.<;......m.m.<;....m.m.<;.....m.m.<;....m.m.<;....m.m.<;......m.m.<;....m.m.<;....m.m.<;....m.m.<;......m.m.<;....m.m.<;....m.m.<;....m.m.<;.....m.m.<;....m.m.<;....m.m.<;....m.m.<;.......m.m.<;....m.m.<;....m.m.<;.....m.m.<;....m.m.<;......m.m.<;......m.m.<;.....m.m.<;....m.m.<;....m.m.<;......m.m.<;....m.m.<;....m.m.;....m.m.<;....m.m.<;....m.m.<;....m.m.<;....m.m.<;....m.m.<;...i...<;....m.m.<;....m.m.<;....m.m.<;....m.m.<;.......m.m.<;.....m.m.<;....m.m.<;....m.m.<;....m.m.<;....m.m.<;....m.m.<;....m.m.<;....m.m.<;....m.m.<;....m.m.<;....m.m.<;....m.m.<;....m.m.<;....m.m.<;....m.m.<;....m.m.<;....m.m.<;....m.m.<;....m.m.<;.....m.m.<;.....m.m.<;....m.m.<;....m.m.<;....m.m.<;.....m.m.<;....m.m.<;........m.m.<;....m.m.<;....m.m.<;.....m.m.<;....m.m.<;......m.m.<;....m.m.<;....m.m.<;....m.m.<;....m.m.<;....m.m.<;....m.m.<;...i...<;......m.m.<;.....m.m.<;....m.m.<;....m.m.<;....m.m.<;....m.m.<;....m.m.<;....m.m.<;....m.m.<;.....m.m.<;....m.m.<;....m.m.<;....m.m.<;....m.m.<;....m.m.<;....m.m.<;....m.m.<;....m.m.<;....m.m.<;....m.m.<;....m.m.<;......m.m.<;....m.m.<;....m.m.<;....m.m.<;....m.m.<;....m.m.<;....m.m.<;....m.m.<;
Best fitness value: ( ( c ) /\ ( o ) ) 1.5
Generation Time :1
Accumulated Learning Time :10
CALLs: 915    TIMEOUTs: 0    ERRORs: 0
REEVALUATIONS: 1938 OF 3700

GENERATION 10/50
....m.m.<;.....m.m.<;....m.m.<;......m.m.<;....m.m.<;.....m.m.<;....m.m.<;....m.m.<;.....m.m.<;...i...<;.....m.m.<;....m.m.<;....m.m.<;....m.m.<;......m.m.<;....m.m.<;....m.m.<;....m.m.<;....m.m.<;....m.m.<;.....m.m.<;....m.m.<;....m.m.<;.....m.m.<;......m.m.<;....m.m.<;....m.m.<;....m.m.<;....m.m.<;......m.m.<;....m.m.<;....m.m.<;....m.m.<;......m.m.<;....m.m.<;....m.m.<;....m.m.<;....m.m.<;....m.m.<;.....m.m.<;....m.m.<;....m.m.<;......m.m.<;....m.m.<;......m.m.<;....m.m.<;....m.m.<;....m.m.<;....m.m.<;....m.m.<;....m.m.<;....m.m.<;...i...<;....m.m.<;....m.m.<;......m.m.<;....m.m.<;....m.m.<;....m.m.<;....m.m.<;......m.m.<;....m.m.<;....m.m.<;....m.m.<;......m.m.<;....m.m.<;....m.m.<;....m.m.<;....m.m.;....m.m.<;....m.m.<;....m.m.<;....m.m.<;....m.m.<;......m.m.<;....m.m.<;....m.m.<;....m.m.<;.....m.m.<;.......m.m.<;....m.m.<;....m.m.<;....m.m.<;....m.m.<;.....m.m.<;......m.m.<;....m.m.<;....m.m.<;....m.m.<;....m.m.<;.....m.m.<;....m.m.<;....m.m.<;........m.m.<;....m.m.<;....m.m.<;....m.m.<;....m.m.<;....m.m.<;....m.m.<;....m.m.<;....m.m.<;....m.m.<;....m.m.<;....m.m.<;....m.m.<;......m.m.<;.....m.m.<;....m.m.<;........m.m.<;.....m.m.<;......m.m.<;......m.m.<;....m.m.<;.....m.m.<;....m.m.<;....m.m.<;....m.m.<;....m.m.<;......m.m.<;....m.m.<;....m.m.<;....m.m.<;....m.m.<;....m.m.<;....m.m.<;....m.m.<;.......m.m.<;....m.m.<;....m.m.<;....m.m.<;....m.m.<;....m.m.<;....m.m.<;....m.m.<;....m.m.<;....m.m.;....m.m.<;....m.m.<;....m.m.;....m.m.<;....m.m.<;......m.m.<;....m.m.<;....m.m.<;....m.m.<;....m.m.<;..
Best fitness value: ( ! ( o ) ) 1.5
Generation Time :1
Accumulated Learning Time :11
CALLs: 945    TIMEOUTs: 0    ERRORs: 0
REEVALUATIONS: 2188 OF 4141

GENERATION 11/50
........m.m.<;....m.m.<;....m.m.<;....m.m.<;...i...<;....m.m.<;....m.m.<;....m.m.<;....m.m.<;....m.m.<;....m.m.<;......m.m.<;......m.m.<;......m.m.<;....m.m.<;....m.m.<;....m.m.<;....m.m.<;....m.m.<;....m.m.<;........m.m.<;....m.m.<;....m.m.<;.....m.m.<;....m.m.<;....m.m.<;....m.m.<;....m.m.<;...i...<;........m.m.<;.....m.m.<;....m.m.<;....m.m.<;......m.m.<;....m.m.<;....m.m.<;.....m.m.<;....m.m.<;......m.m.<;.....m.m.<;....m.m.<;....m.m.<;......m.m.<;....m.m.<;.......m.m.<;......m.m.<;......m.m.<;.....m.m.<;....m.m.<;....m.m.<;....m.m.<;....m.m.<;......m.m.<;....m.m.<;....m.m.<;....m.m.<;....m.m.<;....m.m.<;....m.m.<;....m.m.<;....m.m.<;....m.m.<;...i...<;....m.m.<;.......m.m.<;....m.m.<;....m.m.<;....m.m.<;.....m.m.<;....m.m.;....m.m.<;....m.m.<;....m.m.<;....m.m.<;....m.m.<;....m.m.<;....m.m.<;......m.m.<;....m.m.<;....m.m.<;....m.m.<;....m.m.<;....m.m.<;.....m.m.<;......m.m.<;....m.m.<;....m.m.<;......m.m.<;.....m.m.<;....m.m.<;.......i...<;....m.m.<;....m.m.<;....m.m.<;.....m.m.<;....m.m.<;.......m.m.<;....m.m.<;....m.m.<;....m.m.<;....m.m.<;........m.m.<;....m.m.<;....m.m.<;....m.m.<;....m.m.<;....m.m.<;....m.m.<;....m.m.<;....m.m.<;....m.m.<;....m.m.<;......m.m.<;....m.m.<;......m.m.<;.....m.m.<;....m.m.<;....m.m.<;........m.m.<;....m.m.<;....m.m.<;....m.m.<;....m.m.<;....m.m.<;....m.m.<;....m.m.<;....m.m.<;....m.m.<;....m.m.<;....m.m.<;....m.m.<;....m.m.<;....m.m.<;....m.m.<;....m.m.<;....m.m.<;....m.m.<;....m.m.<;....m.m.<;
Best fitness value: ( ( c ) /\ ( o ) ) 1.5
Generation Time :1
Accumulated Learning Time :12
CALLs: 905    TIMEOUTs: 0    ERRORs: 0
REEVALUATIONS: 2457 OF 4593

GENERATION 12/50
......m.m.<;....m.m.<;....m.m.<;....m.m.<;....m.m.<;....m.m.<;....m.m.<;....m.m.<;....m.m.<;....m.m.<;.....m.m.<;....m.m.<;....m.m.<;....m.m.<;...i...<;.....m.m.<;....m.m.<;....m.m.<;.....m.m.<;....m.m.<;....m.m.<;.......m.m.<;....m.m.<;....m.m.<;....m.m.<;.....m.m.<;......m.m.<;....m.m.<;.....m.m.<;.....m.m.<;.....m.m.<;....m.m.<;....m.m.<;....m.m.<;....m.m.<;......m.m.<;....m.m.<;....m.m.<;....m.m.<;....m.m.<;....m.m.<;....m.m.<;....m.m.<;....m.m.<;....m.m.<;....m.m.<;......m.m.<;....m.m.<;....m.m.<;....m.m.<;....m.m.<;....m.m.<;....m.m.<;....m.m.<;....m.m.<;....m.m.<;....m.m.<;......m.m.<;....m.m.<;....m.m.<;....m.m.<;....m.m.<;....m.m.<;.....m.m.<;....m.m.<;....m.m.<;....m.m.;....m.m.<;....m.m.<;.....m.m.<;.....m.m.<;......m.m.<;....m.m.<;....m.m.;....m.m.<;....m.m.<;..........m.m.<;....m.m.<;....m.m.<;....m.m.<;....m.m.<;....m.m.<;....m.m.<;......m.m.<;....m.m.<;....m.m.<;....m.m.<;....m.m.<;....m.m.<;....m.m.<;....m.m.<;.........m.m.<;....m.m.<;.....m.m.<;....m.m.<;....m.m.<;....m.m.<;....m.m.<;....m.m.<;.....m.m.<;....m.m.<;....m.m.<;....m.m.<;....m.m.<;....m.m.<;....m.m.<;....m.m.<;....m.m.<;....m.m.<;....m.m.<;....m.m.<;....m.m.<;......m.m.<;....m.m.<;....m.m.<;....m.m.<;....m.m.<;....m.m.<;......m.m.<;....m.m.<;....m.m.<;....m.m.<;....m.m.<;....m.m.<;....m.m.<;....m.m.<;....m.m.<;....m.m.<;....m.m.<;....m.m.<;....m.m.<;....m.m.<;.....m.m.<;....m.m.<;....m.m.<;
Best fitness value: ( ! ( o ) ) 1.5
Generation Time :0
Accumulated Learning Time :13
CALLs: 855    TIMEOUTs: 0    ERRORs: 0
REEVALUATIONS: 2730 OF 5032

GENERATION 13/50
....m.m.<;....m.m.<;....m.m.<;....m.m.<;......m.m.<;.....m.m.<;....m.m.<;....m.m.<;....m.m.<;...i...<;......m.m.<;....m.m.<;....m.m.<;....m.m.<;....m.m.<;........m.m.<;....m.m.<;....m.m.<;....m.m.<;....m.m.<;....m.m.<;....m.m.<;.........m.m.<;....m.m.<;......m.m.<;....m.m.<;....m.m.<;....m.m.<;........m.m.<;........m.m.<;.......m.m.<;....m.m.<;....m.m.<;...i...<;....m.m.<;....m.m.<;....m.m.<;......m.m.<;....m.m.<;....m.m.<;....m.m.<;......m.m.<;....m.m.<;....m.m.<;....m.m.<;....m.m.<;....m.m.<;......m.m.<;........m.m.<;....m.m.<;.....m.m.<;....m.m.<;....m.m.<;......m.m.<;....m.m.<;....m.m.<;....m.m.<;....m.m.<;....m.m.<;....m.m.<;....m.m.<;....m.m.<;....m.m.<;....m.m.<;....m.m.<;....m.m.<;....m.m.<;....m.m.<;....m.m.<;....m.m.<;....m.m.<;....m.m.<;......m.m.<;....m.m.<;......m.m.<;.....m.m.<;....m.m.<;....m.m.<;....m.m.<;....m.m.<;....m.m.<;....i...<;....m.m.<;......m.m.<;......m.m.<;....m.m.<;.....m.m.<;....m.m.<;......m.m.<;......m.m.<;....m.m.<;....m.m.<;....m.m.<;....m.m.;....m.m.<;....m.m.<;....m.m.<;....m.m.<;....m.m.<;....m.m.<;....m.m.<;....m.m.<;....m.m.<;....m.m.<;....m.m.<;....m.m.<;....m.m.<;.....m.m.<;.......m.m.<;....m.m.<;....m.m.<;....m.m.;....m.m.<;....m.m.<;....m.m.<;...i...<;....m.m.<;....m.m.<;....m.m.<;....m.m.<;....m.m.<;....m.m.<;....m.m.<;....m.m.<;....m.m.<;....m.m.<;....m.m.<;....m.m.<;....m.m.<;....m.m.<;....m.m.<;
Best fitness value: ( ( c ) /\ ( o ) ) 1.5
Generation Time :1
Accumulated Learning Time :14
CALLs: 845    TIMEOUTs: 0    ERRORs: 0
REEVALUATIONS: 3015 OF 5485

GENERATION 14/50
.....m.m.<;....m.m.<;.....m.m.<;....m.m.<;......m.m.<;....m.m.<;....m.m.<;....m.m.<;........m.m.<;.....m.m.<;....m.m.<;....m.m.<;....m.m.<;....m.m.<;......m.m.<;......m.m.<;......m.m.<;....m.m.<;....m.m.<;....m.m.<;......m.m.<;....m.m.<;....m.m.<;....m.m.<;....m.m.<;......m.m.<;....m.m.<;.......m.m.<;....m.m.<;.....m.m.<;....m.m.<;....m.m.<;....m.m.<;....m.m.<;......m.m.<;....m.m.<;....m.m.<;....m.m.<;....m.m.<;....m.m.<;....m.m.<;.....m.m.<;....m.m.<;....m.m.<;....m.m.<;....m.m.<;....m.m.<;......m.m.<;......m.m.<;......m.m.<;....m.m.<;....m.m.<;........m.m.<;....m.m.<;.....m.m.<;....m.m.<;......m.m.<;....m.m.<;....m.m.<;....m.m.<;.....m.m.<;....m.m.<;....m.m.<;....m.m.<;....m.m.<;....m.m.<;......m.m.<;....m.m.<;......m.m.<;.....m.m.<;....m.m.<;....m.m.<;.......m.m.<;.....m.m.<;......m.m.<;....m.m.<;....m.m.<;......m.m.<;....m.m.<;....m.m.<;.....m.m.<;....m.m.<;....m.m.<;.....m.m.<;....m.m.<;....m.m.<;......m.m.<;......m.m.<;....m.m.<;......m.m.<;....m.m.<;....m.m.<;....m.m.<;....m.m.<;......m.m.<;....m.m.<;.....m.m.<;......m.m.;.......m.m.<;....m.m.<;....m.m.<;......m.m.<;....m.m.<;....m.m.<;......m.m.<;...i...<;....m.m.<;....m.m.<;....m.m.<;....m.m.<;....m.m.<;....m.m.<;....m.m.<;....m.m.<;....m.m.<;
Best fitness value: ( ! ( o ) ) 1.5
Generation Time :0
Accumulated Learning Time :15
CALLs: 763    TIMEOUTs: 0    ERRORs: 0
REEVALUATIONS: 3310 OF 5942

GENERATION 15/50
....m.m.<;....m.m.<;....m.m.<;....m.m.<;....m.m.<;....m.m.<;....m.m.<;....m.m.<;.....m.m.<;....m.m.<;....m.m.<;....m.m.<;....m.m.<;....m.m.<;.....m.m.<;....m.m.<;.......m.m.<;....m.m.<;.....m.m.<;....m.m.<;....m.m.<;......m.m.<;....m.m.<;....m.m.<;....m.m.<;....m.m.;.....m.m.<;....m.m.<;....m.m.<;......m.m.<;....m.m.<;....m.m.<;....m.m.<;....m.m.<;....m.m.<;....m.m.<;......m.m.<;......m.m.<;......m.m.<;...i...<;....m.m.<;.....m.m.<;....m.m.<;....m.m.<;....m.m.<;....m.m.<;....m.m.<;........m.m.<;....m.m.<;....m.m.<;.....m.m.<;....m.m.<;....m.m.<;....m.m.<;....m.m.<;....m.m.<;....m.m.<;....m.m.<;....m.m.<;......m.m.<;...i...<;....m.m.<;.......m.m.<;....m.m.<;....m.m.<;....m.m.<;....m.m.<;....m.m.<;....m.m.<;....m.m.<;....m.m.<;....m.m.<;....m.m.<;....m.m.<;........m.m.<;....m.m.<;....m.m.<;....m.m.<;...i...<;....m.m.<;....m.m.<;....m.m.<;....m.m.<;.....m.m.<;.....m.m.<;.....m.m.<;....m.m.<;....m.m.<;....m.m.<;....m.m.<;....m.m.<;......m.m.<;....m.m.<;.....m.m.<;....m.m.<;......m.m.<;....m.m.<;........m.m.<;....m.m.<;.......m.m.<;....m.m.<;....m.m.<;....m.m.<;....m.m.<;....m.m.<;....m.m.<;....m.m.<;....m.m.<;......m.m.<;....m.m.<;....m.m.<;....m.m.<;....m.m.<;....m.m.<;....m.m.<;....m.m.<;....m.m.<;....m.m.<;....m.m.<;....m.m.<;....m.m.<;....m.m.<;....m.m.<;......m.m.<;....m.m.<;....m.m.<;
Best fitness value: ( ( c ) /\ ( o ) ) 1.5
Generation Time :0
Accumulated Learning Time :15
CALLs: 807    TIMEOUTs: 0    ERRORs: 0
REEVALUATIONS: 3608 OF 6400

GENERATION 16/50
....m.m.<;....m.m.<;....m.m.<;....m.m.<;......m.m.<;....m.m.<;......m.m.<;....m.m.<;.......m.m.<;....m.m.<;....m.m.<;....m.m.<;........m.m.<;....m.m.<;.....m.m.<;....m.m.<;....m.m.<;....m.m.<;....m.m.<;....m.m.<;....m.m.<;....m.m.<;....m.m.<;....m.m.<;....m.m.<;.....m.m.<;....m.m.<;.....m.m.<;....m.m.<;....i...<;....m.m.;....m.m.<;....m.m.<;....m.m.<;....m.m.<;....m.m.<;....m.m.<;....m.m.<;....m.m.<;....m.m.<;....m.m.<;....m.m.<;....m.m.<;....m.m.<;.....m.m.<;.....m.m.<;....m.m.<;....m.m.<;......m.m.<;....m.m.<;....m.m.<;......m.m.<;....m.m.<;....m.m.<;....m.m.<;....m.m.<;....m.m.<;....m.m.<;....m.m.<;....m.m.<;...i...<;....m.m.<;....m.m.<;....m.m.<;......m.m.<;....m.m.<;....m.m.<;....m.m.<;....m.m.<;....m.m.<;....m.m.<;....m.m.<;....m.m.<;....m.m.<;....m.m.<;........m.m.<;.....m.m.<;....m.m.<;....m.m.<;.....m.m.<;.......m.m.<;....m.m.<;....m.m.<;.....m.m.<;.....m.m.<;....m.m.<;....m.m.<;....m.m.<;....m.m.<;....m.m.<;....m.m.<;....m.m.<;....m.m.<;....m.m.<;.....m.m.<;....m.m.<;....m.m.<;........m.m.<;....m.m.<;.......m.m.<;....m.m.<;....m.m.<;....m.m.<;......m.m.<;....m.m.<;....m.m.<;....m.m.<;....m.m.<;....m.m.<;......m.m.<;....m.m.<;....m.m.<;....m.m.<;....m.m.<;....m.m.<;....m.m.<;....m.m.<;...i...<;....m.m.<;....m.m.<;....m.m.<;....m.m.<;....m.m.<;....m.m.<;....m.m.<;....m.m.<;....m.m.;....m.m.<;....m.m.<;....m.m.<;
Best fitness value: ( ! ( o ) ) 1.5
Generation Time :0
Accumulated Learning Time :16
CALLs: 826    TIMEOUTs: 0    ERRORs: 0
REEVALUATIONS: 3913 OF 6865

GENERATION 17/50
....m.m.<;....m.m.<;....m.m.<;....m.m.<;....m.m.<;....m.m.<;.....m.m.<;....m.m.<;....m.m.<;......m.m.<;....m.m.<;....m.m.<;....m.m.<;....m.m.<;....m.m.<;....m.m.<;....m.m.<;....m.m.<;....m.m.<;......m.m.<;......m.m.<;....m.m.<;....m.m.<;....m.m.<;....m.m.<;....m.m.<;....m.m.<;....m.m.<;....m.m.<;....m.m.<;.....m.m.<;....m.m.<;......m.m.<;....m.m.<;....m.m.<;....m.m.<;....m.m.<;......m.m.<;....m.m.<;....m.m.<;....m.m.<;....m.m.<;....m.m.<;....m.m.<;...i...<;....m.m.<;....m.m.<;....m.m.<;......m.m.<;....m.m.<;......m.m.<;....m.m.<;....m.m.<;....m.m.<;....m.m.<;....m.m.<;....m.m.<;....m.m.<;.....m.m.<;....m.m.<;......m.m.<;....m.m.<;....m.m.<;....m.m.<;....m.m.<;....m.m.<;....m.m.<;.....m.m.<;....m.m.<;.....m.m.<;....m.m.<;......m.m.<;....m.m.<;....m.m.<;....m.m.;.....m.m.<;....m.m.<;....m.m.<;....m.m.<;....m.m.<;....m.m.<;....m.m.<;....m.m.<;....m.m.<;....m.m.<;......m.m.<;....m.m.<;....m.m.<;....m.m.<;........m.m.<;....m.m.<;......m.m.<;......m.m.<;....m.m.<;....m.m.<;....m.m.<;....m.m.<;....m.m.<;....m.m.<;....m.m.<;....m.m.<;....m.m.<;....m.m.<;....m.m.<;.....m.m.<;....m.m.<;....m.m.<;....m.m.<;....m.m.<;....m.m.<;....m.m.<;....m.m.<;....m.m.<;....m.m.<;....m.m.<;....m.m.<;....m.m.<;....m.m.<;....m.m.<;....m.m.<;....m.m.<;....m.m.<;....m.m.<;....m.m.<;....m.m.<;....m.m.<;
Best fitness value: ( ( c ) /\ ( o ) ) 1.5
Generation Time :0
Accumulated Learning Time :17
CALLs: 791    TIMEOUTs: 0    ERRORs: 0
REEVALUATIONS: 4208 OF 7311

GENERATION 18/50
....m.m.<;....m.m.<;....m.m.<;....m.m.<;....m.m.<;....m.m.<;....m.m.<;....m.m.<;....m.m.<;....m.m.<;....m.m.<;....m.m.<;....m.m.<;....m.m.<;....m.m.<;....m.m.<;....m.m.<;....m.m.<;....m.m.<;....m.m.<;....m.m.<;....m.m.<;....m.m.<;....m.m.<;....m.m.<;....m.m.<;....m.m.<;....m.m.<;.....m.m.<;......m.m.<;.....m.m.<;......m.m.<;....m.m.<;........m.m.<;....m.m.<;....m.m.<;....m.m.<;....m.m.<;....m.m.<;....m.m.<;....m.m.<;....m.m.<;....m.m.<;....m.m.<;....m.m.<;....m.m.<;....m.m.<;....m.m.<;....m.m.<;....m.m.<;.....m.m.<;........m.m.<;....m.m.<;....m.m.<;....m.m.<;.....m.m.<;....m.m.<;....m.m.<;....m.m.<;....m.m.<;......m.m.<;....m.m.<;....m.m.<;....m.m.<;....m.m.<;....m.m.<;....m.m.<;...i...<;........m.m.<;....m.m.<;....m.m.<;......m.m.<;....m.m.<;....m.m.<;....m.m.<;....m.m.<;....m.m.<;....m.m.<;....m.m.<;....m.m.<;....m.m.<;....m.m.<;....m.m.<;....m.m.<;....m.m.<;........m.m.<;....m.m.<;....m.m.<;....m.m.<;....m.m.<;....m.m.<;....m.m.<;....m.m.<;....m.m.<;....m.m.<;....m.m.<;....m.m.<;....m.m.<;....m.m.<;......m.m.<;....m.m.;....m.m.<;....m.m.<;.....m.m.<;....m.m.<;....m.m.<;.....m.m.<;....m.m.<;......m.m.<;.....m.m.<;....m.m.<;......m.m.<;....m.m.<;......m.m.<;....m.m.<;....m.m.<;....m.m.<;....m.m.<;....m.m.<;....m.m.<;....m.m.<;....m.m.<;....m.m.<;....m.m.<;....m.m.<;....m.m.<;....m.m.<;....m.m.<;...i...<;....m.m.<;......m.m.<;....m.m.<;....m.m.<;......m.m.<;....m.m.<;
Best fitness value: ( ! ( o ) ) 1.5
Generation Time :0
Accumulated Learning Time :18
CALLs: 853    TIMEOUTs: 0    ERRORs: 0
REEVALUATIONS: 4508 OF 7771

GENERATION 19/50
....m.m.<;....m.m.<;....m.m.<;....m.m.<;....m.m.<;....m.m.<;.....m.m.<;....m.m.<;....m.m.<;......m.m.<;....m.m.<;....m.m.<;......m.m.<;....m.m.<;....m.m.<;......m.m.<;....m.m.<;......m.m.<;....m.m.<;....m.m.;....m.m.<;....m.m.<;....m.m.<;....m.m.<;....m.m.<;....m.m.<;.......m.m.<;....m.m.<;....m.m.<;....m.m.<;....m.m.<;....m.m.<;....m.m.<;....m.m.<;....m.m.<;....m.m.<;....m.m.<;....m.m.<;....m.m.<;....m.m.<;.....m.m.<;....m.m.<;....m.m.<;.......m.m.<;....m.m.<;....m.m.<;....m.m.<;....m.m.<;.....m.m.<;....m.m.<;....m.m.<;....m.m.<;....m.m.<;....m.m.<;....m.m.<;....m.m.<;....m.m.<;....m.m.<;....m.m.<;....m.m.<;....m.m.<;....m.m.<;....m.m.<;....m.m.<;....m.m.<;....m.m.<;....m.m.<;....m.m.<;....m.m.<;....m.m.<;....m.m.<;......m.m.<;....m.m.<;....m.m.<;....m.m.<;....m.m.<;....m.m.<;....m.m.<;....m.m.<;....m.m.<;....m.m.<;....m.m.<;.....m.m.<;....m.m.<;....m.m.<;....m.m.<;....m.m.<;....m.m.<;....m.m.<;....m.m.<;....m.m.<;....m.m.<;....m.m.<;........m.m.<;.....m.m.<;......m.m.<;.....m.m.<;....m.m.<;....m.m.<;....m.m.<;....m.m.<;....m.m.<;....m.m.<;....m.m.<;....m.m.<;....m.m.<;....m.m.<;....m.m.<;....m.m.<;....m.m.<;....m.m.<;....m.m.<;....m.m.<;....m.m.<;......m.m.<;....m.m.<;......m.m.<;....m.m.<;....m.m.<;....m.m.<;....m.m.<;....m.m.<;....m.m.<;....m.m.<;....m.m.<;....m.m.<;....m.m.<;....m.m.<;....m.m.<;....m.m.<;....m.m.<;....m.m.<;....m.m.<;....m.m.<;
Best fitness value: ( ( c ) /\ ( o ) ) 1.5
Generation Time :0
Accumulated Learning Time :19
CALLs: 836    TIMEOUTs: 0    ERRORs: 0
REEVALUATIONS: 4815 OF 8232

GENERATION 20/50
.........m.m.<;....m.m.<;....m.m.<;....m.m.<;....m.m.<;....m.m.<;.....m.m.<;......m.m.<;....m.m.<;....m.m.<;....m.m.<;...............m.m.<;....m.m.<;.......m.m.<;....m.m.<;....m.m.<;....m.m.<;......m.m.<;....m.m.<;....m.m.<;....m.m.<;....m.m.<;....m.m.<;....m.m.<;....m.m.<;....m.m.<;....m.m.<;......m.m.<;....m.m.<;.....m.m.<;....m.m.<;....m.m.<;....m.m.<;....m.m.<;....m.m.<;....m.m.<;....m.m.<;....m.m.<;....m.m.<;....m.m.<;....m.m.<;.......m.m.<;....m.m.<;....m.m.<;....m.m.<;....m.m.<;....m.m.<;.........m.m.<;....m.m.<;....m.m.<;......m.m.<;....m.m.<;....m.m.<;.....m.m.<;.....m.m.<;....m.m.;....m.m.<;....m.m.<;....m.m.<;....m.m.<;....m.m.<;....m.m.<;....m.m.<;....m.m.<;.....m.m.<;......m.m.<;....m.m.<;....m.m.<;....m.m.<;....m.m.<;....m.m.<;....m.m.;....m.m.<;....m.m.<;....m.m.<;....m.m.<;....m.m.<;....m.m.<;....m.m.<;....m.m.<;....m.m.<;....m.m.<;......m.m.<;....m.m.<;....m.m.<;....m.m.<;......m.m.<;....m.m.<;....m.m.<;....m.m.<;....m.m.<;....m.m.<;......m.m.<;....m.m.<;........m.m.<;......m.m.<;....m.m.<;....m.m.<;....m.m.<;....m.m.<;....m.m.<;....m.m.<;....m.m.<;.....m.m.<;....m.m.<;....m.m.<;....m.m.<;....m.m.<;......m.m.<;....m.m.<;....m.m.<;....m.m.;....m.m.<;....m.m.<;....m.m.<;....m.m.<;....m.m.<;....m.m.<;
Best fitness value: ( ! ( o ) ) 1.5
Generation Time :0
Accumulated Learning Time :20
CALLs: 765    TIMEOUTs: 0    ERRORs: 0
REEVALUATIONS: 5116 OF 8686

GENERATION 21/50
....m.m.<;....m.m.<;....m.m.<;....m.m.<;....m.m.<;....m.m.<;....m.m.<;.....m.m.<;....m.m.<;......m.m.<;....m.m.<;....m.m.<;..........m.m.<;....m.m.<;.....m.m.<;....m.m.<;.....m.m.<;....m.m.;....m.m.<;.....m.m.<;....m.m.<;....m.m.<;....m.m.<;....m.m.<;....m.m.<;.......m.m.<;....m.m.<;....m.m.<;......m.m.<;....m.m.<;....m.m.<;....m.m.<;....m.m.<;....m.m.<;.........m.m.<;....m.m.<;....m.m.<;....m.m.<;.......m.m.<;.....m.m.<;........m.m.<;....m.m.<;....m.m.<;....m.m.<;....m.m.<;......m.m.<;....m.m.<;....m.m.<;......m.m.<;....m.m.<;....m.m.<;....m.m.<;....m.m.<;....m.m.<;....m.m.<;....m.m.<;....m.m.<;....m.m.<;....m.m.<;....m.m.<;....m.m.<;....m.m.<;....m.m.<;....m.m.<;....m.m.<;....m.m.<;....m.m.<;....m.m.<;....m.m.<;...i...<;....m.m.<;....m.m.<;....m.m.<;....m.m.<;.....i...<;....m.m.<;.....m.m.<;....m.m.<;....m.m.<;....m.m.<;....m.m.<;....m.m.<;....m.m.<;...i...<;....m.m.<;....m.m.<;....m.m.<;....m.m.<;......m.m.<;....m.m.<;....m.m.<;....m.m.<;....m.m.<;....m.m.<;....m.m.<;....m.m.<;....m.m.<;....m.m.<;....m.m.<;....m.m.<;....m.m.<;....m.m.<;....m.m.<;....m.m.<;....m.m.<;......m.m.<;....m.m.<;....m.m.<;....m.m.<;......m.m.<;....m.m.<;....m.m.<;....m.m.<;....m.m.<;....m.m.<;....m.m.<;....m.m.<;....m.m.<;....m.m.<;....m.m.<;....m.m.<;....m.m.<;....m.m.<;....m.m.<;....m.m.<;....m.m.<;....m.m.<;....m.m.<;....m.m.<;....m.m.<;....m.m.<;....m.m.<;....m.m.<;
Best fitness value: ( ( c ) /\ ( o ) ) 1.5
Generation Time :0
Accumulated Learning Time :21
CALLs: 841    TIMEOUTs: 0    ERRORs: 0
REEVALUATIONS: 5430 OF 9159

GENERATION 22/50
....m.m.<;....m.m.<;....m.m.<;....m.m.<;....m.m.<;....m.m.<;....m.m.<;.....m.m.<;....m.m.<;....m.m.<;....m.m.<;....m.m.<;......m.m.<;....m.m.<;....m.m.<;......m.m.<;....m.m.<;....m.m.<;....m.m.<;.....m.m.<;.....m.m.<;....m.m.<;....m.m.;....m.m.<;....m.m.<;....m.m.<;....m.m.<;....m.m.<;....m.m.<;....m.m.<;....m.m.<;....m.m.<;....m.m.<;.......m.m.<;....m.m.<;........m.m.<;.....m.m.<;....m.m.<;....m.m.<;......m.m.<;.....m.m.<;.....m.m.<;....m.m.<;....m.m.<;....m.m.<;......m.m.<;....m.m.<;...i...<;....m.m.<;.....m.m.<;....m.m.<;......m.m.<;....m.m.<;....m.m.<;....m.m.<;....m.m.<;....m.m.<;....m.m.<;.....m.m.<;....m.m.<;....m.m.<;.......m.m.<;....m.m.<;....m.m.<;....m.m.<;....m.m.<;....m.m.<;....m.m.<;....m.m.<;....m.m.<;.......m.m.<;.....m.m.<;....m.m.<;....m.m.<;......m.m.<;....m.m.<;.....m.m.<;....m.m.<;....m.m.<;....m.m.<;....m.m.<;.......m.m.<;....m.m.<;....m.m.<;....m.m.<;....m.m.<;....m.m.<;....m.m.<;....m.m.<;....m.m.<;....m.m.<;......m.m.<;....m.m.<;.....m.m.<;....m.m.<;....m.m.<;....m.m.<;....m.m.<;....m.m.<;....m.m.<;......m.m.<;.....m.m.<;....m.m.<;....m.m.<;....m.m.<;....m.m.<;....m.m.<;....m.m.<;....m.m.<;....m.m.<;....m.m.<;....m.m.<;....m.m.<;....m.m.<;....m.m.<;....m.m.<;....m.m.<;....m.m.<;....m.m.<;....m.m.<;....m.m.<;
Best fitness value: ( ! ( o ) ) 1.5
Generation Time :0
Accumulated Learning Time :22
CALLs: 770    TIMEOUTs: 0    ERRORs: 0
REEVALUATIONS: 5735 OF 9617

GENERATION 23/50
......m.m.<;......m.m.<;....m.m.<;............m.m.<;....m.m.<;....m.m.<;....m.m.<;......m.m.<;....m.m.<;....m.m.<;.....m.m.<;....m.m.<;....m.m.<;.....m.m.<;......m.m.<;....m.m.<;....m.m.<;......m.m.<;....m.m.<;....m.m.<;....m.m.<;....m.m.<;....m.m.<;....m.m.<;.....m.m.<;....m.m.<;.......m.m.<;.....m.m.<;....m.m.<;....m.m.<;....m.m.<;.......m.m.<;....m.m.<;....m.m.<;.....m.m.<;......m.m.<;....m.m.<;....m.m.<;....m.m.<;....m.m.<;.....m.m.<;....m.m.<;....m.m.<;....m.m.<;....m.m.<;.....m.m.<;....m.m.<;....m.m.<;......m.m.<;.....m.m.<;....m.m.<;.....m.m.<;....m.m.<;....m.m.<;....m.m.<;.....m.m.<;....m.m.<;....m.m.<;......m.m.<;.....m.m.<;....m.m.<;....m.m.<;....m.m.<;....m.m.<;....m.m.<;....m.m.<;....m.m.<;....m.m.<;....m.m.<;....m.m.<;....m.m.<;....m.m.<;....m.m.<;....m.m.<;....m.m.<;....m.m.<;....m.m.<;.....m.m.<;....m.m.<;......m.m.<;....m.m.<;......m.m.<;......m.m.<;....m.m.<;....m.m.<;....m.m.<;....m.m.<;....m.m.<;....m.m.<;....m.m.<;....m.m.<;.....m.m.<;....m.m.<;......m.m.<;....m.m.<;....m.m.<;....m.m.<;....m.m.<;....m.m.;....m.m.<;....m.m.<;
Best fitness value: ( ( c ) /\ ( o ) ) 1.5
Generation Time :0
Accumulated Learning Time :23
CALLs: 657    TIMEOUTs: 0    ERRORs: 0
REEVALUATIONS: 6057 OF 10073

GENERATION 24/50
.....m.m.<;....m.m.<;....m.m.<;....m.m.<;....m.m.<;....m.m.<;......m.m.<;....m.m.<;.....m.m.<;....m.m.<;....m.m.<;.....m.m.<;.....m.m.<;....m.m.<;......m.m.<;....m.m.<;....m.m.<;......m.m.<;....m.m.<;....m.m.<;.....m.m.<;....m.m.<;....m.m.<;....m.m.<;....m.m.<;....m.m.<;.......m.m.<;....m.m.<;....m.m.<;....m.m.<;....m.m.<;....m.m.<;....m.m.<;....m.m.<;.....m.m.<;....m.m.<;......m.m.<;....m.m.<;....m.m.<;....m.m.<;....m.m.<;....m.m.<;....m.m.<;....m.m.<;....m.m.<;....m.m.<;....m.m.<;....m.m.<;....m.m.<;....m.m.<;....m.m.<;....m.m.<;.....m.m.<;......m.m.<;....m.m.<;....m.m.<;....m.m.<;...i...<;....m.m.<;....m.m.<;....m.m.<;....m.m.<;....m.m.<;....m.m.<;.....m.m.<;....m.m.<;....m.m.<;....m.m.<;....m.m.<;....m.m.<;....m.m.<;....m.m.<;....m.m.<;....m.m.<;....m.m.<;....m.m.<;....m.m.<;....m.m.<;....m.m.<;....m.m.<;....m.m.<;....m.m.<;....m.m.<;....m.m.<;......m.m.<;....m.m.<;........m.m.<;.....i...<;....m.m.<;....m.m.<;..........m.m.<;.....m.m.<;....m.m.<;....m.m.<;....m.m.<;....m.m.<;....m.m.<;....m.m.<;....m.m.<;......m.m.<;....m.m.<;....m.m.<;....m.m.<;....m.m.<;....m.m.<;
Best fitness value: ( ! ( o ) ) 1.5
Generation Time :0
Accumulated Learning Time :23
CALLs: 668    TIMEOUTs: 0    ERRORs: 0
REEVALUATIONS: 6381 OF 10528

GENERATION 25/50
....m.m.<;......m.m.<;....m.m.<;.....m.m.<;....m.m.<;....m.m.<;....m.m.<;....m.m.<;....m.m.;....m.m.<;....m.m.<;..........m.m.<;....m.m.<;....m.m.<;.....m.m.<;....m.m.<;....m.m.<;......m.m.<;.......m.m.<;....m.m.<;.....m.m.<;....m.m.<;.........i...<;....m.m.<;....m.m.<;....m.m.<;....m.m.<;....m.m.<;....m.m.<;....m.m.<;....m.m.<;....m.m.<;.....m.m.<;....m.m.<;....m.m.<;.....m.m.<;....m.m.<;....m.m.<;....m.m.<;....m.m.<;....m.m.<;......m.m.<;....m.m.<;....m.m.<;....m.m.<;....m.m.<;....m.m.<;....m.m.<;......m.m.;....m.m.<;....m.m.<;....m.m.<;....m.m.<;....m.m.<;....m.m.<;....m.m.<;......m.m.<;....m.m.<;....m.m.<;....m.m.<;....m.m.<;....m.m.<;....m.m.<;....m.m.<;....m.m.<;....m.m.<;....m.m.<;....m.m.<;....m.m.<;....m.m.<;....m.m.<;.....m.m.<;....m.m.<;....m.m.<;......m.m.<;....m.m.<;....m.m.<;....m.m.<;....m.m.<;......m.m.<;.....m.m.<;......m.m.<;.....m.m.<;......m.m.<;......m.m.<;....m.m.<;.....m.m.<;......m.m.<;....m.m.<;......m.m.<;.....m.m.<;....m.m.<;....m.m.<;....m.m.<;....m.m.<;....m.m.<;....m.m.<;....m.m.<;....m.m.<;....m.m.<;....m.m.<;....m.m.<;....m.m.<;....m.m.<;
Best fitness value: ( ( c ) /\ ( o ) ) 1.5
Generation Time :0
Accumulated Learning Time :24
CALLs: 673    TIMEOUTs: 0    ERRORs: 0
REEVALUATIONS: 6722 OF 11006

GENERATION 26/50
....m.m.<;....m.m.<;......m.m.<;....m.m.<;......m.m.<;......m.m.<;.....m.m.<;.....m.m.<;.....m.m.<;....m.m.<;......m.m.<;....m.m.<;......m.m.<;....m.m.<;.....m.m.<;....m.m.<;....m.m.<;....m.m.<;.....m.m.<;....m.m.<;....m.m.<;....m.m.<;....m.m.<;....m.m.<;....m.m.<;....m.m.<;....m.m.<;....m.m.<;....m.m.<;....m.m.<;....m.m.<;....m.m.<;.....m.m.<;.......m.m.<;....m.m.<;....m.m.<;....m.m.<;....m.m.<;....m.m.<;.....m.m.<;....m.m.<;.....m.m.<;.....m.m.<;....m.m.<;......m.m.<;....m.m.<;....m.m.<;....m.m.;....m.m.<;....m.m.<;....m.m.<;....m.m.<;....m.m.<;....m.m.<;....m.m.<;....m.m.<;......m.m.;....m.m.<;....m.m.<;....m.m.<;....m.m.<;....m.m.<;....m.m.<;....m.m.<;....m.m.<;....m.m.<;....m.m.<;....m.m.<;....m.m.<;......m.m.<;....m.m.<;....m.m.<;......m.m.<;....m.m.<;....m.m.<;....m.m.<;....m.m.<;....m.m.<;....m.m.<;....m.m.<;....m.m.<;.....m.m.<;....m.m.<;....m.m.<;........m.m.<;....m.m.<;....m.m.<;....m.m.<;....m.m.<;....m.m.<;....m.m.<;....m.m.<;....m.m.<;....m.m.<;....m.m.<;....m.m.<;....m.m.<;....m.m.<;....m.m.<;....m.m.<;....m.m.<;....m.m.<;....m.m.<;....m.m.<;....m.m.<;
Best fitness value: ( ! ( o ) ) 1.5
Generation Time :0
Accumulated Learning Time :25
CALLs: 665    TIMEOUTs: 0    ERRORs: 0
REEVALUATIONS: 7034 OF 11447

GENERATION 27/50
....m.m.<;....m.m.<;....m.m.<;....m.m.<;....m.m.<;....m.m.<;....m.m.<;....m.m.<;....m.m.<;....m.m.<;....m.m.<;....m.m.<;....m.m.<;....m.m.<;....m.m.<;....m.m.<;.....m.m.<;....m.m.<;....m.m.<;....m.m.<;....m.m.<;....m.m.<;.....m.m.<;....m.m.<;....m.m.<;.....m.m.<;....m.m.<;....m.m.<;....m.m.<;....m.m.<;....m.m.<;....m.m.<;....m.m.<;....m.m.<;....m.m.<;....m.m.<;.......m.m.<;....m.m.<;....m.m.<;.....m.m.;....m.m.<;....m.m.<;.....m.m.<;....m.m.<;......m.m.<;....m.m.<;....m.m.<;....m.m.<;....m.m.<;....m.m.<;.....m.m.<;.....m.m.<;....m.m.<;....m.m.<;....m.m.<;....m.m.<;.....m.m.<;....m.m.<;....m.m.<;......m.m.<;....m.m.<;....m.m.<;.....m.m.<;....m.m.<;....m.m.<;....m.m.<;....m.m.<;....m.m.<;....m.m.<;....m.m.<;....m.m.<;....m.m.<;......m.m.<;......m.m.<;....m.m.<;....m.m.<;....m.m.<;....m.m.<;....m.m.<;....m.m.<;......m.m.<;....m.m.<;....m.m.<;....m.m.<;....m.m.<;....m.m.<;....m.m.<;......m.m.<;.......m.m.<;....m.m.<;.....m.m.<;....m.m.<;....m.m.<;....m.m.<;....m.m.<;....m.m.<;....m.m.<;....m.m.<;....m.m.<;....m.m.<;....m.m.<;....m.m.<;....m.m.<;....m.m.<;....m.m.<;.....m.m.<;....m.m.<;....m.m.<;
Best fitness value: ( ( c ) /\ ( o ) ) 1.5
Generation Time :0
Accumulated Learning Time :26
CALLs: 677    TIMEOUTs: 0    ERRORs: 0
REEVALUATIONS: 7354 OF 11897

GENERATION 28/50
....m.m.<;....m.m.<;....m.m.<;....m.m.<;....m.m.<;....m.m.<;....m.m.<;....m.m.<;....m.m.<;....m.m.<;....m.m.<;....m.m.<;....m.m.<;.......m.m.<;....m.m.<;....m.m.<;....m.m.<;......m.m.<;....m.m.<;....m.m.<;....m.m.<;....m.m.<;....m.m.<;.....m.m.<;....m.m.<;....m.m.<;.....m.m.<;....m.m.<;.....m.m.<;....m.m.<;....m.m.<;....m.m.<;....m.m.<;.......m.m.<;......m.m.<;....m.m.<;....m.m.<;.....m.m.<;....m.m.<;....m.m.<;....m.m.<;....m.m.<;........m.m.<;....m.m.<;.....m.m.<;....m.m.<;....m.m.<;....m.m.<;....m.m.<;....m.m.<;....m.m.<;....m.m.<;....m.m.<;...i...<;....m.m.<;....m.m.<;....m.m.<;....m.m.<;....m.m.<;....m.m.<;....m.m.<;....m.m.<;.....m.m.<;....m.m.<;.......m.m.<;......m.m.<;....m.m.<;....m.m.<;.....m.m.<;.......m.m.<;....m.m.<;....m.m.<;......m.m.<;....m.m.<;.....m.m.<;.....m.m.<;....m.m.<;......m.m.<;.....m.m.<;....m.m.<;....m.m.<;....m.m.<;...i...<;....m.m.<;....m.m.<;....m.m.<;
Best fitness value: ( ! ( o ) ) 1.5
Generation Time :0
Accumulated Learning Time :26
CALLs: 552    TIMEOUTs: 0    ERRORs: 0
REEVALUATIONS: 7695 OF 12349

GENERATION 29/50
....m.m.<;....m.m.<;....m.m.<;....m.m.<;....m.m.<;........m.m.<;....m.m.<;....m.m.<;....m.m.<;....m.m.<;.......m.m.<;.......m.m.<;....m.m.<;......m.m.<;....m.m.<;....m.m.<;....m.m.<;....m.m.<;.....m.m.<;......m.m.<;....m.m.<;....m.m.<;....m.m.<;....m.m.<;....m.m.<;....m.m.<;....m.m.<;....m.m.<;....m.m.<;....m.m.<;....m.m.<;....m.m.<;....m.m.<;....m.m.<;....m.m.<;....m.m.<;....m.m.<;....m.m.<;.....m.m.<;....m.m.<;....m.m.<;....m.m.<;....m.m.<;....m.m.<;....m.m.<;....m.m.<;....m.m.<;....m.m.<;....m.m.<;....m.m.<;....m.m.<;....m.m.<;.......m.m.<;....m.m.<;....m.m.<;....m.m.<;....m.m.<;....m.m.<;...........m.m.<;....m.m.<;....m.m.<;......m.m.<;....m.m.<;......m.m.<;....m.m.<;....m.m.<;....m.m.<;....m.m.<;....m.m.<;....m.m.<;....m.m.<;....m.m.<;....m.m.<;....m.m.<;....m.m.<;....m.m.<;.....m.m.<;....m.m.<;......m.m.<;....m.m.<;....m.m.<;.....m.m.;....m.m.<;....m.m.<;....m.m.<;....m.m.<;....m.m.<;....m.m.<;....m.m.<;....m.m.<;....m.m.<;....m.m.<;....m.m.<;....m.m.<;....m.m.<;....m.m.<;....m.m.<;.....m.m.<;
Best fitness value: ( ( c ) /\ ( o ) ) 1.5
Generation Time :0
Accumulated Learning Time :27
CALLs: 623    TIMEOUTs: 0    ERRORs: 0
REEVALUATIONS: 8014 OF 12790

GENERATION 30/50
....m.m.<;....m.m.<;....m.m.<;.....m.m.<;....m.m.<;....m.m.<;....m.m.<;....m.m.<;....m.m.<;....m.m.<;....m.m.<;...i...<;......m.m.<;....m.m.<;....m.m.<;....m.m.<;....m.m.<;....m.m.<;....m.m.<;....m.m.<;....m.m.<;.....m.m.<;....m.m.<;....m.m.<;....m.m.<;.....m.m.<;....m.m.<;....m.m.<;.....m.m.<;....m.m.<;....m.m.<;....m.m.<;....m.m.<;....m.m.<;....m.m.<;....m.m.<;......m.m.<;....m.m.<;....m.m.<;....m.m.<;....m.m.<;....m.m.<;....m.m.<;....m.m.<;....m.m.<;....m.m.<;....m.m.<;....m.m.<;....m.m.<;......m.m.<;....m.m.<;......m.m.<;.....m.m.<;....m.m.<;....m.m.<;....m.m.<;....m.m.<;....m.m.<;....m.m.<;...i...<;....m.m.<;......m.m.<;....m.m.<;....m.m.<;....m.m.<;......m.m.<;......m.m.<;....m.m.<;....m.m.<;....m.m.<;....m.m.<;......m.m.<;....m.m.<;......m.m.<;....m.m.<;......m.m.<;....m.m.<;....m.m.<;....m.m.<;....m.m.<;...i...<;....m.m.<;.....m.m.<;....m.m.<;....m.m.<;....m.m.<;....m.m.<;....m.m.<;....m.m.<;....m.m.<;......m.m.<;....m.m.<;....m.m.<;....m.m.<;....m.m.<;....m.m.<;....m.m.<;....m.m.<;....m.m.<;....m.m.<;....m.m.<;........m.m.<;....m.m.<;....m.m.<;....m.m.<;.....m.m.<;....m.m.<;....m.m.<;....m.m.<;....m.m.<;....m.m.<;....m.m.<;....m.m.<;....m.m.<;....m.m.<;....m.m.<;......m.m.<;....m.m.<;
Best fitness value: ( ! ( o ) ) 1.5
Generation Time :0
Accumulated Learning Time :28
CALLs: 743    TIMEOUTs: 0    ERRORs: 0
REEVALUATIONS: 8333 OF 13248

GENERATION 31/50
....m.m.<;....m.m.<;....m.m.<;....m.m.<;....m.m.<;....m.m.<;....m.m.<;.....m.m.<;....m.m.<;....m.m.<;........m.m.<;....m.m.<;....m.m.<;....m.m.<;....m.m.<;....m.m.<;........m.m.<;....m.m.<;....m.m.<;....m.m.<;....m.m.<;....m.m.<;....m.m.<;....m.m.<;....m.m.<;....m.m.<;....m.m.<;....m.m.<;......m.m.<;....m.m.<;.......m.m.<;.....m.m.<;....m.m.<;....m.m.<;....m.m.<;....m.m.<;....m.m.<;....m.m.<;....m.m.;....m.m.<;....m.m.<;....m.m.<;....m.m.<;......m.m.<;.......m.m.<;....m.m.<;....m.m.<;....m.m.<;....m.m.<;....m.m.<;....m.m.<;....m.m.<;....m.m.<;....m.m.<;......m.m.<;....m.m.<;....m.m.<;....m.m.<;....m.m.<;......m.m.<;....m.m.<;......m.m.<;......m.m.<;......m.m.<;....m.m.<;....m.m.<;.....m.m.<;....m.m.<;....m.m.<;....m.m.<;....m.m.<;....m.m.<;....m.m.<;....m.m.<;....m.m.<;....m.m.<;....m.m.<;....m.m.<;....m.m.<;....m.m.<;....m.m.<;....m.m.<;....m.m.<;....m.m.<;....m.m.<;....m.m.<;....m.m.<;....m.m.<;....m.m.<;....m.m.<;......m.m.<;......m.m.<;....m.m.<;....m.m.<;....m.m.<;....m.m.<;....m.m.<;....m.m.<;....m.m.<;....m.m.<;......m.m.<;....m.m.<;....m.m.<;...i...<;....m.m.<;......m.m.<;....m.m.<;....m.m.<;....m.m.<;....m.m.<;....m.m.<;....m.m.<;....m.m.<;....m.m.<;
Best fitness value: ( ( c ) /\ ( o ) ) 1.5
Generation Time :0
Accumulated Learning Time :28
CALLs: 723    TIMEOUTs: 0    ERRORs: 0
REEVALUATIONS: 8634 OF 13688

GENERATION 32/50
....m.m.<;....m.m.<;....m.m.<;....m.m.<;......m.m.<;....m.m.<;.....m.m.<;....m.m.<;.....m.m.<;....m.m.<;....m.m.<;....m.m.<;....m.m.<;.....m.m.<;........m.m.<;....m.m.<;....m.m.<;....m.m.<;....m.m.<;....m.m.<;....m.m.<;....m.m.<;....m.m.<;....m.m.<;....m.m.<;....m.m.<;....m.m.<;....m.m.<;....m.m.<;....m.m.<;.......m.m.<;.....m.m.<;....m.m.<;....m.m.<;.....m.m.<;....m.m.<;....m.m.<;....m.m.<;....m.m.<;....m.m.<;....m.m.<;......m.m.<;....m.m.<;....m.m.<;....m.m.<;....m.m.<;....m.m.<;....m.m.<;.....m.m.<;.......m.m.<;....m.m.<;....m.m.<;....m.m.<;....m.m.<;....m.m.<;....m.m.<;.....m.m.<;....m.m.<;....m.m.<;....m.m.<;......m.m.<;....m.m.<;.......m.m.<;....m.m.<;....m.m.<;.....m.m.<;....m.m.<;....m.m.<;....m.m.<;....m.m.<;....m.m.<;....m.m.<;....m.m.<;....m.m.<;....m.m.<;....m.m.<;....m.m.<;....m.m.<;....m.m.<;.....m.m.<;....m.m.<;....m.m.<;....m.m.<;.....m.m.<;....m.m.<;....m.m.<;....m.m.<;....m.m.<;....m.m.<;....m.m.<;....m.m.<;....m.m.<;......m.m.<;....m.m.<;....m.m.<;......m.m.<;....m.m.<;....m.m.<;....m.m.<;.....m.m.<;....m.m.<;.....m.m.<;....m.m.<;....m.m.<;....m.m.<;....m.m.<;......m.m.<;.....m.m.<;........m.m.<;....m.m.<;....m.m.<;....m.m.<;....m.m.<;....m.m.<;....m.m.<;....m.m.<;....m.m.<;....m.m.<;
Best fitness value: ( ! ( o ) ) 1.5
Generation Time :0
Accumulated Learning Time :29
CALLs: 750    TIMEOUTs: 0    ERRORs: 0
REEVALUATIONS: 8948 OF 14150

GENERATION 33/50
....m.m.<;....m.m.<;....m.m.<;....m.m.<;....m.m.<;....m.m.<;....m.m.<;....m.m.<;......m.m.<;.......m.m.<;....m.m.<;....m.m.<;....m.m.<;....m.m.<;....m.m.<;....m.m.<;......m.m.<;....m.m.<;....m.m.<;....m.m.<;....m.m.<;....m.m.<;.....m.m.<;....m.m.<;....m.m.<;....m.m.<;.......m.m.<;....m.m.<;....m.m.<;....m.m.<;.....m.m.<;....m.m.<;....m.m.<;......m.m.<;....m.m.<;......m.m.<;....m.m.<;....m.m.<;....m.m.<;....m.m.<;....m.m.<;....m.m.<;....m.m.<;....m.m.<;....m.m.<;.....m.m.<;....m.m.<;.......m.m.<;....m.m.<;........m.m.<;....m.m.<;.....m.m.<;....m.m.<;....m.m.<;....m.m.<;....m.m.<;....m.m.<;....m.m.<;......m.m.<;....m.m.<;....m.m.<;....m.m.<;....m.m.<;....m.m.<;......m.m.<;....m.m.<;....m.m.<;....m.m.<;....m.m.<;....m.m.<;....m.m.<;....m.m.<;....m.m.<;....m.m.<;.....m.m.<;....m.m.<;....m.m.<;......m.m.<;.....m.m.<;....m.m.<;....m.m.<;....m.m.<;....m.m.<;....m.m.<;.....m.m.<;....m.m.<;....m.m.<;....m.m.<;....m.m.<;......m.m.<;....m.m.<;....m.m.<;....m.m.<;.....m.m.<;....m.m.<;....m.m.<;....m.m.<;....m.m.<;....m.m.<;....m.m.<;....m.m.<;....m.m.<;....m.m.<;....m.m.<;.....m.m.<;....m.m.<;....m.m.<;....m.m.<;....m.m.<;....m.m.<;......m.m.<;....m.m.<;....m.m.<;....m.m.<;....m.m.<;....m.m.<;....m.m.<;....m.m.<;....m.m.<;....m.m.<;....m.m.<;....m.m.<;....m.m.<;
Best fitness value: ( ( c ) /\ ( o ) ) 1.5
Generation Time :0
Accumulated Learning Time :30
CALLs: 778    TIMEOUTs: 0    ERRORs: 0
REEVALUATIONS: 9245 OF 14596

GENERATION 34/50
......m.m.<;....m.m.<;....m.m.<;....m.m.<;......m.m.<;....m.m.<;....m.m.<;....m.m.<;....m.m.<;....m.m.<;....m.m.<;....m.m.<;....m.m.<;....m.m.<;....m.m.<;....m.m.<;....m.m.<;....m.m.<;....m.m.<;....m.m.<;....m.m.<;......m.m.<;....m.m.<;....m.m.<;.....m.m.<;....m.m.<;....m.m.<;....m.m.<;....m.m.<;....m.m.<;....m.m.<;....m.m.<;......m.m.<;....m.m.<;.....m.m.<;....m.m.<;.......m.m.<;....m.m.<;....m.m.<;....m.m.<;.....m.m.<;.......m.m.<;....m.m.<;....m.m.<;....m.m.<;....m.m.<;....m.m.<;....m.m.<;.......m.m.<;....m.m.<;....m.m.<;......m.m.<;....m.m.<;....m.m.<;....m.m.<;....m.m.<;....m.m.<;......m.m.<;.....m.m.<;....m.m.<;....m.m.<;....m.m.<;....m.m.<;....m.m.<;....m.m.<;........m.m.<;....m.m.<;....m.m.<;.....m.m.<;....m.m.<;....m.m.<;....m.m.<;.....m.m.<;....m.m.<;....m.m.<;....m.m.<;....m.m.<;....m.m.<;....m.m.<;....m.m.<;....m.m.<;....m.m.<;....m.m.<;....m.m.<;....m.m.<;....m.m.<;....m.m.<;.....m.m.<;....m.m.<;....m.m.<;....m.m.<;....m.m.<;....m.m.<;.......m.m.<;......m.m.<;......m.m.<;....m.m.<;....m.m.<;....m.m.<;.....m.m.<;....m.m.<;....m.m.<;.....m.m.<;....m.m.<;....m.m.<;....m.m.<;....m.m.<;....m.m.<;......m.m.<;....m.m.<;....m.m.<;....m.m.<;....m.m.<;......m.m.<;....m.m.<;.....m.m.<;....m.m.<;....m.m.<;....m.m.<;....m.m.<;....m.m.<;....m.m.<;
Best fitness value: ( ! ( o ) ) 1.5
Generation Time :0
Accumulated Learning Time :31
CALLs: 778    TIMEOUTs: 0    ERRORs: 0
REEVALUATIONS: 9539 OF 15042

GENERATION 35/50
....m.m.<;....m.m.<;....m.m.<;....m.m.<;....m.m.<;....m.m.<;......m.m.<;....m.m.<;....m.m.<;....m.m.<;....m.m.<;....m.m.<;.....m.m.<;......m.m.<;.....m.m.<;....m.m.<;....m.m.<;....m.m.<;....m.m.<;....m.m.<;....m.m.<;....m.m.<;....m.m.<;....m.m.<;....m.m.<;......m.m.<;....m.m.<;....m.m.<;....m.m.<;....m.m.<;....m.m.<;.......m.m.<;....m.m.<;.......m.m.<;.....m.m.<;....m.m.<;....m.m.<;......m.m.<;....m.m.<;....m.m.<;....m.m.<;.....m.m.<;....m.m.<;.....m.m.<;......m.m.<;....m.m.<;....m.m.<;....m.m.<;......m.m.<;......m.m.<;....m.m.<;....m.m.<;....m.m.<;....m.m.<;....m.m.<;....m.m.<;........m.m.<;...i...<;......m.m.<;....m.m.<;....m.m.<;....m.m.<;.....m.m.<;......m.m.<;....m.m.<;....m.m.<;......m.m.<;....m.m.<;....m.m.<;....m.m.<;....m.m.<;....m.m.<;......m.m.<;....m.m.<;.....m.m.<;....m.m.<;....m.m.<;....m.m.<;....m.m.<;....m.m.<;....m.m.<;....m.m.<;.......m.m.<;....m.m.<;....m.m.<;....m.m.<;......m.m.<;....m.m.<;....m.m.<;....m.m.<;......m.m.<;......m.m.<;....m.m.<;.....m.m.<;....m.m.<;....m.m.<;....m.m.<;....m.m.<;....m.m.<;....m.m.<;....m.m.<;....m.m.<;......m.m.<;....m.m.<;....m.m.<;
Best fitness value: ( ( c ) /\ ( o ) ) 1.5
Generation Time :0
Accumulated Learning Time :32
CALLs: 681    TIMEOUTs: 0    ERRORs: 0
REEVALUATIONS: 9839 OF 15481

GENERATION 36/50
....m.m.<;....m.m.<;....m.m.<;......m.m.<;....m.m.<;....m.m.<;......m.m.<;.....m.m.<;....m.m.<;.....m.m.<;....m.m.<;....m.m.<;....m.m.<;....m.m.<;....m.m.<;....m.m.<;....m.m.<;....m.m.<;.....m.m.<;....m.m.<;....m.m.<;....m.m.<;....m.m.<;....m.m.<;....m.m.<;.......m.m.<;....m.m.<;....m.m.<;....m.m.<;....m.m.<;....m.m.<;......m.m.<;.....m.m.<;......m.m.<;....m.m.<;......m.m.<;....m.m.<;....m.m.<;....m.m.<;.....m.m.<;....m.m.<;....m.m.<;....m.m.<;....m.m.<;......m.m.<;....m.m.<;....m.m.<;....m.m.<;....m.m.<;....m.m.<;....m.m.<;....m.m.<;....m.m.<;....m.m.<;....m.m.<;....m.m.<;....m.m.<;.....m.m.<;....m.m.<;....m.m.<;.....m.m.<;....m.m.<;....m.m.<;....m.m.<;....m.m.<;....m.m.<;....m.m.<;....m.m.<;....m.m.<;....m.m.<;....m.m.<;....m.m.<;....m.m.<;......m.m.<;....m.m.<;....m.m.<;....m.m.<;....m.m.<;....m.m.<;....m.m.<;....m.m.<;....m.m.<;....m.m.<;....m.m.<;....m.m.<;....m.m.<;....m.m.<;....m.m.<;......m.m.<;....m.m.<;....m.m.<;....m.m.<;....m.m.<;.....m.m.<;....m.m.<;....m.m.<;....m.m.<;....m.m.<;....m.m.<;....m.m.<;....m.m.<;....m.m.<;....m.m.<;....m.m.<;....m.m.<;....m.m.<;....m.m.<;....m.m.<;....m.m.<;....m.m.<;....m.m.<;....m.m.<;....m.m.<;....m.m.<;....m.m.<;.....m.m.<;....m.m.<;....m.m.<;....m.m.<;....m.m.<;....m.m.<;....m.m.<;....m.m.<;....m.m.<;
Best fitness value: ( ! ( o ) ) 1.5
Generation Time :0
Accumulated Learning Time :32
CALLs: 772    TIMEOUTs: 0    ERRORs: 0
REEVALUATIONS: 10155 OF 15940

GENERATION 37/50
....m.m.<;....m.m.<;....m.m.<;....m.m.<;....m.m.<;....m.m.<;....m.m.<;....m.m.<;....m.m.<;....m.m.<;....m.m.<;......m.m.<;....m.m.<;....m.m.<;....m.m.<;....m.m.<;....m.m.<;....m.m.<;....m.m.<;....m.m.<;......m.m.<;....m.m.<;....m.m.<;....m.m.<;....m.m.<;....m.m.<;....m.m.<;....m.m.<;....m.m.<;......m.m.<;....m.m.<;....m.m.<;......m.m.<;....m.m.<;....m.m.<;.......m.m.<;....m.m.<;....m.m.<;....m.m.<;....m.m.<;.....m.m.<;....m.m.<;....m.m.<;....m.m.<;....m.m.<;....m.m.<;....m.m.<;.....m.m.<;.....m.m.<;....m.m.<;......m.m.<;.....m.m.<;....m.m.<;......m.m.<;.....m.m.<;....m.m.<;....m.m.<;....m.m.<;....m.m.<;....m.m.<;.....m.m.<;....m.m.<;....m.m.<;.......m.m.<;......m.m.<;.....m.m.<;....m.m.<;....m.m.<;....m.m.<;....m.m.<;....m.m.<;....m.m.<;.....m.m.<;....m.m.<;......m.m.<;....m.m.<;....m.m.<;....m.m.<;....m.m.<;....m.m.<;.....m.m.<;....m.m.<;....m.m.<;....m.m.<;....m.m.<;....m.m.<;....m.m.<;......m.m.<;....m.m.<;....m.m.<;....m.m.<;....m.m.<;....m.m.<;......m.m.<;....m.m.<;....m.m.<;....m.m.<;.....m.m.<;....m.m.<;....m.m.<;....m.m.<;.....m.m.<;....m.m.<;...i...<;....m.m.<;....m.m.<;....m.m.<;....m.m.<;....m.m.<;
Best fitness value: ( ( c ) /\ ( o ) ) 1.5
Generation Time :0
Accumulated Learning Time :33
CALLs: 691    TIMEOUTs: 0    ERRORs: 0
REEVALUATIONS: 10455 OF 16375

GENERATION 38/50
....m.m.<;.....m.m.<;........m.m.<;....m.m.<;....m.m.<;....m.m.<;....m.m.<;....m.m.<;....m.m.<;....m.m.<;.....m.m.<;......m.m.<;....m.m.<;....m.m.<;....m.m.<;....m.m.<;....m.m.<;....m.m.<;....m.m.<;....m.m.<;....m.m.<;......m.m.<;....m.m.<;....m.m.<;....m.m.<;....m.m.<;....m.m.<;....m.m.<;....m.m.<;.....m.m.<;....m.m.<;....m.m.<;....m.m.<;....m.m.<;......m.m.<;....m.m.<;....m.m.<;....m.m.<;....m.m.<;....m.m.<;....m.m.<;....m.m.<;....m.m.<;....m.m.<;....m.m.<;....m.m.<;....m.m.<;....m.m.<;....m.m.<;....m.m.<;....m.m.<;....m.m.<;....m.m.<;....m.m.<;....m.m.<;....m.m.<;....m.m.<;....m.m.<;....m.m.<;.....m.m.<;....m.m.<;....m.m.<;....m.m.<;....m.m.<;....m.m.<;....m.m.<;....m.m.<;....m.m.<;....m.m.<;....m.m.<;....m.m.<;....m.m.<;....m.m.<;....m.m.<;....m.m.<;....m.m.<;....m.m.<;....m.m.<;....m.m.<;....m.m.<;....m.m.<;....m.m.<;....m.m.<;....m.m.<;....m.m.<;....m.m.<;....m.m.<;....m.m.<;....m.m.<;....m.m.<;....m.m.<;.....m.m.<;....m.m.<;......m.m.<;....m.m.<;....m.m.<;....m.m.<;....m.m.<;....m.m.<;.....m.m.<;....m.m.<;....m.m.<;....m.m.<;....m.m.<;....m.m.<;....m.m.<;....m.m.<;....m.m.<;....m.m.<;....m.m.<;....m.m.<;....m.m.<;......m.m.<;....m.m.<;....m.m.<;....m.m.<;....m.m.<;......m.m.<;....m.m.<;....m.m.<;......m.m.<;....m.m.<;....m.m.<;....m.m.<;....m.m.<;....m.m.<;....m.m.<;....m.m.<;....m.m.<;....m.m.<;....m.m.<;
Best fitness value: ( ! ( o ) ) 1.5
Generation Time :0
Accumulated Learning Time :34
CALLs: 810    TIMEOUTs: 0    ERRORs: 0
REEVALUATIONS: 10754 OF 16821

GENERATION 39/50
....m.m.<;......m.m.<;.....m.m.<;....m.m.;....m.m.<;....m.m.<;....m.m.<;....m.m.<;....m.m.<;....m.m.<;....m.m.<;....m.m.<;.....m.m.<;........m.m.<;....m.m.<;....m.m.<;......m.m.<;....m.m.<;.....m.m.<;....m.m.<;....m.m.<;....m.m.<;....m.m.<;....m.m.<;....m.m.<;....m.m.<;....m.m.<;....m.m.<;....m.m.<;....m.m.<;....m.m.<;....m.m.<;....m.m.<;....m.m.<;......m.m.<;....m.m.<;....m.m.<;....m.m.<;....m.m.<;....m.m.<;......m.m.<;....m.m.<;....m.m.<;......m.m.<;....m.m.<;....m.m.<;....m.m.<;....m.m.<;....m.m.<;....m.m.<;....m.m.<;....m.m.<;....m.m.<;....m.m.<;....m.m.<;....m.m.<;....m.m.<;....m.m.<;....m.m.<;....m.m.<;.....m.m.<;....m.m.<;....m.m.<;....m.m.<;....m.m.<;....m.m.<;....m.m.<;.....m.m.<;....m.m.<;....m.m.<;....m.m.<;....m.m.<;....m.m.<;....m.m.<;....m.m.<;....m.m.<;....m.m.<;.....m.m.<;....m.m.<;......m.m.<;....m.m.<;....m.m.<;....m.m.<;....m.m.<;....m.m.<;....m.m.<;....m.m.<;....m.m.<;....m.m.<;....m.m.<;....m.m.<;....m.m.<;....m.m.<;....m.m.<;....m.m.<;....m.m.<;....m.m.<;....m.m.<;....m.m.<;....m.m.<;....m.m.<;....m.m.<;....m.m.<;....m.m.<;....m.m.<;....m.m.<;......m.m.<;........m.m.<;....m.m.<;....m.m.<;....m.m.<;....m.m.<;....m.m.<;....m.m.<;....m.m.<;....m.m.<;.....m.m.<;....m.m.<;....m.m.<;....m.m.<;....m.m.<;....m.m.<;....m.m.<;....m.m.<;....m.m.<;....m.m.<;....m.m.<;
Best fitness value: ( ( c ) /\ ( o ) ) 1.5
Generation Time :0
Accumulated Learning Time :35
CALLs: 791    TIMEOUTs: 0    ERRORs: 0
REEVALUATIONS: 11038 OF 17250

GENERATION 40/50
......m.m.<;.....m.m.<;....m.m.<;....m.m.<;....m.m.<;.....m.m.<;....m.m.<;....m.m.<;....m.m.<;......m.m.<;....m.m.<;....m.m.<;....m.m.<;....m.m.<;.....m.m.<;........m.m.<;....m.m.<;.......m.m.<;....m.m.<;....m.m.<;......m.m.<;....m.m.<;....m.m.<;....m.m.<;....m.m.<;....m.m.<;....m.m.<;....m.m.<;......m.m.<;....m.m.<;....m.m.<;....m.m.<;....m.m.<;......m.m.<;......m.m.<;....m.m.<;....m.m.<;....m.m.<;....m.m.<;....m.m.<;....m.m.<;....m.m.<;....m.m.<;......m.m.<;....m.m.<;....m.m.<;....m.m.<;....m.m.<;....m.m.<;....m.m.<;....m.m.<;....m.m.<;....m.m.<;....m.m.<;....m.m.<;....m.m.<;....m.m.<;....m.m.<;....m.m.<;....m.m.<;....m.m.<;....m.m.<;....m.m.<;....m.m.<;....m.m.<;....m.m.<;....m.m.<;....m.m.<;....m.m.<;......m.m.<;.....m.m.<;....m.m.<;....m.m.<;....m.m.<;....m.m.<;....m.m.<;....m.m.<;....m.m.<;....m.m.<;....m.m.<;......m.m.<;....m.m.<;....m.m.<;....m.m.<;....m.m.<;....m.m.<;....m.m.<;......m.m.<;....m.m.<;....m.m.<;....m.m.<;....m.m.<;....m.m.<;....m.m.<;....m.m.<;....m.m.<;......m.m.<;....m.m.<;......m.m.<;....m.m.<;....m.m.<;......m.m.<;....m.m.<;....m.m.<;....m.m.<;....m.m.<;......m.m.<;......m.m.<;.....m.m.<;....m.m.<;....m.m.<;......m.m.<;....m.m.<;....m.m.<;....m.m.<;....m.m.<;....m.m.<;....m.m.<;....m.m.;....m.m.<;....m.m.<;....m.m.<;....m.m.<;
Best fitness value: ( ! ( o ) ) 1.5
Generation Time :0
Accumulated Learning Time :36
CALLs: 782    TIMEOUTs: 0    ERRORs: 0
REEVALUATIONS: 11324 OF 17686

GENERATION 41/50
....m.m.<;....m.m.<;....m.m.<;....m.m.<;....m.m.<;....m.m.<;....m.m.<;....m.m.<;....m.m.<;....m.m.<;....m.m.<;....m.m.<;....m.m.<;....m.m.<;....m.m.<;....m.m.<;.....m.m.<;....m.m.<;......m.m.<;....m.m.<;....m.m.<;....m.m.<;....m.m.<;...........m.m.<;......m.m.<;....m.m.<;....m.m.<;.....m.m.<;.....m.m.<;....m.m.<;....m.m.<;....m.m.<;....m.m.<;....m.m.<;....m.m.<;....m.m.<;....m.m.<;....m.m.<;....m.m.<;....m.m.<;....m.m.<;....m.m.<;....m.m.<;....m.m.<;....m.m.<;....m.m.<;....m.m.<;....m.m.<;....m.m.<;....m.m.<;....m.m.<;....m.m.<;.......m.m.<;....m.m.<;....m.m.<;....m.m.<;....m.m.<;....m.m.<;....m.m.<;....m.m.<;....m.m.<;....m.m.<;....m.m.<;....m.m.<;.....m.m.<;....m.m.<;......m.m.<;....m.m.<;....m.m.<;........m.m.<;....m.m.<;....m.m.<;....m.m.<;....m.m.<;....m.m.<;....m.m.<;....m.m.<;....m.m.<;....m.m.<;....m.m.<;......m.m.<;....m.m.<;....m.m.<;....m.m.<;....m.m.<;....m.m.<;....m.m.<;....m.m.<;....m.m.<;......m.m.<;....m.m.<;....m.m.<;.........m.m.<;....m.m.<;....m.m.<;....m.m.<;....m.m.<;....m.m.<;....m.m.<;.....m.m.<;....m.m.<;....m.m.<;....m.m.<;....m.m.<;....m.m.<;....m.m.<;.....m.m.<;....m.m.<;....m.m.<;......m.m.<;....m.m.<;....m.m.<;....m.m.<;....m.m.<;....m.m.<;....m.m.<;....m.m.<;....m.m.<;.....m.m.<;....m.m.<;....m.m.<;....m.m.<;....m.m.<;....m.m.<;....m.m.<;....m.m.<;....m.m.<;....m.m.<;....m.m.<;....m.m.<;
Best fitness value: ( ( c ) /\ ( o ) ) 1.5
Generation Time :0
Accumulated Learning Time :37
CALLs: 818    TIMEOUTs: 0    ERRORs: 0
REEVALUATIONS: 11597 OF 18113

GENERATION 42/50
.....m.m.<;.....m.m.<;.........m.m.<;....m.m.<;....m.m.<;......m.m.<;....m.m.<;....m.m.<;....m.m.<;....m.m.<;....m.m.<;....m.m.<;......m.m.<;....m.m.<;....m.m.<;....m.m.<;....m.m.<;....m.m.<;....m.m.<;....m.m.<;....m.m.<;....m.m.<;....m.m.<;......m.m.<;....m.m.<;....m.m.<;....m.m.<;....m.m.<;....m.m.<;....m.m.<;.......m.m.<;.....m.m.<;....m.m.<;....m.m.<;....m.m.<;....m.m.<;....m.m.<;....m.m.<;....m.m.<;....m.m.<;....m.m.<;....m.m.<;........m.m.<;....m.m.<;....m.m.<;.......m.m.<;....m.m.<;....m.m.<;....m.m.<;....m.m.<;....m.m.<;....m.m.<;....m.m.<;....m.m.<;....m.m.<;....m.m.<;....m.m.<;......m.m.<;.....i...<;....m.m.<;......m.m.<;....m.m.<;....m.m.<;....m.m.<;....m.m.<;....m.m.<;....m.m.<;....m.m.<;....m.m.<;....m.m.<;....m.m.<;....m.m.<;....m.m.<;......m.m.<;......m.m.<;....m.m.<;....m.m.<;....m.m.<;....m.m.<;.....m.m.<;....m.m.<;....m.m.<;....m.m.<;.....m.m.<;....m.m.<;.....m.m.<;......m.m.<;.......m.m.<;......m.m.<;....m.m.<;....m.m.<;....m.m.<;....m.m.<;....m.m.<;....m.m.<;....m.m.<;....m.m.<;....m.m.<;....m.m.<;....m.m.<;....m.m.<;....m.m.<;....m.m.<;
Best fitness value: ( ! ( o ) ) 1.5
Generation Time :0
Accumulated Learning Time :37
CALLs: 662    TIMEOUTs: 0    ERRORs: 0
REEVALUATIONS: 11899 OF 18547

GENERATION 43/50
....m.m.<;....m.m.<;....m.m.<;....m.m.<;....m.m.<;....m.m.<;....m.m.<;....m.m.<;....m.m.<;....m.m.<;......m.m.<;....m.m.<;....m.m.;....m.m.<;....m.m.<;....m.m.<;....m.m.<;....m.m.<;....m.m.<;....m.m.<;......m.m.<;....m.m.<;....m.m.<;......m.m.<;....m.m.<;....m.m.<;....m.m.<;....m.m.<;....m.m.<;....m.m.<;....m.m.<;....m.m.<;....m.m.<;....m.m.<;....m.m.<;....m.m.;......m.m.<;....m.m.<;....m.m.<;....m.m.<;....m.m.<;....m.m.<;....m.m.<;....m.m.<;....m.m.<;....m.m.<;....m.m.<;....m.m.<;....m.m.<;....m.m.<;....m.m.<;....m.m.<;....m.m.<;....m.m.<;.........m.m.<;....m.m.<;....m.m.<;....m.m.<;....m.m.<;....m.m.<;.....m.m.<;.....m.m.<;....m.m.<;.....m.m.<;....m.m.<;....m.m.<;.....m.m.<;....m.m.<;....m.m.<;....m.m.<;......m.m.<;....m.m.<;....m.m.<;....m.m.<;....m.m.<;....m.m.<;....m.m.<;....m.m.<;....m.m.<;......m.m.<;....m.m.<;....m.m.<;......m.m.<;....m.m.<;.....m.m.<;....m.m.<;.....m.m.<;....m.m.<;....m.m.<;....m.m.<;....m.m.<;....m.m.<;....m.m.<;......m.m.<;....m.m.<;....m.m.<;....m.m.<;....m.m.<;....m.m.<;....m.m.<;....m.m.<;....m.m.<;....m.m.<;....m.m.<;....m.m.<;....m.m.<;....m.m.<;....m.m.<;......m.m.<;....m.m.<;....m.m.<;....m.m.<;...i...<;....m.m.<;....m.m.<;....m.m.<;......m.m.<;....m.m.<;
Best fitness value: ( ( c ) /\ ( o ) ) 1.5
Generation Time :0
Accumulated Learning Time :38
CALLs: 739    TIMEOUTs: 0    ERRORs: 0
REEVALUATIONS: 12214 OF 18999

GENERATION 44/50
....m.m.<;....m.m.<;.....m.m.<;....m.m.<;....m.m.<;....m.m.<;....m.m.<;....m.m.<;....m.m.<;....m.m.<;....m.m.<;....m.m.<;....m.m.<;....m.m.<;....m.m.<;....m.m.<;....m.m.<;.....m.m.<;......m.m.<;....m.m.<;....m.m.<;....m.m.<;....m.m.<;....m.m.<;....m.m.<;.....m.m.;....m.m.<;....m.m.<;....m.m.<;....m.m.<;....m.m.<;....m.m.<;......m.m.<;....m.m.<;....m.m.<;......m.m.<;....m.m.<;..........m.m.<;......m.m.<;....m.m.<;....m.m.<;....m.m.<;....m.m.<;......m.m.<;....m.m.<;.....m.m.<;......m.m.<;......m.m.<;....m.m.<;....m.m.<;....m.m.<;....m.m.<;....m.m.<;....m.m.<;....m.m.<;....m.m.<;....m.m.<;....m.m.<;....m.m.<;....m.m.<;....m.m.<;....m.m.<;.....m.m.<;....m.m.<;....m.m.<;....m.m.<;.....m.m.<;.....m.m.<;....m.m.<;....m.m.<;.....m.m.<;....m.m.<;....m.m.<;......m.m.;....m.m.<;.....m.m.<;.....m.m.<;......m.m.<;....m.m.<;......m.m.<;....m.m.<;....m.m.<;......m.m.<;....m.m.<;....m.m.<;....m.m.<;....m.m.<;....m.m.<;....m.m.<;....m.m.<;....m.m.<;....m.m.<;......m.m.<;....m.m.<;....m.m.<;....m.m.<;....m.m.<;....m.m.<;....m.m.<;....m.m.<;....m.m.<;.....m.m.<;....m.m.<;.........m.m.<;.....m.m.<;....m.m.<;....m.m.<;....m.m.<;....m.m.<;....m.m.<;....m.m.<;....m.m.<;.....m.m.<;....m.m.<;.......m.m.<;....m.m.<;....m.m.<;....m.m.<;....m.m.<;....m.m.<;....m.m.<;....m.m.<;
Best fitness value: ( ! ( o ) ) 1.5
Generation Time :0
Accumulated Learning Time :39
CALLs: 783    TIMEOUTs: 0    ERRORs: 0
REEVALUATIONS: 12506 OF 19448

GENERATION 45/50
....m.m.<;....m.m.<;....m.m.<;....m.m.<;....m.m.<;....m.m.<;....m.m.<;....m.m.<;....m.m.<;....m.m.<;....m.m.<;....m.m.<;....m.m.<;....m.m.<;....m.m.<;....m.m.<;....m.m.<;....m.m.<;....m.m.<;....m.m.<;....m.m.<;....m.m.<;....m.m.<;....m.m.<;....m.m.<;......m.m.<;....m.m.<;......m.m.<;....m.m.<;....m.m.<;....m.m.<;....m.m.<;....m.m.<;....m.m.<;....m.m.<;....m.m.<;.......m.m.<;....m.m.<;....m.m.<;....m.m.<;....m.m.<;....m.m.<;....m.m.<;....m.m.<;....m.m.<;....m.m.<;....m.m.<;....m.m.<;....m.m.<;....m.m.<;....m.m.<;....m.m.<;....m.m.<;....m.m.<;....m.m.<;....m.m.<;....m.m.<;....m.m.<;....m.m.<;......m.m.<;....m.m.<;....m.m.<;....m.m.<;....m.m.<;....m.m.<;.....m.m.<;....m.m.<;....m.m.<;....m.m.<;.....m.m.<;....m.m.<;....m.m.<;....m.m.<;.......m.m.<;....m.m.<;....m.m.<;..........m.m.<;......m.m.<;....m.m.<;....m.m.<;.....m.m.<;....m.m.<;.....m.m.<;....m.m.<;....m.m.<;....m.m.<;....m.m.<;....m.m.<;....m.m.<;....m.m.<;....m.m.<;....m.m.<;....m.m.<;........m.m.<;....m.m.<;....m.m.<;....m.m.<;....m.m.<;.....m.m.<;....m.m.<;....m.m.<;....m.m.<;....m.m.<;....m.m.<;....m.m.<;....m.m.<;....m.m.<;....m.m.<;....m.m.<;....m.m.<;......m.m.<;
Best fitness value: ( ( c ) /\ ( o ) ) 1.5
Generation Time :0
Accumulated Learning Time :40
CALLs: 697    TIMEOUTs: 0    ERRORs: 0
REEVALUATIONS: 12816 OF 19889

GENERATION 46/50
....m.m.<;....m.m.<;....m.m.<;.....m.m.<;....m.m.<;.....m.m.<;....m.m.<;....m.m.<;....m.m.<;....m.m.<;....m.m.<;....m.m.<;....m.m.<;....m.m.<;....m.m.<;....m.m.<;....m.m.<;....m.m.<;....m.m.<;....m.m.<;....m.m.<;....m.m.<;....m.m.<;....m.m.<;....m.m.<;....m.m.<;......m.m.<;....m.m.<;......m.m.<;....m.m.<;.......m.m.<;....m.m.<;....m.m.<;....m.m.<;....m.m.<;....m.m.<;....m.m.<;......m.m.<;......m.m.<;....m.m.<;......m.m.<;....m.m.<;....m.m.<;....m.m.<;....m.m.<;....m.m.<;....m.m.<;......m.m.<;....m.m.<;........m.m.<;....m.m.<;....m.m.<;....m.m.<;....m.m.<;....m.m.<;....m.m.<;....m.m.<;....m.m.<;....m.m.<;....m.m.<;.....m.m.<;....m.m.<;.....m.m.<;....m.m.<;......m.m.<;......m.m.<;....m.m.<;......m.m.<;....m.m.<;....m.m.<;....m.m.<;....m.m.<;....m.m.<;......m.m.<;....m.m.<;....m.m.<;.....m.m.<;....m.m.<;....m.m.<;....m.m.<;....m.m.<;....m.m.<;....m.m.<;....m.m.<;....m.m.<;.........m.m.<;....m.m.<;....m.m.<;.....m.m.<;....m.m.<;....m.m.<;....m.m.<;.....m.m.<;....m.m.<;....m.m.<;....m.m.<;....m.m.<;....m.m.<;.....m.m.<;....m.m.<;....m.m.<;....m.m.<;....m.m.<;......m.m.<;....m.m.<;....m.m.<;....m.m.<;....m.m.<;....m.m.<;....m.m.<;....m.m.<;....m.m.<;....m.m.<;....m.m.<;
Best fitness value: ( ! ( o ) ) 1.5
Generation Time :0
Accumulated Learning Time :40
CALLs: 726    TIMEOUTs: 0    ERRORs: 0
REEVALUATIONS: 13125 OF 20339

GENERATION 47/50
....m.m.<;....m.m.<;....m.m.<;....m.m.<;....m.m.<;....m.m.<;....m.m.<;....m.m.<;....m.m.<;....m.m.<;....m.m.<;....m.m.<;....m.m.<;......m.m.<;........m.m.<;....m.m.<;....m.m.<;....m.m.<;....m.m.<;......m.m.<;....m.m.<;....m.m.<;....m.m.<;....m.m.<;....m.m.<;....m.m.<;....m.m.<;....m.m.<;......m.m.<;....m.m.<;....m.m.<;....m.m.<;....m.m.<;....m.m.<;....m.m.<;....m.m.<;....m.m.<;....m.m.<;....m.m.<;....m.m.<;....m.m.<;......m.m.<;....m.m.<;....m.m.<;....m.m.<;....m.m.<;....m.m.<;....m.m.<;....m.m.<;....m.m.<;.....m.m.<;....m.m.<;....m.m.<;....m.m.<;....m.m.<;....m.m.<;....m.m.<;....m.m.<;....m.m.<;....m.m.<;....m.m.<;....m.m.<;....m.m.<;....m.m.<;....m.m.<;....m.m.<;....m.m.<;......m.m.<;......m.m.<;....m.m.<;....m.m.<;....m.m.<;....m.m.<;....m.m.<;....m.m.<;.....m.m.<;....m.m.<;....m.m.<;....m.m.<;....m.m.<;....m.m.<;......m.m.<;....m.m.<;.....m.m.<;....m.m.<;....m.m.<;....m.m.<;....m.m.<;....m.m.<;....m.m.<;....m.m.<;....m.m.<;....m.m.<;....m.m.<;....m.m.<;....m.m.<;....m.m.<;....m.m.<;....m.m.<;....m.m.<;....m.m.<;....m.m.<;....m.m.<;....m.m.<;....m.m.<;....m.m.<;......m.m.<;....m.m.<;....m.m.<;....m.m.<;......m.m.<;....m.m.<;....m.m.<;....m.m.<;.......m.m.<;....m.m.<;....m.m.<;....m.m.<;
Best fitness value: ( ( c ) /\ ( o ) ) 1.5
Generation Time :0
Accumulated Learning Time :41
CALLs: 736    TIMEOUTs: 0    ERRORs: 0
REEVALUATIONS: 13442 OF 20790

GENERATION 48/50
....m.m.<;....m.m.<;....m.m.<;....m.m.<;....m.m.<;....m.m.<;....m.m.<;....m.m.<;......m.m.<;......m.m.<;....m.m.<;....m.m.<;....m.m.<;....m.m.<;....m.m.<;....m.m.<;....m.m.;....m.m.<;....m.m.<;....m.m.<;....m.m.<;....m.m.<;....m.m.<;....m.m.<;....m.m.<;....m.m.<;....m.m.<;....m.m.<;....m.m.<;..........m.m.<;....m.m.<;....m.m.<;....m.m.<;....m.m.<;....m.m.<;.....m.m.<;....m.m.<;....m.m.<;.....m.m.<;....m.m.<;....m.m.<;....m.m.<;....m.m.<;....m.m.<;.....m.m.<;....m.m.<;....m.m.<;....m.m.<;....m.m.<;.....m.m.<;....m.m.<;....m.m.<;....m.m.<;....m.m.<;....m.m.<;....m.m.<;....m.m.<;....m.m.<;....m.m.<;....m.m.<;.....m.m.<;.....m.m.<;.....m.m.<;....m.m.<;....m.m.<;.....m.m.<;....m.m.<;......m.m.<;....m.m.<;......m.m.<;....m.m.<;....m.m.<;....m.m.<;....m.m.<;....m.m.<;....m.m.<;....m.m.<;....m.m.<;....m.m.<;....m.m.<;....m.m.<;....m.m.<;....m.m.<;....m.m.<;....m.m.<;....m.m.<;....m.m.<;....m.m.<;.....m.m.<;.......m.m.<;.......m.m.<;....m.m.<;....m.m.;....m.m.<;....m.m.<;......m.m.<;....m.m.<;....m.m.<;....m.m.<;.......m.m.<;.....m.m.<;....m.m.<;....m.m.<;....m.m.<;....m.m.<;
Best fitness value: ( ! ( o ) ) 1.5
Generation Time :0
Accumulated Learning Time :42
CALLs: 665    TIMEOUTs: 0    ERRORs: 0
REEVALUATIONS: 13732 OF 21209

GENERATION 49/50
....m.m.<;....m.m.<;....m.m.<;....m.m.<;....m.m.<;....m.m.<;....m.m.<;....m.m.<;....m.m.<;....m.m.<;....m.m.<;....m.m.<;....m.m.<;.....m.m.<;....m.m.<;....m.m.<;......m.m.<;....m.m.<;......m.m.<;.....m.m.<;.....m.m.<;....m.m.<;.....m.m.<;......m.m.<;....m.m.<;....m.m.<;....m.m.<;....m.m.<;....m.m.<;....m.m.<;....m.m.<;....m.m.<;....m.m.<;......m.m.<;....m.m.<;.....m.m.<;....m.m.<;....m.m.<;....m.m.<;....m.m.<;......m.m.<;....m.m.<;....m.m.<;....m.m.<;....m.m.<;....m.m.<;....m.m.<;....m.m.<;....m.m.<;....m.m.<;....m.m.<;....m.m.<;....m.m.<;....m.m.<;....m.m.<;.........m.m.<;....m.m.<;.....m.m.<;....m.m.<;....m.m.<;....m.m.<;....m.m.<;....m.m.<;......m.m.<;....m.m.<;......m.m.<;....m.m.<;....m.m.<;........m.m.<;....m.m.<;....m.m.<;....m.m.<;....m.m.<;....m.m.<;....m.m.<;........m.m.<;....m.m.<;....m.m.<;....m.m.<;....m.m.<;......m.m.<;....m.m.<;.......m.m.<;....m.m.<;....m.m.<;....m.m.<;....m.m.<;....m.m.<;....m.m.<;....m.m.<;....m.m.<;....m.m.<;....m.m.<;....m.m.<;.....m.m.<;....m.m.<;....m.m.<;......m.m.<;....m.m.<;....m.m.<;....m.m.<;....m.m.<;....m.m.<;......m.m.<;....m.m.<;.....m.m.<;....m.m.<;....m.m.<;
Best fitness value: ( ( c ) /\ ( o ) ) 1.5
Generation Time :0
Accumulated Learning Time :43
CALLs: 692    TIMEOUTs: 0    ERRORs: 0
REEVALUATIONS: 14039 OF 21654

GENERATION 50/50
....m.m.<;....m.m.<;....m.m.<;.....m.m.<;....m.m.<;.....m.m.<;....m.m.<;....m.m.<;....m.m.<;....m.m.<;....m.m.<;....m.m.<;.....m.m.<;....m.m.<;....m.m.<;....m.m.<;....m.m.<;....m.m.<;....m.m.<;......m.m.<;....m.m.<;.....m.m.<;....m.m.<;....m.m.<;....m.m.<;....m.m.<;.....m.m.<;......m.m.<;....m.m.<;....m.m.<;....m.m.<;....m.m.<;....m.m.<;....m.m.<;....m.m.<;....m.m.<;....m.m.<;.....m.m.<;....m.m.<;....m.m.<;......m.m.<;....m.m.<;....m.m.<;....m.m.<;....m.m.<;....m.m.<;....m.m.<;....m.m.<;....m.m.<;....m.m.<;.......m.m.<;....m.m.<;....m.m.<;....m.m.<;.....m.m.<;....m.m.<;....m.m.<;.....m.m.<;....m.m.<;....m.m.<;.....m.m.<;.....m.m.<;....m.m.<;....m.m.<;......m.m.<;....m.m.<;....m.m.<;....m.m.<;....m.m.<;....m.m.<;....m.m.<;....m.m.<;....m.m.<;....m.m.<;......m.m.<;....m.m.<;....m.m.<;.......m.m.<;....m.m.<;....m.m.<;....m.m.<;.....m.m.<;......m.m.<;....m.m.<;....m.m.<;....m.m.<;....m.m.<;....m.m.<;....m.m.<;....m.m.<;....m.m.<;....m.m.<;....m.m.<;....m.m.<;....m.m.<;....m.m.<;....m.m.<;....m.m.<;....m.m.<;....m.m.<;....m.m.<;......m.m.<;....m.m.<;....m.m.<;....m.m.<;....m.m.;....m.m.<;
Best fitness value: ( ! ( o ) ) 1.5
Generation Time :0
Accumulated Learning Time :43
CALLs: 673    TIMEOUTs: 0    ERRORs: 0
REEVALUATIONS: 14350 OF 22094


TOTAL Learing Time :43

Solutions: 0


Non Equivalent Solutions: 0

Weakest Solutions: 0
TOTAL Time :43
CALLs: 39336    TIMEOUTs: 0    ERRORs: 0
CONFIGURATION
#Population: 500    #Iterations: 50    #ChromSize: 50
REEVALUATIONS: 14350 OF 22094
