DOM: [[] (ta <-> X(tc)), [] (X(cc) -> ca && go)]
GOALS: [[] (ta -> !go), [] (tc -> !cc)]
Initial population size: 40
Total population size: 100

GENERATION 1/50
....m.m.<;...i...<;....m.m.<;...i...<;....m.m.<;...i.m..<;....m.m.<;....m.m.<;....m.m.<;...i...<;....m.m.<;....m.m.<;....m.m.<;...i.m..<;....m.m.<;....m.m.<;....m.m.<;...i..m.<;....m.m.<;....m.m.<;....m.m.<;....m.m.<;....m.m.<;....m.m.<;....m.m.<;....m.m.<;....m.m.<;....m.m.<;....m.m.<;...i..m.<;....m.m.<;...i...<;....m.m.<;.....m.m.<;.....m.m.<;....m.m.<;....m.m.<;....m.m.<;....m.m.<;....m.m.<;....m.m.<;....m.m.<;....m.m.<;............m.m.<;....m.m.<;....m.m.<;....m.m.<;....m.m.<;....m.m.<;....m.m.<;....m.m.<;....m.m.<;....m.m.<;
Best fitness value: ( ( go ) /\ ( ta ) ) 2.0
Generation Time :0
Accumulated Learning Time :0
CALLs: 328    TIMEOUTs: 0    ERRORs: 0
REEVALUATIONS: 27 OF 87

GENERATION 2/50
......m.m.<;....m.m.<;.....m.m.<;.........m.m.<;....m.m.<;....m.m.<;.....i...<;....m.m.<;....m.m.<;....m.m.<;....m.m.<;....m.m.<;....m.m.<;....m.m.<;....m.m.<;....m.m.<;....m.m.<;....m.m.<;.....m.m.<;....m.m.<;......m.m.<;....m.m.<;....m.m.<;....m.m.<;.....m.m.<;....m.m.<;.....m.m.<;....m.m.<;...i...<;....m.m.<;....m.m.<;....m.m.<;....m.m.<;....m.m.<;....m.m.<;...i...<;
Best fitness value: ( ( go ) /\ ( ta ) ) 2.0
Generation Time :0
Accumulated Learning Time :0
CALLs: 231    TIMEOUTs: 0    ERRORs: 0
REEVALUATIONS: 69 OF 176

GENERATION 3/50
....m.m.<;....m.m.<;...i..m.<;....m.m.<;....m.m.<;....m.m.<;.....m.m.<;....m.m.<;....m.m.<;....m.m.<;....m.m.<;....m.m.<;....m.m.<;....m.m.<;.....m.m.<;....m.m.<;......m.m.<;....m.m.<;.......m.m.<;....m.m.<;....i.m..<;....m.m.<;....m.m.<;......m.m.<;....m.m.<;....m.m.<;.......m.m.<;....m.m.<;....m.m.<;...........m.m.<;....m.m.<;....m.m.<;....m.m.<;...i.m..<;....m.m.<;....m.m.<;......m.m.<;....m.m.<;....m.m.<;....m.m.<;....m.m.<;....m.m.<;....m.m.<;....m.m.<;....m.m.<;....m.m.<;
Best fitness value: ( ( go ) /\ ( ta ) ) 2.0
Generation Time :0
Accumulated Learning Time :1
CALLs: 298    TIMEOUTs: 0    ERRORs: 0
REEVALUATIONS: 101 OF 268

GENERATION 4/50
....m.m.<;....m.m.<;....m.m.<;.....m.m.<;....m.m.<;....m.m.<;.....m.m.<;....m.m.<;...i...<;......m.m.<;....m.m.<;.....m.m.<;....m.m.<;....m.m.<;....m.m.<;....m.m.<;........m.m.<;......m.m.<;......m.m.<;....m.m.<;....m.m.<;....m.m.<;....m.m.<;....m.m.<;......m.m.<;....m.m.<;......m.m.<;....m.m.<;....m.m.<;....m.m.<;....m.m.<;.........m.m.<;....m.m.<;....m.m.<;....m.m.<;....m.m.<;.....m.m.<;....m.m.<;....m.m.<;....m.m.<;...i.m..<;....m.m.<;...i.m..<;
Best fitness value: ( ( go ) /\ ( ta ) ) 2.0
Generation Time :0
Accumulated Learning Time :1
CALLs: 281    TIMEOUTs: 0    ERRORs: 0
REEVALUATIONS: 134 OF 359

GENERATION 5/50
....m.m.<;.....m.m.<;....i.m..<;....m.m.<;....m.m.<;....m.m.<;......m.m.<;....m.m.<;....m.m.<;....m.m.<;....m.m.<;....m.m.<;....m.m.<;......m.m.<;....m.m.<;......m.m.<;....m.m.<;.......m.m.<;....m.m.<;....m.m.<;....m.m.<;....m.m.<;....m.m.<;....m.m.<;....m.m.<;....m.m.<;....m.m.<;....m.m.<;....m.m.<;....m.m.<;....m.m.<;......m.m.<;.......m.m.<;......m.m.<;....m.m.<;....m.m.<;....m.m.<;....m.m.<;....m.m.<;...i.m..<;...i..m.<;....m.m.<;....m.m.<;
Best fitness value: ( ( go ) /\ ( ta ) ) 2.0
Generation Time :0
Accumulated Learning Time :1
CALLs: 276    TIMEOUTs: 0    ERRORs: 0
REEVALUATIONS: 160 OF 440

GENERATION 6/50
....m.m.<;....m.m.<;....m.m.<;....m.m.<;....m.m.<;....m.m.<;.....m.m.<;....m.m.<;....m.m.<;....m.m.<;......m.m.<;.....i.m..<;....m.m.<;....m.m.<;....m.m.<;....m.m.<;....m.m.<;....m.m.<;........m.m.<;....m.m.<;....m.m.<;.....m.m.<;....m.m.<;....m.m.<;......m.m.<;....m.m.<;....m.m.<;.....m.m.<;....m.m.<;......m.m.<;....m.m.<;....m.m.<;....m.m.<;.....m.m.<;......m.m.<;....m.m.<;.......m.m.<;....m.m.<;....m.m.<;....m.m.<;......m.m.<;....m.m.<;....m.m.<;...i.m..<;...i.m..<;....m.m.<;...i.m..<;
Best fitness value: ( ( go ) /\ ( ta ) ) 2.0
Generation Time :0
Accumulated Learning Time :2
CALLs: 305    TIMEOUTs: 0    ERRORs: 0
REEVALUATIONS: 180 OF 522

GENERATION 7/50
.....i.m..<;....m.m.<;....m.m.<;...i.m..<;....m.m.<;....m.m.<;....m.m.<;....m.m.<;......m.m.<;....m.m.<;...i.m..<;....m.m.<;....m.m.<;....m.m.<;....m.m.<;....m.m.<;....m.m.<;....m.m.<;....m.m.<;.....m.m.<;.....m.m.<;....m.m.<;....m.m.<;....m.m.<;......m.m.<;....m.m.<;....m.m.<;....m.m.<;......m.m.<;....m.m.<;....m.m.<;....m.m.<;.....i.m..<;....m.m.<;...i..m.<;...i.m..<;...i.m..<;....m.m.<;....m.m.<;....m.m.<;
Best fitness value: ( ( go ) /\ ( ta ) ) 2.0
Generation Time :0
Accumulated Learning Time :2
CALLs: 252    TIMEOUTs: 0    ERRORs: 0
REEVALUATIONS: 203 OF 593

GENERATION 8/50
....m.m.<;....m.m.<;....m.m.<;....m.m.<;......m.m.<;.....m.m.<;....m.m.<;.....m.m.<;....m.m.<;....m.m.<;....m.m.<;......m.m.<;....m.m.<;....m.m.<;.....i.m..<;.....m.m.<;....m.m.<;....m.m.<;....m.m.<;....m.m.<;....m.m.<;....m.m.<;....m.m.<;....m.m.<;........m.m.<;...i.m..<;......m.m.<;....m.m.<;....m.m.<;....m.m.<;....m.m.<;....m.m.<;....m.m.<;.....i.m..<;........m.m.<;.....i.m..<;...i.m..<;...i.m..<;....m.m.<;....m.m.<;...i...<;
Best fitness value: ( ( go ) /\ ( ta ) ) 2.0
Generation Time :0
Accumulated Learning Time :2
CALLs: 269    TIMEOUTs: 0    ERRORs: 0
REEVALUATIONS: 225 OF 672

GENERATION 9/50
....m.m.<;....m.m.<;....m.m.<;....m.m.<;...i.m..<;.....i.m..<;......m.m.<;...i.m..<;....m.m.<;....m.m.<;....m.m.<;....m.m.<;....m.m.<;....m.m.<;....m.m.<;....i.m..<;...i.m..<;....m.m.<;....m.m.<;....m.m.<;....m.m.<;....m.m.<;...i...<;....m.m.<;....m.m.<;...i.m..<;....m.m.<;....m.m.<;....m.m.<;....m.m.<;....m.m.<;....m.m.<;....m.m.<;....m.m.<;....m.m.<;.....m.m.<;....m.m.<;....m.m.<;....m.m.<;....m.m.<;....m.m.<;........m.m.<;....m.m.<;....m.m.<;....m.m.<;....m.m.<;......m.m.<;....m.m.<;....m.m.<;...i.m..<;...i.m..<;....m.m.<;...i.m..<;...i.m..<;....m.m.<;...i...<;...i.m..<;
Best fitness value: ( ( go ) /\ ( ta ) ) 2.0
Generation Time :0
Accumulated Learning Time :3
CALLs: 354    TIMEOUTs: 0    ERRORs: 0
REEVALUATIONS: 244 OF 755

GENERATION 10/50
...i.m..<;....m.m.<;...i.m..<;....m.m.<;....m.m.<;....m.m.<;...i.m..<;....m.m.<;....m.m.<;.....m.m.<;....m.m.<;....m.m.<;....m.m.<;...i.m..<;....m.m.<;....m.m.<;...i.m..<;...i...<;....m.m.<;....m.m.<;....m.m.<;....m.m.<;...i.m..<;....m.m.<;......m.m.<;....m.m.<;...i..m.<;...i.m..<;....m.m.<;....m.m.<;....m.m.<;....m.m.<;....m.m.<;......m.m.<;....m.m.<;....m.m.<;....m.m.<;.....m.m.<;.....m.m.<;....m.m.<;.......m.m.<;....m.m.<;....m.m.<;....i.m..<;...i.m..<;....m.m.<;...i.m..<;...i.m..<;...i.m..<;....m.m.<;
Best fitness value: ( ( go ) /\ ( ta ) ) 2.0
Generation Time :0
Accumulated Learning Time :3
CALLs: 311    TIMEOUTs: 0    ERRORs: 0
REEVALUATIONS: 269 OF 838

GENERATION 11/50
...i.m..<;....m.m.<;....m.m.<;....m.m.<;.......m.m.<;....i.m..<;...i.m..<;...i.m..<;....m.m.<;...i.m..<;.....m.m.<;...i.m..<;....m.m.<;....m.m.<;...i.m..<;.....m.m.<;....m.m.<;....m.m.<;....m.m.<;...i.m..<;....m.m.<;....m.m.<;....m.m.<;....m.m.<;....m.m.<;....m.m.<;....m.m.<;...i.m..<;.....i.m..<;....m.m.<;....m.m.<;....m.m.<;....m.m.<;...i...<;....m.m.<;....m.m.<;...i...<;...i.m.m.<;...i.m..<;....m.m.<;...i.m..<;
Fittest value: 2.611111111111111 for chromosome ( ( X ( ( go ) /\ ( ta ) ) ) W ( <> ( ( cc ) /\ ( tc ) ) ) )
Solutions (1): ( ( X ( ( go ) /\ ( ta ) ) ) W ( <> ( ( cc ) /\ ( tc ) ) ) ) | 
Generation Time :0
Accumulated Learning Time :4
CALLs: 254    TIMEOUTs: 0    ERRORs: 0
REEVALUATIONS: 288 OF 904

GENERATION 12/50
....m.m.<;.....m.m.<;...i.m..<;....m.m.<;....m.m.<;....m.m.<;....m.m.<;...i.m..<;...i.m..<;....m.m.<;....m.m.<;....m.m.<;....m.m.<;....m.m.<;....m.m.<;....m.m.<;....m.m.<;...i.m..<;....m.m.<;....m.m.<;.....m.m.<;....m.m.<;...i.m..<;....m.m.<;.....i.m..<;....m.m.<;....m.m.<;....m.m.<;....m.m.<;....m.m.<;....m.m.<;.....m.m.<;....m.m.<;....m.m.<;....m.m.<;....m.m.<;....m.m.<;....m.m.<;....m.m.<;....m.m.<;....m.m.<;....m.m.<;.....i.m.m.<;....m.m.<;....m.m.<;....m.m.<;.....m.m.<;...i.m..<;...i...<;...i.m..<;.
Fittest value: 2.611111111111111 for chromosome ( ( [] ( ( go ) /\ ( ta ) ) ) W ( <> ( ( cc ) /\ ( tc ) ) ) )
Solutions (2): ( ( X ( ( go ) /\ ( ta ) ) ) W ( <> ( ( cc ) /\ ( tc ) ) ) ) | ( ( [] ( ( go ) /\ ( ta ) ) ) W ( <> ( ( cc ) /\ ( tc ) ) ) ) | 
Generation Time :0
Accumulated Learning Time :4
CALLs: 309    TIMEOUTs: 0    ERRORs: 0
REEVALUATIONS: 302 OF 975

GENERATION 13/50
...i..m.<;....m.m.<;....m.m.<;....m.m.<;....i.m..<;......m.m.<;....m.m.<;....m.m.<;....m.m.<;....m.m.<;.....m.m.<;....m.m.<;...i.m..<;....m.m.<;....m.m.<;...i.m..<;....m.m.<;....m.m.<;....m.m.<;....m.m.<;....m.m.<;....m.m.<;...i.m..<;....m.m.<;...i.m..<;....m.m.<;....m.m.<;.......m.m.<;....m.m.<;...i.m..<;.....m.m.<;.....i.m..<;....m.m.<;....m.m.<;...i.m..<;...i.m..<;....m.m.<;....m.m.<;...i.m..<;....m.m.<;.....i.m..<;.....m.m.<;....m.m.<;....m.m.<;.....m.m.<;...i.m..<;...i.m..<;...i.m..<;....m.m.<;...i.m..<;....m.m.<;...i.m..<;
Fittest value: 2.611111111111111 for chromosome ( ( X ( ( go ) /\ ( ta ) ) ) W ( <> ( ( cc ) /\ ( tc ) ) ) )
Solutions (2): ( ( X ( ( go ) /\ ( ta ) ) ) W ( <> ( ( cc ) /\ ( tc ) ) ) ) | ( ( [] ( ( go ) /\ ( ta ) ) ) W ( <> ( ( cc ) /\ ( tc ) ) ) ) | 
Generation Time :0
Accumulated Learning Time :5
CALLs: 326    TIMEOUTs: 0    ERRORs: 0
REEVALUATIONS: 317 OF 1054

GENERATION 14/50
....m.m.<;....m.m.<;....m.m.<;........m.m.<;......m.m.<;...i.m..<;...i.m..<;.....m.m.<;....i.m..<;....m.m.<;...i..m.<;.....m.m.<;...i.m..<;.....m.m.<;.....i.m..<;....m.m.<;....m.m.<;...i.m..<;....m.m.<;....m.m.<;....m.m.<;...i.m..<;....m.m.<;....m.m.<;.....m.m.<;....m.m.<;....m.m.<;......m.m.<;...i.m..<;....m.m.<;....m.m.<;....m.m.<;....m.m.<;....m.m.<;.....m.m.<;...i.m.m.<;...i..m.<;....m.m.<;....m.m.<;....m.m.<;.....m.m.<;....m.m.<;...i.m..<;...i.m..<;...i.m..<;...i.m..<;...i.m..<;
Fittest value: 2.611111111111111 for chromosome ( ( [] ( ( go ) /\ ( ta ) ) ) W ( <> ( ( cc ) /\ ( tc ) ) ) )
Solutions (3): ( ( X ( ( go ) /\ ( ta ) ) ) W ( <> ( ( cc ) /\ ( tc ) ) ) ) | ( ( [] ( ( go ) /\ ( ta ) ) ) W ( <> ( ( cc ) /\ ( tc ) ) ) ) | ( ( X ( ( go ) /\ ( ta ) ) ) W ( ( cc ) /\ ( tc ) ) ) | 
Generation Time :0
Accumulated Learning Time :5
CALLs: 299    TIMEOUTs: 0    ERRORs: 0
REEVALUATIONS: 332 OF 1129

GENERATION 15/50
....m.m.<;....m.m.<;....m.m.<;...i..m.<;....m.m.<;.....m.m.<;....m.m.<;....m.m.<;...i.m..<;....m.m.<;....m.m.<;....m.m.<;....m.m.<;...i.m..<;...i.m..<;....m.m.<;....m.m.<;....i.m..<;....m.m.<;....m.m.<;....m.m.<;...i.m..<;.....m.m.<;....m.m.<;....i..m.<;....m.m.<;...i.m..<;....m.m.<;...i.m..<;....m.m.<;....m.m.<;...i.m..<;......m.m.<;....m.m.<;...i.m..<;....m.m.<;....m.m.<;...i.m..<;.....m.m.<;.....m.m.<;...i.m..<;....m.m.<;...i.m..<;...i..m.<;....m.m.<;...i.m..<;...i.m..<;...i.m.m.<;....m.m.<;....m.m.<;...i.m..<;
Fittest value: 2.611111111111111 for chromosome ( ( X ( ( go ) /\ ( ta ) ) ) W ( <> ( ( cc ) /\ ( tc ) ) ) )
Solutions (4): ( ( X ( ( go ) /\ ( ta ) ) ) W ( <> ( ( cc ) /\ ( tc ) ) ) ) | ( ( [] ( ( go ) /\ ( ta ) ) ) W ( <> ( ( cc ) /\ ( tc ) ) ) ) | ( ( X ( ( go ) /\ ( ta ) ) ) W ( ( cc ) /\ ( tc ) ) ) | ( <> ( ( [] ( ( go ) /\ ( ta ) ) ) W ( <> ( ( cc ) /\ ( tc ) ) ) ) ) | 
Generation Time :0
Accumulated Learning Time :6
CALLs: 314    TIMEOUTs: 0    ERRORs: 0
REEVALUATIONS: 347 OF 1202

GENERATION 16/50
....m.m.<;....m.m.<;....m.m.<;....m.m.<;....m.m.<;...i..m.<;....m.m.<;....m.m.<;...i.m..<;....m.m.<;....m.m.<;....m.m.<;...i.m..<;....m.m.<;....m.m.<;....m.m.<;....m.m.<;...i.m..<;...i..m.<;...i.m..<;...i.m..<;...i.m..<;...i.m..<;......m.m.<;...i.m..<;....m.m.<;....m.m.<;....m.m.<;...i.m..<;...i..m.<;....m.m.<;....m.m.<;...i.m..<;....m.m.<;.....m.m.<;...i..m.<;....m.m.<;....m.m.<;...i.m..<;....m.m.<;...i.m..<;...i...<;....m.m.<;......m.m.<;....m.m.<;.....m.m.<;.......i.m..<;...i.m..<;....m.m.<;....m.m.<;...i.m..<;...i...<;....m.m.<;....m.m.<;...i.m..<;....m.m.<;....m.m.<;...i.m.m.<;....m.m.<;...i.m..<;....m.m.<;...i.m..<;
Fittest value: 2.611111111111111 for chromosome ( ( [] ( ( go ) /\ ( ta ) ) ) W ( <> ( ( cc ) /\ ( tc ) ) ) )
Solutions (5): ( ( X ( ( go ) /\ ( ta ) ) ) W ( <> ( ( cc ) /\ ( tc ) ) ) ) | ( ( [] ( ( go ) /\ ( ta ) ) ) W ( <> ( ( cc ) /\ ( tc ) ) ) ) | ( ( X ( ( go ) /\ ( ta ) ) ) W ( ( cc ) /\ ( tc ) ) ) | ( <> ( ( [] ( ( go ) /\ ( ta ) ) ) W ( <> ( ( cc ) /\ ( tc ) ) ) ) ) | ( ( ( [] ( ( go ) /\ ( ta ) ) ) W ( <> ( ( cc ) /\ ( tc ) ) ) ) \/ ( ( X ( tc ) ) /\ ( go ) ) ) | 
Generation Time :0
Accumulated Learning Time :7
CALLs: 382    TIMEOUTs: 0    ERRORs: 0
REEVALUATIONS: 357 OF 1282

GENERATION 17/50
....m.m.<;....m.m.<;....m.m.<;...i.m.m.<;....m.m.<;...i..m.<;....m.m.<;...i.m.m.<;....m.m.<;......m.m.<;....m.m.<;...i.m..<;....m.m.<;....m.m.<;....m.m.<;....m.m.<;....m.m.<;....m.m.<;....m.m.<;....m.m.<;...i.m..<;....m.m.<;...i.m..<;....m.m.<;.....m.m.<;...i.m..<;....m.m.<;...i.m..<;.....m.m.<;....m.m.<;....m.m.<;.....i.m..<;....m.m.<;....m.m.<;...i.m..<;....m.m.<;....m.m.<;....m.m.<;....m.m.<;.....m.m.<;...i.m..<;....m.m.<;...i.m.m.<;......m.m.<;....m.m.<;...i.m.m.<;...i.m..<;...i.m.m.<;....m.m.<;....m.m.<;...i.m..<;....m.m.<;...i.m.m.<;
Fittest value: 2.611111111111111 for chromosome ( ( X ( ( go ) /\ ( ta ) ) ) W ( <> ( ( cc ) /\ ( tc ) ) ) )
Solutions (11): ( ( X ( ( go ) /\ ( ta ) ) ) W ( <> ( ( cc ) /\ ( tc ) ) ) ) | ( ( [] ( ( go ) /\ ( ta ) ) ) W ( <> ( ( cc ) /\ ( tc ) ) ) ) | ( ( X ( ( go ) /\ ( ta ) ) ) W ( ( cc ) /\ ( tc ) ) ) | ( <> ( ( [] ( ( go ) /\ ( ta ) ) ) W ( <> ( ( cc ) /\ ( tc ) ) ) ) ) | ( ( ( [] ( ( go ) /\ ( ta ) ) ) W ( <> ( ( cc ) /\ ( tc ) ) ) ) \/ ( ( X ( tc ) ) /\ ( go ) ) ) | ( ( [] ( ( go ) /\ ( ta ) ) ) W ( ( cc ) /\ ( tc ) ) ) | ( ( [] ( ( go ) /\ ( tc ) ) ) W ( <> ( ( cc ) /\ ( tc ) ) ) ) | ( ( <> ( ( go ) /\ ( ta ) ) ) W ( <> ( ( cc ) /\ ( tc ) ) ) ) | ( <> ( ( X ( ( go ) /\ ( ta ) ) ) W ( ( cc ) /\ ( tc ) ) ) ) | ( <> ( ( X ( ( go ) /\ ( ta ) ) ) W ( <> ( ( cc ) /\ ( tc ) ) ) ) ) | ( ( <> ( ( go ) /\ ( ta ) ) ) W ( ( X ( ( go ) /\ ( ta ) ) ) W ( <> ( ( cc ) /\ ( tc ) ) ) ) ) | 
Generation Time :0
Accumulated Learning Time :7
CALLs: 327    TIMEOUTs: 0    ERRORs: 0
REEVALUATIONS: 369 OF 1353

GENERATION 18/50
....m.m.<;....m.m.<;......m.m.<;....m.m.<;...i.m..<;....m.m.<;....m.m.<;....m.m.<;....m.m.<;......m.m.<;....m.m.<;....m.m.<;....m.m.<;...i.m..<;....m.m.<;...i..m.<;....m.m.<;....m.m.<;....m.m.<;.....i.m..<;....m.m.<;....m.m.<;...i..m.<;...i.m.m.<;...i..m.<;...i.m..<;....m.m.<;....m.m.<;....m.m.<;...i.m.m.<;.....m.m.<;....m.m.<;...i.m..<;....m.m.<;....m.m.<;.....i.m..<;...i.m..<;....m.m.<;....m.m.<;....m.m.<;....m.m.<;...i.m..<;....m.m.<;...i.m..<;...i.m.m.<;....m.m.<;....m.m.<;....m.m.<;....m.m.<;...i.m..<;...i.m..<;....m.m.<;...i.m..<;....m.m.<;
Fittest value: 2.611111111111111 for chromosome ( ( [] ( ( go ) /\ ( ta ) ) ) W ( <> ( ( cc ) /\ ( tc ) ) ) )
Solutions (13): ( ( X ( ( go ) /\ ( ta ) ) ) W ( <> ( ( cc ) /\ ( tc ) ) ) ) | ( ( [] ( ( go ) /\ ( ta ) ) ) W ( <> ( ( cc ) /\ ( tc ) ) ) ) | ( ( X ( ( go ) /\ ( ta ) ) ) W ( ( cc ) /\ ( tc ) ) ) | ( <> ( ( [] ( ( go ) /\ ( ta ) ) ) W ( <> ( ( cc ) /\ ( tc ) ) ) ) ) | ( ( ( [] ( ( go ) /\ ( ta ) ) ) W ( <> ( ( cc ) /\ ( tc ) ) ) ) \/ ( ( X ( tc ) ) /\ ( go ) ) ) | ( ( [] ( ( go ) /\ ( ta ) ) ) W ( ( cc ) /\ ( tc ) ) ) | ( ( [] ( ( go ) /\ ( tc ) ) ) W ( <> ( ( cc ) /\ ( tc ) ) ) ) | ( ( <> ( ( go ) /\ ( ta ) ) ) W ( <> ( ( cc ) /\ ( tc ) ) ) ) | ( <> ( ( X ( ( go ) /\ ( ta ) ) ) W ( ( cc ) /\ ( tc ) ) ) ) | ( <> ( ( X ( ( go ) /\ ( ta ) ) ) W ( <> ( ( cc ) /\ ( tc ) ) ) ) ) | ( ( <> ( ( go ) /\ ( ta ) ) ) W ( ( X ( ( go ) /\ ( ta ) ) ) W ( <> ( ( cc ) /\ ( tc ) ) ) ) ) | ( ( ( go ) /\ ( ta ) ) W ( <> ( ( cc ) /\ ( tc ) ) ) ) | ( ( [] ( ( go ) /\ ( tc ) ) ) W ( ( cc ) /\ ( tc ) ) ) | 
Generation Time :0
Accumulated Learning Time :8
CALLs: 333    TIMEOUTs: 0    ERRORs: 0
REEVALUATIONS: 388 OF 1431

GENERATION 19/50
....m.m.<;....m.m.<;....m.m.<;....m.m.<;...i.m..<;....m.m.<;...i.m.m.<;....m.m.<;....m.m.<;...i.m.m.<;....m.m.<;...i.m..<;....m.m.<;....m.m.<;....m.m.<;...i.m..<;....m.m.<;....m.m.<;....m.m.<;....m.m.<;...i..m.<;....m.m.<;....m.m.<;....m.m.<;....m.m.<;...i.m..<;...i..m.<;....m.m.<;....m.m.<;....m.m.<;....m.m.<;....m.m.<;....m.m.<;....m.m.<;.....m.m.<;....m.m.<;....m.m.<;....m.m.<;....m.m.<;....m.m.<;....m.m.<;....m.m.<;....m.m.<;....m.m.<;....m.m.<;...i.m.m.<;....m.m.<;
Fittest value: 2.611111111111111 for chromosome ( ( X ( ( go ) /\ ( ta ) ) ) W ( <> ( ( cc ) /\ ( tc ) ) ) )
Solutions (15): ( ( X ( ( go ) /\ ( ta ) ) ) W ( <> ( ( cc ) /\ ( tc ) ) ) ) | ( ( [] ( ( go ) /\ ( ta ) ) ) W ( <> ( ( cc ) /\ ( tc ) ) ) ) | ( ( X ( ( go ) /\ ( ta ) ) ) W ( ( cc ) /\ ( tc ) ) ) | ( <> ( ( [] ( ( go ) /\ ( ta ) ) ) W ( <> ( ( cc ) /\ ( tc ) ) ) ) ) | ( ( ( [] ( ( go ) /\ ( ta ) ) ) W ( <> ( ( cc ) /\ ( tc ) ) ) ) \/ ( ( X ( tc ) ) /\ ( go ) ) ) | ( ( [] ( ( go ) /\ ( ta ) ) ) W ( ( cc ) /\ ( tc ) ) ) | ( ( [] ( ( go ) /\ ( tc ) ) ) W ( <> ( ( cc ) /\ ( tc ) ) ) ) | ( ( <> ( ( go ) /\ ( ta ) ) ) W ( <> ( ( cc ) /\ ( tc ) ) ) ) | ( <> ( ( X ( ( go ) /\ ( ta ) ) ) W ( ( cc ) /\ ( tc ) ) ) ) | ( <> ( ( X ( ( go ) /\ ( ta ) ) ) W ( <> ( ( cc ) /\ ( tc ) ) ) ) ) | ( ( <> ( ( go ) /\ ( ta ) ) ) W ( ( X ( ( go ) /\ ( ta ) ) ) W ( <> ( ( cc ) /\ ( tc ) ) ) ) ) | ( ( ( go ) /\ ( ta ) ) W ( <> ( ( cc ) /\ ( tc ) ) ) ) | ( ( [] ( ( go ) /\ ( tc ) ) ) W ( ( cc ) /\ ( tc ) ) ) | ( ( X ( ( go ) /\ ( tc ) ) ) W ( ( cc ) /\ ( tc ) ) ) | ( ( ( go ) /\ ( ta ) ) W ( ( cc ) /\ ( tc ) ) ) | 
Generation Time :0
Accumulated Learning Time :9
CALLs: 283    TIMEOUTs: 0    ERRORs: 0
REEVALUATIONS: 410 OF 1501

GENERATION 20/50
....m.m.<;...i..m.<;....m.m.<;...i.m..<;....m.m.<;......m.m.<;....m.m.<;...i.m..<;....m.m.<;....m.m.<;....m.m.<;....m.m.<;...i...<;....m.m.<;...i..m.<;...i..m.<;....m.m.<;....m.m.<;....m.m.<;....m.m.<;...i.m.m.<;....m.m.<;....m.m.<;....m.m.<;....m.m.<;....m.m.<;...i..m.<;....m.m.<;...i..m.<;....m.m.<;....m.m.<;....m.m.<;....m.m.<;...i.m.m.<;...i.m.m.<;....m.m.<;...i..m.<;....m.m.<;....m.m.<;....m.m.<;....m.m.<;...i.m..<;....m.m.<;...i.m.m.<;....m.m.<;....m.m.<;
Fittest value: 2.611111111111111 for chromosome ( ( [] ( ( go ) /\ ( ta ) ) ) W ( <> ( ( cc ) /\ ( tc ) ) ) )
Solutions (18): ( ( X ( ( go ) /\ ( ta ) ) ) W ( <> ( ( cc ) /\ ( tc ) ) ) ) | ( ( [] ( ( go ) /\ ( ta ) ) ) W ( <> ( ( cc ) /\ ( tc ) ) ) ) | ( ( X ( ( go ) /\ ( ta ) ) ) W ( ( cc ) /\ ( tc ) ) ) | ( <> ( ( [] ( ( go ) /\ ( ta ) ) ) W ( <> ( ( cc ) /\ ( tc ) ) ) ) ) | ( ( ( [] ( ( go ) /\ ( ta ) ) ) W ( <> ( ( cc ) /\ ( tc ) ) ) ) \/ ( ( X ( tc ) ) /\ ( go ) ) ) | ( ( [] ( ( go ) /\ ( ta ) ) ) W ( ( cc ) /\ ( tc ) ) ) | ( ( [] ( ( go ) /\ ( tc ) ) ) W ( <> ( ( cc ) /\ ( tc ) ) ) ) | ( ( <> ( ( go ) /\ ( ta ) ) ) W ( <> ( ( cc ) /\ ( tc ) ) ) ) | ( <> ( ( X ( ( go ) /\ ( ta ) ) ) W ( ( cc ) /\ ( tc ) ) ) ) | ( <> ( ( X ( ( go ) /\ ( ta ) ) ) W ( <> ( ( cc ) /\ ( tc ) ) ) ) ) | ( ( <> ( ( go ) /\ ( ta ) ) ) W ( ( X ( ( go ) /\ ( ta ) ) ) W ( <> ( ( cc ) /\ ( tc ) ) ) ) ) | ( ( ( go ) /\ ( ta ) ) W ( <> ( ( cc ) /\ ( tc ) ) ) ) | ( ( [] ( ( go ) /\ ( tc ) ) ) W ( ( cc ) /\ ( tc ) ) ) | ( ( X ( ( go ) /\ ( tc ) ) ) W ( ( cc ) /\ ( tc ) ) ) | ( ( ( go ) /\ ( ta ) ) W ( ( cc ) /\ ( tc ) ) ) | ( ( X ( ( go ) /\ ( ta ) ) ) \/ ( <> ( ( cc ) /\ ( tc ) ) ) ) | ( ( [] ( ( go ) /\ ( ta ) ) ) \/ ( <> ( ( cc ) /\ ( tc ) ) ) ) | ( ( X ( ( go ) /\ ( tc ) ) ) W ( <> ( ( cc ) /\ ( tc ) ) ) ) | 
Generation Time :0
Accumulated Learning Time :10
CALLs: 278    TIMEOUTs: 0    ERRORs: 0
REEVALUATIONS: 445 OF 1583

GENERATION 21/50
....m.m.<;....m.m.<;....m.m.<;....m.m.<;....m.m.<;....m.m.<;....m.m.<;....m.m.<;....m.m.<;....m.m.<;....m.m.<;....m.m.<;...i.m..<;......m.m.<;....m.m.<;....m.m.<;....m.m.<;...i..m.<;...i.m..<;....m.m.<;....m.m.<;...i.m..<;....m.m.<;....m.m.<;....m.m.<;....m.m.<;....m.m.<;....m.m.<;....m.m.<;....i.m..<;....m.m.<;....m.m.<;.......m.m.<;....m.m.<;....m.m.<;.....m.m.<;...i.m..<;....i..m.<;....m.m.<;...i.m..<;....m.m.<;....m.m.<;....m.m.<;...i.m..<;....m.m.<;
Fittest value: 2.611111111111111 for chromosome ( ( X ( ( go ) /\ ( ta ) ) ) W ( <> ( ( cc ) /\ ( tc ) ) ) )
Solutions (18): ( ( X ( ( go ) /\ ( ta ) ) ) W ( <> ( ( cc ) /\ ( tc ) ) ) ) | ( ( [] ( ( go ) /\ ( ta ) ) ) W ( <> ( ( cc ) /\ ( tc ) ) ) ) | ( ( X ( ( go ) /\ ( ta ) ) ) W ( ( cc ) /\ ( tc ) ) ) | ( <> ( ( [] ( ( go ) /\ ( ta ) ) ) W ( <> ( ( cc ) /\ ( tc ) ) ) ) ) | ( ( ( [] ( ( go ) /\ ( ta ) ) ) W ( <> ( ( cc ) /\ ( tc ) ) ) ) \/ ( ( X ( tc ) ) /\ ( go ) ) ) | ( ( [] ( ( go ) /\ ( ta ) ) ) W ( ( cc ) /\ ( tc ) ) ) | ( ( [] ( ( go ) /\ ( tc ) ) ) W ( <> ( ( cc ) /\ ( tc ) ) ) ) | ( ( <> ( ( go ) /\ ( ta ) ) ) W ( <> ( ( cc ) /\ ( tc ) ) ) ) | ( <> ( ( X ( ( go ) /\ ( ta ) ) ) W ( ( cc ) /\ ( tc ) ) ) ) | ( <> ( ( X ( ( go ) /\ ( ta ) ) ) W ( <> ( ( cc ) /\ ( tc ) ) ) ) ) | ( ( <> ( ( go ) /\ ( ta ) ) ) W ( ( X ( ( go ) /\ ( ta ) ) ) W ( <> ( ( cc ) /\ ( tc ) ) ) ) ) | ( ( ( go ) /\ ( ta ) ) W ( <> ( ( cc ) /\ ( tc ) ) ) ) | ( ( [] ( ( go ) /\ ( tc ) ) ) W ( ( cc ) /\ ( tc ) ) ) | ( ( X ( ( go ) /\ ( tc ) ) ) W ( ( cc ) /\ ( tc ) ) ) | ( ( ( go ) /\ ( ta ) ) W ( ( cc ) /\ ( tc ) ) ) | ( ( X ( ( go ) /\ ( ta ) ) ) \/ ( <> ( ( cc ) /\ ( tc ) ) ) ) | ( ( [] ( ( go ) /\ ( ta ) ) ) \/ ( <> ( ( cc ) /\ ( tc ) ) ) ) | ( ( X ( ( go ) /\ ( tc ) ) ) W ( <> ( ( cc ) /\ ( tc ) ) ) ) | 
Generation Time :0
Accumulated Learning Time :10
CALLs: 278    TIMEOUTs: 0    ERRORs: 0
REEVALUATIONS: 475 OF 1664

GENERATION 22/50
....m.m.<;....m.m.<;....m.m.<;...i.m..<;....m.m.<;....m.m.<;...i...<;....m.m.<;....m.m.<;....m.m.<;....m.m.<;....m.m.<;....m.m.<;....m.m.<;....m.m.<;....m.m.<;....m.m.<;......m.m.<;....m.m.<;....m.m.<;....m.m.<;....m.m.<;....m.m.<;....m.m.<;....m.m.<;....m.m.<;....m.m.<;...i...<;...i.m..<;....m.m.<;.....m.m.<;....m.m.<;....m.m.<;...i..m.<;....m.m.<;....m.m.<;....m.m.<;....m.m.<;....m.m.<;...i.m..<;....m.m.<;...i.m..<;....m.m.<;...i.m..<;...i.m.m.<;....m.m.<;
Fittest value: 2.611111111111111 for chromosome ( ( [] ( ( go ) /\ ( ta ) ) ) W ( <> ( ( cc ) /\ ( tc ) ) ) )
Solutions (19): ( ( X ( ( go ) /\ ( ta ) ) ) W ( <> ( ( cc ) /\ ( tc ) ) ) ) | ( ( [] ( ( go ) /\ ( ta ) ) ) W ( <> ( ( cc ) /\ ( tc ) ) ) ) | ( ( X ( ( go ) /\ ( ta ) ) ) W ( ( cc ) /\ ( tc ) ) ) | ( <> ( ( [] ( ( go ) /\ ( ta ) ) ) W ( <> ( ( cc ) /\ ( tc ) ) ) ) ) | ( ( ( [] ( ( go ) /\ ( ta ) ) ) W ( <> ( ( cc ) /\ ( tc ) ) ) ) \/ ( ( X ( tc ) ) /\ ( go ) ) ) | ( ( [] ( ( go ) /\ ( ta ) ) ) W ( ( cc ) /\ ( tc ) ) ) | ( ( [] ( ( go ) /\ ( tc ) ) ) W ( <> ( ( cc ) /\ ( tc ) ) ) ) | ( ( <> ( ( go ) /\ ( ta ) ) ) W ( <> ( ( cc ) /\ ( tc ) ) ) ) | ( <> ( ( X ( ( go ) /\ ( ta ) ) ) W ( ( cc ) /\ ( tc ) ) ) ) | ( <> ( ( X ( ( go ) /\ ( ta ) ) ) W ( <> ( ( cc ) /\ ( tc ) ) ) ) ) | ( ( <> ( ( go ) /\ ( ta ) ) ) W ( ( X ( ( go ) /\ ( ta ) ) ) W ( <> ( ( cc ) /\ ( tc ) ) ) ) ) | ( ( ( go ) /\ ( ta ) ) W ( <> ( ( cc ) /\ ( tc ) ) ) ) | ( ( [] ( ( go ) /\ ( tc ) ) ) W ( ( cc ) /\ ( tc ) ) ) | ( ( X ( ( go ) /\ ( tc ) ) ) W ( ( cc ) /\ ( tc ) ) ) | ( ( ( go ) /\ ( ta ) ) W ( ( cc ) /\ ( tc ) ) ) | ( ( X ( ( go ) /\ ( ta ) ) ) \/ ( <> ( ( cc ) /\ ( tc ) ) ) ) | ( ( [] ( ( go ) /\ ( ta ) ) ) \/ ( <> ( ( cc ) /\ ( tc ) ) ) ) | ( ( X ( ( go ) /\ ( tc ) ) ) W ( <> ( ( cc ) /\ ( tc ) ) ) ) | ( <> ( ( [] ( ( go ) /\ ( ta ) ) ) W ( ( cc ) /\ ( tc ) ) ) ) | 
Generation Time :0
Accumulated Learning Time :11
CALLs: 279    TIMEOUTs: 0    ERRORs: 0
REEVALUATIONS: 502 OF 1739

GENERATION 23/50
....m.m.<;...i.m.m.<;....m.m.<;....m.m.<;...i..m.<;....m.m.<;....m.m.<;...i.m..<;....m.m.<;....m.m.<;....m.m.<;...i.m..<;...i..m.<;....m.m.<;....m.m.<;....m.m.<;....m.m.<;....m.m.<;....m.m.<;...i..m.<;....m.m.<;......i..m.<;....m.m.<;....m.m.<;....m.m.<;....m.m.<;....m.m.<;...i.m..<;....m.m.<;....m.m.<;....m.m.<;....m.m.<;.....i..m.<;....m.m.<;...i.m.m.<;...i.m.m.<;...i.m..<;...i.m.m.<;....m.m.<;
Fittest value: 2.625 for chromosome ( <> ( ( ( go ) /\ ( ta ) ) W ( ( cc ) /\ ( tc ) ) ) )
Solutions (22): ( ( X ( ( go ) /\ ( ta ) ) ) W ( <> ( ( cc ) /\ ( tc ) ) ) ) | ( ( [] ( ( go ) /\ ( ta ) ) ) W ( <> ( ( cc ) /\ ( tc ) ) ) ) | ( ( X ( ( go ) /\ ( ta ) ) ) W ( ( cc ) /\ ( tc ) ) ) | ( <> ( ( [] ( ( go ) /\ ( ta ) ) ) W ( <> ( ( cc ) /\ ( tc ) ) ) ) ) | ( ( ( [] ( ( go ) /\ ( ta ) ) ) W ( <> ( ( cc ) /\ ( tc ) ) ) ) \/ ( ( X ( tc ) ) /\ ( go ) ) ) | ( ( [] ( ( go ) /\ ( ta ) ) ) W ( ( cc ) /\ ( tc ) ) ) | ( ( [] ( ( go ) /\ ( tc ) ) ) W ( <> ( ( cc ) /\ ( tc ) ) ) ) | ( ( <> ( ( go ) /\ ( ta ) ) ) W ( <> ( ( cc ) /\ ( tc ) ) ) ) | ( <> ( ( X ( ( go ) /\ ( ta ) ) ) W ( ( cc ) /\ ( tc ) ) ) ) | ( <> ( ( X ( ( go ) /\ ( ta ) ) ) W ( <> ( ( cc ) /\ ( tc ) ) ) ) ) | ( ( <> ( ( go ) /\ ( ta ) ) ) W ( ( X ( ( go ) /\ ( ta ) ) ) W ( <> ( ( cc ) /\ ( tc ) ) ) ) ) | ( ( ( go ) /\ ( ta ) ) W ( <> ( ( cc ) /\ ( tc ) ) ) ) | ( ( [] ( ( go ) /\ ( tc ) ) ) W ( ( cc ) /\ ( tc ) ) ) | ( ( X ( ( go ) /\ ( tc ) ) ) W ( ( cc ) /\ ( tc ) ) ) | ( ( ( go ) /\ ( ta ) ) W ( ( cc ) /\ ( tc ) ) ) | ( ( X ( ( go ) /\ ( ta ) ) ) \/ ( <> ( ( cc ) /\ ( tc ) ) ) ) | ( ( [] ( ( go ) /\ ( ta ) ) ) \/ ( <> ( ( cc ) /\ ( tc ) ) ) ) | ( ( X ( ( go ) /\ ( tc ) ) ) W ( <> ( ( cc ) /\ ( tc ) ) ) ) | ( <> ( ( [] ( ( go ) /\ ( ta ) ) ) W ( ( cc ) /\ ( tc ) ) ) ) | ( <> ( ( ( go ) /\ ( ta ) ) W ( ( cc ) /\ ( tc ) ) ) ) | ( ( [] ( ( go ) /\ ( ta ) ) ) \/ ( ( cc ) /\ ( tc ) ) ) | ( <> ( ( ( go ) /\ ( ta ) ) W ( <> ( ( cc ) /\ ( tc ) ) ) ) ) | 
Generation Time :0
Accumulated Learning Time :11
CALLs: 239    TIMEOUTs: 0    ERRORs: 0
REEVALUATIONS: 528 OF 1807

GENERATION 24/50
....m.m.<;...i.m..<;....m.m.<;....m.m.<;....m.m.<;....m.m.<;....m.m.<;...i..m.<;....m.m.<;....m.m.<;....m.m.<;....m.m.<;....m.m.<;....m.m.<;....m.m.<;...i.m..<;....m.m.<;....m.m.<;....m.m.<;.....i..m.<;....m.m.<;...i.m..<;...i..m.<;....m.m.<;....m.m.<;....m.m.<;......m.m.<;....m.m.<;.....i..m.<;....m.m.<;...i..m.<;....m.m.<;....m.m.<;...i.m..<;...i.m..<;...i.m..<;...i.m..<;....m.m.<;
Fittest value: 2.625 for chromosome ( <> ( ( ( go ) /\ ( ta ) ) W ( ( cc ) /\ ( tc ) ) ) )
Solutions (22): ( ( X ( ( go ) /\ ( ta ) ) ) W ( <> ( ( cc ) /\ ( tc ) ) ) ) | ( ( [] ( ( go ) /\ ( ta ) ) ) W ( <> ( ( cc ) /\ ( tc ) ) ) ) | ( ( X ( ( go ) /\ ( ta ) ) ) W ( ( cc ) /\ ( tc ) ) ) | ( <> ( ( [] ( ( go ) /\ ( ta ) ) ) W ( <> ( ( cc ) /\ ( tc ) ) ) ) ) | ( ( ( [] ( ( go ) /\ ( ta ) ) ) W ( <> ( ( cc ) /\ ( tc ) ) ) ) \/ ( ( X ( tc ) ) /\ ( go ) ) ) | ( ( [] ( ( go ) /\ ( ta ) ) ) W ( ( cc ) /\ ( tc ) ) ) | ( ( [] ( ( go ) /\ ( tc ) ) ) W ( <> ( ( cc ) /\ ( tc ) ) ) ) | ( ( <> ( ( go ) /\ ( ta ) ) ) W ( <> ( ( cc ) /\ ( tc ) ) ) ) | ( <> ( ( X ( ( go ) /\ ( ta ) ) ) W ( ( cc ) /\ ( tc ) ) ) ) | ( <> ( ( X ( ( go ) /\ ( ta ) ) ) W ( <> ( ( cc ) /\ ( tc ) ) ) ) ) | ( ( <> ( ( go ) /\ ( ta ) ) ) W ( ( X ( ( go ) /\ ( ta ) ) ) W ( <> ( ( cc ) /\ ( tc ) ) ) ) ) | ( ( ( go ) /\ ( ta ) ) W ( <> ( ( cc ) /\ ( tc ) ) ) ) | ( ( [] ( ( go ) /\ ( tc ) ) ) W ( ( cc ) /\ ( tc ) ) ) | ( ( X ( ( go ) /\ ( tc ) ) ) W ( ( cc ) /\ ( tc ) ) ) | ( ( ( go ) /\ ( ta ) ) W ( ( cc ) /\ ( tc ) ) ) | ( ( X ( ( go ) /\ ( ta ) ) ) \/ ( <> ( ( cc ) /\ ( tc ) ) ) ) | ( ( [] ( ( go ) /\ ( ta ) ) ) \/ ( <> ( ( cc ) /\ ( tc ) ) ) ) | ( ( X ( ( go ) /\ ( tc ) ) ) W ( <> ( ( cc ) /\ ( tc ) ) ) ) | ( <> ( ( [] ( ( go ) /\ ( ta ) ) ) W ( ( cc ) /\ ( tc ) ) ) ) | ( <> ( ( ( go ) /\ ( ta ) ) W ( ( cc ) /\ ( tc ) ) ) ) | ( ( [] ( ( go ) /\ ( ta ) ) ) \/ ( ( cc ) /\ ( tc ) ) ) | ( <> ( ( ( go ) /\ ( ta ) ) W ( <> ( ( cc ) /\ ( tc ) ) ) ) ) | 
Generation Time :0
Accumulated Learning Time :12
CALLs: 234    TIMEOUTs: 0    ERRORs: 0
REEVALUATIONS: 556 OF 1876

GENERATION 25/50
....m.m.<;....i.m..<;....m.m.<;....m.m.<;....m.m.<;....m.m.<;....m.m.<;...i..m.<;....m.m.<;....m.m.<;...i.m..<;....m.m.<;....m.m.<;....m.m.<;....m.m.<;....m.m.<;....m.m.<;....m.m.<;....m.m.<;....m.m.<;...i..m.<;....m.m.<;....m.m.<;.....m.m.<;....m.m.<;...i..m.<;.....i...<;......m.m.<;...i..m.<;...i..m.<;....m.m.<;....m.m.<;......m.m.<;....m.m.<;....m.m.<;...i.m..<;...i.m..<;....m.m.<;....m.m.<;....m.m.<;....m.m.<;....m.m.<;...i.m..<;...i.m..<;
Fittest value: 2.625 for chromosome ( <> ( ( ( go ) /\ ( ta ) ) W ( ( cc ) /\ ( tc ) ) ) )
Solutions (22): ( ( X ( ( go ) /\ ( ta ) ) ) W ( <> ( ( cc ) /\ ( tc ) ) ) ) | ( ( [] ( ( go ) /\ ( ta ) ) ) W ( <> ( ( cc ) /\ ( tc ) ) ) ) | ( ( X ( ( go ) /\ ( ta ) ) ) W ( ( cc ) /\ ( tc ) ) ) | ( <> ( ( [] ( ( go ) /\ ( ta ) ) ) W ( <> ( ( cc ) /\ ( tc ) ) ) ) ) | ( ( ( [] ( ( go ) /\ ( ta ) ) ) W ( <> ( ( cc ) /\ ( tc ) ) ) ) \/ ( ( X ( tc ) ) /\ ( go ) ) ) | ( ( [] ( ( go ) /\ ( ta ) ) ) W ( ( cc ) /\ ( tc ) ) ) | ( ( [] ( ( go ) /\ ( tc ) ) ) W ( <> ( ( cc ) /\ ( tc ) ) ) ) | ( ( <> ( ( go ) /\ ( ta ) ) ) W ( <> ( ( cc ) /\ ( tc ) ) ) ) | ( <> ( ( X ( ( go ) /\ ( ta ) ) ) W ( ( cc ) /\ ( tc ) ) ) ) | ( <> ( ( X ( ( go ) /\ ( ta ) ) ) W ( <> ( ( cc ) /\ ( tc ) ) ) ) ) | ( ( <> ( ( go ) /\ ( ta ) ) ) W ( ( X ( ( go ) /\ ( ta ) ) ) W ( <> ( ( cc ) /\ ( tc ) ) ) ) ) | ( ( ( go ) /\ ( ta ) ) W ( <> ( ( cc ) /\ ( tc ) ) ) ) | ( ( [] ( ( go ) /\ ( tc ) ) ) W ( ( cc ) /\ ( tc ) ) ) | ( ( X ( ( go ) /\ ( tc ) ) ) W ( ( cc ) /\ ( tc ) ) ) | ( ( ( go ) /\ ( ta ) ) W ( ( cc ) /\ ( tc ) ) ) | ( ( X ( ( go ) /\ ( ta ) ) ) \/ ( <> ( ( cc ) /\ ( tc ) ) ) ) | ( ( [] ( ( go ) /\ ( ta ) ) ) \/ ( <> ( ( cc ) /\ ( tc ) ) ) ) | ( ( X ( ( go ) /\ ( tc ) ) ) W ( <> ( ( cc ) /\ ( tc ) ) ) ) | ( <> ( ( [] ( ( go ) /\ ( ta ) ) ) W ( ( cc ) /\ ( tc ) ) ) ) | ( <> ( ( ( go ) /\ ( ta ) ) W ( ( cc ) /\ ( tc ) ) ) ) | ( ( [] ( ( go ) /\ ( ta ) ) ) \/ ( ( cc ) /\ ( tc ) ) ) | ( <> ( ( ( go ) /\ ( ta ) ) W ( <> ( ( cc ) /\ ( tc ) ) ) ) ) | 
Generation Time :0
Accumulated Learning Time :12
CALLs: 272    TIMEOUTs: 0    ERRORs: 0
REEVALUATIONS: 588 OF 1957

GENERATION 26/50
...i..m.<;....m.m.<;....m.m.<;....m.m.<;....m.m.<;...i.m..<;....m.m.<;....m.m.<;....m.m.<;....m.m.<;....m.m.<;....m.m.<;....m.m.<;....m.m.<;....m.m.<;....m.m.<;...i..m.<;...i.m.m.<;....m.m.<;....m.m.<;...i.m.m.<;...i.m..<;......m.m.<;....m.m.<;....m.m.<;....m.m.<;....m.m.<;....m.m.<;....m.m.<;....m.m.<;....m.m.<;....m.m.<;...i...<;....m.m.<;....m.m.<;....m.m.<;....m.m.<;....m.m.<;....m.m.<;....m.m.<;....m.m.<;....m.m.<;....m.m.<;....m.m.<;....m.m.<;...i.m.m.<;...i.m..<;....m.m.<;...i.m..<;
Fittest value: 2.625 for chromosome ( <> ( ( ( go ) /\ ( ta ) ) W ( ( cc ) /\ ( tc ) ) ) )
Solutions (24): ( ( X ( ( go ) /\ ( ta ) ) ) W ( <> ( ( cc ) /\ ( tc ) ) ) ) | ( ( [] ( ( go ) /\ ( ta ) ) ) W ( <> ( ( cc ) /\ ( tc ) ) ) ) | ( ( X ( ( go ) /\ ( ta ) ) ) W ( ( cc ) /\ ( tc ) ) ) | ( <> ( ( [] ( ( go ) /\ ( ta ) ) ) W ( <> ( ( cc ) /\ ( tc ) ) ) ) ) | ( ( ( [] ( ( go ) /\ ( ta ) ) ) W ( <> ( ( cc ) /\ ( tc ) ) ) ) \/ ( ( X ( tc ) ) /\ ( go ) ) ) | ( ( [] ( ( go ) /\ ( ta ) ) ) W ( ( cc ) /\ ( tc ) ) ) | ( ( [] ( ( go ) /\ ( tc ) ) ) W ( <> ( ( cc ) /\ ( tc ) ) ) ) | ( ( <> ( ( go ) /\ ( ta ) ) ) W ( <> ( ( cc ) /\ ( tc ) ) ) ) | ( <> ( ( X ( ( go ) /\ ( ta ) ) ) W ( ( cc ) /\ ( tc ) ) ) ) | ( <> ( ( X ( ( go ) /\ ( ta ) ) ) W ( <> ( ( cc ) /\ ( tc ) ) ) ) ) | ( ( <> ( ( go ) /\ ( ta ) ) ) W ( ( X ( ( go ) /\ ( ta ) ) ) W ( <> ( ( cc ) /\ ( tc ) ) ) ) ) | ( ( ( go ) /\ ( ta ) ) W ( <> ( ( cc ) /\ ( tc ) ) ) ) | ( ( [] ( ( go ) /\ ( tc ) ) ) W ( ( cc ) /\ ( tc ) ) ) | ( ( X ( ( go ) /\ ( tc ) ) ) W ( ( cc ) /\ ( tc ) ) ) | ( ( ( go ) /\ ( ta ) ) W ( ( cc ) /\ ( tc ) ) ) | ( ( X ( ( go ) /\ ( ta ) ) ) \/ ( <> ( ( cc ) /\ ( tc ) ) ) ) | ( ( [] ( ( go ) /\ ( ta ) ) ) \/ ( <> ( ( cc ) /\ ( tc ) ) ) ) | ( ( X ( ( go ) /\ ( tc ) ) ) W ( <> ( ( cc ) /\ ( tc ) ) ) ) | ( <> ( ( [] ( ( go ) /\ ( ta ) ) ) W ( ( cc ) /\ ( tc ) ) ) ) | ( <> ( ( ( go ) /\ ( ta ) ) W ( ( cc ) /\ ( tc ) ) ) ) | ( ( [] ( ( go ) /\ ( ta ) ) ) \/ ( ( cc ) /\ ( tc ) ) ) | ( <> ( ( ( go ) /\ ( ta ) ) W ( <> ( ( cc ) /\ ( tc ) ) ) ) ) | ( ( ( go ) /\ ( ta ) ) \/ ( <> ( ( cc ) /\ ( tc ) ) ) ) | ( <> ( <> ( ( ( go ) /\ ( ta ) ) W ( ( cc ) /\ ( tc ) ) ) ) ) | 
Generation Time :0
Accumulated Learning Time :13
CALLs: 296    TIMEOUTs: 0    ERRORs: 0
REEVALUATIONS: 612 OF 2031

GENERATION 27/50
...i.m..<;...i...<;....m.m.<;...i..m.<;....m.m.<;....m.m.<;....m.m.<;....m.m.<;....m.m.<;....m.m.<;...i..m.<;....m.m.<;....m.m.<;....m.m.<;...i..m.<;....m.m.<;.....m.m.<;...i.m..<;.....m.m.<;....m.m.<;....m.m.<;....m.m.<;....m.m.<;....m.m.<;....m.m.<;....m.m.<;......m.m.<;....m.m.<;....m.m.<;......m.m.<;....m.m.<;....m.m.<;......m.m.<;....m.m.<;....m.m.;....m.m.<;...i..m.<;....m.m.<;....m.m.<;....m.m.<;....m.m.<;....m.m.<;
Fittest value: 2.625 for chromosome ( <> ( ( ( go ) /\ ( ta ) ) W ( ( cc ) /\ ( tc ) ) ) )
Solutions (24): ( ( X ( ( go ) /\ ( ta ) ) ) W ( <> ( ( cc ) /\ ( tc ) ) ) ) | ( ( [] ( ( go ) /\ ( ta ) ) ) W ( <> ( ( cc ) /\ ( tc ) ) ) ) | ( ( X ( ( go ) /\ ( ta ) ) ) W ( ( cc ) /\ ( tc ) ) ) | ( <> ( ( [] ( ( go ) /\ ( ta ) ) ) W ( <> ( ( cc ) /\ ( tc ) ) ) ) ) | ( ( ( [] ( ( go ) /\ ( ta ) ) ) W ( <> ( ( cc ) /\ ( tc ) ) ) ) \/ ( ( X ( tc ) ) /\ ( go ) ) ) | ( ( [] ( ( go ) /\ ( ta ) ) ) W ( ( cc ) /\ ( tc ) ) ) | ( ( [] ( ( go ) /\ ( tc ) ) ) W ( <> ( ( cc ) /\ ( tc ) ) ) ) | ( ( <> ( ( go ) /\ ( ta ) ) ) W ( <> ( ( cc ) /\ ( tc ) ) ) ) | ( <> ( ( X ( ( go ) /\ ( ta ) ) ) W ( ( cc ) /\ ( tc ) ) ) ) | ( <> ( ( X ( ( go ) /\ ( ta ) ) ) W ( <> ( ( cc ) /\ ( tc ) ) ) ) ) | ( ( <> ( ( go ) /\ ( ta ) ) ) W ( ( X ( ( go ) /\ ( ta ) ) ) W ( <> ( ( cc ) /\ ( tc ) ) ) ) ) | ( ( ( go ) /\ ( ta ) ) W ( <> ( ( cc ) /\ ( tc ) ) ) ) | ( ( [] ( ( go ) /\ ( tc ) ) ) W ( ( cc ) /\ ( tc ) ) ) | ( ( X ( ( go ) /\ ( tc ) ) ) W ( ( cc ) /\ ( tc ) ) ) | ( ( ( go ) /\ ( ta ) ) W ( ( cc ) /\ ( tc ) ) ) | ( ( X ( ( go ) /\ ( ta ) ) ) \/ ( <> ( ( cc ) /\ ( tc ) ) ) ) | ( ( [] ( ( go ) /\ ( ta ) ) ) \/ ( <> ( ( cc ) /\ ( tc ) ) ) ) | ( ( X ( ( go ) /\ ( tc ) ) ) W ( <> ( ( cc ) /\ ( tc ) ) ) ) | ( <> ( ( [] ( ( go ) /\ ( ta ) ) ) W ( ( cc ) /\ ( tc ) ) ) ) | ( <> ( ( ( go ) /\ ( ta ) ) W ( ( cc ) /\ ( tc ) ) ) ) | ( ( [] ( ( go ) /\ ( ta ) ) ) \/ ( ( cc ) /\ ( tc ) ) ) | ( <> ( ( ( go ) /\ ( ta ) ) W ( <> ( ( cc ) /\ ( tc ) ) ) ) ) | ( ( ( go ) /\ ( ta ) ) \/ ( <> ( ( cc ) /\ ( tc ) ) ) ) | ( <> ( <> ( ( ( go ) /\ ( ta ) ) W ( ( cc ) /\ ( tc ) ) ) ) ) | 
Generation Time :0
Accumulated Learning Time :14
CALLs: 260    TIMEOUTs: 0    ERRORs: 0
REEVALUATIONS: 647 OF 2113

GENERATION 28/50
....m.m.<;....m.m.<;........m.m.<;....m.m.<;....m.m.<;....m.m.<;....m.m.<;....m.m.<;...i..m.<;....m.m.<;....m.m.<;....m.m.<;...i.m..<;......m.m.<;....m.m.<;....m.m.<;...i.m..<;...i...<;....m.m.<;....m.m.<;...i..m.<;....m.m.<;....m.m.<;....m.m.<;....m.m.<;...i..m.<;......m.m.<;...i.m.m.<;....m.m.<;....m.m.<;....m.m.<;...i..m.<;....m.m.<;....m.m.<;....m.m.<;...i.m..<;....m.m.<;...i.m..<;...i.m.m.<;....m.m.<;....m.m.<;....m.m.<;
Fittest value: 2.625 for chromosome ( <> ( ( ( go ) /\ ( ta ) ) W ( ( cc ) /\ ( tc ) ) ) )
Solutions (25): ( ( X ( ( go ) /\ ( ta ) ) ) W ( <> ( ( cc ) /\ ( tc ) ) ) ) | ( ( [] ( ( go ) /\ ( ta ) ) ) W ( <> ( ( cc ) /\ ( tc ) ) ) ) | ( ( X ( ( go ) /\ ( ta ) ) ) W ( ( cc ) /\ ( tc ) ) ) | ( <> ( ( [] ( ( go ) /\ ( ta ) ) ) W ( <> ( ( cc ) /\ ( tc ) ) ) ) ) | ( ( ( [] ( ( go ) /\ ( ta ) ) ) W ( <> ( ( cc ) /\ ( tc ) ) ) ) \/ ( ( X ( tc ) ) /\ ( go ) ) ) | ( ( [] ( ( go ) /\ ( ta ) ) ) W ( ( cc ) /\ ( tc ) ) ) | ( ( [] ( ( go ) /\ ( tc ) ) ) W ( <> ( ( cc ) /\ ( tc ) ) ) ) | ( ( <> ( ( go ) /\ ( ta ) ) ) W ( <> ( ( cc ) /\ ( tc ) ) ) ) | ( <> ( ( X ( ( go ) /\ ( ta ) ) ) W ( ( cc ) /\ ( tc ) ) ) ) | ( <> ( ( X ( ( go ) /\ ( ta ) ) ) W ( <> ( ( cc ) /\ ( tc ) ) ) ) ) | ( ( <> ( ( go ) /\ ( ta ) ) ) W ( ( X ( ( go ) /\ ( ta ) ) ) W ( <> ( ( cc ) /\ ( tc ) ) ) ) ) | ( ( ( go ) /\ ( ta ) ) W ( <> ( ( cc ) /\ ( tc ) ) ) ) | ( ( [] ( ( go ) /\ ( tc ) ) ) W ( ( cc ) /\ ( tc ) ) ) | ( ( X ( ( go ) /\ ( tc ) ) ) W ( ( cc ) /\ ( tc ) ) ) | ( ( ( go ) /\ ( ta ) ) W ( ( cc ) /\ ( tc ) ) ) | ( ( X ( ( go ) /\ ( ta ) ) ) \/ ( <> ( ( cc ) /\ ( tc ) ) ) ) | ( ( [] ( ( go ) /\ ( ta ) ) ) \/ ( <> ( ( cc ) /\ ( tc ) ) ) ) | ( ( X ( ( go ) /\ ( tc ) ) ) W ( <> ( ( cc ) /\ ( tc ) ) ) ) | ( <> ( ( [] ( ( go ) /\ ( ta ) ) ) W ( ( cc ) /\ ( tc ) ) ) ) | ( <> ( ( ( go ) /\ ( ta ) ) W ( ( cc ) /\ ( tc ) ) ) ) | ( ( [] ( ( go ) /\ ( ta ) ) ) \/ ( ( cc ) /\ ( tc ) ) ) | ( <> ( ( ( go ) /\ ( ta ) ) W ( <> ( ( cc ) /\ ( tc ) ) ) ) ) | ( ( ( go ) /\ ( ta ) ) \/ ( <> ( ( cc ) /\ ( tc ) ) ) ) | ( <> ( <> ( ( ( go ) /\ ( ta ) ) W ( ( cc ) /\ ( tc ) ) ) ) ) | ( ( ( go ) /\ ( tc ) ) W ( <> ( ( cc ) /\ ( tc ) ) ) ) | 
Generation Time :0
Accumulated Learning Time :14
CALLs: 260    TIMEOUTs: 0    ERRORs: 0
REEVALUATIONS: 677 OF 2189

GENERATION 29/50
....m.m.<;....m.m.<;...i.m..<;....m.m.<;....m.m.<;....m.m.<;...i.m..<;....m.m.<;....m.m.<;....m.m.<;....m.m.<;....m.m.<;....m.m.<;....m.m.<;...i..m.<;...i..m.<;....m.m.<;....m.m.<;....m.m.<;....m.m.<;....m.m.<;....m.m.<;.......m.m.<;....m.m.<;....m.m.<;....m.m.<;....m.m.<;....m.m.<;...i.m..<;....m.m.<;...i.m..<;...i.m..<;....m.m.<;...i.m..<;...i..m.<;....m.m.<;......m.m.<;....m.m.<;....m.m.<;....m.m.<;....m.m.<;....m.m.<;...i.m..<;....m.m.<;....m.m.<;...i.m..<;....m.m.<;...i.m..<;
Fittest value: 2.625 for chromosome ( <> ( ( ( go ) /\ ( ta ) ) W ( ( cc ) /\ ( tc ) ) ) )
Solutions (25): ( ( X ( ( go ) /\ ( ta ) ) ) W ( <> ( ( cc ) /\ ( tc ) ) ) ) | ( ( [] ( ( go ) /\ ( ta ) ) ) W ( <> ( ( cc ) /\ ( tc ) ) ) ) | ( ( X ( ( go ) /\ ( ta ) ) ) W ( ( cc ) /\ ( tc ) ) ) | ( <> ( ( [] ( ( go ) /\ ( ta ) ) ) W ( <> ( ( cc ) /\ ( tc ) ) ) ) ) | ( ( ( [] ( ( go ) /\ ( ta ) ) ) W ( <> ( ( cc ) /\ ( tc ) ) ) ) \/ ( ( X ( tc ) ) /\ ( go ) ) ) | ( ( [] ( ( go ) /\ ( ta ) ) ) W ( ( cc ) /\ ( tc ) ) ) | ( ( [] ( ( go ) /\ ( tc ) ) ) W ( <> ( ( cc ) /\ ( tc ) ) ) ) | ( ( <> ( ( go ) /\ ( ta ) ) ) W ( <> ( ( cc ) /\ ( tc ) ) ) ) | ( <> ( ( X ( ( go ) /\ ( ta ) ) ) W ( ( cc ) /\ ( tc ) ) ) ) | ( <> ( ( X ( ( go ) /\ ( ta ) ) ) W ( <> ( ( cc ) /\ ( tc ) ) ) ) ) | ( ( <> ( ( go ) /\ ( ta ) ) ) W ( ( X ( ( go ) /\ ( ta ) ) ) W ( <> ( ( cc ) /\ ( tc ) ) ) ) ) | ( ( ( go ) /\ ( ta ) ) W ( <> ( ( cc ) /\ ( tc ) ) ) ) | ( ( [] ( ( go ) /\ ( tc ) ) ) W ( ( cc ) /\ ( tc ) ) ) | ( ( X ( ( go ) /\ ( tc ) ) ) W ( ( cc ) /\ ( tc ) ) ) | ( ( ( go ) /\ ( ta ) ) W ( ( cc ) /\ ( tc ) ) ) | ( ( X ( ( go ) /\ ( ta ) ) ) \/ ( <> ( ( cc ) /\ ( tc ) ) ) ) | ( ( [] ( ( go ) /\ ( ta ) ) ) \/ ( <> ( ( cc ) /\ ( tc ) ) ) ) | ( ( X ( ( go ) /\ ( tc ) ) ) W ( <> ( ( cc ) /\ ( tc ) ) ) ) | ( <> ( ( [] ( ( go ) /\ ( ta ) ) ) W ( ( cc ) /\ ( tc ) ) ) ) | ( <> ( ( ( go ) /\ ( ta ) ) W ( ( cc ) /\ ( tc ) ) ) ) | ( ( [] ( ( go ) /\ ( ta ) ) ) \/ ( ( cc ) /\ ( tc ) ) ) | ( <> ( ( ( go ) /\ ( ta ) ) W ( <> ( ( cc ) /\ ( tc ) ) ) ) ) | ( ( ( go ) /\ ( ta ) ) \/ ( <> ( ( cc ) /\ ( tc ) ) ) ) | ( <> ( <> ( ( ( go ) /\ ( ta ) ) W ( ( cc ) /\ ( tc ) ) ) ) ) | ( ( ( go ) /\ ( tc ) ) W ( <> ( ( cc ) /\ ( tc ) ) ) ) | 
Generation Time :0
Accumulated Learning Time :14
CALLs: 293    TIMEOUTs: 0    ERRORs: 0
REEVALUATIONS: 705 OF 2268

GENERATION 30/50
....m.m.<;....m.m.<;....m.m.<;....m.m.<;....m.m.<;....m.m.<;...i..m.<;......m.m.<;....m.m.<;....m.m.<;....m.m.<;....m.m.<;....m.m.<;....m.m.<;.....m.m.<;....m.m.<;....m.m.<;....m.m.<;....m.m.<;.....i.m..<;....m.m.<;....m.m.<;....m.m.<;....m.m.<;....m.m.<;....m.m.<;...i.m..<;....m.m.<;....m.m.<;.....m.m.<;....m.m.<;....m.m.<;....m.m.<;...i..m.<;....m.m.<;....m.m.<;....m.m.<;....m.m.<;....m.m.<;...i.m..<;...i.m..<;
Fittest value: 2.625 for chromosome ( <> ( ( ( go ) /\ ( ta ) ) W ( ( cc ) /\ ( tc ) ) ) )
Solutions (25): ( ( X ( ( go ) /\ ( ta ) ) ) W ( <> ( ( cc ) /\ ( tc ) ) ) ) | ( ( [] ( ( go ) /\ ( ta ) ) ) W ( <> ( ( cc ) /\ ( tc ) ) ) ) | ( ( X ( ( go ) /\ ( ta ) ) ) W ( ( cc ) /\ ( tc ) ) ) | ( <> ( ( [] ( ( go ) /\ ( ta ) ) ) W ( <> ( ( cc ) /\ ( tc ) ) ) ) ) | ( ( ( [] ( ( go ) /\ ( ta ) ) ) W ( <> ( ( cc ) /\ ( tc ) ) ) ) \/ ( ( X ( tc ) ) /\ ( go ) ) ) | ( ( [] ( ( go ) /\ ( ta ) ) ) W ( ( cc ) /\ ( tc ) ) ) | ( ( [] ( ( go ) /\ ( tc ) ) ) W ( <> ( ( cc ) /\ ( tc ) ) ) ) | ( ( <> ( ( go ) /\ ( ta ) ) ) W ( <> ( ( cc ) /\ ( tc ) ) ) ) | ( <> ( ( X ( ( go ) /\ ( ta ) ) ) W ( ( cc ) /\ ( tc ) ) ) ) | ( <> ( ( X ( ( go ) /\ ( ta ) ) ) W ( <> ( ( cc ) /\ ( tc ) ) ) ) ) | ( ( <> ( ( go ) /\ ( ta ) ) ) W ( ( X ( ( go ) /\ ( ta ) ) ) W ( <> ( ( cc ) /\ ( tc ) ) ) ) ) | ( ( ( go ) /\ ( ta ) ) W ( <> ( ( cc ) /\ ( tc ) ) ) ) | ( ( [] ( ( go ) /\ ( tc ) ) ) W ( ( cc ) /\ ( tc ) ) ) | ( ( X ( ( go ) /\ ( tc ) ) ) W ( ( cc ) /\ ( tc ) ) ) | ( ( ( go ) /\ ( ta ) ) W ( ( cc ) /\ ( tc ) ) ) | ( ( X ( ( go ) /\ ( ta ) ) ) \/ ( <> ( ( cc ) /\ ( tc ) ) ) ) | ( ( [] ( ( go ) /\ ( ta ) ) ) \/ ( <> ( ( cc ) /\ ( tc ) ) ) ) | ( ( X ( ( go ) /\ ( tc ) ) ) W ( <> ( ( cc ) /\ ( tc ) ) ) ) | ( <> ( ( [] ( ( go ) /\ ( ta ) ) ) W ( ( cc ) /\ ( tc ) ) ) ) | ( <> ( ( ( go ) /\ ( ta ) ) W ( ( cc ) /\ ( tc ) ) ) ) | ( ( [] ( ( go ) /\ ( ta ) ) ) \/ ( ( cc ) /\ ( tc ) ) ) | ( <> ( ( ( go ) /\ ( ta ) ) W ( <> ( ( cc ) /\ ( tc ) ) ) ) ) | ( ( ( go ) /\ ( ta ) ) \/ ( <> ( ( cc ) /\ ( tc ) ) ) ) | ( <> ( <> ( ( ( go ) /\ ( ta ) ) W ( ( cc ) /\ ( tc ) ) ) ) ) | ( ( ( go ) /\ ( tc ) ) W ( <> ( ( cc ) /\ ( tc ) ) ) ) | 
Generation Time :0
Accumulated Learning Time :15
CALLs: 252    TIMEOUTs: 0    ERRORs: 0
REEVALUATIONS: 738 OF 2346

GENERATION 31/50
....m.m.<;....m.m.<;....m.m.<;....m.m.<;....m.m.<;....i.m.m.<;....m.m.<;......m.m.<;....m.m.<;....m.m.<;....m.m.<;....m.m.<;....m.m.<;......m.m.<;....m.m.<;....m.m.<;....m.m.<;....m.m.<;....m.m.<;.....m.m.<;....m.m.<;....m.m.<;....m.m.<;....m.m.<;
Fittest value: 2.625 for chromosome ( <> ( ( ( go ) /\ ( ta ) ) W ( ( cc ) /\ ( tc ) ) ) )
Solutions (26): ( ( X ( ( go ) /\ ( ta ) ) ) W ( <> ( ( cc ) /\ ( tc ) ) ) ) | ( ( [] ( ( go ) /\ ( ta ) ) ) W ( <> ( ( cc ) /\ ( tc ) ) ) ) | ( ( X ( ( go ) /\ ( ta ) ) ) W ( ( cc ) /\ ( tc ) ) ) | ( <> ( ( [] ( ( go ) /\ ( ta ) ) ) W ( <> ( ( cc ) /\ ( tc ) ) ) ) ) | ( ( ( [] ( ( go ) /\ ( ta ) ) ) W ( <> ( ( cc ) /\ ( tc ) ) ) ) \/ ( ( X ( tc ) ) /\ ( go ) ) ) | ( ( [] ( ( go ) /\ ( ta ) ) ) W ( ( cc ) /\ ( tc ) ) ) | ( ( [] ( ( go ) /\ ( tc ) ) ) W ( <> ( ( cc ) /\ ( tc ) ) ) ) | ( ( <> ( ( go ) /\ ( ta ) ) ) W ( <> ( ( cc ) /\ ( tc ) ) ) ) | ( <> ( ( X ( ( go ) /\ ( ta ) ) ) W ( ( cc ) /\ ( tc ) ) ) ) | ( <> ( ( X ( ( go ) /\ ( ta ) ) ) W ( <> ( ( cc ) /\ ( tc ) ) ) ) ) | ( ( <> ( ( go ) /\ ( ta ) ) ) W ( ( X ( ( go ) /\ ( ta ) ) ) W ( <> ( ( cc ) /\ ( tc ) ) ) ) ) | ( ( ( go ) /\ ( ta ) ) W ( <> ( ( cc ) /\ ( tc ) ) ) ) | ( ( [] ( ( go ) /\ ( tc ) ) ) W ( ( cc ) /\ ( tc ) ) ) | ( ( X ( ( go ) /\ ( tc ) ) ) W ( ( cc ) /\ ( tc ) ) ) | ( ( ( go ) /\ ( ta ) ) W ( ( cc ) /\ ( tc ) ) ) | ( ( X ( ( go ) /\ ( ta ) ) ) \/ ( <> ( ( cc ) /\ ( tc ) ) ) ) | ( ( [] ( ( go ) /\ ( ta ) ) ) \/ ( <> ( ( cc ) /\ ( tc ) ) ) ) | ( ( X ( ( go ) /\ ( tc ) ) ) W ( <> ( ( cc ) /\ ( tc ) ) ) ) | ( <> ( ( [] ( ( go ) /\ ( ta ) ) ) W ( ( cc ) /\ ( tc ) ) ) ) | ( <> ( ( ( go ) /\ ( ta ) ) W ( ( cc ) /\ ( tc ) ) ) ) | ( ( [] ( ( go ) /\ ( ta ) ) ) \/ ( ( cc ) /\ ( tc ) ) ) | ( <> ( ( ( go ) /\ ( ta ) ) W ( <> ( ( cc ) /\ ( tc ) ) ) ) ) | ( ( ( go ) /\ ( ta ) ) \/ ( <> ( ( cc ) /\ ( tc ) ) ) ) | ( <> ( <> ( ( ( go ) /\ ( ta ) ) W ( ( cc ) /\ ( tc ) ) ) ) ) | ( ( ( go ) /\ ( tc ) ) W ( <> ( ( cc ) /\ ( tc ) ) ) ) | ( <> ( ( ( go ) /\ ( tc ) ) W ( ( cc ) /\ ( tc ) ) ) ) | 
Generation Time :0
Accumulated Learning Time :15
CALLs: 150    TIMEOUTs: 0    ERRORs: 0
REEVALUATIONS: 783 OF 2419

GENERATION 32/50
....m.m.<;....m.m.<;....m.m.<;...i.m..<;....m.m.<;.....m.m.<;....m.m.<;....m.m.<;....m.m.<;....m.m.<;....m.m.<;....m.m.<;....m.m.<;....m.m.<;....m.m.<;.....m.m.<;....m.m.<;...i..m.<;....m.m.<;....m.m.<;....m.m.<;....m.m.<;...i.m..<;....m.m.<;...i.m..<;....m.m.<;....m.m.<;....m.m.<;....m.m.<;....m.m.<;....m.m.<;....m.m.<;....m.m.<;...i.m.m.<;
Fittest value: 2.625 for chromosome ( <> ( ( ( go ) /\ ( ta ) ) W ( ( cc ) /\ ( tc ) ) ) )
Solutions (27): ( ( X ( ( go ) /\ ( ta ) ) ) W ( <> ( ( cc ) /\ ( tc ) ) ) ) | ( ( [] ( ( go ) /\ ( ta ) ) ) W ( <> ( ( cc ) /\ ( tc ) ) ) ) | ( ( X ( ( go ) /\ ( ta ) ) ) W ( ( cc ) /\ ( tc ) ) ) | ( <> ( ( [] ( ( go ) /\ ( ta ) ) ) W ( <> ( ( cc ) /\ ( tc ) ) ) ) ) | ( ( ( [] ( ( go ) /\ ( ta ) ) ) W ( <> ( ( cc ) /\ ( tc ) ) ) ) \/ ( ( X ( tc ) ) /\ ( go ) ) ) | ( ( [] ( ( go ) /\ ( ta ) ) ) W ( ( cc ) /\ ( tc ) ) ) | ( ( [] ( ( go ) /\ ( tc ) ) ) W ( <> ( ( cc ) /\ ( tc ) ) ) ) | ( ( <> ( ( go ) /\ ( ta ) ) ) W ( <> ( ( cc ) /\ ( tc ) ) ) ) | ( <> ( ( X ( ( go ) /\ ( ta ) ) ) W ( ( cc ) /\ ( tc ) ) ) ) | ( <> ( ( X ( ( go ) /\ ( ta ) ) ) W ( <> ( ( cc ) /\ ( tc ) ) ) ) ) | ( ( <> ( ( go ) /\ ( ta ) ) ) W ( ( X ( ( go ) /\ ( ta ) ) ) W ( <> ( ( cc ) /\ ( tc ) ) ) ) ) | ( ( ( go ) /\ ( ta ) ) W ( <> ( ( cc ) /\ ( tc ) ) ) ) | ( ( [] ( ( go ) /\ ( tc ) ) ) W ( ( cc ) /\ ( tc ) ) ) | ( ( X ( ( go ) /\ ( tc ) ) ) W ( ( cc ) /\ ( tc ) ) ) | ( ( ( go ) /\ ( ta ) ) W ( ( cc ) /\ ( tc ) ) ) | ( ( X ( ( go ) /\ ( ta ) ) ) \/ ( <> ( ( cc ) /\ ( tc ) ) ) ) | ( ( [] ( ( go ) /\ ( ta ) ) ) \/ ( <> ( ( cc ) /\ ( tc ) ) ) ) | ( ( X ( ( go ) /\ ( tc ) ) ) W ( <> ( ( cc ) /\ ( tc ) ) ) ) | ( <> ( ( [] ( ( go ) /\ ( ta ) ) ) W ( ( cc ) /\ ( tc ) ) ) ) | ( <> ( ( ( go ) /\ ( ta ) ) W ( ( cc ) /\ ( tc ) ) ) ) | ( ( [] ( ( go ) /\ ( ta ) ) ) \/ ( ( cc ) /\ ( tc ) ) ) | ( <> ( ( ( go ) /\ ( ta ) ) W ( <> ( ( cc ) /\ ( tc ) ) ) ) ) | ( ( ( go ) /\ ( ta ) ) \/ ( <> ( ( cc ) /\ ( tc ) ) ) ) | ( <> ( <> ( ( ( go ) /\ ( ta ) ) W ( ( cc ) /\ ( tc ) ) ) ) ) | ( ( ( go ) /\ ( tc ) ) W ( <> ( ( cc ) /\ ( tc ) ) ) ) | ( <> ( ( ( go ) /\ ( tc ) ) W ( ( cc ) /\ ( tc ) ) ) ) | ( ( <> ( ( ( go ) /\ ( ta ) ) W ( ( cc ) /\ ( tc ) ) ) ) W ( ( ( go ) /\ ( ta ) ) W ( ( cc ) /\ ( tc ) ) ) ) | 
Generation Time :0
Accumulated Learning Time :16
CALLs: 206    TIMEOUTs: 0    ERRORs: 0
REEVALUATIONS: 818 OF 2490

GENERATION 33/50
....m.m.<;....m.m.<;....m.m.<;....i..m.<;......m.m.<;....m.m.<;....m.m.<;...i..m.<;......m.m.<;...i..m.<;...i..m.<;....m.m.<;....m.m.<;......m.m.<;....m.m.<;....m.m.<;....m.m.<;....m.m.<;....m.m.<;...i.m..<;...i.m..<;....m.m.<;......m.m.<;...i..m.<;....m.m.<;....m.m.<;....m.m.<;...i.m.m.<;...i.m.m.<;
Fittest value: 2.625 for chromosome ( <> ( ( ( go ) /\ ( ta ) ) W ( ( cc ) /\ ( tc ) ) ) )
Solutions (29): ( ( X ( ( go ) /\ ( ta ) ) ) W ( <> ( ( cc ) /\ ( tc ) ) ) ) | ( ( [] ( ( go ) /\ ( ta ) ) ) W ( <> ( ( cc ) /\ ( tc ) ) ) ) | ( ( X ( ( go ) /\ ( ta ) ) ) W ( ( cc ) /\ ( tc ) ) ) | ( <> ( ( [] ( ( go ) /\ ( ta ) ) ) W ( <> ( ( cc ) /\ ( tc ) ) ) ) ) | ( ( ( [] ( ( go ) /\ ( ta ) ) ) W ( <> ( ( cc ) /\ ( tc ) ) ) ) \/ ( ( X ( tc ) ) /\ ( go ) ) ) | ( ( [] ( ( go ) /\ ( ta ) ) ) W ( ( cc ) /\ ( tc ) ) ) | ( ( [] ( ( go ) /\ ( tc ) ) ) W ( <> ( ( cc ) /\ ( tc ) ) ) ) | ( ( <> ( ( go ) /\ ( ta ) ) ) W ( <> ( ( cc ) /\ ( tc ) ) ) ) | ( <> ( ( X ( ( go ) /\ ( ta ) ) ) W ( ( cc ) /\ ( tc ) ) ) ) | ( <> ( ( X ( ( go ) /\ ( ta ) ) ) W ( <> ( ( cc ) /\ ( tc ) ) ) ) ) | ( ( <> ( ( go ) /\ ( ta ) ) ) W ( ( X ( ( go ) /\ ( ta ) ) ) W ( <> ( ( cc ) /\ ( tc ) ) ) ) ) | ( ( ( go ) /\ ( ta ) ) W ( <> ( ( cc ) /\ ( tc ) ) ) ) | ( ( [] ( ( go ) /\ ( tc ) ) ) W ( ( cc ) /\ ( tc ) ) ) | ( ( X ( ( go ) /\ ( tc ) ) ) W ( ( cc ) /\ ( tc ) ) ) | ( ( ( go ) /\ ( ta ) ) W ( ( cc ) /\ ( tc ) ) ) | ( ( X ( ( go ) /\ ( ta ) ) ) \/ ( <> ( ( cc ) /\ ( tc ) ) ) ) | ( ( [] ( ( go ) /\ ( ta ) ) ) \/ ( <> ( ( cc ) /\ ( tc ) ) ) ) | ( ( X ( ( go ) /\ ( tc ) ) ) W ( <> ( ( cc ) /\ ( tc ) ) ) ) | ( <> ( ( [] ( ( go ) /\ ( ta ) ) ) W ( ( cc ) /\ ( tc ) ) ) ) | ( <> ( ( ( go ) /\ ( ta ) ) W ( ( cc ) /\ ( tc ) ) ) ) | ( ( [] ( ( go ) /\ ( ta ) ) ) \/ ( ( cc ) /\ ( tc ) ) ) | ( <> ( ( ( go ) /\ ( ta ) ) W ( <> ( ( cc ) /\ ( tc ) ) ) ) ) | ( ( ( go ) /\ ( ta ) ) \/ ( <> ( ( cc ) /\ ( tc ) ) ) ) | ( <> ( <> ( ( ( go ) /\ ( ta ) ) W ( ( cc ) /\ ( tc ) ) ) ) ) | ( ( ( go ) /\ ( tc ) ) W ( <> ( ( cc ) /\ ( tc ) ) ) ) | ( <> ( ( ( go ) /\ ( tc ) ) W ( ( cc ) /\ ( tc ) ) ) ) | ( ( <> ( ( ( go ) /\ ( ta ) ) W ( ( cc ) /\ ( tc ) ) ) ) W ( ( ( go ) /\ ( ta ) ) W ( ( cc ) /\ ( tc ) ) ) ) | ( ( ( go ) /\ ( tc ) ) W ( ( cc ) /\ ( tc ) ) ) | ( <> ( <> ( ( ( go ) /\ ( tc ) ) W ( ( cc ) /\ ( tc ) ) ) ) ) | 
Generation Time :0
Accumulated Learning Time :16
CALLs: 183    TIMEOUTs: 0    ERRORs: 0
REEVALUATIONS: 862 OF 2568

GENERATION 34/50
....m.m.<;....m.m.<;...i..m.<;....m.m.<;......m.m.<;....m.m.<;...i..m.<;....m.m.<;....m.m.<;....m.m.<;.....m.m.<;......m.m.<;....m.m.<;...i..m.<;....m.m.<;...i..m.<;....m.m.<;....m.m.<;....m.m.<;....m.m.<;....m.m.<;...i..m.<;....m.m.<;....m.m.<;...i..m.<;...i.m..<;
Fittest value: 2.625 for chromosome ( <> ( ( ( go ) /\ ( ta ) ) W ( ( cc ) /\ ( tc ) ) ) )
Solutions (29): ( ( X ( ( go ) /\ ( ta ) ) ) W ( <> ( ( cc ) /\ ( tc ) ) ) ) | ( ( [] ( ( go ) /\ ( ta ) ) ) W ( <> ( ( cc ) /\ ( tc ) ) ) ) | ( ( X ( ( go ) /\ ( ta ) ) ) W ( ( cc ) /\ ( tc ) ) ) | ( <> ( ( [] ( ( go ) /\ ( ta ) ) ) W ( <> ( ( cc ) /\ ( tc ) ) ) ) ) | ( ( ( [] ( ( go ) /\ ( ta ) ) ) W ( <> ( ( cc ) /\ ( tc ) ) ) ) \/ ( ( X ( tc ) ) /\ ( go ) ) ) | ( ( [] ( ( go ) /\ ( ta ) ) ) W ( ( cc ) /\ ( tc ) ) ) | ( ( [] ( ( go ) /\ ( tc ) ) ) W ( <> ( ( cc ) /\ ( tc ) ) ) ) | ( ( <> ( ( go ) /\ ( ta ) ) ) W ( <> ( ( cc ) /\ ( tc ) ) ) ) | ( <> ( ( X ( ( go ) /\ ( ta ) ) ) W ( ( cc ) /\ ( tc ) ) ) ) | ( <> ( ( X ( ( go ) /\ ( ta ) ) ) W ( <> ( ( cc ) /\ ( tc ) ) ) ) ) | ( ( <> ( ( go ) /\ ( ta ) ) ) W ( ( X ( ( go ) /\ ( ta ) ) ) W ( <> ( ( cc ) /\ ( tc ) ) ) ) ) | ( ( ( go ) /\ ( ta ) ) W ( <> ( ( cc ) /\ ( tc ) ) ) ) | ( ( [] ( ( go ) /\ ( tc ) ) ) W ( ( cc ) /\ ( tc ) ) ) | ( ( X ( ( go ) /\ ( tc ) ) ) W ( ( cc ) /\ ( tc ) ) ) | ( ( ( go ) /\ ( ta ) ) W ( ( cc ) /\ ( tc ) ) ) | ( ( X ( ( go ) /\ ( ta ) ) ) \/ ( <> ( ( cc ) /\ ( tc ) ) ) ) | ( ( [] ( ( go ) /\ ( ta ) ) ) \/ ( <> ( ( cc ) /\ ( tc ) ) ) ) | ( ( X ( ( go ) /\ ( tc ) ) ) W ( <> ( ( cc ) /\ ( tc ) ) ) ) | ( <> ( ( [] ( ( go ) /\ ( ta ) ) ) W ( ( cc ) /\ ( tc ) ) ) ) | ( <> ( ( ( go ) /\ ( ta ) ) W ( ( cc ) /\ ( tc ) ) ) ) | ( ( [] ( ( go ) /\ ( ta ) ) ) \/ ( ( cc ) /\ ( tc ) ) ) | ( <> ( ( ( go ) /\ ( ta ) ) W ( <> ( ( cc ) /\ ( tc ) ) ) ) ) | ( ( ( go ) /\ ( ta ) ) \/ ( <> ( ( cc ) /\ ( tc ) ) ) ) | ( <> ( <> ( ( ( go ) /\ ( ta ) ) W ( ( cc ) /\ ( tc ) ) ) ) ) | ( ( ( go ) /\ ( tc ) ) W ( <> ( ( cc ) /\ ( tc ) ) ) ) | ( <> ( ( ( go ) /\ ( tc ) ) W ( ( cc ) /\ ( tc ) ) ) ) | ( ( <> ( ( ( go ) /\ ( ta ) ) W ( ( cc ) /\ ( tc ) ) ) ) W ( ( ( go ) /\ ( ta ) ) W ( ( cc ) /\ ( tc ) ) ) ) | ( ( ( go ) /\ ( tc ) ) W ( ( cc ) /\ ( tc ) ) ) | ( <> ( <> ( ( ( go ) /\ ( tc ) ) W ( ( cc ) /\ ( tc ) ) ) ) ) | 
Generation Time :0
Accumulated Learning Time :16
CALLs: 161    TIMEOUTs: 0    ERRORs: 0
REEVALUATIONS: 905 OF 2640

GENERATION 35/50
....m.m.<;...i..m.<;....m.m.<;....m.m.<;....m.m.<;....m.m.<;....m.m.<;....m.m.<;....m.m.<;....m.m.<;....m.m.<;....m.m.<;...i..m.<;....m.m.<;.....m.m.<;......m.m.<;...i..m.<;....m.m.<;....m.m.<;...i...<;....m.m.<;....m.m.<;...i.m..<;....m.m.<;....m.m.<;....m.m.<;...i..m.<;....m.m.<;....m.m.<;...i.m.m.<;
Fittest value: 2.625 for chromosome ( <> ( ( ( go ) /\ ( ta ) ) W ( ( cc ) /\ ( tc ) ) ) )
Solutions (29): ( ( X ( ( go ) /\ ( ta ) ) ) W ( <> ( ( cc ) /\ ( tc ) ) ) ) | ( ( [] ( ( go ) /\ ( ta ) ) ) W ( <> ( ( cc ) /\ ( tc ) ) ) ) | ( ( X ( ( go ) /\ ( ta ) ) ) W ( ( cc ) /\ ( tc ) ) ) | ( <> ( ( [] ( ( go ) /\ ( ta ) ) ) W ( <> ( ( cc ) /\ ( tc ) ) ) ) ) | ( ( ( [] ( ( go ) /\ ( ta ) ) ) W ( <> ( ( cc ) /\ ( tc ) ) ) ) \/ ( ( X ( tc ) ) /\ ( go ) ) ) | ( ( [] ( ( go ) /\ ( ta ) ) ) W ( ( cc ) /\ ( tc ) ) ) | ( ( [] ( ( go ) /\ ( tc ) ) ) W ( <> ( ( cc ) /\ ( tc ) ) ) ) | ( ( <> ( ( go ) /\ ( ta ) ) ) W ( <> ( ( cc ) /\ ( tc ) ) ) ) | ( <> ( ( X ( ( go ) /\ ( ta ) ) ) W ( ( cc ) /\ ( tc ) ) ) ) | ( <> ( ( X ( ( go ) /\ ( ta ) ) ) W ( <> ( ( cc ) /\ ( tc ) ) ) ) ) | ( ( <> ( ( go ) /\ ( ta ) ) ) W ( ( X ( ( go ) /\ ( ta ) ) ) W ( <> ( ( cc ) /\ ( tc ) ) ) ) ) | ( ( ( go ) /\ ( ta ) ) W ( <> ( ( cc ) /\ ( tc ) ) ) ) | ( ( [] ( ( go ) /\ ( tc ) ) ) W ( ( cc ) /\ ( tc ) ) ) | ( ( X ( ( go ) /\ ( tc ) ) ) W ( ( cc ) /\ ( tc ) ) ) | ( ( ( go ) /\ ( ta ) ) W ( ( cc ) /\ ( tc ) ) ) | ( ( X ( ( go ) /\ ( ta ) ) ) \/ ( <> ( ( cc ) /\ ( tc ) ) ) ) | ( ( [] ( ( go ) /\ ( ta ) ) ) \/ ( <> ( ( cc ) /\ ( tc ) ) ) ) | ( ( X ( ( go ) /\ ( tc ) ) ) W ( <> ( ( cc ) /\ ( tc ) ) ) ) | ( <> ( ( [] ( ( go ) /\ ( ta ) ) ) W ( ( cc ) /\ ( tc ) ) ) ) | ( <> ( ( ( go ) /\ ( ta ) ) W ( ( cc ) /\ ( tc ) ) ) ) | ( ( [] ( ( go ) /\ ( ta ) ) ) \/ ( ( cc ) /\ ( tc ) ) ) | ( <> ( ( ( go ) /\ ( ta ) ) W ( <> ( ( cc ) /\ ( tc ) ) ) ) ) | ( ( ( go ) /\ ( ta ) ) \/ ( <> ( ( cc ) /\ ( tc ) ) ) ) | ( <> ( <> ( ( ( go ) /\ ( ta ) ) W ( ( cc ) /\ ( tc ) ) ) ) ) | ( ( ( go ) /\ ( tc ) ) W ( <> ( ( cc ) /\ ( tc ) ) ) ) | ( <> ( ( ( go ) /\ ( tc ) ) W ( ( cc ) /\ ( tc ) ) ) ) | ( ( <> ( ( ( go ) /\ ( ta ) ) W ( ( cc ) /\ ( tc ) ) ) ) W ( ( ( go ) /\ ( ta ) ) W ( ( cc ) /\ ( tc ) ) ) ) | ( ( ( go ) /\ ( tc ) ) W ( ( cc ) /\ ( tc ) ) ) | ( <> ( <> ( ( ( go ) /\ ( tc ) ) W ( ( cc ) /\ ( tc ) ) ) ) ) | 
Generation Time :0
Accumulated Learning Time :17
CALLs: 183    TIMEOUTs: 0    ERRORs: 0
REEVALUATIONS: 947 OF 2714

GENERATION 36/50
.....m.m.<;....m.m.<;...i..m.<;....m.m.<;....m.m.<;....m.m.<;....m.m.<;......m.m.<;.....m.m.<;....m.m.<;....m.m.<;...i..m.<;....m.m.<;....m.m.<;....m.m.<;....m.m.<;......m.m.<;......m.m.<;........m.m.<;....m.m.<;....m.m.<;....i..m.<;...i..m.<;...i.m..<;....m.m.<;....m.m.<;....m.m.<;....m.m.<;....m.m.<;....m.m.<;...i.m..<;....i.m..<;
Fittest value: 2.625 for chromosome ( <> ( ( ( go ) /\ ( ta ) ) W ( ( cc ) /\ ( tc ) ) ) )
Solutions (29): ( ( X ( ( go ) /\ ( ta ) ) ) W ( <> ( ( cc ) /\ ( tc ) ) ) ) | ( ( [] ( ( go ) /\ ( ta ) ) ) W ( <> ( ( cc ) /\ ( tc ) ) ) ) | ( ( X ( ( go ) /\ ( ta ) ) ) W ( ( cc ) /\ ( tc ) ) ) | ( <> ( ( [] ( ( go ) /\ ( ta ) ) ) W ( <> ( ( cc ) /\ ( tc ) ) ) ) ) | ( ( ( [] ( ( go ) /\ ( ta ) ) ) W ( <> ( ( cc ) /\ ( tc ) ) ) ) \/ ( ( X ( tc ) ) /\ ( go ) ) ) | ( ( [] ( ( go ) /\ ( ta ) ) ) W ( ( cc ) /\ ( tc ) ) ) | ( ( [] ( ( go ) /\ ( tc ) ) ) W ( <> ( ( cc ) /\ ( tc ) ) ) ) | ( ( <> ( ( go ) /\ ( ta ) ) ) W ( <> ( ( cc ) /\ ( tc ) ) ) ) | ( <> ( ( X ( ( go ) /\ ( ta ) ) ) W ( ( cc ) /\ ( tc ) ) ) ) | ( <> ( ( X ( ( go ) /\ ( ta ) ) ) W ( <> ( ( cc ) /\ ( tc ) ) ) ) ) | ( ( <> ( ( go ) /\ ( ta ) ) ) W ( ( X ( ( go ) /\ ( ta ) ) ) W ( <> ( ( cc ) /\ ( tc ) ) ) ) ) | ( ( ( go ) /\ ( ta ) ) W ( <> ( ( cc ) /\ ( tc ) ) ) ) | ( ( [] ( ( go ) /\ ( tc ) ) ) W ( ( cc ) /\ ( tc ) ) ) | ( ( X ( ( go ) /\ ( tc ) ) ) W ( ( cc ) /\ ( tc ) ) ) | ( ( ( go ) /\ ( ta ) ) W ( ( cc ) /\ ( tc ) ) ) | ( ( X ( ( go ) /\ ( ta ) ) ) \/ ( <> ( ( cc ) /\ ( tc ) ) ) ) | ( ( [] ( ( go ) /\ ( ta ) ) ) \/ ( <> ( ( cc ) /\ ( tc ) ) ) ) | ( ( X ( ( go ) /\ ( tc ) ) ) W ( <> ( ( cc ) /\ ( tc ) ) ) ) | ( <> ( ( [] ( ( go ) /\ ( ta ) ) ) W ( ( cc ) /\ ( tc ) ) ) ) | ( <> ( ( ( go ) /\ ( ta ) ) W ( ( cc ) /\ ( tc ) ) ) ) | ( ( [] ( ( go ) /\ ( ta ) ) ) \/ ( ( cc ) /\ ( tc ) ) ) | ( <> ( ( ( go ) /\ ( ta ) ) W ( <> ( ( cc ) /\ ( tc ) ) ) ) ) | ( ( ( go ) /\ ( ta ) ) \/ ( <> ( ( cc ) /\ ( tc ) ) ) ) | ( <> ( <> ( ( ( go ) /\ ( ta ) ) W ( ( cc ) /\ ( tc ) ) ) ) ) | ( ( ( go ) /\ ( tc ) ) W ( <> ( ( cc ) /\ ( tc ) ) ) ) | ( <> ( ( ( go ) /\ ( tc ) ) W ( ( cc ) /\ ( tc ) ) ) ) | ( ( <> ( ( ( go ) /\ ( ta ) ) W ( ( cc ) /\ ( tc ) ) ) ) W ( ( ( go ) /\ ( ta ) ) W ( ( cc ) /\ ( tc ) ) ) ) | ( ( ( go ) /\ ( tc ) ) W ( ( cc ) /\ ( tc ) ) ) | ( <> ( <> ( ( ( go ) /\ ( tc ) ) W ( ( cc ) /\ ( tc ) ) ) ) ) | 
Generation Time :0
Accumulated Learning Time :17
CALLs: 206    TIMEOUTs: 0    ERRORs: 0
REEVALUATIONS: 987 OF 2795

GENERATION 37/50
....m.m.<;...i..m.<;...i.m..<;....m.m.<;....m.m.<;....m.m.<;....m.m.<;....i..m.<;......m.m.<;...i..m.<;....m.m.<;...i.m.m.<;....m.m.<;....m.m.<;......m.m.<;...i.m..<;.....m.m.<;....m.m.<;...i.m..<;.....m.m.<;.....m.m.<;....m.m.<;...i.m.m.<;
Fittest value: 2.625 for chromosome ( <> ( ( ( go ) /\ ( ta ) ) W ( ( cc ) /\ ( tc ) ) ) )
Solutions (30): ( ( X ( ( go ) /\ ( ta ) ) ) W ( <> ( ( cc ) /\ ( tc ) ) ) ) | ( ( [] ( ( go ) /\ ( ta ) ) ) W ( <> ( ( cc ) /\ ( tc ) ) ) ) | ( ( X ( ( go ) /\ ( ta ) ) ) W ( ( cc ) /\ ( tc ) ) ) | ( <> ( ( [] ( ( go ) /\ ( ta ) ) ) W ( <> ( ( cc ) /\ ( tc ) ) ) ) ) | ( ( ( [] ( ( go ) /\ ( ta ) ) ) W ( <> ( ( cc ) /\ ( tc ) ) ) ) \/ ( ( X ( tc ) ) /\ ( go ) ) ) | ( ( [] ( ( go ) /\ ( ta ) ) ) W ( ( cc ) /\ ( tc ) ) ) | ( ( [] ( ( go ) /\ ( tc ) ) ) W ( <> ( ( cc ) /\ ( tc ) ) ) ) | ( ( <> ( ( go ) /\ ( ta ) ) ) W ( <> ( ( cc ) /\ ( tc ) ) ) ) | ( <> ( ( X ( ( go ) /\ ( ta ) ) ) W ( ( cc ) /\ ( tc ) ) ) ) | ( <> ( ( X ( ( go ) /\ ( ta ) ) ) W ( <> ( ( cc ) /\ ( tc ) ) ) ) ) | ( ( <> ( ( go ) /\ ( ta ) ) ) W ( ( X ( ( go ) /\ ( ta ) ) ) W ( <> ( ( cc ) /\ ( tc ) ) ) ) ) | ( ( ( go ) /\ ( ta ) ) W ( <> ( ( cc ) /\ ( tc ) ) ) ) | ( ( [] ( ( go ) /\ ( tc ) ) ) W ( ( cc ) /\ ( tc ) ) ) | ( ( X ( ( go ) /\ ( tc ) ) ) W ( ( cc ) /\ ( tc ) ) ) | ( ( ( go ) /\ ( ta ) ) W ( ( cc ) /\ ( tc ) ) ) | ( ( X ( ( go ) /\ ( ta ) ) ) \/ ( <> ( ( cc ) /\ ( tc ) ) ) ) | ( ( [] ( ( go ) /\ ( ta ) ) ) \/ ( <> ( ( cc ) /\ ( tc ) ) ) ) | ( ( X ( ( go ) /\ ( tc ) ) ) W ( <> ( ( cc ) /\ ( tc ) ) ) ) | ( <> ( ( [] ( ( go ) /\ ( ta ) ) ) W ( ( cc ) /\ ( tc ) ) ) ) | ( <> ( ( ( go ) /\ ( ta ) ) W ( ( cc ) /\ ( tc ) ) ) ) | ( ( [] ( ( go ) /\ ( ta ) ) ) \/ ( ( cc ) /\ ( tc ) ) ) | ( <> ( ( ( go ) /\ ( ta ) ) W ( <> ( ( cc ) /\ ( tc ) ) ) ) ) | ( ( ( go ) /\ ( ta ) ) \/ ( <> ( ( cc ) /\ ( tc ) ) ) ) | ( <> ( <> ( ( ( go ) /\ ( ta ) ) W ( ( cc ) /\ ( tc ) ) ) ) ) | ( ( ( go ) /\ ( tc ) ) W ( <> ( ( cc ) /\ ( tc ) ) ) ) | ( <> ( ( ( go ) /\ ( tc ) ) W ( ( cc ) /\ ( tc ) ) ) ) | ( ( <> ( ( ( go ) /\ ( ta ) ) W ( ( cc ) /\ ( tc ) ) ) ) W ( ( ( go ) /\ ( ta ) ) W ( ( cc ) /\ ( tc ) ) ) ) | ( ( ( go ) /\ ( tc ) ) W ( ( cc ) /\ ( tc ) ) ) | ( <> ( <> ( ( ( go ) /\ ( tc ) ) W ( ( cc ) /\ ( tc ) ) ) ) ) | ( ( ( go ) /\ ( ta ) ) \/ ( ( cc ) /\ ( tc ) ) ) | 
Generation Time :0
Accumulated Learning Time :17
CALLs: 146    TIMEOUTs: 0    ERRORs: 0
REEVALUATIONS: 1036 OF 2873

GENERATION 38/50
....m.m.<;....m.m.<;....m.m.<;....m.m.<;...i.m..<;....m.m.<;....m.m.<;....m.m.<;....m.m.<;....m.m.<;.....m.m.<;....m.m.<;....m.m.<;......m.m.<;.....m.m.<;....m.m.<;....m.m.<;......m.m.<;....m.m.<;....m.m.<;....m.m.<;....m.m.<;.....m.m.<;...i...<;....m.m.<;....m.m.<;...i..m.<;....m.m.<;....m.m.<;....m.m.<;....m.m.<;...i.m.m.<;....m.m.<;
Fittest value: 2.625 for chromosome ( <> ( ( ( go ) /\ ( ta ) ) W ( ( cc ) /\ ( tc ) ) ) )
Solutions (30): ( ( X ( ( go ) /\ ( ta ) ) ) W ( <> ( ( cc ) /\ ( tc ) ) ) ) | ( ( [] ( ( go ) /\ ( ta ) ) ) W ( <> ( ( cc ) /\ ( tc ) ) ) ) | ( ( X ( ( go ) /\ ( ta ) ) ) W ( ( cc ) /\ ( tc ) ) ) | ( <> ( ( [] ( ( go ) /\ ( ta ) ) ) W ( <> ( ( cc ) /\ ( tc ) ) ) ) ) | ( ( ( [] ( ( go ) /\ ( ta ) ) ) W ( <> ( ( cc ) /\ ( tc ) ) ) ) \/ ( ( X ( tc ) ) /\ ( go ) ) ) | ( ( [] ( ( go ) /\ ( ta ) ) ) W ( ( cc ) /\ ( tc ) ) ) | ( ( [] ( ( go ) /\ ( tc ) ) ) W ( <> ( ( cc ) /\ ( tc ) ) ) ) | ( ( <> ( ( go ) /\ ( ta ) ) ) W ( <> ( ( cc ) /\ ( tc ) ) ) ) | ( <> ( ( X ( ( go ) /\ ( ta ) ) ) W ( ( cc ) /\ ( tc ) ) ) ) | ( <> ( ( X ( ( go ) /\ ( ta ) ) ) W ( <> ( ( cc ) /\ ( tc ) ) ) ) ) | ( ( <> ( ( go ) /\ ( ta ) ) ) W ( ( X ( ( go ) /\ ( ta ) ) ) W ( <> ( ( cc ) /\ ( tc ) ) ) ) ) | ( ( ( go ) /\ ( ta ) ) W ( <> ( ( cc ) /\ ( tc ) ) ) ) | ( ( [] ( ( go ) /\ ( tc ) ) ) W ( ( cc ) /\ ( tc ) ) ) | ( ( X ( ( go ) /\ ( tc ) ) ) W ( ( cc ) /\ ( tc ) ) ) | ( ( ( go ) /\ ( ta ) ) W ( ( cc ) /\ ( tc ) ) ) | ( ( X ( ( go ) /\ ( ta ) ) ) \/ ( <> ( ( cc ) /\ ( tc ) ) ) ) | ( ( [] ( ( go ) /\ ( ta ) ) ) \/ ( <> ( ( cc ) /\ ( tc ) ) ) ) | ( ( X ( ( go ) /\ ( tc ) ) ) W ( <> ( ( cc ) /\ ( tc ) ) ) ) | ( <> ( ( [] ( ( go ) /\ ( ta ) ) ) W ( ( cc ) /\ ( tc ) ) ) ) | ( <> ( ( ( go ) /\ ( ta ) ) W ( ( cc ) /\ ( tc ) ) ) ) | ( ( [] ( ( go ) /\ ( ta ) ) ) \/ ( ( cc ) /\ ( tc ) ) ) | ( <> ( ( ( go ) /\ ( ta ) ) W ( <> ( ( cc ) /\ ( tc ) ) ) ) ) | ( ( ( go ) /\ ( ta ) ) \/ ( <> ( ( cc ) /\ ( tc ) ) ) ) | ( <> ( <> ( ( ( go ) /\ ( ta ) ) W ( ( cc ) /\ ( tc ) ) ) ) ) | ( ( ( go ) /\ ( tc ) ) W ( <> ( ( cc ) /\ ( tc ) ) ) ) | ( <> ( ( ( go ) /\ ( tc ) ) W ( ( cc ) /\ ( tc ) ) ) ) | ( ( <> ( ( ( go ) /\ ( ta ) ) W ( ( cc ) /\ ( tc ) ) ) ) W ( ( ( go ) /\ ( ta ) ) W ( ( cc ) /\ ( tc ) ) ) ) | ( ( ( go ) /\ ( tc ) ) W ( ( cc ) /\ ( tc ) ) ) | ( <> ( <> ( ( ( go ) /\ ( tc ) ) W ( ( cc ) /\ ( tc ) ) ) ) ) | ( ( ( go ) /\ ( ta ) ) \/ ( ( cc ) /\ ( tc ) ) ) | 
Generation Time :0
Accumulated Learning Time :18
CALLs: 205    TIMEOUTs: 0    ERRORs: 0
REEVALUATIONS: 1077 OF 2952

GENERATION 39/50
....m.m.<;....m.m.<;...i.m.m.<;....m.m.<;......m.m.<;....m.m.<;...i..m.<;....m.m.<;....m.m.<;....m.m.<;......m.m.<;....m.m.<;...i..m.<;....m.m.<;....m.m.<;....m.m.<;....m.m.<;....m.m.<;.....m.m.<;....m.m.<;....m.m.<;....m.m.<;....m.m.<;....m.m.<;....m.m.<;...i..m.<;....m.m.<;.....m.m.<;....m.m.<;....m.m.<;....m.m.<;...i.m..<;...i.m.m.<;
Fittest value: 2.625 for chromosome ( <> ( ( ( go ) /\ ( ta ) ) W ( ( cc ) /\ ( tc ) ) ) )
Solutions (30): ( ( X ( ( go ) /\ ( ta ) ) ) W ( <> ( ( cc ) /\ ( tc ) ) ) ) | ( ( [] ( ( go ) /\ ( ta ) ) ) W ( <> ( ( cc ) /\ ( tc ) ) ) ) | ( ( X ( ( go ) /\ ( ta ) ) ) W ( ( cc ) /\ ( tc ) ) ) | ( <> ( ( [] ( ( go ) /\ ( ta ) ) ) W ( <> ( ( cc ) /\ ( tc ) ) ) ) ) | ( ( ( [] ( ( go ) /\ ( ta ) ) ) W ( <> ( ( cc ) /\ ( tc ) ) ) ) \/ ( ( X ( tc ) ) /\ ( go ) ) ) | ( ( [] ( ( go ) /\ ( ta ) ) ) W ( ( cc ) /\ ( tc ) ) ) | ( ( [] ( ( go ) /\ ( tc ) ) ) W ( <> ( ( cc ) /\ ( tc ) ) ) ) | ( ( <> ( ( go ) /\ ( ta ) ) ) W ( <> ( ( cc ) /\ ( tc ) ) ) ) | ( <> ( ( X ( ( go ) /\ ( ta ) ) ) W ( ( cc ) /\ ( tc ) ) ) ) | ( <> ( ( X ( ( go ) /\ ( ta ) ) ) W ( <> ( ( cc ) /\ ( tc ) ) ) ) ) | ( ( <> ( ( go ) /\ ( ta ) ) ) W ( ( X ( ( go ) /\ ( ta ) ) ) W ( <> ( ( cc ) /\ ( tc ) ) ) ) ) | ( ( ( go ) /\ ( ta ) ) W ( <> ( ( cc ) /\ ( tc ) ) ) ) | ( ( [] ( ( go ) /\ ( tc ) ) ) W ( ( cc ) /\ ( tc ) ) ) | ( ( X ( ( go ) /\ ( tc ) ) ) W ( ( cc ) /\ ( tc ) ) ) | ( ( ( go ) /\ ( ta ) ) W ( ( cc ) /\ ( tc ) ) ) | ( ( X ( ( go ) /\ ( ta ) ) ) \/ ( <> ( ( cc ) /\ ( tc ) ) ) ) | ( ( [] ( ( go ) /\ ( ta ) ) ) \/ ( <> ( ( cc ) /\ ( tc ) ) ) ) | ( ( X ( ( go ) /\ ( tc ) ) ) W ( <> ( ( cc ) /\ ( tc ) ) ) ) | ( <> ( ( [] ( ( go ) /\ ( ta ) ) ) W ( ( cc ) /\ ( tc ) ) ) ) | ( <> ( ( ( go ) /\ ( ta ) ) W ( ( cc ) /\ ( tc ) ) ) ) | ( ( [] ( ( go ) /\ ( ta ) ) ) \/ ( ( cc ) /\ ( tc ) ) ) | ( <> ( ( ( go ) /\ ( ta ) ) W ( <> ( ( cc ) /\ ( tc ) ) ) ) ) | ( ( ( go ) /\ ( ta ) ) \/ ( <> ( ( cc ) /\ ( tc ) ) ) ) | ( <> ( <> ( ( ( go ) /\ ( ta ) ) W ( ( cc ) /\ ( tc ) ) ) ) ) | ( ( ( go ) /\ ( tc ) ) W ( <> ( ( cc ) /\ ( tc ) ) ) ) | ( <> ( ( ( go ) /\ ( tc ) ) W ( ( cc ) /\ ( tc ) ) ) ) | ( ( <> ( ( ( go ) /\ ( ta ) ) W ( ( cc ) /\ ( tc ) ) ) ) W ( ( ( go ) /\ ( ta ) ) W ( ( cc ) /\ ( tc ) ) ) ) | ( ( ( go ) /\ ( tc ) ) W ( ( cc ) /\ ( tc ) ) ) | ( <> ( <> ( ( ( go ) /\ ( tc ) ) W ( ( cc ) /\ ( tc ) ) ) ) ) | ( ( ( go ) /\ ( ta ) ) \/ ( ( cc ) /\ ( tc ) ) ) | 
Generation Time :0
Accumulated Learning Time :18
CALLs: 204    TIMEOUTs: 0    ERRORs: 0
REEVALUATIONS: 1119 OF 3032

GENERATION 40/50
....m.m.<;....m.m.<;....m.m.<;....m.m.<;....m.m.<;.....m.m.<;....m.m.<;....m.m.<;....m.m.<;...i..m.<;....m.m.<;....m.m.<;......m.m.<;....m.m.<;.....m.m.<;......m.m.<;....m.m.<;....m.m.<;...i.m..<;...i..m.<;....m.m.<;...i.m.m.<;....m.m.<;....m.m.<;.....i...<;....m.m.<;....m.m.<;....m.m.<;...i.m..<;.....i.m.m.;...i.m.m.<;
Fittest value: 2.625 for chromosome ( <> ( ( ( go ) /\ ( ta ) ) W ( ( cc ) /\ ( tc ) ) ) )
Solutions (31): ( ( X ( ( go ) /\ ( ta ) ) ) W ( <> ( ( cc ) /\ ( tc ) ) ) ) | ( ( [] ( ( go ) /\ ( ta ) ) ) W ( <> ( ( cc ) /\ ( tc ) ) ) ) | ( ( X ( ( go ) /\ ( ta ) ) ) W ( ( cc ) /\ ( tc ) ) ) | ( <> ( ( [] ( ( go ) /\ ( ta ) ) ) W ( <> ( ( cc ) /\ ( tc ) ) ) ) ) | ( ( ( [] ( ( go ) /\ ( ta ) ) ) W ( <> ( ( cc ) /\ ( tc ) ) ) ) \/ ( ( X ( tc ) ) /\ ( go ) ) ) | ( ( [] ( ( go ) /\ ( ta ) ) ) W ( ( cc ) /\ ( tc ) ) ) | ( ( [] ( ( go ) /\ ( tc ) ) ) W ( <> ( ( cc ) /\ ( tc ) ) ) ) | ( ( <> ( ( go ) /\ ( ta ) ) ) W ( <> ( ( cc ) /\ ( tc ) ) ) ) | ( <> ( ( X ( ( go ) /\ ( ta ) ) ) W ( ( cc ) /\ ( tc ) ) ) ) | ( <> ( ( X ( ( go ) /\ ( ta ) ) ) W ( <> ( ( cc ) /\ ( tc ) ) ) ) ) | ( ( <> ( ( go ) /\ ( ta ) ) ) W ( ( X ( ( go ) /\ ( ta ) ) ) W ( <> ( ( cc ) /\ ( tc ) ) ) ) ) | ( ( ( go ) /\ ( ta ) ) W ( <> ( ( cc ) /\ ( tc ) ) ) ) | ( ( [] ( ( go ) /\ ( tc ) ) ) W ( ( cc ) /\ ( tc ) ) ) | ( ( X ( ( go ) /\ ( tc ) ) ) W ( ( cc ) /\ ( tc ) ) ) | ( ( ( go ) /\ ( ta ) ) W ( ( cc ) /\ ( tc ) ) ) | ( ( X ( ( go ) /\ ( ta ) ) ) \/ ( <> ( ( cc ) /\ ( tc ) ) ) ) | ( ( [] ( ( go ) /\ ( ta ) ) ) \/ ( <> ( ( cc ) /\ ( tc ) ) ) ) | ( ( X ( ( go ) /\ ( tc ) ) ) W ( <> ( ( cc ) /\ ( tc ) ) ) ) | ( <> ( ( [] ( ( go ) /\ ( ta ) ) ) W ( ( cc ) /\ ( tc ) ) ) ) | ( <> ( ( ( go ) /\ ( ta ) ) W ( ( cc ) /\ ( tc ) ) ) ) | ( ( [] ( ( go ) /\ ( ta ) ) ) \/ ( ( cc ) /\ ( tc ) ) ) | ( <> ( ( ( go ) /\ ( ta ) ) W ( <> ( ( cc ) /\ ( tc ) ) ) ) ) | ( ( ( go ) /\ ( ta ) ) \/ ( <> ( ( cc ) /\ ( tc ) ) ) ) | ( <> ( <> ( ( ( go ) /\ ( ta ) ) W ( ( cc ) /\ ( tc ) ) ) ) ) | ( ( ( go ) /\ ( tc ) ) W ( <> ( ( cc ) /\ ( tc ) ) ) ) | ( <> ( ( ( go ) /\ ( tc ) ) W ( ( cc ) /\ ( tc ) ) ) ) | ( ( <> ( ( ( go ) /\ ( ta ) ) W ( ( cc ) /\ ( tc ) ) ) ) W ( ( ( go ) /\ ( ta ) ) W ( ( cc ) /\ ( tc ) ) ) ) | ( ( ( go ) /\ ( tc ) ) W ( ( cc ) /\ ( tc ) ) ) | ( <> ( <> ( ( ( go ) /\ ( tc ) ) W ( ( cc ) /\ ( tc ) ) ) ) ) | ( ( ( go ) /\ ( ta ) ) \/ ( ( cc ) /\ ( tc ) ) ) | ( ( ( ( go ) /\ ( ta ) ) W ( ( cc ) /\ ( tc ) ) ) /\ ( ( ( go ) /\ ( ta ) ) W ( ( cc ) /\ ( tc ) ) ) ) | 
Generation Time :0
Accumulated Learning Time :18
CALLs: 196    TIMEOUTs: 0    ERRORs: 0
REEVALUATIONS: 1158 OF 3109

GENERATION 41/50
....m.m.<;....m.m.<;....m.m.<;....m.m.<;....m.m.<;....m.m.<;......m.m.<;....m.m.<;....m.m.<;....m.m.<;....m.m.<;....m.m.<;....m.m.<;....m.m.<;....m.m.<;...i..m.<;....m.m.<;...i.m..<;...i..m.<;....m.m.<;....m.m.<;....m.m.<;....m.m.<;...i.m..<;....m.m.<;...i.m..<;....m.m.<;....m.m.<;...i.m..<;......m.m.<;...i.m..<;....m.m.<;
Fittest value: 2.625 for chromosome ( <> ( ( ( go ) /\ ( ta ) ) W ( ( cc ) /\ ( tc ) ) ) )
Solutions (31): ( ( X ( ( go ) /\ ( ta ) ) ) W ( <> ( ( cc ) /\ ( tc ) ) ) ) | ( ( [] ( ( go ) /\ ( ta ) ) ) W ( <> ( ( cc ) /\ ( tc ) ) ) ) | ( ( X ( ( go ) /\ ( ta ) ) ) W ( ( cc ) /\ ( tc ) ) ) | ( <> ( ( [] ( ( go ) /\ ( ta ) ) ) W ( <> ( ( cc ) /\ ( tc ) ) ) ) ) | ( ( ( [] ( ( go ) /\ ( ta ) ) ) W ( <> ( ( cc ) /\ ( tc ) ) ) ) \/ ( ( X ( tc ) ) /\ ( go ) ) ) | ( ( [] ( ( go ) /\ ( ta ) ) ) W ( ( cc ) /\ ( tc ) ) ) | ( ( [] ( ( go ) /\ ( tc ) ) ) W ( <> ( ( cc ) /\ ( tc ) ) ) ) | ( ( <> ( ( go ) /\ ( ta ) ) ) W ( <> ( ( cc ) /\ ( tc ) ) ) ) | ( <> ( ( X ( ( go ) /\ ( ta ) ) ) W ( ( cc ) /\ ( tc ) ) ) ) | ( <> ( ( X ( ( go ) /\ ( ta ) ) ) W ( <> ( ( cc ) /\ ( tc ) ) ) ) ) | ( ( <> ( ( go ) /\ ( ta ) ) ) W ( ( X ( ( go ) /\ ( ta ) ) ) W ( <> ( ( cc ) /\ ( tc ) ) ) ) ) | ( ( ( go ) /\ ( ta ) ) W ( <> ( ( cc ) /\ ( tc ) ) ) ) | ( ( [] ( ( go ) /\ ( tc ) ) ) W ( ( cc ) /\ ( tc ) ) ) | ( ( X ( ( go ) /\ ( tc ) ) ) W ( ( cc ) /\ ( tc ) ) ) | ( ( ( go ) /\ ( ta ) ) W ( ( cc ) /\ ( tc ) ) ) | ( ( X ( ( go ) /\ ( ta ) ) ) \/ ( <> ( ( cc ) /\ ( tc ) ) ) ) | ( ( [] ( ( go ) /\ ( ta ) ) ) \/ ( <> ( ( cc ) /\ ( tc ) ) ) ) | ( ( X ( ( go ) /\ ( tc ) ) ) W ( <> ( ( cc ) /\ ( tc ) ) ) ) | ( <> ( ( [] ( ( go ) /\ ( ta ) ) ) W ( ( cc ) /\ ( tc ) ) ) ) | ( <> ( ( ( go ) /\ ( ta ) ) W ( ( cc ) /\ ( tc ) ) ) ) | ( ( [] ( ( go ) /\ ( ta ) ) ) \/ ( ( cc ) /\ ( tc ) ) ) | ( <> ( ( ( go ) /\ ( ta ) ) W ( <> ( ( cc ) /\ ( tc ) ) ) ) ) | ( ( ( go ) /\ ( ta ) ) \/ ( <> ( ( cc ) /\ ( tc ) ) ) ) | ( <> ( <> ( ( ( go ) /\ ( ta ) ) W ( ( cc ) /\ ( tc ) ) ) ) ) | ( ( ( go ) /\ ( tc ) ) W ( <> ( ( cc ) /\ ( tc ) ) ) ) | ( <> ( ( ( go ) /\ ( tc ) ) W ( ( cc ) /\ ( tc ) ) ) ) | ( ( <> ( ( ( go ) /\ ( ta ) ) W ( ( cc ) /\ ( tc ) ) ) ) W ( ( ( go ) /\ ( ta ) ) W ( ( cc ) /\ ( tc ) ) ) ) | ( ( ( go ) /\ ( tc ) ) W ( ( cc ) /\ ( tc ) ) ) | ( <> ( <> ( ( ( go ) /\ ( tc ) ) W ( ( cc ) /\ ( tc ) ) ) ) ) | ( ( ( go ) /\ ( ta ) ) \/ ( ( cc ) /\ ( tc ) ) ) | ( ( ( ( go ) /\ ( ta ) ) W ( ( cc ) /\ ( tc ) ) ) /\ ( ( ( go ) /\ ( ta ) ) W ( ( cc ) /\ ( tc ) ) ) ) | 
Generation Time :0
Accumulated Learning Time :19
CALLs: 196    TIMEOUTs: 0    ERRORs: 0
REEVALUATIONS: 1206 OF 3191

GENERATION 42/50
.....m.m.<;....m.m.<;....m.m.<;....m.m.<;....m.m.<;....m.m.<;....m.m.<;....m.m.<;.......m.m.<;....m.m.<;....m.m.<;....m.m.<;....m.m.<;....m.m.<;....m.m.<;....m.m.<;.....m.m.<;....m.m.<;...i..m.<;....m.m.<;....m.m.<;....m.m.<;....m.m.<;....m.m.<;....m.m.<;....m.m.<;....m.m.<;....m.m.<;....m.m.<;....m.m.<;.....i.m..<;....m.m.<;....m.m.<;....m.m.<;....m.m.<;......m.m.<;...i..m.<;....m.m.<;...i.m.m.<;...i.m.m.<;....m.m.<;
Fittest value: 2.625 for chromosome ( <> ( ( ( go ) /\ ( ta ) ) W ( ( cc ) /\ ( tc ) ) ) )
Solutions (31): ( ( X ( ( go ) /\ ( ta ) ) ) W ( <> ( ( cc ) /\ ( tc ) ) ) ) | ( ( [] ( ( go ) /\ ( ta ) ) ) W ( <> ( ( cc ) /\ ( tc ) ) ) ) | ( ( X ( ( go ) /\ ( ta ) ) ) W ( ( cc ) /\ ( tc ) ) ) | ( <> ( ( [] ( ( go ) /\ ( ta ) ) ) W ( <> ( ( cc ) /\ ( tc ) ) ) ) ) | ( ( ( [] ( ( go ) /\ ( ta ) ) ) W ( <> ( ( cc ) /\ ( tc ) ) ) ) \/ ( ( X ( tc ) ) /\ ( go ) ) ) | ( ( [] ( ( go ) /\ ( ta ) ) ) W ( ( cc ) /\ ( tc ) ) ) | ( ( [] ( ( go ) /\ ( tc ) ) ) W ( <> ( ( cc ) /\ ( tc ) ) ) ) | ( ( <> ( ( go ) /\ ( ta ) ) ) W ( <> ( ( cc ) /\ ( tc ) ) ) ) | ( <> ( ( X ( ( go ) /\ ( ta ) ) ) W ( ( cc ) /\ ( tc ) ) ) ) | ( <> ( ( X ( ( go ) /\ ( ta ) ) ) W ( <> ( ( cc ) /\ ( tc ) ) ) ) ) | ( ( <> ( ( go ) /\ ( ta ) ) ) W ( ( X ( ( go ) /\ ( ta ) ) ) W ( <> ( ( cc ) /\ ( tc ) ) ) ) ) | ( ( ( go ) /\ ( ta ) ) W ( <> ( ( cc ) /\ ( tc ) ) ) ) | ( ( [] ( ( go ) /\ ( tc ) ) ) W ( ( cc ) /\ ( tc ) ) ) | ( ( X ( ( go ) /\ ( tc ) ) ) W ( ( cc ) /\ ( tc ) ) ) | ( ( ( go ) /\ ( ta ) ) W ( ( cc ) /\ ( tc ) ) ) | ( ( X ( ( go ) /\ ( ta ) ) ) \/ ( <> ( ( cc ) /\ ( tc ) ) ) ) | ( ( [] ( ( go ) /\ ( ta ) ) ) \/ ( <> ( ( cc ) /\ ( tc ) ) ) ) | ( ( X ( ( go ) /\ ( tc ) ) ) W ( <> ( ( cc ) /\ ( tc ) ) ) ) | ( <> ( ( [] ( ( go ) /\ ( ta ) ) ) W ( ( cc ) /\ ( tc ) ) ) ) | ( <> ( ( ( go ) /\ ( ta ) ) W ( ( cc ) /\ ( tc ) ) ) ) | ( ( [] ( ( go ) /\ ( ta ) ) ) \/ ( ( cc ) /\ ( tc ) ) ) | ( <> ( ( ( go ) /\ ( ta ) ) W ( <> ( ( cc ) /\ ( tc ) ) ) ) ) | ( ( ( go ) /\ ( ta ) ) \/ ( <> ( ( cc ) /\ ( tc ) ) ) ) | ( <> ( <> ( ( ( go ) /\ ( ta ) ) W ( ( cc ) /\ ( tc ) ) ) ) ) | ( ( ( go ) /\ ( tc ) ) W ( <> ( ( cc ) /\ ( tc ) ) ) ) | ( <> ( ( ( go ) /\ ( tc ) ) W ( ( cc ) /\ ( tc ) ) ) ) | ( ( <> ( ( ( go ) /\ ( ta ) ) W ( ( cc ) /\ ( tc ) ) ) ) W ( ( ( go ) /\ ( ta ) ) W ( ( cc ) /\ ( tc ) ) ) ) | ( ( ( go ) /\ ( tc ) ) W ( ( cc ) /\ ( tc ) ) ) | ( <> ( <> ( ( ( go ) /\ ( tc ) ) W ( ( cc ) /\ ( tc ) ) ) ) ) | ( ( ( go ) /\ ( ta ) ) \/ ( ( cc ) /\ ( tc ) ) ) | ( ( ( ( go ) /\ ( ta ) ) W ( ( cc ) /\ ( tc ) ) ) /\ ( ( ( go ) /\ ( ta ) ) W ( ( cc ) /\ ( tc ) ) ) ) | 
Generation Time :0
Accumulated Learning Time :19
CALLs: 255    TIMEOUTs: 0    ERRORs: 0
REEVALUATIONS: 1245 OF 3277

GENERATION 43/50
....m.m.<;....m.m.<;....m.m.<;....m.m.<;...i.m.m.<;....m.m.<;....m.m.<;.....m.m.<;...i.m..<;....m.m.<;....m.m.<;......m.m.<;....m.m.<;....m.m.<;...i..m.<;....m.m.<;....m.m.<;....m.m.<;....m.m.<;.....m.m.<;....m.m.<;....m.m.<;...i.m..<;....m.m.<;........m.m.<;....m.m.<;....m.m.<;...i.m..<;....m.m.<;...i.m.m.<;....m.m.<;
Fittest value: 2.625 for chromosome ( <> ( ( ( go ) /\ ( ta ) ) W ( ( cc ) /\ ( tc ) ) ) )
Solutions (31): ( ( X ( ( go ) /\ ( ta ) ) ) W ( <> ( ( cc ) /\ ( tc ) ) ) ) | ( ( [] ( ( go ) /\ ( ta ) ) ) W ( <> ( ( cc ) /\ ( tc ) ) ) ) | ( ( X ( ( go ) /\ ( ta ) ) ) W ( ( cc ) /\ ( tc ) ) ) | ( <> ( ( [] ( ( go ) /\ ( ta ) ) ) W ( <> ( ( cc ) /\ ( tc ) ) ) ) ) | ( ( ( [] ( ( go ) /\ ( ta ) ) ) W ( <> ( ( cc ) /\ ( tc ) ) ) ) \/ ( ( X ( tc ) ) /\ ( go ) ) ) | ( ( [] ( ( go ) /\ ( ta ) ) ) W ( ( cc ) /\ ( tc ) ) ) | ( ( [] ( ( go ) /\ ( tc ) ) ) W ( <> ( ( cc ) /\ ( tc ) ) ) ) | ( ( <> ( ( go ) /\ ( ta ) ) ) W ( <> ( ( cc ) /\ ( tc ) ) ) ) | ( <> ( ( X ( ( go ) /\ ( ta ) ) ) W ( ( cc ) /\ ( tc ) ) ) ) | ( <> ( ( X ( ( go ) /\ ( ta ) ) ) W ( <> ( ( cc ) /\ ( tc ) ) ) ) ) | ( ( <> ( ( go ) /\ ( ta ) ) ) W ( ( X ( ( go ) /\ ( ta ) ) ) W ( <> ( ( cc ) /\ ( tc ) ) ) ) ) | ( ( ( go ) /\ ( ta ) ) W ( <> ( ( cc ) /\ ( tc ) ) ) ) | ( ( [] ( ( go ) /\ ( tc ) ) ) W ( ( cc ) /\ ( tc ) ) ) | ( ( X ( ( go ) /\ ( tc ) ) ) W ( ( cc ) /\ ( tc ) ) ) | ( ( ( go ) /\ ( ta ) ) W ( ( cc ) /\ ( tc ) ) ) | ( ( X ( ( go ) /\ ( ta ) ) ) \/ ( <> ( ( cc ) /\ ( tc ) ) ) ) | ( ( [] ( ( go ) /\ ( ta ) ) ) \/ ( <> ( ( cc ) /\ ( tc ) ) ) ) | ( ( X ( ( go ) /\ ( tc ) ) ) W ( <> ( ( cc ) /\ ( tc ) ) ) ) | ( <> ( ( [] ( ( go ) /\ ( ta ) ) ) W ( ( cc ) /\ ( tc ) ) ) ) | ( <> ( ( ( go ) /\ ( ta ) ) W ( ( cc ) /\ ( tc ) ) ) ) | ( ( [] ( ( go ) /\ ( ta ) ) ) \/ ( ( cc ) /\ ( tc ) ) ) | ( <> ( ( ( go ) /\ ( ta ) ) W ( <> ( ( cc ) /\ ( tc ) ) ) ) ) | ( ( ( go ) /\ ( ta ) ) \/ ( <> ( ( cc ) /\ ( tc ) ) ) ) | ( <> ( <> ( ( ( go ) /\ ( ta ) ) W ( ( cc ) /\ ( tc ) ) ) ) ) | ( ( ( go ) /\ ( tc ) ) W ( <> ( ( cc ) /\ ( tc ) ) ) ) | ( <> ( ( ( go ) /\ ( tc ) ) W ( ( cc ) /\ ( tc ) ) ) ) | ( ( <> ( ( ( go ) /\ ( ta ) ) W ( ( cc ) /\ ( tc ) ) ) ) W ( ( ( go ) /\ ( ta ) ) W ( ( cc ) /\ ( tc ) ) ) ) | ( ( ( go ) /\ ( tc ) ) W ( ( cc ) /\ ( tc ) ) ) | ( <> ( <> ( ( ( go ) /\ ( tc ) ) W ( ( cc ) /\ ( tc ) ) ) ) ) | ( ( ( go ) /\ ( ta ) ) \/ ( ( cc ) /\ ( tc ) ) ) | ( ( ( ( go ) /\ ( ta ) ) W ( ( cc ) /\ ( tc ) ) ) /\ ( ( ( go ) /\ ( ta ) ) W ( ( cc ) /\ ( tc ) ) ) ) | 
Generation Time :0
Accumulated Learning Time :19
CALLs: 194    TIMEOUTs: 0    ERRORs: 0
REEVALUATIONS: 1283 OF 3351

GENERATION 44/50
....m.m.<;....m.m.<;.....i.m..<;....m.m.<;....m.m.<;....m.m.<;....m.m.<;....m.m.<;....m.m.<;....m.m.<;...i.m..<;....m.m.<;...i..m.<;....m.m.<;....m.m.<;....m.m.<;....m.m.<;........m.m.<;....m.m.<;....m.m.<;....m.m.<;....m.m.<;....m.m.<;....m.m.<;....m.m.<;....m.m.<;....m.m.<;....m.m.<;....m.m.<;....m.m.<;...i..m.<;....i..m.<;...i.m.m.<;
Fittest value: 2.625 for chromosome ( <> ( ( ( go ) /\ ( ta ) ) W ( ( cc ) /\ ( tc ) ) ) )
Solutions (32): ( ( X ( ( go ) /\ ( ta ) ) ) W ( <> ( ( cc ) /\ ( tc ) ) ) ) | ( ( [] ( ( go ) /\ ( ta ) ) ) W ( <> ( ( cc ) /\ ( tc ) ) ) ) | ( ( X ( ( go ) /\ ( ta ) ) ) W ( ( cc ) /\ ( tc ) ) ) | ( <> ( ( [] ( ( go ) /\ ( ta ) ) ) W ( <> ( ( cc ) /\ ( tc ) ) ) ) ) | ( ( ( [] ( ( go ) /\ ( ta ) ) ) W ( <> ( ( cc ) /\ ( tc ) ) ) ) \/ ( ( X ( tc ) ) /\ ( go ) ) ) | ( ( [] ( ( go ) /\ ( ta ) ) ) W ( ( cc ) /\ ( tc ) ) ) | ( ( [] ( ( go ) /\ ( tc ) ) ) W ( <> ( ( cc ) /\ ( tc ) ) ) ) | ( ( <> ( ( go ) /\ ( ta ) ) ) W ( <> ( ( cc ) /\ ( tc ) ) ) ) | ( <> ( ( X ( ( go ) /\ ( ta ) ) ) W ( ( cc ) /\ ( tc ) ) ) ) | ( <> ( ( X ( ( go ) /\ ( ta ) ) ) W ( <> ( ( cc ) /\ ( tc ) ) ) ) ) | ( ( <> ( ( go ) /\ ( ta ) ) ) W ( ( X ( ( go ) /\ ( ta ) ) ) W ( <> ( ( cc ) /\ ( tc ) ) ) ) ) | ( ( ( go ) /\ ( ta ) ) W ( <> ( ( cc ) /\ ( tc ) ) ) ) | ( ( [] ( ( go ) /\ ( tc ) ) ) W ( ( cc ) /\ ( tc ) ) ) | ( ( X ( ( go ) /\ ( tc ) ) ) W ( ( cc ) /\ ( tc ) ) ) | ( ( ( go ) /\ ( ta ) ) W ( ( cc ) /\ ( tc ) ) ) | ( ( X ( ( go ) /\ ( ta ) ) ) \/ ( <> ( ( cc ) /\ ( tc ) ) ) ) | ( ( [] ( ( go ) /\ ( ta ) ) ) \/ ( <> ( ( cc ) /\ ( tc ) ) ) ) | ( ( X ( ( go ) /\ ( tc ) ) ) W ( <> ( ( cc ) /\ ( tc ) ) ) ) | ( <> ( ( [] ( ( go ) /\ ( ta ) ) ) W ( ( cc ) /\ ( tc ) ) ) ) | ( <> ( ( ( go ) /\ ( ta ) ) W ( ( cc ) /\ ( tc ) ) ) ) | ( ( [] ( ( go ) /\ ( ta ) ) ) \/ ( ( cc ) /\ ( tc ) ) ) | ( <> ( ( ( go ) /\ ( ta ) ) W ( <> ( ( cc ) /\ ( tc ) ) ) ) ) | ( ( ( go ) /\ ( ta ) ) \/ ( <> ( ( cc ) /\ ( tc ) ) ) ) | ( <> ( <> ( ( ( go ) /\ ( ta ) ) W ( ( cc ) /\ ( tc ) ) ) ) ) | ( ( ( go ) /\ ( tc ) ) W ( <> ( ( cc ) /\ ( tc ) ) ) ) | ( <> ( ( ( go ) /\ ( tc ) ) W ( ( cc ) /\ ( tc ) ) ) ) | ( ( <> ( ( ( go ) /\ ( ta ) ) W ( ( cc ) /\ ( tc ) ) ) ) W ( ( ( go ) /\ ( ta ) ) W ( ( cc ) /\ ( tc ) ) ) ) | ( ( ( go ) /\ ( tc ) ) W ( ( cc ) /\ ( tc ) ) ) | ( <> ( <> ( ( ( go ) /\ ( tc ) ) W ( ( cc ) /\ ( tc ) ) ) ) ) | ( ( ( go ) /\ ( ta ) ) \/ ( ( cc ) /\ ( tc ) ) ) | ( ( ( ( go ) /\ ( ta ) ) W ( ( cc ) /\ ( tc ) ) ) /\ ( ( ( go ) /\ ( ta ) ) W ( ( cc ) /\ ( tc ) ) ) ) | ( ( ( go ) /\ ( ta ) ) \/ ( ( cc ) /\ ( ( cc ) /\ ( tc ) ) ) ) | 
Generation Time :0
Accumulated Learning Time :20
CALLs: 205    TIMEOUTs: 0    ERRORs: 0
REEVALUATIONS: 1324 OF 3429

GENERATION 45/50
...i..m.<;....m.m.<;....m.m.<;....m.m.<;....m.m.<;...i..m.<;...i..m.<;....m.m.<;....m.m.<;.....m.m.<;....m.m.<;....m.m.<;....m.m.<;....m.m.<;....i.m.m.<;....m.m.<;....m.m.<;....m.m.<;....m.m.<;....m.m.<;......m.m.<;....m.m.<;....m.m.<;....m.m.<;....m.m.<;....m.m.<;......m.m.<;....m.m.<;...i...<;....m.m.<;....m.m.<;....m.m.<;...i.m..<;...i.m.m.<;....m.m.<;
Fittest value: 2.642857142857143 for chromosome ( <> ( ( ( go ) /\ ( tc ) ) W ( ( cc ) /\ ( tc ) ) ) )
Solutions (33): ( ( X ( ( go ) /\ ( ta ) ) ) W ( <> ( ( cc ) /\ ( tc ) ) ) ) | ( ( [] ( ( go ) /\ ( ta ) ) ) W ( <> ( ( cc ) /\ ( tc ) ) ) ) | ( ( X ( ( go ) /\ ( ta ) ) ) W ( ( cc ) /\ ( tc ) ) ) | ( <> ( ( [] ( ( go ) /\ ( ta ) ) ) W ( <> ( ( cc ) /\ ( tc ) ) ) ) ) | ( ( ( [] ( ( go ) /\ ( ta ) ) ) W ( <> ( ( cc ) /\ ( tc ) ) ) ) \/ ( ( X ( tc ) ) /\ ( go ) ) ) | ( ( [] ( ( go ) /\ ( ta ) ) ) W ( ( cc ) /\ ( tc ) ) ) | ( ( [] ( ( go ) /\ ( tc ) ) ) W ( <> ( ( cc ) /\ ( tc ) ) ) ) | ( ( <> ( ( go ) /\ ( ta ) ) ) W ( <> ( ( cc ) /\ ( tc ) ) ) ) | ( <> ( ( X ( ( go ) /\ ( ta ) ) ) W ( ( cc ) /\ ( tc ) ) ) ) | ( <> ( ( X ( ( go ) /\ ( ta ) ) ) W ( <> ( ( cc ) /\ ( tc ) ) ) ) ) | ( ( <> ( ( go ) /\ ( ta ) ) ) W ( ( X ( ( go ) /\ ( ta ) ) ) W ( <> ( ( cc ) /\ ( tc ) ) ) ) ) | ( ( ( go ) /\ ( ta ) ) W ( <> ( ( cc ) /\ ( tc ) ) ) ) | ( ( [] ( ( go ) /\ ( tc ) ) ) W ( ( cc ) /\ ( tc ) ) ) | ( ( X ( ( go ) /\ ( tc ) ) ) W ( ( cc ) /\ ( tc ) ) ) | ( ( ( go ) /\ ( ta ) ) W ( ( cc ) /\ ( tc ) ) ) | ( ( X ( ( go ) /\ ( ta ) ) ) \/ ( <> ( ( cc ) /\ ( tc ) ) ) ) | ( ( [] ( ( go ) /\ ( ta ) ) ) \/ ( <> ( ( cc ) /\ ( tc ) ) ) ) | ( ( X ( ( go ) /\ ( tc ) ) ) W ( <> ( ( cc ) /\ ( tc ) ) ) ) | ( <> ( ( [] ( ( go ) /\ ( ta ) ) ) W ( ( cc ) /\ ( tc ) ) ) ) | ( <> ( ( ( go ) /\ ( ta ) ) W ( ( cc ) /\ ( tc ) ) ) ) | ( ( [] ( ( go ) /\ ( ta ) ) ) \/ ( ( cc ) /\ ( tc ) ) ) | ( <> ( ( ( go ) /\ ( ta ) ) W ( <> ( ( cc ) /\ ( tc ) ) ) ) ) | ( ( ( go ) /\ ( ta ) ) \/ ( <> ( ( cc ) /\ ( tc ) ) ) ) | ( <> ( <> ( ( ( go ) /\ ( ta ) ) W ( ( cc ) /\ ( tc ) ) ) ) ) | ( ( ( go ) /\ ( tc ) ) W ( <> ( ( cc ) /\ ( tc ) ) ) ) | ( <> ( ( ( go ) /\ ( tc ) ) W ( ( cc ) /\ ( tc ) ) ) ) | ( ( <> ( ( ( go ) /\ ( ta ) ) W ( ( cc ) /\ ( tc ) ) ) ) W ( ( ( go ) /\ ( ta ) ) W ( ( cc ) /\ ( tc ) ) ) ) | ( ( ( go ) /\ ( tc ) ) W ( ( cc ) /\ ( tc ) ) ) | ( <> ( <> ( ( ( go ) /\ ( tc ) ) W ( ( cc ) /\ ( tc ) ) ) ) ) | ( ( ( go ) /\ ( ta ) ) \/ ( ( cc ) /\ ( tc ) ) ) | ( ( ( ( go ) /\ ( ta ) ) W ( ( cc ) /\ ( tc ) ) ) /\ ( ( ( go ) /\ ( ta ) ) W ( ( cc ) /\ ( tc ) ) ) ) | ( ( ( go ) /\ ( ta ) ) \/ ( ( cc ) /\ ( ( cc ) /\ ( tc ) ) ) ) | ( ( ( ( go ) /\ ( ta ) ) W ( ( cc ) /\ ( tc ) ) ) \/ ( ( ( go ) /\ ( ta ) ) W ( ( cc ) /\ ( tc ) ) ) ) | 
Generation Time :0
Accumulated Learning Time :20
CALLs: 216    TIMEOUTs: 0    ERRORs: 0
REEVALUATIONS: 1359 OF 3503

GENERATION 46/50
....m.m.<;....m.m.<;...i.m..<;....m.m.<;....m.m.<;....m.m.<;....m.m.<;.....i..m.<;....m.m.<;....m.m.<;....m.m.<;....m.m.<;....m.m.<;....m.m.<;....m.m.<;....m.m.<;....m.m.<;...i.m..<;....m.m.<;....m.m.<;....m.m.<;....m.m.<;....m.m.<;...i..m.<;....m.m.<;.....m.m.<;........m.m.<;....m.m.<;...i.m.m.<;....m.m.<;....m.m.<;....m.m.<;.....m.m.<;....m.m.<;...i.m..<;
Fittest value: 2.642857142857143 for chromosome ( ( ( go ) /\ ( tc ) ) W ( ( cc ) /\ ( tc ) ) )
Solutions (33): ( ( X ( ( go ) /\ ( ta ) ) ) W ( <> ( ( cc ) /\ ( tc ) ) ) ) | ( ( [] ( ( go ) /\ ( ta ) ) ) W ( <> ( ( cc ) /\ ( tc ) ) ) ) | ( ( X ( ( go ) /\ ( ta ) ) ) W ( ( cc ) /\ ( tc ) ) ) | ( <> ( ( [] ( ( go ) /\ ( ta ) ) ) W ( <> ( ( cc ) /\ ( tc ) ) ) ) ) | ( ( ( [] ( ( go ) /\ ( ta ) ) ) W ( <> ( ( cc ) /\ ( tc ) ) ) ) \/ ( ( X ( tc ) ) /\ ( go ) ) ) | ( ( [] ( ( go ) /\ ( ta ) ) ) W ( ( cc ) /\ ( tc ) ) ) | ( ( [] ( ( go ) /\ ( tc ) ) ) W ( <> ( ( cc ) /\ ( tc ) ) ) ) | ( ( <> ( ( go ) /\ ( ta ) ) ) W ( <> ( ( cc ) /\ ( tc ) ) ) ) | ( <> ( ( X ( ( go ) /\ ( ta ) ) ) W ( ( cc ) /\ ( tc ) ) ) ) | ( <> ( ( X ( ( go ) /\ ( ta ) ) ) W ( <> ( ( cc ) /\ ( tc ) ) ) ) ) | ( ( <> ( ( go ) /\ ( ta ) ) ) W ( ( X ( ( go ) /\ ( ta ) ) ) W ( <> ( ( cc ) /\ ( tc ) ) ) ) ) | ( ( ( go ) /\ ( ta ) ) W ( <> ( ( cc ) /\ ( tc ) ) ) ) | ( ( [] ( ( go ) /\ ( tc ) ) ) W ( ( cc ) /\ ( tc ) ) ) | ( ( X ( ( go ) /\ ( tc ) ) ) W ( ( cc ) /\ ( tc ) ) ) | ( ( ( go ) /\ ( ta ) ) W ( ( cc ) /\ ( tc ) ) ) | ( ( X ( ( go ) /\ ( ta ) ) ) \/ ( <> ( ( cc ) /\ ( tc ) ) ) ) | ( ( [] ( ( go ) /\ ( ta ) ) ) \/ ( <> ( ( cc ) /\ ( tc ) ) ) ) | ( ( X ( ( go ) /\ ( tc ) ) ) W ( <> ( ( cc ) /\ ( tc ) ) ) ) | ( <> ( ( [] ( ( go ) /\ ( ta ) ) ) W ( ( cc ) /\ ( tc ) ) ) ) | ( <> ( ( ( go ) /\ ( ta ) ) W ( ( cc ) /\ ( tc ) ) ) ) | ( ( [] ( ( go ) /\ ( ta ) ) ) \/ ( ( cc ) /\ ( tc ) ) ) | ( <> ( ( ( go ) /\ ( ta ) ) W ( <> ( ( cc ) /\ ( tc ) ) ) ) ) | ( ( ( go ) /\ ( ta ) ) \/ ( <> ( ( cc ) /\ ( tc ) ) ) ) | ( <> ( <> ( ( ( go ) /\ ( ta ) ) W ( ( cc ) /\ ( tc ) ) ) ) ) | ( ( ( go ) /\ ( tc ) ) W ( <> ( ( cc ) /\ ( tc ) ) ) ) | ( <> ( ( ( go ) /\ ( tc ) ) W ( ( cc ) /\ ( tc ) ) ) ) | ( ( <> ( ( ( go ) /\ ( ta ) ) W ( ( cc ) /\ ( tc ) ) ) ) W ( ( ( go ) /\ ( ta ) ) W ( ( cc ) /\ ( tc ) ) ) ) | ( ( ( go ) /\ ( tc ) ) W ( ( cc ) /\ ( tc ) ) ) | ( <> ( <> ( ( ( go ) /\ ( tc ) ) W ( ( cc ) /\ ( tc ) ) ) ) ) | ( ( ( go ) /\ ( ta ) ) \/ ( ( cc ) /\ ( tc ) ) ) | ( ( ( ( go ) /\ ( ta ) ) W ( ( cc ) /\ ( tc ) ) ) /\ ( ( ( go ) /\ ( ta ) ) W ( ( cc ) /\ ( tc ) ) ) ) | ( ( ( go ) /\ ( ta ) ) \/ ( ( cc ) /\ ( ( cc ) /\ ( tc ) ) ) ) | ( ( ( ( go ) /\ ( ta ) ) W ( ( cc ) /\ ( tc ) ) ) \/ ( ( ( go ) /\ ( ta ) ) W ( ( cc ) /\ ( tc ) ) ) ) | 
Generation Time :0
Accumulated Learning Time :20
CALLs: 218    TIMEOUTs: 0    ERRORs: 0
REEVALUATIONS: 1394 OF 3579

GENERATION 47/50
....m.m.<;....m.m.<;....m.m.<;....m.m.<;....m.m.<;....m.m.<;....m.m.<;...i.m..<;....m.m.<;.....m.m.<;....m.m.<;....m.m.<;......m.m.<;....m.m.<;.......m.m.<;....m.m.<;...i..m.<;...i..m.<;....m.m.<;....m.m.<;....m.m.<;....i...<;...i..m.<;....m.m.<;....m.m.<;....m.m.<;....m.m.<;...i.m..<;....m.m.<;....m.m.<;....m.m.<;....m.m.<;.....i..m.<;....m.m.<;....m.m.<;....m.m.<;....m.m.<;...i.m.m.<;...i.m.m.<;
Fittest value: 2.642857142857143 for chromosome ( <> ( ( ( go ) /\ ( tc ) ) W ( ( cc ) /\ ( tc ) ) ) )
Solutions (35): ( ( X ( ( go ) /\ ( ta ) ) ) W ( <> ( ( cc ) /\ ( tc ) ) ) ) | ( ( [] ( ( go ) /\ ( ta ) ) ) W ( <> ( ( cc ) /\ ( tc ) ) ) ) | ( ( X ( ( go ) /\ ( ta ) ) ) W ( ( cc ) /\ ( tc ) ) ) | ( <> ( ( [] ( ( go ) /\ ( ta ) ) ) W ( <> ( ( cc ) /\ ( tc ) ) ) ) ) | ( ( ( [] ( ( go ) /\ ( ta ) ) ) W ( <> ( ( cc ) /\ ( tc ) ) ) ) \/ ( ( X ( tc ) ) /\ ( go ) ) ) | ( ( [] ( ( go ) /\ ( ta ) ) ) W ( ( cc ) /\ ( tc ) ) ) | ( ( [] ( ( go ) /\ ( tc ) ) ) W ( <> ( ( cc ) /\ ( tc ) ) ) ) | ( ( <> ( ( go ) /\ ( ta ) ) ) W ( <> ( ( cc ) /\ ( tc ) ) ) ) | ( <> ( ( X ( ( go ) /\ ( ta ) ) ) W ( ( cc ) /\ ( tc ) ) ) ) | ( <> ( ( X ( ( go ) /\ ( ta ) ) ) W ( <> ( ( cc ) /\ ( tc ) ) ) ) ) | ( ( <> ( ( go ) /\ ( ta ) ) ) W ( ( X ( ( go ) /\ ( ta ) ) ) W ( <> ( ( cc ) /\ ( tc ) ) ) ) ) | ( ( ( go ) /\ ( ta ) ) W ( <> ( ( cc ) /\ ( tc ) ) ) ) | ( ( [] ( ( go ) /\ ( tc ) ) ) W ( ( cc ) /\ ( tc ) ) ) | ( ( X ( ( go ) /\ ( tc ) ) ) W ( ( cc ) /\ ( tc ) ) ) | ( ( ( go ) /\ ( ta ) ) W ( ( cc ) /\ ( tc ) ) ) | ( ( X ( ( go ) /\ ( ta ) ) ) \/ ( <> ( ( cc ) /\ ( tc ) ) ) ) | ( ( [] ( ( go ) /\ ( ta ) ) ) \/ ( <> ( ( cc ) /\ ( tc ) ) ) ) | ( ( X ( ( go ) /\ ( tc ) ) ) W ( <> ( ( cc ) /\ ( tc ) ) ) ) | ( <> ( ( [] ( ( go ) /\ ( ta ) ) ) W ( ( cc ) /\ ( tc ) ) ) ) | ( <> ( ( ( go ) /\ ( ta ) ) W ( ( cc ) /\ ( tc ) ) ) ) | ( ( [] ( ( go ) /\ ( ta ) ) ) \/ ( ( cc ) /\ ( tc ) ) ) | ( <> ( ( ( go ) /\ ( ta ) ) W ( <> ( ( cc ) /\ ( tc ) ) ) ) ) | ( ( ( go ) /\ ( ta ) ) \/ ( <> ( ( cc ) /\ ( tc ) ) ) ) | ( <> ( <> ( ( ( go ) /\ ( ta ) ) W ( ( cc ) /\ ( tc ) ) ) ) ) | ( ( ( go ) /\ ( tc ) ) W ( <> ( ( cc ) /\ ( tc ) ) ) ) | ( <> ( ( ( go ) /\ ( tc ) ) W ( ( cc ) /\ ( tc ) ) ) ) | ( ( <> ( ( ( go ) /\ ( ta ) ) W ( ( cc ) /\ ( tc ) ) ) ) W ( ( ( go ) /\ ( ta ) ) W ( ( cc ) /\ ( tc ) ) ) ) | ( ( ( go ) /\ ( tc ) ) W ( ( cc ) /\ ( tc ) ) ) | ( <> ( <> ( ( ( go ) /\ ( tc ) ) W ( ( cc ) /\ ( tc ) ) ) ) ) | ( ( ( go ) /\ ( ta ) ) \/ ( ( cc ) /\ ( tc ) ) ) | ( ( ( ( go ) /\ ( ta ) ) W ( ( cc ) /\ ( tc ) ) ) /\ ( ( ( go ) /\ ( ta ) ) W ( ( cc ) /\ ( tc ) ) ) ) | ( ( ( go ) /\ ( ta ) ) \/ ( ( cc ) /\ ( ( cc ) /\ ( tc ) ) ) ) | ( ( ( ( go ) /\ ( ta ) ) W ( ( cc ) /\ ( tc ) ) ) \/ ( ( ( go ) /\ ( ta ) ) W ( ( cc ) /\ ( tc ) ) ) ) | ( ( ( ( go ) /\ ( tc ) ) W ( ( cc ) /\ ( tc ) ) ) /\ ( ( ( go ) /\ ( tc ) ) W ( ( cc ) /\ ( tc ) ) ) ) | ( ( <> ( ( ( go ) /\ ( tc ) ) W ( ( cc ) /\ ( tc ) ) ) ) \/ ( ( ( go ) /\ ( tc ) ) W ( ( cc ) /\ ( tc ) ) ) ) | 
Generation Time :0
Accumulated Learning Time :21
CALLs: 243    TIMEOUTs: 0    ERRORs: 0
REEVALUATIONS: 1431 OF 3661

GENERATION 48/50
....m.m.<;....m.m.<;....m.m.<;...i.m..<;........m.m.<;....m.m.<;....m.m.<;...i..m.<;...i.m..<;...i.m..<;....m.m.<;....m.m.<;....m.m.<;....m.m.<;....m.m.<;....m.m.<;....m.m.<;....m.m.<;...i..m.<;...i..m.<;....m.m.<;....m.m.<;....m.m.<;.....m.m.<;...i..m.<;....m.m.<;....m.m.<;....m.m.<;....m.m.<;....m.m.<;...i..m.<;....m.m.<;....m.m.<;....m.m.<;....m.m.<;...i.m..<;....m.m.<;....m.m.<;....m.m.<;....m.m.<;...i.m.m.<;......m.m.<;....m.m.<;....m.m.<;....m.m.<;....m.m.<;....m.m.<;...i.m..<;
Fittest value: 2.642857142857143 for chromosome ( ( ( go ) /\ ( tc ) ) W ( ( cc ) /\ ( tc ) ) )
Solutions (36): ( ( X ( ( go ) /\ ( ta ) ) ) W ( <> ( ( cc ) /\ ( tc ) ) ) ) | ( ( [] ( ( go ) /\ ( ta ) ) ) W ( <> ( ( cc ) /\ ( tc ) ) ) ) | ( ( X ( ( go ) /\ ( ta ) ) ) W ( ( cc ) /\ ( tc ) ) ) | ( <> ( ( [] ( ( go ) /\ ( ta ) ) ) W ( <> ( ( cc ) /\ ( tc ) ) ) ) ) | ( ( ( [] ( ( go ) /\ ( ta ) ) ) W ( <> ( ( cc ) /\ ( tc ) ) ) ) \/ ( ( X ( tc ) ) /\ ( go ) ) ) | ( ( [] ( ( go ) /\ ( ta ) ) ) W ( ( cc ) /\ ( tc ) ) ) | ( ( [] ( ( go ) /\ ( tc ) ) ) W ( <> ( ( cc ) /\ ( tc ) ) ) ) | ( ( <> ( ( go ) /\ ( ta ) ) ) W ( <> ( ( cc ) /\ ( tc ) ) ) ) | ( <> ( ( X ( ( go ) /\ ( ta ) ) ) W ( ( cc ) /\ ( tc ) ) ) ) | ( <> ( ( X ( ( go ) /\ ( ta ) ) ) W ( <> ( ( cc ) /\ ( tc ) ) ) ) ) | ( ( <> ( ( go ) /\ ( ta ) ) ) W ( ( X ( ( go ) /\ ( ta ) ) ) W ( <> ( ( cc ) /\ ( tc ) ) ) ) ) | ( ( ( go ) /\ ( ta ) ) W ( <> ( ( cc ) /\ ( tc ) ) ) ) | ( ( [] ( ( go ) /\ ( tc ) ) ) W ( ( cc ) /\ ( tc ) ) ) | ( ( X ( ( go ) /\ ( tc ) ) ) W ( ( cc ) /\ ( tc ) ) ) | ( ( ( go ) /\ ( ta ) ) W ( ( cc ) /\ ( tc ) ) ) | ( ( X ( ( go ) /\ ( ta ) ) ) \/ ( <> ( ( cc ) /\ ( tc ) ) ) ) | ( ( [] ( ( go ) /\ ( ta ) ) ) \/ ( <> ( ( cc ) /\ ( tc ) ) ) ) | ( ( X ( ( go ) /\ ( tc ) ) ) W ( <> ( ( cc ) /\ ( tc ) ) ) ) | ( <> ( ( [] ( ( go ) /\ ( ta ) ) ) W ( ( cc ) /\ ( tc ) ) ) ) | ( <> ( ( ( go ) /\ ( ta ) ) W ( ( cc ) /\ ( tc ) ) ) ) | ( ( [] ( ( go ) /\ ( ta ) ) ) \/ ( ( cc ) /\ ( tc ) ) ) | ( <> ( ( ( go ) /\ ( ta ) ) W ( <> ( ( cc ) /\ ( tc ) ) ) ) ) | ( ( ( go ) /\ ( ta ) ) \/ ( <> ( ( cc ) /\ ( tc ) ) ) ) | ( <> ( <> ( ( ( go ) /\ ( ta ) ) W ( ( cc ) /\ ( tc ) ) ) ) ) | ( ( ( go ) /\ ( tc ) ) W ( <> ( ( cc ) /\ ( tc ) ) ) ) | ( <> ( ( ( go ) /\ ( tc ) ) W ( ( cc ) /\ ( tc ) ) ) ) | ( ( <> ( ( ( go ) /\ ( ta ) ) W ( ( cc ) /\ ( tc ) ) ) ) W ( ( ( go ) /\ ( ta ) ) W ( ( cc ) /\ ( tc ) ) ) ) | ( ( ( go ) /\ ( tc ) ) W ( ( cc ) /\ ( tc ) ) ) | ( <> ( <> ( ( ( go ) /\ ( tc ) ) W ( ( cc ) /\ ( tc ) ) ) ) ) | ( ( ( go ) /\ ( ta ) ) \/ ( ( cc ) /\ ( tc ) ) ) | ( ( ( ( go ) /\ ( ta ) ) W ( ( cc ) /\ ( tc ) ) ) /\ ( ( ( go ) /\ ( ta ) ) W ( ( cc ) /\ ( tc ) ) ) ) | ( ( ( go ) /\ ( ta ) ) \/ ( ( cc ) /\ ( ( cc ) /\ ( tc ) ) ) ) | ( ( ( ( go ) /\ ( ta ) ) W ( ( cc ) /\ ( tc ) ) ) \/ ( ( ( go ) /\ ( ta ) ) W ( ( cc ) /\ ( tc ) ) ) ) | ( ( ( ( go ) /\ ( tc ) ) W ( ( cc ) /\ ( tc ) ) ) /\ ( ( ( go ) /\ ( tc ) ) W ( ( cc ) /\ ( tc ) ) ) ) | ( ( <> ( ( ( go ) /\ ( tc ) ) W ( ( cc ) /\ ( tc ) ) ) ) \/ ( ( ( go ) /\ ( tc ) ) W ( ( cc ) /\ ( tc ) ) ) ) | ( ( ( ( go ) /\ ( tc ) ) W ( ( cc ) /\ ( tc ) ) ) \/ ( ( ( go ) /\ ( tc ) ) W ( ( cc ) /\ ( tc ) ) ) ) | 
Generation Time :0
Accumulated Learning Time :21
CALLs: 295    TIMEOUTs: 0    ERRORs: 0
REEVALUATIONS: 1462 OF 3744

GENERATION 49/50
.....m.m.<;....m.m.<;....i.m..<;.....m.m.<;....m.m.<;....m.m.<;....m.m.<;....m.m.<;....m.m.<;....m.m.<;....m.m.<;....m.m.<;....m.m.<;....m.m.<;....m.m.<;....m.m.<;....m.m.<;....m.m.<;....m.m.<;....m.m.<;....m.m.<;...i.m..<;....m.m.<;....m.m.<;.....m.m.<;....m.m.<;....m.m.<;.....i..m.<;...i..m.<;....m.m.<;.....m.m.<;....m.m.<;....m.m.<;....m.m.<;....m.m.<;....m.m.<;...i..m.<;...i.m.m.<;....m.m.<;
Fittest value: 2.642857142857143 for chromosome ( <> ( ( ( go ) /\ ( tc ) ) W ( ( cc ) /\ ( tc ) ) ) )
Solutions (36): ( ( X ( ( go ) /\ ( ta ) ) ) W ( <> ( ( cc ) /\ ( tc ) ) ) ) | ( ( [] ( ( go ) /\ ( ta ) ) ) W ( <> ( ( cc ) /\ ( tc ) ) ) ) | ( ( X ( ( go ) /\ ( ta ) ) ) W ( ( cc ) /\ ( tc ) ) ) | ( <> ( ( [] ( ( go ) /\ ( ta ) ) ) W ( <> ( ( cc ) /\ ( tc ) ) ) ) ) | ( ( ( [] ( ( go ) /\ ( ta ) ) ) W ( <> ( ( cc ) /\ ( tc ) ) ) ) \/ ( ( X ( tc ) ) /\ ( go ) ) ) | ( ( [] ( ( go ) /\ ( ta ) ) ) W ( ( cc ) /\ ( tc ) ) ) | ( ( [] ( ( go ) /\ ( tc ) ) ) W ( <> ( ( cc ) /\ ( tc ) ) ) ) | ( ( <> ( ( go ) /\ ( ta ) ) ) W ( <> ( ( cc ) /\ ( tc ) ) ) ) | ( <> ( ( X ( ( go ) /\ ( ta ) ) ) W ( ( cc ) /\ ( tc ) ) ) ) | ( <> ( ( X ( ( go ) /\ ( ta ) ) ) W ( <> ( ( cc ) /\ ( tc ) ) ) ) ) | ( ( <> ( ( go ) /\ ( ta ) ) ) W ( ( X ( ( go ) /\ ( ta ) ) ) W ( <> ( ( cc ) /\ ( tc ) ) ) ) ) | ( ( ( go ) /\ ( ta ) ) W ( <> ( ( cc ) /\ ( tc ) ) ) ) | ( ( [] ( ( go ) /\ ( tc ) ) ) W ( ( cc ) /\ ( tc ) ) ) | ( ( X ( ( go ) /\ ( tc ) ) ) W ( ( cc ) /\ ( tc ) ) ) | ( ( ( go ) /\ ( ta ) ) W ( ( cc ) /\ ( tc ) ) ) | ( ( X ( ( go ) /\ ( ta ) ) ) \/ ( <> ( ( cc ) /\ ( tc ) ) ) ) | ( ( [] ( ( go ) /\ ( ta ) ) ) \/ ( <> ( ( cc ) /\ ( tc ) ) ) ) | ( ( X ( ( go ) /\ ( tc ) ) ) W ( <> ( ( cc ) /\ ( tc ) ) ) ) | ( <> ( ( [] ( ( go ) /\ ( ta ) ) ) W ( ( cc ) /\ ( tc ) ) ) ) | ( <> ( ( ( go ) /\ ( ta ) ) W ( ( cc ) /\ ( tc ) ) ) ) | ( ( [] ( ( go ) /\ ( ta ) ) ) \/ ( ( cc ) /\ ( tc ) ) ) | ( <> ( ( ( go ) /\ ( ta ) ) W ( <> ( ( cc ) /\ ( tc ) ) ) ) ) | ( ( ( go ) /\ ( ta ) ) \/ ( <> ( ( cc ) /\ ( tc ) ) ) ) | ( <> ( <> ( ( ( go ) /\ ( ta ) ) W ( ( cc ) /\ ( tc ) ) ) ) ) | ( ( ( go ) /\ ( tc ) ) W ( <> ( ( cc ) /\ ( tc ) ) ) ) | ( <> ( ( ( go ) /\ ( tc ) ) W ( ( cc ) /\ ( tc ) ) ) ) | ( ( <> ( ( ( go ) /\ ( ta ) ) W ( ( cc ) /\ ( tc ) ) ) ) W ( ( ( go ) /\ ( ta ) ) W ( ( cc ) /\ ( tc ) ) ) ) | ( ( ( go ) /\ ( tc ) ) W ( ( cc ) /\ ( tc ) ) ) | ( <> ( <> ( ( ( go ) /\ ( tc ) ) W ( ( cc ) /\ ( tc ) ) ) ) ) | ( ( ( go ) /\ ( ta ) ) \/ ( ( cc ) /\ ( tc ) ) ) | ( ( ( ( go ) /\ ( ta ) ) W ( ( cc ) /\ ( tc ) ) ) /\ ( ( ( go ) /\ ( ta ) ) W ( ( cc ) /\ ( tc ) ) ) ) | ( ( ( go ) /\ ( ta ) ) \/ ( ( cc ) /\ ( ( cc ) /\ ( tc ) ) ) ) | ( ( ( ( go ) /\ ( ta ) ) W ( ( cc ) /\ ( tc ) ) ) \/ ( ( ( go ) /\ ( ta ) ) W ( ( cc ) /\ ( tc ) ) ) ) | ( ( ( ( go ) /\ ( tc ) ) W ( ( cc ) /\ ( tc ) ) ) /\ ( ( ( go ) /\ ( tc ) ) W ( ( cc ) /\ ( tc ) ) ) ) | ( ( <> ( ( ( go ) /\ ( tc ) ) W ( ( cc ) /\ ( tc ) ) ) ) \/ ( ( ( go ) /\ ( tc ) ) W ( ( cc ) /\ ( tc ) ) ) ) | ( ( ( ( go ) /\ ( tc ) ) W ( ( cc ) /\ ( tc ) ) ) \/ ( ( ( go ) /\ ( tc ) ) W ( ( cc ) /\ ( tc ) ) ) ) | 
Generation Time :0
Accumulated Learning Time :22
CALLs: 241    TIMEOUTs: 0    ERRORs: 0
REEVALUATIONS: 1495 OF 3822

GENERATION 50/50
....m.m.<;....m.m.<;.....m.m.<;....m.m.<;...i..m.<;...i...<;...i..m.<;....m.m.<;....m.m.<;....m.m.<;....m.m.<;.....m.m.<;....m.m.<;....m.m.<;....m.m.<;....m.m.<;.....i..m.<;....m.m.<;....m.m.<;....m.m.<;....m.m.<;....m.m.<;......m.m.<;.....m.m.<;.....m.m.<;...i..m.<;...i.m.m.<;
Fittest value: 2.642857142857143 for chromosome ( ( ( go ) /\ ( tc ) ) W ( ( cc ) /\ ( tc ) ) )
Solutions (36): ( ( X ( ( go ) /\ ( ta ) ) ) W ( <> ( ( cc ) /\ ( tc ) ) ) ) | ( ( [] ( ( go ) /\ ( ta ) ) ) W ( <> ( ( cc ) /\ ( tc ) ) ) ) | ( ( X ( ( go ) /\ ( ta ) ) ) W ( ( cc ) /\ ( tc ) ) ) | ( <> ( ( [] ( ( go ) /\ ( ta ) ) ) W ( <> ( ( cc ) /\ ( tc ) ) ) ) ) | ( ( ( [] ( ( go ) /\ ( ta ) ) ) W ( <> ( ( cc ) /\ ( tc ) ) ) ) \/ ( ( X ( tc ) ) /\ ( go ) ) ) | ( ( [] ( ( go ) /\ ( ta ) ) ) W ( ( cc ) /\ ( tc ) ) ) | ( ( [] ( ( go ) /\ ( tc ) ) ) W ( <> ( ( cc ) /\ ( tc ) ) ) ) | ( ( <> ( ( go ) /\ ( ta ) ) ) W ( <> ( ( cc ) /\ ( tc ) ) ) ) | ( <> ( ( X ( ( go ) /\ ( ta ) ) ) W ( ( cc ) /\ ( tc ) ) ) ) | ( <> ( ( X ( ( go ) /\ ( ta ) ) ) W ( <> ( ( cc ) /\ ( tc ) ) ) ) ) | ( ( <> ( ( go ) /\ ( ta ) ) ) W ( ( X ( ( go ) /\ ( ta ) ) ) W ( <> ( ( cc ) /\ ( tc ) ) ) ) ) | ( ( ( go ) /\ ( ta ) ) W ( <> ( ( cc ) /\ ( tc ) ) ) ) | ( ( [] ( ( go ) /\ ( tc ) ) ) W ( ( cc ) /\ ( tc ) ) ) | ( ( X ( ( go ) /\ ( tc ) ) ) W ( ( cc ) /\ ( tc ) ) ) | ( ( ( go ) /\ ( ta ) ) W ( ( cc ) /\ ( tc ) ) ) | ( ( X ( ( go ) /\ ( ta ) ) ) \/ ( <> ( ( cc ) /\ ( tc ) ) ) ) | ( ( [] ( ( go ) /\ ( ta ) ) ) \/ ( <> ( ( cc ) /\ ( tc ) ) ) ) | ( ( X ( ( go ) /\ ( tc ) ) ) W ( <> ( ( cc ) /\ ( tc ) ) ) ) | ( <> ( ( [] ( ( go ) /\ ( ta ) ) ) W ( ( cc ) /\ ( tc ) ) ) ) | ( <> ( ( ( go ) /\ ( ta ) ) W ( ( cc ) /\ ( tc ) ) ) ) | ( ( [] ( ( go ) /\ ( ta ) ) ) \/ ( ( cc ) /\ ( tc ) ) ) | ( <> ( ( ( go ) /\ ( ta ) ) W ( <> ( ( cc ) /\ ( tc ) ) ) ) ) | ( ( ( go ) /\ ( ta ) ) \/ ( <> ( ( cc ) /\ ( tc ) ) ) ) | ( <> ( <> ( ( ( go ) /\ ( ta ) ) W ( ( cc ) /\ ( tc ) ) ) ) ) | ( ( ( go ) /\ ( tc ) ) W ( <> ( ( cc ) /\ ( tc ) ) ) ) | ( <> ( ( ( go ) /\ ( tc ) ) W ( ( cc ) /\ ( tc ) ) ) ) | ( ( <> ( ( ( go ) /\ ( ta ) ) W ( ( cc ) /\ ( tc ) ) ) ) W ( ( ( go ) /\ ( ta ) ) W ( ( cc ) /\ ( tc ) ) ) ) | ( ( ( go ) /\ ( tc ) ) W ( ( cc ) /\ ( tc ) ) ) | ( <> ( <> ( ( ( go ) /\ ( tc ) ) W ( ( cc ) /\ ( tc ) ) ) ) ) | ( ( ( go ) /\ ( ta ) ) \/ ( ( cc ) /\ ( tc ) ) ) | ( ( ( ( go ) /\ ( ta ) ) W ( ( cc ) /\ ( tc ) ) ) /\ ( ( ( go ) /\ ( ta ) ) W ( ( cc ) /\ ( tc ) ) ) ) | ( ( ( go ) /\ ( ta ) ) \/ ( ( cc ) /\ ( ( cc ) /\ ( tc ) ) ) ) | ( ( ( ( go ) /\ ( ta ) ) W ( ( cc ) /\ ( tc ) ) ) \/ ( ( ( go ) /\ ( ta ) ) W ( ( cc ) /\ ( tc ) ) ) ) | ( ( ( ( go ) /\ ( tc ) ) W ( ( cc ) /\ ( tc ) ) ) /\ ( ( ( go ) /\ ( tc ) ) W ( ( cc ) /\ ( tc ) ) ) ) | ( ( <> ( ( ( go ) /\ ( tc ) ) W ( ( cc ) /\ ( tc ) ) ) ) \/ ( ( ( go ) /\ ( tc ) ) W ( ( cc ) /\ ( tc ) ) ) ) | ( ( ( ( go ) /\ ( tc ) ) W ( ( cc ) /\ ( tc ) ) ) \/ ( ( ( go ) /\ ( tc ) ) W ( ( cc ) /\ ( tc ) ) ) ) | 
Generation Time :0
Accumulated Learning Time :22
CALLs: 170    TIMEOUTs: 0    ERRORs: 0
REEVALUATIONS: 1535 OF 3896


TOTAL Learing Time :22

Solutions: 36
( ( X ( ( go ) /\ ( ta ) ) ) W ( <> ( ( cc ) /\ ( tc ) ) ) )
( ( [] ( ( go ) /\ ( ta ) ) ) W ( <> ( ( cc ) /\ ( tc ) ) ) )
( ( X ( ( go ) /\ ( ta ) ) ) W ( ( cc ) /\ ( tc ) ) )
( <> ( ( [] ( ( go ) /\ ( ta ) ) ) W ( <> ( ( cc ) /\ ( tc ) ) ) ) )
( ( ( [] ( ( go ) /\ ( ta ) ) ) W ( <> ( ( cc ) /\ ( tc ) ) ) ) \/ ( ( X ( tc ) ) /\ ( go ) ) )
( ( [] ( ( go ) /\ ( ta ) ) ) W ( ( cc ) /\ ( tc ) ) )
( ( [] ( ( go ) /\ ( tc ) ) ) W ( <> ( ( cc ) /\ ( tc ) ) ) )
( ( <> ( ( go ) /\ ( ta ) ) ) W ( <> ( ( cc ) /\ ( tc ) ) ) )
( <> ( ( X ( ( go ) /\ ( ta ) ) ) W ( ( cc ) /\ ( tc ) ) ) )
( <> ( ( X ( ( go ) /\ ( ta ) ) ) W ( <> ( ( cc ) /\ ( tc ) ) ) ) )
( ( <> ( ( go ) /\ ( ta ) ) ) W ( ( X ( ( go ) /\ ( ta ) ) ) W ( <> ( ( cc ) /\ ( tc ) ) ) ) )
( ( ( go ) /\ ( ta ) ) W ( <> ( ( cc ) /\ ( tc ) ) ) )
( ( [] ( ( go ) /\ ( tc ) ) ) W ( ( cc ) /\ ( tc ) ) )
( ( X ( ( go ) /\ ( tc ) ) ) W ( ( cc ) /\ ( tc ) ) )
( ( ( go ) /\ ( ta ) ) W ( ( cc ) /\ ( tc ) ) )
( ( X ( ( go ) /\ ( ta ) ) ) \/ ( <> ( ( cc ) /\ ( tc ) ) ) )
( ( [] ( ( go ) /\ ( ta ) ) ) \/ ( <> ( ( cc ) /\ ( tc ) ) ) )
( ( X ( ( go ) /\ ( tc ) ) ) W ( <> ( ( cc ) /\ ( tc ) ) ) )
( <> ( ( [] ( ( go ) /\ ( ta ) ) ) W ( ( cc ) /\ ( tc ) ) ) )
( <> ( ( ( go ) /\ ( ta ) ) W ( ( cc ) /\ ( tc ) ) ) )
( ( [] ( ( go ) /\ ( ta ) ) ) \/ ( ( cc ) /\ ( tc ) ) )
( <> ( ( ( go ) /\ ( ta ) ) W ( <> ( ( cc ) /\ ( tc ) ) ) ) )
( ( ( go ) /\ ( ta ) ) \/ ( <> ( ( cc ) /\ ( tc ) ) ) )
( <> ( <> ( ( ( go ) /\ ( ta ) ) W ( ( cc ) /\ ( tc ) ) ) ) )
( ( ( go ) /\ ( tc ) ) W ( <> ( ( cc ) /\ ( tc ) ) ) )
( <> ( ( ( go ) /\ ( tc ) ) W ( ( cc ) /\ ( tc ) ) ) )
( ( <> ( ( ( go ) /\ ( ta ) ) W ( ( cc ) /\ ( tc ) ) ) ) W ( ( ( go ) /\ ( ta ) ) W ( ( cc ) /\ ( tc ) ) ) )
( ( ( go ) /\ ( tc ) ) W ( ( cc ) /\ ( tc ) ) )
( <> ( <> ( ( ( go ) /\ ( tc ) ) W ( ( cc ) /\ ( tc ) ) ) ) )
( ( ( go ) /\ ( ta ) ) \/ ( ( cc ) /\ ( tc ) ) )
( ( ( ( go ) /\ ( ta ) ) W ( ( cc ) /\ ( tc ) ) ) /\ ( ( ( go ) /\ ( ta ) ) W ( ( cc ) /\ ( tc ) ) ) )
( ( ( go ) /\ ( ta ) ) \/ ( ( cc ) /\ ( ( cc ) /\ ( tc ) ) ) )
( ( ( ( go ) /\ ( ta ) ) W ( ( cc ) /\ ( tc ) ) ) \/ ( ( ( go ) /\ ( ta ) ) W ( ( cc ) /\ ( tc ) ) ) )
( ( ( ( go ) /\ ( tc ) ) W ( ( cc ) /\ ( tc ) ) ) /\ ( ( ( go ) /\ ( tc ) ) W ( ( cc ) /\ ( tc ) ) ) )
( ( <> ( ( ( go ) /\ ( tc ) ) W ( ( cc ) /\ ( tc ) ) ) ) \/ ( ( ( go ) /\ ( tc ) ) W ( ( cc ) /\ ( tc ) ) ) )
( ( ( ( go ) /\ ( tc ) ) W ( ( cc ) /\ ( tc ) ) ) \/ ( ( ( go ) /\ ( tc ) ) W ( ( cc ) /\ ( tc ) ) ) )

..........................................................................................................................................................................................................................................................................................................................................................................................................
Non Equivalent Solutions: 17
( ( X ( ( go ) /\ ( ta ) ) ) W ( <> ( ( cc ) /\ ( tc ) ) ) )
( ( X ( ( go ) /\ ( ta ) ) ) W ( ( cc ) /\ ( tc ) ) )
( ( ( [] ( ( go ) /\ ( ta ) ) ) W ( <> ( ( cc ) /\ ( tc ) ) ) ) \/ ( ( X ( tc ) ) /\ ( go ) ) )
( ( [] ( ( go ) /\ ( ta ) ) ) W ( ( cc ) /\ ( tc ) ) )
( ( <> ( ( go ) /\ ( ta ) ) ) W ( <> ( ( cc ) /\ ( tc ) ) ) )
( ( ( go ) /\ ( ta ) ) W ( <> ( ( cc ) /\ ( tc ) ) ) )
( ( [] ( ( go ) /\ ( tc ) ) ) W ( ( cc ) /\ ( tc ) ) )
( ( X ( ( go ) /\ ( tc ) ) ) W ( ( cc ) /\ ( tc ) ) )
( ( ( go ) /\ ( ta ) ) W ( ( cc ) /\ ( tc ) ) )
( ( X ( ( go ) /\ ( ta ) ) ) \/ ( <> ( ( cc ) /\ ( tc ) ) ) )
( ( X ( ( go ) /\ ( tc ) ) ) W ( <> ( ( cc ) /\ ( tc ) ) ) )
( <> ( ( ( go ) /\ ( ta ) ) W ( ( cc ) /\ ( tc ) ) ) )
( ( ( go ) /\ ( ta ) ) \/ ( <> ( ( cc ) /\ ( tc ) ) ) )
( ( ( go ) /\ ( tc ) ) W ( <> ( ( cc ) /\ ( tc ) ) ) )
( <> ( ( ( go ) /\ ( tc ) ) W ( ( cc ) /\ ( tc ) ) ) )
( ( ( go ) /\ ( tc ) ) W ( ( cc ) /\ ( tc ) ) )
( ( ( go ) /\ ( ta ) ) \/ ( ( cc ) /\ ( tc ) ) )
...........................................................................................................................................
Weakest Solutions: 5
( ( ( [] ( ( go ) /\ ( ta ) ) ) W ( <> ( ( cc ) /\ ( tc ) ) ) ) \/ ( ( X ( tc ) ) /\ ( go ) ) )
( ( <> ( ( go ) /\ ( ta ) ) ) W ( <> ( ( cc ) /\ ( tc ) ) ) )
( ( X ( ( go ) /\ ( ta ) ) ) \/ ( <> ( ( cc ) /\ ( tc ) ) ) )
( ( ( go ) /\ ( ta ) ) \/ ( <> ( ( cc ) /\ ( tc ) ) ) )
( <> ( ( ( go ) /\ ( tc ) ) W ( ( cc ) /\ ( tc ) ) ) )
TOTAL Time :23
CALLs: 13279    TIMEOUTs: 0    ERRORs: 0
CONFIGURATION
#Population: 100    #Iterations: 50    #ChromSize: 20
REEVALUATIONS: 1535 OF 3896
