DOM: [[] (ta <-> X(tc)), [] (X(cc) -> ca && go)]
GOALS: [[] (ta -> !go), [] (tc -> !cc)]
Initial population size: 40
Total population size: 100

GENERATION 1/50
....m.m.<;...i...<;....m.m.<;...i...<;....m.m.<;...i.m..<;....m.m.<;....m.m.<;....m.m.<;...i...<;....m.m.<;....m.m.<;....m.m.<;...i.m..<;....m.m.<;....m.m.<;....m.m.<;...i..m.<;....m.m.<;....m.m.<;....m.m.<;....m.m.<;....m.m.<;....m.m.<;....m.m.<;....m.m.<;....m.m.<;....m.m.<;....m.m.<;...i..m.<;....m.m.<;...i...<;........m.m.<;....m.m.<;.....m.m.<;...i...<;....m.m.<;....m.m.<;......m.m.<;......m.m.<;......m.m.<;.......m.m.<;....m.m.<;....m.m.<;....m.m.<;....m.m.<;...i...<;....m.m.<;
Best fitness value: ( ( go ) /\ ( ta ) ) 2.0
Generation Time :0
Accumulated Learning Time :0
CALLs: 302    TIMEOUTs: 0    ERRORs: 0
REEVALUATIONS: 27 OF 83

GENERATION 2/50
......m.m.<;....m.m.<;...i...<;....m.m.<;.........m.m.<;....m.m.<;....m.m.<;....m.m.<;....m.m.<;....m.m.<;....m.m.<;....m.m.<;....m.m.<;....m.m.<;....m.m.<;....m.m.<;....m.m.<;......i...<;......m.m.<;........m.m.<;....m.m.<;....m.m.<;....m.m.<;.....i...<;....m.m.<;....m.m.<;....m.m.<;....m.m.<;....m.m.<;....m.m.<;....m.m.<;....m.m.<;....m.m.<;....m.m.<;
Best fitness value: ( ( go ) /\ ( ta ) ) 2.0
Generation Time :0
Accumulated Learning Time :0
CALLs: 222    TIMEOUTs: 0    ERRORs: 0
REEVALUATIONS: 77 OF 179

GENERATION 3/50
....m.m.<;....m.m.<;......m.m.<;....m.m.<;....m.m.<;....m.m.<;.....m.m.<;....m.m.<;....m.m.<;....m.m.<;.....m.m.<;....m.m.<;....m.m.<;.....m.m.<;....m.m.<;........m.m.<;....m.m.<;.....m.m.<;......m.m.<;......m.m.<;........m.m.<;....m.m.<;....m.m.<;....m.m.<;.....m.m.<;....m.m.<;....m.m.<;....m.m.<;...i.m..<;....m.m.<;
Best fitness value: ( ( go ) /\ ( ta ) ) 2.0
Generation Time :0
Accumulated Learning Time :0
CALLs: 199    TIMEOUTs: 0    ERRORs: 0
REEVALUATIONS: 120 OF 267

GENERATION 4/50
....m.m.<;....m.m.<;....m.m.<;.....m.m.<;....m.m.<;...i..m.<;....m.m.<;......m.m.<;....m.m.<;....m.m.<;....m.m.<;....m.m.<;....m.m.<;....m.m.<;....m.m.<;....m.m.<;....m.m.<;......m.m.<;....m.m.<;....m.m.<;....m.m.<;......m.m.<;....m.m.<;....m.m.<;....m.m.<;....m.m.<;....m.m.<;.....m.m.<;....m.m.<;.......m.m.<;....m.m.<;.....i.m..<;....m.m.<;....i...<;....m.m.<;....m.m.<;....m.m.<;....m.m.<;...i.m..<;....m.m.<;....m.m.<;....m.m.<;....m.m.<;
Best fitness value: ( ( go ) /\ ( ta ) ) 2.0
Generation Time :0
Accumulated Learning Time :1
CALLs: 272    TIMEOUTs: 0    ERRORs: 0
REEVALUATIONS: 157 OF 356

GENERATION 5/50
....m.m.<;....m.m.<;...i.m..<;.....m.m.<;....m.m.<;....m.m.<;....m.m.<;.....m.m.<;....m.m.<;....m.m.<;....m.m.<;....m.m.<;.....i...<;.....m.m.<;....m.m.<;....m.m.<;....m.m.<;....m.m.<;....m.m.<;....m.m.<;....m.m.<;.....m.m.<;....m.m.<;....m.m.<;.....m.m.<;....m.m.<;....m.m.<;....m.m.<;....m.m.<;....m.m.<;....m.m.<;......m.m.<;....m.m.<;....m.m.<;....m.m.<;....m.m.<;.....m.m.<;....m.m.<;....m.m.<;....i...<;....m.m.<;....m.m.<;....m.m.<;....m.m.<;....m.m.<;....m.m.<;....m.m.<;.
Best fitness value: ( ( go ) /\ ( ta ) ) 2.0
Generation Time :0
Accumulated Learning Time :1
CALLs: 294    TIMEOUTs: 0    ERRORs: 0
REEVALUATIONS: 186 OF 442

GENERATION 6/50
....m.m.<;....m.m.<;....m.m.<;....m.m.<;....m.m.<;....m.m.<;....m.m.<;....m.m.<;....m.m.<;....m.m.<;........m.m.<;....m.m.<;.....m.m.<;....m.m.<;....m.m.<;....m.m.<;....m.m.<;....m.m.<;....m.m.<;....m.m.<;.....m.m.<;....m.m.<;......m.m.<;.........m.m.<;....m.m.<;....m.m.<;.....m.m.<;.....m.m.<;....m.m.<;......m.m.<;....m.m.<;.....m.m.<;.....m.m.<;...i.m..<;....m.m.<;....m.m.<;....m.m.<;...i.m..<;....m.m.<;....m.m.<;...i...<;....m.m.<;
Best fitness value: ( ( go ) /\ ( ta ) ) 2.0
Generation Time :0
Accumulated Learning Time :1
CALLs: 271    TIMEOUTs: 0    ERRORs: 0
REEVALUATIONS: 209 OF 521

GENERATION 7/50
....m.m.<;....i...<;....m.m.<;...i...<;.........m.m.<;.....m.m.<;....m.m.<;....m.m.<;....m.m.<;....m.m.<;....m.m.<;.....m.m.<;....m.m.<;......m.m.<;....m.m.<;....m.m.<;....m.m.<;....m.m.<;....m.m.<;....m.m.<;.....m.m.<;....m.m.<;....m.m.<;.........m.m.<;....m.m.<;....m.m.<;...i.m..<;.....m.m.<;....m.m.<;....m.m.<;...i...<;....m.m.<;....m.m.<;...i.m..<;....m.m.<;...i.m..<;
Best fitness value: ( ( go ) /\ ( ta ) ) 2.0
Generation Time :0
Accumulated Learning Time :2
CALLs: 233    TIMEOUTs: 0    ERRORs: 0
REEVALUATIONS: 232 OF 593

GENERATION 8/50
....m.m.<;.....m.m.<;...i.m..<;.....m.m.<;....m.m.<;.....m.m.<;....m.m.<;....m.m.<;....m.m.<;....m.m.<;......m.m.<;....m.m.<;......m.m.<;.....m.m.<;.....m.m.<;....m.m.<;....m.m.<;.....m.m.<;...i.m..<;....m.m.<;....m.m.<;......m.m.<;.....m.m.<;....m.m.<;....m.m.<;....m.m.<;....m.m.<;...i...<;....m.m.<;.....m.m.<;....m.m.<;....m.m.<;....m.m.<;.....m.m.<;...i.m..<;....m.m.<;....m.m.<;...i..m.<;...i...<;...i.m..<;...i.m..<;
Best fitness value: ( ( go ) /\ ( ta ) ) 2.0
Generation Time :0
Accumulated Learning Time :2
CALLs: 261    TIMEOUTs: 0    ERRORs: 0
REEVALUATIONS: 263 OF 678

GENERATION 9/50
....m.m.<;.....m.m.<;....m.m.<;....m.m.<;....m.m.<;...i.m..<;......m.m.<;...i.m..<;...i.m..<;......i.m..<;....m.m.<;....m.m.<;.....m.m.<;....m.m.<;......m.m.<;...i.m..<;.....i.m..<;....m.m.<;....m.m.<;....m.m.<;....m.m.<;....m.m.<;....m.m.<;....m.m.<;.....m.m.<;......m.m.<;......m.m.<;....m.m.<;....m.m.<;....m.m.<;....m.m.<;.....m.m.<;....m.m.<;....m.m.<;....m.m.<;....m.m.<;....m.m.<;...i.m..<;...i.m.m.<;...i.m..<;
Fittest value: 2.611111111111111 for chromosome ( ( X ( ( go ) /\ ( ta ) ) ) W ( <> ( ( cc ) /\ ( tc ) ) ) )
Solutions (1): ( ( X ( ( go ) /\ ( ta ) ) ) W ( <> ( ( cc ) /\ ( tc ) ) ) ) | 
Generation Time :0
Accumulated Learning Time :2
CALLs: 257    TIMEOUTs: 0    ERRORs: 0
REEVALUATIONS: 290 OF 757

GENERATION 10/50
.....m.m.<;....m.m.<;....m.m.<;....m.m.<;......m.m.<;....m.m.<;....m.m.<;....m.m.<;...i.m..<;....m.m.<;....m.m.<;.......m.m.<;....m.m.<;...i.m..<;....m.m.<;....m.m.<;....m.m.<;...i.m..<;....m.m.<;....m.m.<;....m.m.<;.....m.m.<;......m.m.<;....m.m.<;.....m.m.<;...i.m..<;....m.m.<;....m.m.<;....m.m.<;....m.m.<;....m.m.<;......m.m.<;....m.m.<;....m.m.<;.....m.m.<;....m.m.<;....m.m.<;...i..m.<;....m.m.<;....m.m.<;....m.m.<;...i.m..<;...i.m..<;....m.m.<;...i.m..<;
Fittest value: 2.611111111111111 for chromosome ( ( X ( ( go ) /\ ( ta ) ) ) W ( <> ( ( cc ) /\ ( tc ) ) ) )
Solutions (1): ( ( X ( ( go ) /\ ( ta ) ) ) W ( <> ( ( cc ) /\ ( tc ) ) ) ) | 
Generation Time :0
Accumulated Learning Time :3
CALLs: 283    TIMEOUTs: 0    ERRORs: 0
REEVALUATIONS: 307 OF 828

GENERATION 11/50
.....m.m.<;....m.m.<;....m.m.<;....m.m.<;.....m.m.<;....m.m.<;.....i.m..<;....m.m.<;....m.m.<;....m.m.<;....m.m.<;....m.m.<;....m.m.<;....m.m.<;....i.m..<;....m.m.<;....m.m.<;....m.m.<;....m.m.<;....m.m.<;....m.m.<;....m.m.<;....m.m.<;...i.m..<;....m.m.<;......m.m.<;......m.m.<;....m.m.<;...i.m..<;......i.m..<;....m.m.<;....m.m.<;....m.m.<;....m.m.<;...i.m..<;....m.m.<;...i.m..<;....m.m.<;....m.m.<;.......m.m.<;.....m.m.<;....m.m.<;......m.m.<;.....m.m.<;....m.m.<;....m.m.<;....m.m.<;...i.m.m.<;....m.m.<;...i.m..<;...i.m.m.<;...i.m..<;....m.m.<;...i.m..<;
Fittest value: 2.611111111111111 for chromosome ( ( X ( ( go ) /\ ( ta ) ) ) W ( <> ( ( cc ) /\ ( tc ) ) ) )
Solutions (3): ( ( X ( ( go ) /\ ( ta ) ) ) W ( <> ( ( cc ) /\ ( tc ) ) ) ) | ( ( ( go ) /\ ( ta ) ) \/ ( <> ( <> ( ( cc ) /\ ( tc ) ) ) ) ) | ( <> ( ( X ( ( go ) /\ ( ta ) ) ) W ( <> ( ( cc ) /\ ( tc ) ) ) ) ) | 
Generation Time :0
Accumulated Learning Time :4
CALLs: 343    TIMEOUTs: 0    ERRORs: 0
REEVALUATIONS: 323 OF 911

GENERATION 12/50
....m.m.<;...i.m..<;....m.m.<;....m.m.<;....m.m.<;...i.m..<;.....m.m.<;....m.m.<;....m.m.<;....m.m.<;...i.m..<;.....m.m.<;....m.m.<;....m.m.<;....m.m.<;.....i.m..<;...i.m..<;....m.m.<;....m.m.<;....m.m.<;...i..m.<;....m.m.<;......m.m.<;....m.m.<;....m.m.<;...i.m..<;....i.m..<;.....m.m.<;...i.m..<;....m.m.<;......m.m.<;....m.m.<;....m.m.<;....m.m.<;......m.m.<;.....m.m.<;....m.m.<;....m.m.<;...i.m..<;....m.m.<;.....m.m.<;....m.m.<;....m.m.<;....m.m.<;...i.m..<;....m.m.<;....m.m.<;......m.m.<;....m.m.<;....m.m.<;...i.m.m.;...i.m..<;...i.m..<;...i.m..<;...i.m..<;...i.m..<;....m.m.<;
Fittest value: 2.611111111111111 for chromosome ( ( X ( ( go ) /\ ( ta ) ) ) W ( <> ( ( cc ) /\ ( tc ) ) ) )
Solutions (3): ( ( X ( ( go ) /\ ( ta ) ) ) W ( <> ( ( cc ) /\ ( tc ) ) ) ) | ( ( ( go ) /\ ( ta ) ) \/ ( <> ( <> ( ( cc ) /\ ( tc ) ) ) ) ) | ( <> ( ( X ( ( go ) /\ ( ta ) ) ) W ( <> ( ( cc ) /\ ( tc ) ) ) ) ) | 
Generation Time :0
Accumulated Learning Time :4
CALLs: 358    TIMEOUTs: 0    ERRORs: 0
REEVALUATIONS: 340 OF 997

GENERATION 13/50
....m.m.<;....m.m.<;...i..m.<;....m.m.<;....m.m.<;...i.m..<;....m.m.<;....m.m.<;....m.m.<;....m.m.<;....m.m.<;...i...<;...i.m..<;....m.m.<;...i.m..<;....m.m.<;....m.m.<;....m.m.<;....m.m.<;...i.m..<;...i...<;....m.m.<;....m.m.<;...i.m..<;...i.m..<;.....m.m.<;....m.m.<;....m.m.<;...i.m..<;...i..m.<;......m.m.<;....m.m.<;.....i..m.<;....m.m.<;....m.m.<;...i.m..<;....m.m.<;....m.m.<;....m.m.<;....m.m.<;.......m.m.<;....m.m.<;....m.m.<;....m.m.<;....m.m.<;...i.m..<;......m.m.<;...i..m.<;....m.m.<;....m.m.<;....m.m.<;...i.m.m.<;...i.m..<;....m.m.<;...i.m..<;....m.m.<;....m.m.<;....m.m.<;...i.m..<;
Fittest value: 2.611111111111111 for chromosome ( ( X ( ( go ) /\ ( ta ) ) ) W ( <> ( ( cc ) /\ ( tc ) ) ) )
Solutions (4): ( ( X ( ( go ) /\ ( ta ) ) ) W ( <> ( ( cc ) /\ ( tc ) ) ) ) | ( ( ( go ) /\ ( ta ) ) \/ ( <> ( <> ( ( cc ) /\ ( tc ) ) ) ) ) | ( <> ( ( X ( ( go ) /\ ( ta ) ) ) W ( <> ( ( cc ) /\ ( tc ) ) ) ) ) | ( ( X ( ( go ) /\ ( ta ) ) ) W ( ( cc ) /\ ( tc ) ) ) | 
Generation Time :0
Accumulated Learning Time :5
CALLs: 364    TIMEOUTs: 0    ERRORs: 0
REEVALUATIONS: 350 OF 1073

GENERATION 14/50
....m.m.<;....m.m.<;....m.m.<;...i.m.m.<;...i.m..<;....m.m.<;...i.m..<;....m.m.<;...i..m.<;....m.m.<;...i.m..<;....m.m.<;....m.m.<;....m.m.<;...i.m..<;....m.m.<;....m.m.<;...i..m.<;...i...<;...i..m.<;....m.m.<;....m.m.<;....m.m.;....m.m.<;....m.m.<;...i.m..<;....m.m.<;....m.m.<;...i..m.<;....m.m.<;...i.m..<;....m.m.<;....m.m.<;....i.m..<;......m.m.<;....i.m..<;....m.m.<;...i.m..<;....m.m.<;....m.m.<;....m.m.<;....m.m.<;....m.m.<;....m.m.<;...i.m..<;....m.m.<;....i.m..<;....m.m.<;....m.m.<;...i..m.<;....m.m.<;....m.m.<;...i.m..<;....m.m.<;....m.m.<;....m.m.<;...i.m..<;....m.m.<;....m.m.<;...i.m..<;...i.m..<;...i.m..<;...i.m..<;...i.m..<;
Fittest value: 2.611111111111111 for chromosome ( ( X ( ( go ) /\ ( ta ) ) ) W ( <> ( ( cc ) /\ ( tc ) ) ) )
Solutions (5): ( ( X ( ( go ) /\ ( ta ) ) ) W ( <> ( ( cc ) /\ ( tc ) ) ) ) | ( ( ( go ) /\ ( ta ) ) \/ ( <> ( <> ( ( cc ) /\ ( tc ) ) ) ) ) | ( <> ( ( X ( ( go ) /\ ( ta ) ) ) W ( <> ( ( cc ) /\ ( tc ) ) ) ) ) | ( ( X ( ( go ) /\ ( ta ) ) ) W ( ( cc ) /\ ( tc ) ) ) | ( ( X ( ( go ) /\ ( ta ) ) ) \/ ( <> ( ( cc ) /\ ( tc ) ) ) ) | 
Generation Time :0
Accumulated Learning Time :6
CALLs: 389    TIMEOUTs: 0    ERRORs: 0
REEVALUATIONS: 361 OF 1152

GENERATION 15/50
...i..m.<;....m.m.<;....m.m.<;....m.m.<;....m.m.<;....m.m.<;....m.m.<;....m.m.<;....m.m.<;....m.m.<;.....i.m..<;....m.m.<;...i..m.<;...i.m.m.<;....m.m.<;....m.m.<;....m.m.<;....m.m.<;....m.m.<;....m.m.<;....m.m.<;.....m.m.<;....m.m.<;...i..m.<;...i..m.<;....m.m.<;....m.m.<;....m.m.<;....m.m.<;.....m.m.<;...i.m..<;...i.m..<;....m.m.<;...i.m..<;...i..m.<;......i.m..<;...i.m..<;...i.m..<;...i..m.<;...i..m.<;.....i...<;....m.m.<;...i.m..<;......i..m.<;....m.m.<;......m.m.<;...i.m.m.<;...i.m..<;...i.m..<;....m.m.<;....m.m.<;....m.m.<;...i.m..<;
Fittest value: 2.611111111111111 for chromosome ( ( X ( ( go ) /\ ( ta ) ) ) W ( <> ( ( cc ) /\ ( tc ) ) ) )
Solutions (7): ( ( X ( ( go ) /\ ( ta ) ) ) W ( <> ( ( cc ) /\ ( tc ) ) ) ) | ( ( ( go ) /\ ( ta ) ) \/ ( <> ( <> ( ( cc ) /\ ( tc ) ) ) ) ) | ( <> ( ( X ( ( go ) /\ ( ta ) ) ) W ( <> ( ( cc ) /\ ( tc ) ) ) ) ) | ( ( X ( ( go ) /\ ( ta ) ) ) W ( ( cc ) /\ ( tc ) ) ) | ( ( X ( ( go ) /\ ( ta ) ) ) \/ ( <> ( ( cc ) /\ ( tc ) ) ) ) | ( ( <> ( ( go ) /\ ( ta ) ) ) W ( <> ( ( cc ) /\ ( tc ) ) ) ) | ( ( ( go ) /\ ( ta ) ) W ( <> ( ( cc ) /\ ( tc ) ) ) ) | 
Generation Time :0
Accumulated Learning Time :7
CALLs: 332    TIMEOUTs: 0    ERRORs: 0
REEVALUATIONS: 377 OF 1230

GENERATION 16/50
....m.m.<;....m.m.<;....m.m.<;....m.m.<;....m.m.<;....m.m.<;...i.m..<;....m.m.<;....m.m.<;....m.m.<;...i..m.<;....m.m.<;....m.m.<;....m.m.<;....m.m.<;....m.m.<;....m.m.<;....m.m.<;....m.m.<;....m.m.<;...i.m..<;....m.m.<;...i.m..<;....m.m.<;....m.m.<;....m.m.<;....m.m.<;...i..m.<;...i.m..<;......i.m..<;....m.m.<;....m.m.<;...i.m..<;....m.m.<;....m.m.<;...i.m..<;...i.m..<;...i.m..<;...i.m..<;...i..m.<;...i...<;....m.m.<;....m.m.<;....m.m.<;.....m.m.<;....m.m.<;...i.m.m.<;.....i.m.m.<;....m.m.<;....m.m.<;...i...<;...i.m..<;....m.m.<;...i...<;....m.m.<;
Fittest value: 2.611111111111111 for chromosome ( ( X ( ( go ) /\ ( ta ) ) ) W ( <> ( ( cc ) /\ ( tc ) ) ) )
Solutions (9): ( ( X ( ( go ) /\ ( ta ) ) ) W ( <> ( ( cc ) /\ ( tc ) ) ) ) | ( ( ( go ) /\ ( ta ) ) \/ ( <> ( <> ( ( cc ) /\ ( tc ) ) ) ) ) | ( <> ( ( X ( ( go ) /\ ( ta ) ) ) W ( <> ( ( cc ) /\ ( tc ) ) ) ) ) | ( ( X ( ( go ) /\ ( ta ) ) ) W ( ( cc ) /\ ( tc ) ) ) | ( ( X ( ( go ) /\ ( ta ) ) ) \/ ( <> ( ( cc ) /\ ( tc ) ) ) ) | ( ( <> ( ( go ) /\ ( ta ) ) ) W ( <> ( ( cc ) /\ ( tc ) ) ) ) | ( ( ( go ) /\ ( ta ) ) W ( <> ( ( cc ) /\ ( tc ) ) ) ) | ( ( ( go ) /\ ( ta ) ) W ( ( cc ) /\ ( tc ) ) ) | ( ( [] ( ( go ) /\ ( ta ) ) ) W ( <> ( ( cc ) /\ ( tc ) ) ) ) | 
Generation Time :0
Accumulated Learning Time :7
CALLs: 336    TIMEOUTs: 0    ERRORs: 0
REEVALUATIONS: 393 OF 1305

GENERATION 17/50
....m.m.<;....m.m.<;....m.m.<;....m.m.<;....m.m.<;....m.m.<;....m.m.<;...i.m.m.<;....m.m.<;....m.m.<;...i..m.<;....m.m.<;....m.m.<;....m.m.<;...i.m.m.<;....m.m.<;....m.m.<;......m.m.<;....m.m.<;......m.m.<;...i.m..<;....m.m.<;....m.m.<;....m.m.<;....m.m.<;....m.m.<;....m.m.<;....m.m.<;....m.m.<;....m.m.<;.....i.m.m.;...i.m.m.<;...i.m..<;....m.m.<;....m.m.<;....m.m.<;...i.m..<;....m.m.<;....m.m.<;....m.m.<;...i.m..<;....m.m.<;....m.m.<;....m.m.<;....m.m.<;...i...<;.....m.m.<;....m.m.<;....m.m.<;....m.m.<;....m.m.<;....m.m.<;....m.m.<;
Fittest value: 2.611111111111111 for chromosome ( ( X ( ( go ) /\ ( ta ) ) ) W ( <> ( ( cc ) /\ ( tc ) ) ) )
Solutions (11): ( ( X ( ( go ) /\ ( ta ) ) ) W ( <> ( ( cc ) /\ ( tc ) ) ) ) | ( ( ( go ) /\ ( ta ) ) \/ ( <> ( <> ( ( cc ) /\ ( tc ) ) ) ) ) | ( <> ( ( X ( ( go ) /\ ( ta ) ) ) W ( <> ( ( cc ) /\ ( tc ) ) ) ) ) | ( ( X ( ( go ) /\ ( ta ) ) ) W ( ( cc ) /\ ( tc ) ) ) | ( ( X ( ( go ) /\ ( ta ) ) ) \/ ( <> ( ( cc ) /\ ( tc ) ) ) ) | ( ( <> ( ( go ) /\ ( ta ) ) ) W ( <> ( ( cc ) /\ ( tc ) ) ) ) | ( ( ( go ) /\ ( ta ) ) W ( <> ( ( cc ) /\ ( tc ) ) ) ) | ( ( ( go ) /\ ( ta ) ) W ( ( cc ) /\ ( tc ) ) ) | ( ( [] ( ( go ) /\ ( ta ) ) ) W ( <> ( ( cc ) /\ ( tc ) ) ) ) | ( ( <> ( ( go ) /\ ( ta ) ) ) W ( ( cc ) /\ ( tc ) ) ) | ( ( [] ( ( go ) /\ ( ta ) ) ) W ( ( cc ) /\ ( tc ) ) ) | 
Generation Time :0
Accumulated Learning Time :8
CALLs: 325    TIMEOUTs: 0    ERRORs: 0
REEVALUATIONS: 413 OF 1382

GENERATION 18/50
....m.m.<;....m.m.<;....m.m.<;....m.m.<;....m.m.<;....m.m.<;...i.m.m.<;......m.m.<;...i..m.<;....m.m.<;....m.m.<;....m.m.<;......m.m.<;....m.m.<;....m.m.<;....m.m.<;....m.m.<;....m.m.<;...i..m.<;....m.m.<;......m.m.<;....m.m.<;....m.m.<;......m.m.<;....m.m.<;...i..m.<;....m.m.<;...i.m.m.<;.....m.m.<;...i.m..<;....m.m.<;...i...<;......m.m.<;....m.m.<;....m.m.<;...i.m..<;....m.m.<;....m.m.<;....m.m.<;....m.m.<;....m.m.<;....m.m.<;....m.m.<;...i.m.m.<;....m.m.<;...i..m.<;....m.m.<;....m.m.<;....m.m.<;...i.m..<;
Fittest value: 2.611111111111111 for chromosome ( ( X ( ( go ) /\ ( ta ) ) ) W ( <> ( ( cc ) /\ ( tc ) ) ) )
Solutions (14): ( ( X ( ( go ) /\ ( ta ) ) ) W ( <> ( ( cc ) /\ ( tc ) ) ) ) | ( ( ( go ) /\ ( ta ) ) \/ ( <> ( <> ( ( cc ) /\ ( tc ) ) ) ) ) | ( <> ( ( X ( ( go ) /\ ( ta ) ) ) W ( <> ( ( cc ) /\ ( tc ) ) ) ) ) | ( ( X ( ( go ) /\ ( ta ) ) ) W ( ( cc ) /\ ( tc ) ) ) | ( ( X ( ( go ) /\ ( ta ) ) ) \/ ( <> ( ( cc ) /\ ( tc ) ) ) ) | ( ( <> ( ( go ) /\ ( ta ) ) ) W ( <> ( ( cc ) /\ ( tc ) ) ) ) | ( ( ( go ) /\ ( ta ) ) W ( <> ( ( cc ) /\ ( tc ) ) ) ) | ( ( ( go ) /\ ( ta ) ) W ( ( cc ) /\ ( tc ) ) ) | ( ( [] ( ( go ) /\ ( ta ) ) ) W ( <> ( ( cc ) /\ ( tc ) ) ) ) | ( ( <> ( ( go ) /\ ( ta ) ) ) W ( ( cc ) /\ ( tc ) ) ) | ( ( [] ( ( go ) /\ ( ta ) ) ) W ( ( cc ) /\ ( tc ) ) ) | ( ( X ( ( go ) /\ ( tc ) ) ) W ( ( cc ) /\ ( tc ) ) ) | ( ( ( go ) /\ ( ta ) ) W ( <> ( <> ( ( cc ) /\ ( tc ) ) ) ) ) | ( ( X ( ( go ) /\ ( tc ) ) ) W ( <> ( ( cc ) /\ ( tc ) ) ) ) | 
Generation Time :0
Accumulated Learning Time :9
CALLs: 311    TIMEOUTs: 0    ERRORs: 0
REEVALUATIONS: 436 OF 1461

GENERATION 19/50
....m.m.<;....m.m.<;......m.m.<;......m.m.<;....m.m.<;....m.m.<;....m.m.<;....m.m.<;...i.m..<;....m.m.<;....m.m.<;...i.m..<;....m.m.<;....m.m.<;....m.m.<;....m.m.<;......m.m.<;....m.m.<;....m.m.<;....m.m.<;....m.m.<;....m.m.<;....m.m.;....m.m.<;......m.m.<;....m.m.<;....m.m.;....m.m.<;....m.m.<;....m.m.<;...i.m..<;....m.m.<;....m.m.<;.....i.m..<;....m.m.<;...i.m..<;...i.m.m.<;
Fittest value: 2.611111111111111 for chromosome ( ( X ( ( go ) /\ ( ta ) ) ) W ( <> ( ( cc ) /\ ( tc ) ) ) )
Solutions (14): ( ( X ( ( go ) /\ ( ta ) ) ) W ( <> ( ( cc ) /\ ( tc ) ) ) ) | ( ( ( go ) /\ ( ta ) ) \/ ( <> ( <> ( ( cc ) /\ ( tc ) ) ) ) ) | ( <> ( ( X ( ( go ) /\ ( ta ) ) ) W ( <> ( ( cc ) /\ ( tc ) ) ) ) ) | ( ( X ( ( go ) /\ ( ta ) ) ) W ( ( cc ) /\ ( tc ) ) ) | ( ( X ( ( go ) /\ ( ta ) ) ) \/ ( <> ( ( cc ) /\ ( tc ) ) ) ) | ( ( <> ( ( go ) /\ ( ta ) ) ) W ( <> ( ( cc ) /\ ( tc ) ) ) ) | ( ( ( go ) /\ ( ta ) ) W ( <> ( ( cc ) /\ ( tc ) ) ) ) | ( ( ( go ) /\ ( ta ) ) W ( ( cc ) /\ ( tc ) ) ) | ( ( [] ( ( go ) /\ ( ta ) ) ) W ( <> ( ( cc ) /\ ( tc ) ) ) ) | ( ( <> ( ( go ) /\ ( ta ) ) ) W ( ( cc ) /\ ( tc ) ) ) | ( ( [] ( ( go ) /\ ( ta ) ) ) W ( ( cc ) /\ ( tc ) ) ) | ( ( X ( ( go ) /\ ( tc ) ) ) W ( ( cc ) /\ ( tc ) ) ) | ( ( ( go ) /\ ( ta ) ) W ( <> ( <> ( ( cc ) /\ ( tc ) ) ) ) ) | ( ( X ( ( go ) /\ ( tc ) ) ) W ( <> ( ( cc ) /\ ( tc ) ) ) ) | 
Generation Time :0
Accumulated Learning Time :10
CALLs: 232    TIMEOUTs: 0    ERRORs: 0
REEVALUATIONS: 469 OF 1536

GENERATION 20/50
....m.m.<;....m.m.<;....m.m.<;....m.m.<;...i..m.<;....m.m.<;....m.m.<;....m.m.<;....m.m.<;....m.m.<;...i.m..<;....m.m.<;....m.m.<;...i..m.<;....m.m.<;....m.m.<;...i..m.<;...i.m.m.<;....m.m.<;....m.m.<;.......m.m.<;....m.m.<;....m.m.<;....m.m.<;....m.m.<;....m.m.<;....m.m.<;......m.m.<;....m.m.<;....m.m.<;....m.m.<;....m.m.<;....m.m.<;.....m.m.<;....m.m.<;....m.m.<;....m.m.<;....m.m.<;....m.m.<;....m.m.<;....m.m.<;...i.m.m.<;...i.m..<;...i.m..<;....m.m.<;...i.m..<;....m.m.<;....m.m.<;...i.m.m.<;
Fittest value: 2.611111111111111 for chromosome ( ( X ( ( go ) /\ ( ta ) ) ) W ( <> ( ( cc ) /\ ( tc ) ) ) )
Solutions (16): ( ( X ( ( go ) /\ ( ta ) ) ) W ( <> ( ( cc ) /\ ( tc ) ) ) ) | ( ( ( go ) /\ ( ta ) ) \/ ( <> ( <> ( ( cc ) /\ ( tc ) ) ) ) ) | ( <> ( ( X ( ( go ) /\ ( ta ) ) ) W ( <> ( ( cc ) /\ ( tc ) ) ) ) ) | ( ( X ( ( go ) /\ ( ta ) ) ) W ( ( cc ) /\ ( tc ) ) ) | ( ( X ( ( go ) /\ ( ta ) ) ) \/ ( <> ( ( cc ) /\ ( tc ) ) ) ) | ( ( <> ( ( go ) /\ ( ta ) ) ) W ( <> ( ( cc ) /\ ( tc ) ) ) ) | ( ( ( go ) /\ ( ta ) ) W ( <> ( ( cc ) /\ ( tc ) ) ) ) | ( ( ( go ) /\ ( ta ) ) W ( ( cc ) /\ ( tc ) ) ) | ( ( [] ( ( go ) /\ ( ta ) ) ) W ( <> ( ( cc ) /\ ( tc ) ) ) ) | ( ( <> ( ( go ) /\ ( ta ) ) ) W ( ( cc ) /\ ( tc ) ) ) | ( ( [] ( ( go ) /\ ( ta ) ) ) W ( ( cc ) /\ ( tc ) ) ) | ( ( X ( ( go ) /\ ( tc ) ) ) W ( ( cc ) /\ ( tc ) ) ) | ( ( ( go ) /\ ( ta ) ) W ( <> ( <> ( ( cc ) /\ ( tc ) ) ) ) ) | ( ( X ( ( go ) /\ ( tc ) ) ) W ( <> ( ( cc ) /\ ( tc ) ) ) ) | ( ( X ( ( go ) /\ ( ta ) ) ) \/ ( ( cc ) /\ ( tc ) ) ) | ( <> ( ( X ( ( go ) /\ ( ta ) ) ) W ( ( cc ) /\ ( tc ) ) ) ) | 
Generation Time :0
Accumulated Learning Time :10
CALLs: 300    TIMEOUTs: 0    ERRORs: 0
REEVALUATIONS: 491 OF 1611

GENERATION 21/50
....m.m.<;....m.m.<;....m.m.<;....m.m.<;....m.m.<;....m.m.<;...i..m.<;....m.m.<;....m.m.<;....m.m.<;...i..m.<;....m.m.<;....m.m.<;......m.m.<;...i...<;....m.m.<;....m.m.<;....m.m.<;...i..m.<;....m.m.<;....m.m.<;....m.m.<;....m.m.<;....m.m.<;....m.m.<;....m.m.<;....m.m.<;......m.m.<;....m.m.<;....m.m.<;....m.m.<;....m.m.<;....m.m.<;....m.m.<;....m.m.<;....m.m.<;....m.m.<;....m.m.<;....m.m.<;....m.m.<;...i.m..<;....m.m.<;...i.m.m.<;...i.m..<;
Fittest value: 2.611111111111111 for chromosome ( ( X ( ( go ) /\ ( ta ) ) ) W ( <> ( ( cc ) /\ ( tc ) ) ) )
Solutions (16): ( ( X ( ( go ) /\ ( ta ) ) ) W ( <> ( ( cc ) /\ ( tc ) ) ) ) | ( ( ( go ) /\ ( ta ) ) \/ ( <> ( <> ( ( cc ) /\ ( tc ) ) ) ) ) | ( <> ( ( X ( ( go ) /\ ( ta ) ) ) W ( <> ( ( cc ) /\ ( tc ) ) ) ) ) | ( ( X ( ( go ) /\ ( ta ) ) ) W ( ( cc ) /\ ( tc ) ) ) | ( ( X ( ( go ) /\ ( ta ) ) ) \/ ( <> ( ( cc ) /\ ( tc ) ) ) ) | ( ( <> ( ( go ) /\ ( ta ) ) ) W ( <> ( ( cc ) /\ ( tc ) ) ) ) | ( ( ( go ) /\ ( ta ) ) W ( <> ( ( cc ) /\ ( tc ) ) ) ) | ( ( ( go ) /\ ( ta ) ) W ( ( cc ) /\ ( tc ) ) ) | ( ( [] ( ( go ) /\ ( ta ) ) ) W ( <> ( ( cc ) /\ ( tc ) ) ) ) | ( ( <> ( ( go ) /\ ( ta ) ) ) W ( ( cc ) /\ ( tc ) ) ) | ( ( [] ( ( go ) /\ ( ta ) ) ) W ( ( cc ) /\ ( tc ) ) ) | ( ( X ( ( go ) /\ ( tc ) ) ) W ( ( cc ) /\ ( tc ) ) ) | ( ( ( go ) /\ ( ta ) ) W ( <> ( <> ( ( cc ) /\ ( tc ) ) ) ) ) | ( ( X ( ( go ) /\ ( tc ) ) ) W ( <> ( ( cc ) /\ ( tc ) ) ) ) | ( ( X ( ( go ) /\ ( ta ) ) ) \/ ( ( cc ) /\ ( tc ) ) ) | ( <> ( ( X ( ( go ) /\ ( ta ) ) ) W ( ( cc ) /\ ( tc ) ) ) ) | 
Generation Time :0
Accumulated Learning Time :11
CALLs: 268    TIMEOUTs: 0    ERRORs: 0
REEVALUATIONS: 519 OF 1685

GENERATION 22/50
....m.m.<;....m.m.<;....m.m.<;....m.m.<;......m.m.<;....m.m.<;...i.m.m.<;...i.m..<;....m.m.<;....m.m.<;....m.m.<;....m.m.<;....m.m.<;....m.m.<;....m.m.<;....m.m.<;...i.m..<;....m.m.<;....m.m.<;....m.m.<;....m.m.<;....m.m.<;...i..m.<;....m.m.<;....m.m.<;.....i..m.<;...i..m.<;....m.m.<;...i..m.<;....m.m.<;....m.m.<;....m.m.<;....m.m.<;...i..m.<;....m.m.<;....m.m.<;...i...<;...i.m..<;....m.m.<;....m.m.<;....m.m.<;....m.m.<;....m.m.<;....m.m.<;...i.m..<;....m.m.<;
Fittest value: 2.611111111111111 for chromosome ( ( X ( ( go ) /\ ( ta ) ) ) W ( <> ( ( cc ) /\ ( tc ) ) ) )
Solutions (16): ( ( X ( ( go ) /\ ( ta ) ) ) W ( <> ( ( cc ) /\ ( tc ) ) ) ) | ( ( ( go ) /\ ( ta ) ) \/ ( <> ( <> ( ( cc ) /\ ( tc ) ) ) ) ) | ( <> ( ( X ( ( go ) /\ ( ta ) ) ) W ( <> ( ( cc ) /\ ( tc ) ) ) ) ) | ( ( X ( ( go ) /\ ( ta ) ) ) W ( ( cc ) /\ ( tc ) ) ) | ( ( X ( ( go ) /\ ( ta ) ) ) \/ ( <> ( ( cc ) /\ ( tc ) ) ) ) | ( ( <> ( ( go ) /\ ( ta ) ) ) W ( <> ( ( cc ) /\ ( tc ) ) ) ) | ( ( ( go ) /\ ( ta ) ) W ( <> ( ( cc ) /\ ( tc ) ) ) ) | ( ( ( go ) /\ ( ta ) ) W ( ( cc ) /\ ( tc ) ) ) | ( ( [] ( ( go ) /\ ( ta ) ) ) W ( <> ( ( cc ) /\ ( tc ) ) ) ) | ( ( <> ( ( go ) /\ ( ta ) ) ) W ( ( cc ) /\ ( tc ) ) ) | ( ( [] ( ( go ) /\ ( ta ) ) ) W ( ( cc ) /\ ( tc ) ) ) | ( ( X ( ( go ) /\ ( tc ) ) ) W ( ( cc ) /\ ( tc ) ) ) | ( ( ( go ) /\ ( ta ) ) W ( <> ( <> ( ( cc ) /\ ( tc ) ) ) ) ) | ( ( X ( ( go ) /\ ( tc ) ) ) W ( <> ( ( cc ) /\ ( tc ) ) ) ) | ( ( X ( ( go ) /\ ( ta ) ) ) \/ ( ( cc ) /\ ( tc ) ) ) | ( <> ( ( X ( ( go ) /\ ( ta ) ) ) W ( ( cc ) /\ ( tc ) ) ) ) | 
Generation Time :0
Accumulated Learning Time :11
CALLs: 280    TIMEOUTs: 0    ERRORs: 0
REEVALUATIONS: 550 OF 1764

GENERATION 23/50
....m.m.<;...i..m.<;....m.m.<;....m.m.<;....m.m.<;....m.m.<;....m.m.<;....m.m.<;...i..m.<;...i..m.<;....m.m.<;....m.m.<;....m.m.<;......m.m.<;....m.m.<;...i.m..<;....m.m.<;.....i..m.<;...i.m..<;....m.m.<;....m.m.<;......m.m.<;...i..m.<;....m.m.<;....m.m.<;....m.m.<;....m.m.<;...i.m..<;....m.m.<;....m.m.<;....m.m.<;....m.m.<;...i...<;....m.m.<;....m.m.<;....m.m.<;....m.m.<;....m.m.<;....m.m.<;....m.m.<;....m.m.<;...i...<;....m.m.<;....m.m.<;....m.m.<;....m.m.<;....m.m.<;...i.m..<;....m.m.<;...i.m..<;...i.m.m.<;
Fittest value: 2.625 for chromosome ( <> ( ( X ( ( go ) /\ ( tc ) ) ) W ( ( cc ) /\ ( tc ) ) ) )
Solutions (17): ( ( X ( ( go ) /\ ( ta ) ) ) W ( <> ( ( cc ) /\ ( tc ) ) ) ) | ( ( ( go ) /\ ( ta ) ) \/ ( <> ( <> ( ( cc ) /\ ( tc ) ) ) ) ) | ( <> ( ( X ( ( go ) /\ ( ta ) ) ) W ( <> ( ( cc ) /\ ( tc ) ) ) ) ) | ( ( X ( ( go ) /\ ( ta ) ) ) W ( ( cc ) /\ ( tc ) ) ) | ( ( X ( ( go ) /\ ( ta ) ) ) \/ ( <> ( ( cc ) /\ ( tc ) ) ) ) | ( ( <> ( ( go ) /\ ( ta ) ) ) W ( <> ( ( cc ) /\ ( tc ) ) ) ) | ( ( ( go ) /\ ( ta ) ) W ( <> ( ( cc ) /\ ( tc ) ) ) ) | ( ( ( go ) /\ ( ta ) ) W ( ( cc ) /\ ( tc ) ) ) | ( ( [] ( ( go ) /\ ( ta ) ) ) W ( <> ( ( cc ) /\ ( tc ) ) ) ) | ( ( <> ( ( go ) /\ ( ta ) ) ) W ( ( cc ) /\ ( tc ) ) ) | ( ( [] ( ( go ) /\ ( ta ) ) ) W ( ( cc ) /\ ( tc ) ) ) | ( ( X ( ( go ) /\ ( tc ) ) ) W ( ( cc ) /\ ( tc ) ) ) | ( ( ( go ) /\ ( ta ) ) W ( <> ( <> ( ( cc ) /\ ( tc ) ) ) ) ) | ( ( X ( ( go ) /\ ( tc ) ) ) W ( <> ( ( cc ) /\ ( tc ) ) ) ) | ( ( X ( ( go ) /\ ( ta ) ) ) \/ ( ( cc ) /\ ( tc ) ) ) | ( <> ( ( X ( ( go ) /\ ( ta ) ) ) W ( ( cc ) /\ ( tc ) ) ) ) | ( <> ( ( X ( ( go ) /\ ( tc ) ) ) W ( ( cc ) /\ ( tc ) ) ) ) | 
Generation Time :0
Accumulated Learning Time :12
CALLs: 312    TIMEOUTs: 0    ERRORs: 0
REEVALUATIONS: 576 OF 1844

GENERATION 24/50
....m.m.<;....m.m.<;...i.m..<;....m.m.<;...i.m.m.<;....m.m.<;....m.m.<;....m.m.<;....m.m.<;....m.m.<;....m.m.<;....m.m.<;....m.m.<;....m.m.<;....m.m.<;....m.m.<;...i.m..<;....m.m.<;....m.m.<;...i..m.<;....m.m.<;....m.m.<;....m.m.<;....m.m.<;...i.m.m.<;....m.m.<;....m.m.<;....m.m.<;...i.m.m.<;...i.m..<;....m.m.<;....m.m.<;...i.m..<;....m.m.<;....m.m.<;....m.m.<;...i.m..<;....m.m.<;...i..m.<;....m.m.<;...i..m.<;...i.m..<;....m.m.<;....m.m.<;....m.m.<;...i.m..<;....m.m.<;....m.m.<;....m.m.<;....m.m.<;....m.m.<;.....m.m.<;....m.m.<;...i.m..<;...i.m.m.<;
Fittest value: 2.625 for chromosome ( <> ( ( X ( ( go ) /\ ( tc ) ) ) W ( ( cc ) /\ ( tc ) ) ) )
Solutions (21): ( ( X ( ( go ) /\ ( ta ) ) ) W ( <> ( ( cc ) /\ ( tc ) ) ) ) | ( ( ( go ) /\ ( ta ) ) \/ ( <> ( <> ( ( cc ) /\ ( tc ) ) ) ) ) | ( <> ( ( X ( ( go ) /\ ( ta ) ) ) W ( <> ( ( cc ) /\ ( tc ) ) ) ) ) | ( ( X ( ( go ) /\ ( ta ) ) ) W ( ( cc ) /\ ( tc ) ) ) | ( ( X ( ( go ) /\ ( ta ) ) ) \/ ( <> ( ( cc ) /\ ( tc ) ) ) ) | ( ( <> ( ( go ) /\ ( ta ) ) ) W ( <> ( ( cc ) /\ ( tc ) ) ) ) | ( ( ( go ) /\ ( ta ) ) W ( <> ( ( cc ) /\ ( tc ) ) ) ) | ( ( ( go ) /\ ( ta ) ) W ( ( cc ) /\ ( tc ) ) ) | ( ( [] ( ( go ) /\ ( ta ) ) ) W ( <> ( ( cc ) /\ ( tc ) ) ) ) | ( ( <> ( ( go ) /\ ( ta ) ) ) W ( ( cc ) /\ ( tc ) ) ) | ( ( [] ( ( go ) /\ ( ta ) ) ) W ( ( cc ) /\ ( tc ) ) ) | ( ( X ( ( go ) /\ ( tc ) ) ) W ( ( cc ) /\ ( tc ) ) ) | ( ( ( go ) /\ ( ta ) ) W ( <> ( <> ( ( cc ) /\ ( tc ) ) ) ) ) | ( ( X ( ( go ) /\ ( tc ) ) ) W ( <> ( ( cc ) /\ ( tc ) ) ) ) | ( ( X ( ( go ) /\ ( ta ) ) ) \/ ( ( cc ) /\ ( tc ) ) ) | ( <> ( ( X ( ( go ) /\ ( ta ) ) ) W ( ( cc ) /\ ( tc ) ) ) ) | ( <> ( ( X ( ( go ) /\ ( tc ) ) ) W ( ( cc ) /\ ( tc ) ) ) ) | ( <> ( ( ( go ) /\ ( ta ) ) W ( ( cc ) /\ ( tc ) ) ) ) | ( ( ( go ) /\ ( ta ) ) \/ ( <> ( ( cc ) /\ ( tc ) ) ) ) | ( ( [] ( ( go ) /\ ( ta ) ) ) \/ ( ( cc ) /\ ( tc ) ) ) | ( <> ( ( ( go ) /\ ( ta ) ) W ( <> ( ( cc ) /\ ( tc ) ) ) ) ) | 
Generation Time :0
Accumulated Learning Time :13
CALLs: 331    TIMEOUTs: 0    ERRORs: 0
REEVALUATIONS: 601 OF 1925

GENERATION 25/50
....m.m.<;....m.m.<;....m.m.<;...i.m..<;....m.m.<;...i...<;....m.m.<;....m.m.<;...i.m..<;......m.m.<;....m.m.<;....m.m.<;......m.m.<;....m.m.<;...i.m..<;....m.m.<;....m.m.<;...i.m..<;....m.m.<;....m.m.<;....m.m.<;....m.m.<;...i.m..<;...i..m.<;....m.m.<;....m.m.<;....m.m.<;...i...<;....m.m.<;...i.m..<;......m.m.<;....m.m.<;....m.m.<;....m.m.<;....m.m.<;...i.m.m.<;......m.m.<;......i.m.m.<;...i.m..<;....m.m.<;
Fittest value: 2.625 for chromosome ( <> ( ( X ( ( go ) /\ ( tc ) ) ) W ( ( cc ) /\ ( tc ) ) ) )
Solutions (23): ( ( X ( ( go ) /\ ( ta ) ) ) W ( <> ( ( cc ) /\ ( tc ) ) ) ) | ( ( ( go ) /\ ( ta ) ) \/ ( <> ( <> ( ( cc ) /\ ( tc ) ) ) ) ) | ( <> ( ( X ( ( go ) /\ ( ta ) ) ) W ( <> ( ( cc ) /\ ( tc ) ) ) ) ) | ( ( X ( ( go ) /\ ( ta ) ) ) W ( ( cc ) /\ ( tc ) ) ) | ( ( X ( ( go ) /\ ( ta ) ) ) \/ ( <> ( ( cc ) /\ ( tc ) ) ) ) | ( ( <> ( ( go ) /\ ( ta ) ) ) W ( <> ( ( cc ) /\ ( tc ) ) ) ) | ( ( ( go ) /\ ( ta ) ) W ( <> ( ( cc ) /\ ( tc ) ) ) ) | ( ( ( go ) /\ ( ta ) ) W ( ( cc ) /\ ( tc ) ) ) | ( ( [] ( ( go ) /\ ( ta ) ) ) W ( <> ( ( cc ) /\ ( tc ) ) ) ) | ( ( <> ( ( go ) /\ ( ta ) ) ) W ( ( cc ) /\ ( tc ) ) ) | ( ( [] ( ( go ) /\ ( ta ) ) ) W ( ( cc ) /\ ( tc ) ) ) | ( ( X ( ( go ) /\ ( tc ) ) ) W ( ( cc ) /\ ( tc ) ) ) | ( ( ( go ) /\ ( ta ) ) W ( <> ( <> ( ( cc ) /\ ( tc ) ) ) ) ) | ( ( X ( ( go ) /\ ( tc ) ) ) W ( <> ( ( cc ) /\ ( tc ) ) ) ) | ( ( X ( ( go ) /\ ( ta ) ) ) \/ ( ( cc ) /\ ( tc ) ) ) | ( <> ( ( X ( ( go ) /\ ( ta ) ) ) W ( ( cc ) /\ ( tc ) ) ) ) | ( <> ( ( X ( ( go ) /\ ( tc ) ) ) W ( ( cc ) /\ ( tc ) ) ) ) | ( <> ( ( ( go ) /\ ( ta ) ) W ( ( cc ) /\ ( tc ) ) ) ) | ( ( ( go ) /\ ( ta ) ) \/ ( <> ( ( cc ) /\ ( tc ) ) ) ) | ( ( [] ( ( go ) /\ ( ta ) ) ) \/ ( ( cc ) /\ ( tc ) ) ) | ( <> ( ( ( go ) /\ ( ta ) ) W ( <> ( ( cc ) /\ ( tc ) ) ) ) ) | ( <> ( ( [] ( ( go ) /\ ( tc ) ) ) W ( ( cc ) /\ ( tc ) ) ) ) | ( <> ( ( X ( ( go ) /\ ( ta ) ) ) \/ ( ( cc ) /\ ( tc ) ) ) ) | 
Generation Time :0
Accumulated Learning Time :13
CALLs: 251    TIMEOUTs: 0    ERRORs: 0
REEVALUATIONS: 628 OF 1998

GENERATION 26/50
....m.m.<;....m.m.<;....m.m.<;...i..m.<;...i.m.m.;...i..m.<;....m.m.<;....m.m.<;....m.m.<;....m.m.<;....m.m.<;...i.m..<;....m.m.<;...i.m..<;.....i..m.<;....m.m.<;......m.m.<;...i.m.m.<;....m.m.<;...i.m.m.<;....m.m.<;...i..m.<;....m.m.<;....m.m.<;....m.m.<;......m.m.<;...i.m..<;....m.m.<;....m.m.<;....m.m.<;....m.m.<;....m.m.<;...i..m.<;....m.m.<;...i..m.<;....m.m.<;...i.m..<;.....m.m.<;....m.m.<;....m.m.<;....m.m.<;....m.m.<;...i.m.m.<;...i.m..<;....m.m.<;
Fittest value: 2.625 for chromosome ( <> ( ( X ( ( go ) /\ ( tc ) ) ) W ( ( cc ) /\ ( tc ) ) ) )
Solutions (25): ( ( X ( ( go ) /\ ( ta ) ) ) W ( <> ( ( cc ) /\ ( tc ) ) ) ) | ( ( ( go ) /\ ( ta ) ) \/ ( <> ( <> ( ( cc ) /\ ( tc ) ) ) ) ) | ( <> ( ( X ( ( go ) /\ ( ta ) ) ) W ( <> ( ( cc ) /\ ( tc ) ) ) ) ) | ( ( X ( ( go ) /\ ( ta ) ) ) W ( ( cc ) /\ ( tc ) ) ) | ( ( X ( ( go ) /\ ( ta ) ) ) \/ ( <> ( ( cc ) /\ ( tc ) ) ) ) | ( ( <> ( ( go ) /\ ( ta ) ) ) W ( <> ( ( cc ) /\ ( tc ) ) ) ) | ( ( ( go ) /\ ( ta ) ) W ( <> ( ( cc ) /\ ( tc ) ) ) ) | ( ( ( go ) /\ ( ta ) ) W ( ( cc ) /\ ( tc ) ) ) | ( ( [] ( ( go ) /\ ( ta ) ) ) W ( <> ( ( cc ) /\ ( tc ) ) ) ) | ( ( <> ( ( go ) /\ ( ta ) ) ) W ( ( cc ) /\ ( tc ) ) ) | ( ( [] ( ( go ) /\ ( ta ) ) ) W ( ( cc ) /\ ( tc ) ) ) | ( ( X ( ( go ) /\ ( tc ) ) ) W ( ( cc ) /\ ( tc ) ) ) | ( ( ( go ) /\ ( ta ) ) W ( <> ( <> ( ( cc ) /\ ( tc ) ) ) ) ) | ( ( X ( ( go ) /\ ( tc ) ) ) W ( <> ( ( cc ) /\ ( tc ) ) ) ) | ( ( X ( ( go ) /\ ( ta ) ) ) \/ ( ( cc ) /\ ( tc ) ) ) | ( <> ( ( X ( ( go ) /\ ( ta ) ) ) W ( ( cc ) /\ ( tc ) ) ) ) | ( <> ( ( X ( ( go ) /\ ( tc ) ) ) W ( ( cc ) /\ ( tc ) ) ) ) | ( <> ( ( ( go ) /\ ( ta ) ) W ( ( cc ) /\ ( tc ) ) ) ) | ( ( ( go ) /\ ( ta ) ) \/ ( <> ( ( cc ) /\ ( tc ) ) ) ) | ( ( [] ( ( go ) /\ ( ta ) ) ) \/ ( ( cc ) /\ ( tc ) ) ) | ( <> ( ( ( go ) /\ ( ta ) ) W ( <> ( ( cc ) /\ ( tc ) ) ) ) ) | ( <> ( ( [] ( ( go ) /\ ( tc ) ) ) W ( ( cc ) /\ ( tc ) ) ) ) | ( <> ( ( X ( ( go ) /\ ( ta ) ) ) \/ ( ( cc ) /\ ( tc ) ) ) ) | ( <> ( ( [] ( ( go ) /\ ( ta ) ) ) W ( ( cc ) /\ ( tc ) ) ) ) | ( <> ( <> ( ( ( go ) /\ ( ta ) ) W ( ( cc ) /\ ( tc ) ) ) ) ) | 
Generation Time :0
Accumulated Learning Time :14
CALLs: 277    TIMEOUTs: 0    ERRORs: 0
REEVALUATIONS: 651 OF 2070

GENERATION 27/50
....m.m.<;....m.m.<;...i...<;....m.m.<;....m.m.<;....m.m.<;....m.m.<;...i.m..<;....m.m.<;...i.m.m.<;....m.m.<;....m.m.<;....m.m.<;...i.m..<;....m.m.<;......m.m.<;....m.m.<;....m.m.<;....m.m.<;....m.m.<;...i.m..<;...i.m..<;...i.m..<;....m.m.<;....m.m.<;....m.m.<;....m.m.<;....m.m.<;....m.m.<;....m.m.<;....m.m.<;....m.m.<;....m.m.<;....m.m.<;....m.m.<;....m.m.<;....m.m.<;...i...<;....m.m.<;....m.m.<;....m.m.<;...i.m..<;...i.m..<;...i.m..<;...i.m.m.<;....m.m.<;
Fittest value: 2.625 for chromosome ( <> ( ( X ( ( go ) /\ ( tc ) ) ) W ( ( cc ) /\ ( tc ) ) ) )
Solutions (26): ( ( X ( ( go ) /\ ( ta ) ) ) W ( <> ( ( cc ) /\ ( tc ) ) ) ) | ( ( ( go ) /\ ( ta ) ) \/ ( <> ( <> ( ( cc ) /\ ( tc ) ) ) ) ) | ( <> ( ( X ( ( go ) /\ ( ta ) ) ) W ( <> ( ( cc ) /\ ( tc ) ) ) ) ) | ( ( X ( ( go ) /\ ( ta ) ) ) W ( ( cc ) /\ ( tc ) ) ) | ( ( X ( ( go ) /\ ( ta ) ) ) \/ ( <> ( ( cc ) /\ ( tc ) ) ) ) | ( ( <> ( ( go ) /\ ( ta ) ) ) W ( <> ( ( cc ) /\ ( tc ) ) ) ) | ( ( ( go ) /\ ( ta ) ) W ( <> ( ( cc ) /\ ( tc ) ) ) ) | ( ( ( go ) /\ ( ta ) ) W ( ( cc ) /\ ( tc ) ) ) | ( ( [] ( ( go ) /\ ( ta ) ) ) W ( <> ( ( cc ) /\ ( tc ) ) ) ) | ( ( <> ( ( go ) /\ ( ta ) ) ) W ( ( cc ) /\ ( tc ) ) ) | ( ( [] ( ( go ) /\ ( ta ) ) ) W ( ( cc ) /\ ( tc ) ) ) | ( ( X ( ( go ) /\ ( tc ) ) ) W ( ( cc ) /\ ( tc ) ) ) | ( ( ( go ) /\ ( ta ) ) W ( <> ( <> ( ( cc ) /\ ( tc ) ) ) ) ) | ( ( X ( ( go ) /\ ( tc ) ) ) W ( <> ( ( cc ) /\ ( tc ) ) ) ) | ( ( X ( ( go ) /\ ( ta ) ) ) \/ ( ( cc ) /\ ( tc ) ) ) | ( <> ( ( X ( ( go ) /\ ( ta ) ) ) W ( ( cc ) /\ ( tc ) ) ) ) | ( <> ( ( X ( ( go ) /\ ( tc ) ) ) W ( ( cc ) /\ ( tc ) ) ) ) | ( <> ( ( ( go ) /\ ( ta ) ) W ( ( cc ) /\ ( tc ) ) ) ) | ( ( ( go ) /\ ( ta ) ) \/ ( <> ( ( cc ) /\ ( tc ) ) ) ) | ( ( [] ( ( go ) /\ ( ta ) ) ) \/ ( ( cc ) /\ ( tc ) ) ) | ( <> ( ( ( go ) /\ ( ta ) ) W ( <> ( ( cc ) /\ ( tc ) ) ) ) ) | ( <> ( ( [] ( ( go ) /\ ( tc ) ) ) W ( ( cc ) /\ ( tc ) ) ) ) | ( <> ( ( X ( ( go ) /\ ( ta ) ) ) \/ ( ( cc ) /\ ( tc ) ) ) ) | ( <> ( ( [] ( ( go ) /\ ( ta ) ) ) W ( ( cc ) /\ ( tc ) ) ) ) | ( <> ( <> ( ( ( go ) /\ ( ta ) ) W ( ( cc ) /\ ( tc ) ) ) ) ) | ( <> ( <> ( ( X ( ( go ) /\ ( tc ) ) ) W ( ( cc ) /\ ( tc ) ) ) ) ) | 
Generation Time :0
Accumulated Learning Time :14
CALLs: 278    TIMEOUTs: 0    ERRORs: 0
REEVALUATIONS: 675 OF 2141

GENERATION 28/50
....m.m.<;....m.m.<;....m.m.<;....m.m.<;....m.m.<;....m.m.<;....m.m.<;...i..m.<;....m.m.<;....m.m.<;....m.m.<;....m.m.<;....m.m.<;....m.m.<;....m.m.<;....m.m.<;....m.m.<;.....m.m.<;...i..m.<;....m.m.<;....m.m.<;....m.m.<;....m.m.<;....m.m.<;...i..m.<;...i.m.m.<;...i..m.<;....m.m.<;....m.m.<;......m.m.<;....m.m.<;....m.m.<;....m.m.<;...i..m.<;....m.m.<;...i..m.<;....m.m.<;...i..m.<;....m.m.<;....m.m.<;....i..m.<;....m.m.<;....m.m.<;....m.m.<;....m.m.<;....m.m.<;....m.m.<;....m.m.<;....m.m.<;....m.m.<;...i.m..<;....m.m.<;
Fittest value: 2.625 for chromosome ( <> ( ( X ( ( go ) /\ ( tc ) ) ) W ( ( cc ) /\ ( tc ) ) ) )
Solutions (26): ( ( X ( ( go ) /\ ( ta ) ) ) W ( <> ( ( cc ) /\ ( tc ) ) ) ) | ( ( ( go ) /\ ( ta ) ) \/ ( <> ( <> ( ( cc ) /\ ( tc ) ) ) ) ) | ( <> ( ( X ( ( go ) /\ ( ta ) ) ) W ( <> ( ( cc ) /\ ( tc ) ) ) ) ) | ( ( X ( ( go ) /\ ( ta ) ) ) W ( ( cc ) /\ ( tc ) ) ) | ( ( X ( ( go ) /\ ( ta ) ) ) \/ ( <> ( ( cc ) /\ ( tc ) ) ) ) | ( ( <> ( ( go ) /\ ( ta ) ) ) W ( <> ( ( cc ) /\ ( tc ) ) ) ) | ( ( ( go ) /\ ( ta ) ) W ( <> ( ( cc ) /\ ( tc ) ) ) ) | ( ( ( go ) /\ ( ta ) ) W ( ( cc ) /\ ( tc ) ) ) | ( ( [] ( ( go ) /\ ( ta ) ) ) W ( <> ( ( cc ) /\ ( tc ) ) ) ) | ( ( <> ( ( go ) /\ ( ta ) ) ) W ( ( cc ) /\ ( tc ) ) ) | ( ( [] ( ( go ) /\ ( ta ) ) ) W ( ( cc ) /\ ( tc ) ) ) | ( ( X ( ( go ) /\ ( tc ) ) ) W ( ( cc ) /\ ( tc ) ) ) | ( ( ( go ) /\ ( ta ) ) W ( <> ( <> ( ( cc ) /\ ( tc ) ) ) ) ) | ( ( X ( ( go ) /\ ( tc ) ) ) W ( <> ( ( cc ) /\ ( tc ) ) ) ) | ( ( X ( ( go ) /\ ( ta ) ) ) \/ ( ( cc ) /\ ( tc ) ) ) | ( <> ( ( X ( ( go ) /\ ( ta ) ) ) W ( ( cc ) /\ ( tc ) ) ) ) | ( <> ( ( X ( ( go ) /\ ( tc ) ) ) W ( ( cc ) /\ ( tc ) ) ) ) | ( <> ( ( ( go ) /\ ( ta ) ) W ( ( cc ) /\ ( tc ) ) ) ) | ( ( ( go ) /\ ( ta ) ) \/ ( <> ( ( cc ) /\ ( tc ) ) ) ) | ( ( [] ( ( go ) /\ ( ta ) ) ) \/ ( ( cc ) /\ ( tc ) ) ) | ( <> ( ( ( go ) /\ ( ta ) ) W ( <> ( ( cc ) /\ ( tc ) ) ) ) ) | ( <> ( ( [] ( ( go ) /\ ( tc ) ) ) W ( ( cc ) /\ ( tc ) ) ) ) | ( <> ( ( X ( ( go ) /\ ( ta ) ) ) \/ ( ( cc ) /\ ( tc ) ) ) ) | ( <> ( ( [] ( ( go ) /\ ( ta ) ) ) W ( ( cc ) /\ ( tc ) ) ) ) | ( <> ( <> ( ( ( go ) /\ ( ta ) ) W ( ( cc ) /\ ( tc ) ) ) ) ) | ( <> ( <> ( ( X ( ( go ) /\ ( tc ) ) ) W ( ( cc ) /\ ( tc ) ) ) ) ) | 
Generation Time :0
Accumulated Learning Time :15
CALLs: 316    TIMEOUTs: 0    ERRORs: 0
REEVALUATIONS: 708 OF 2229

GENERATION 29/50
....m.m.<;....m.m.<;....m.m.<;....m.m.<;....m.m.<;......m.m.<;....m.m.<;...i.m..<;......m.m.<;...i..m.<;...i.m..<;....m.m.<;....m.m.<;....m.m.<;...i.m..<;.....i..m.<;....m.m.<;...i.m..<;....m.m.<;....m.m.<;....m.m.<;...i.m.m.<;....i.m..<;...i..m.<;....m.m.<;....m.m.<;....m.m.<;...i.m..<;....m.m.<;....m.m.<;....m.m.<;....m.m.<;....m.m.<;....m.m.<;....m.m.<;....m.m.<;....m.m.<;....m.m.<;....m.m.<;....m.m.<;....m.m.<;...i..m.<;....m.m.<;....m.m.<;....m.m.<;....m.m.<;....m.m.<;
Fittest value: 2.625 for chromosome ( <> ( ( X ( ( go ) /\ ( tc ) ) ) W ( ( cc ) /\ ( tc ) ) ) )
Solutions (27): ( ( X ( ( go ) /\ ( ta ) ) ) W ( <> ( ( cc ) /\ ( tc ) ) ) ) | ( ( ( go ) /\ ( ta ) ) \/ ( <> ( <> ( ( cc ) /\ ( tc ) ) ) ) ) | ( <> ( ( X ( ( go ) /\ ( ta ) ) ) W ( <> ( ( cc ) /\ ( tc ) ) ) ) ) | ( ( X ( ( go ) /\ ( ta ) ) ) W ( ( cc ) /\ ( tc ) ) ) | ( ( X ( ( go ) /\ ( ta ) ) ) \/ ( <> ( ( cc ) /\ ( tc ) ) ) ) | ( ( <> ( ( go ) /\ ( ta ) ) ) W ( <> ( ( cc ) /\ ( tc ) ) ) ) | ( ( ( go ) /\ ( ta ) ) W ( <> ( ( cc ) /\ ( tc ) ) ) ) | ( ( ( go ) /\ ( ta ) ) W ( ( cc ) /\ ( tc ) ) ) | ( ( [] ( ( go ) /\ ( ta ) ) ) W ( <> ( ( cc ) /\ ( tc ) ) ) ) | ( ( <> ( ( go ) /\ ( ta ) ) ) W ( ( cc ) /\ ( tc ) ) ) | ( ( [] ( ( go ) /\ ( ta ) ) ) W ( ( cc ) /\ ( tc ) ) ) | ( ( X ( ( go ) /\ ( tc ) ) ) W ( ( cc ) /\ ( tc ) ) ) | ( ( ( go ) /\ ( ta ) ) W ( <> ( <> ( ( cc ) /\ ( tc ) ) ) ) ) | ( ( X ( ( go ) /\ ( tc ) ) ) W ( <> ( ( cc ) /\ ( tc ) ) ) ) | ( ( X ( ( go ) /\ ( ta ) ) ) \/ ( ( cc ) /\ ( tc ) ) ) | ( <> ( ( X ( ( go ) /\ ( ta ) ) ) W ( ( cc ) /\ ( tc ) ) ) ) | ( <> ( ( X ( ( go ) /\ ( tc ) ) ) W ( ( cc ) /\ ( tc ) ) ) ) | ( <> ( ( ( go ) /\ ( ta ) ) W ( ( cc ) /\ ( tc ) ) ) ) | ( ( ( go ) /\ ( ta ) ) \/ ( <> ( ( cc ) /\ ( tc ) ) ) ) | ( ( [] ( ( go ) /\ ( ta ) ) ) \/ ( ( cc ) /\ ( tc ) ) ) | ( <> ( ( ( go ) /\ ( ta ) ) W ( <> ( ( cc ) /\ ( tc ) ) ) ) ) | ( <> ( ( [] ( ( go ) /\ ( tc ) ) ) W ( ( cc ) /\ ( tc ) ) ) ) | ( <> ( ( X ( ( go ) /\ ( ta ) ) ) \/ ( ( cc ) /\ ( tc ) ) ) ) | ( <> ( ( [] ( ( go ) /\ ( ta ) ) ) W ( ( cc ) /\ ( tc ) ) ) ) | ( <> ( <> ( ( ( go ) /\ ( ta ) ) W ( ( cc ) /\ ( tc ) ) ) ) ) | ( <> ( <> ( ( X ( ( go ) /\ ( tc ) ) ) W ( ( cc ) /\ ( tc ) ) ) ) ) | ( <> ( <> ( ( ( go ) /\ ( tc ) ) W ( ( cc ) /\ ( tc ) ) ) ) ) | 
Generation Time :0
Accumulated Learning Time :16
CALLs: 289    TIMEOUTs: 0    ERRORs: 0
REEVALUATIONS: 741 OF 2313

GENERATION 30/50
....m.m.<;...i.m.m.<;....m.m.<;...i..m.<;.......m.m.<;......m.m.<;....m.m.<;......i...<;....m.m.<;....m.m.<;.....m.m.<;....m.m.<;...i..m.<;....m.m.<;....m.m.<;....m.m.<;.....m.m.<;...i..m.<;....m.m.<;......m.m.<;....m.m.<;....m.m.<;....m.m.<;....m.m.<;...i.m.m.<;....m.m.<;....m.m.<;....m.m.<;....m.m.<;...i.m..<;....m.m.<;....m.m.<;....m.m.<;...i.m.m.<;....m.m.<;....m.m.<;....m.m.<;....m.m.<;
Fittest value: 2.625 for chromosome ( <> ( ( X ( ( go ) /\ ( tc ) ) ) W ( ( cc ) /\ ( tc ) ) ) )
Solutions (29): ( ( X ( ( go ) /\ ( ta ) ) ) W ( <> ( ( cc ) /\ ( tc ) ) ) ) | ( ( ( go ) /\ ( ta ) ) \/ ( <> ( <> ( ( cc ) /\ ( tc ) ) ) ) ) | ( <> ( ( X ( ( go ) /\ ( ta ) ) ) W ( <> ( ( cc ) /\ ( tc ) ) ) ) ) | ( ( X ( ( go ) /\ ( ta ) ) ) W ( ( cc ) /\ ( tc ) ) ) | ( ( X ( ( go ) /\ ( ta ) ) ) \/ ( <> ( ( cc ) /\ ( tc ) ) ) ) | ( ( <> ( ( go ) /\ ( ta ) ) ) W ( <> ( ( cc ) /\ ( tc ) ) ) ) | ( ( ( go ) /\ ( ta ) ) W ( <> ( ( cc ) /\ ( tc ) ) ) ) | ( ( ( go ) /\ ( ta ) ) W ( ( cc ) /\ ( tc ) ) ) | ( ( [] ( ( go ) /\ ( ta ) ) ) W ( <> ( ( cc ) /\ ( tc ) ) ) ) | ( ( <> ( ( go ) /\ ( ta ) ) ) W ( ( cc ) /\ ( tc ) ) ) | ( ( [] ( ( go ) /\ ( ta ) ) ) W ( ( cc ) /\ ( tc ) ) ) | ( ( X ( ( go ) /\ ( tc ) ) ) W ( ( cc ) /\ ( tc ) ) ) | ( ( ( go ) /\ ( ta ) ) W ( <> ( <> ( ( cc ) /\ ( tc ) ) ) ) ) | ( ( X ( ( go ) /\ ( tc ) ) ) W ( <> ( ( cc ) /\ ( tc ) ) ) ) | ( ( X ( ( go ) /\ ( ta ) ) ) \/ ( ( cc ) /\ ( tc ) ) ) | ( <> ( ( X ( ( go ) /\ ( ta ) ) ) W ( ( cc ) /\ ( tc ) ) ) ) | ( <> ( ( X ( ( go ) /\ ( tc ) ) ) W ( ( cc ) /\ ( tc ) ) ) ) | ( <> ( ( ( go ) /\ ( ta ) ) W ( ( cc ) /\ ( tc ) ) ) ) | ( ( ( go ) /\ ( ta ) ) \/ ( <> ( ( cc ) /\ ( tc ) ) ) ) | ( ( [] ( ( go ) /\ ( ta ) ) ) \/ ( ( cc ) /\ ( tc ) ) ) | ( <> ( ( ( go ) /\ ( ta ) ) W ( <> ( ( cc ) /\ ( tc ) ) ) ) ) | ( <> ( ( [] ( ( go ) /\ ( tc ) ) ) W ( ( cc ) /\ ( tc ) ) ) ) | ( <> ( ( X ( ( go ) /\ ( ta ) ) ) \/ ( ( cc ) /\ ( tc ) ) ) ) | ( <> ( ( [] ( ( go ) /\ ( ta ) ) ) W ( ( cc ) /\ ( tc ) ) ) ) | ( <> ( <> ( ( ( go ) /\ ( ta ) ) W ( ( cc ) /\ ( tc ) ) ) ) ) | ( <> ( <> ( ( X ( ( go ) /\ ( tc ) ) ) W ( ( cc ) /\ ( tc ) ) ) ) ) | ( <> ( <> ( ( ( go ) /\ ( tc ) ) W ( ( cc ) /\ ( tc ) ) ) ) ) | ( <> ( ( ( go ) /\ ( tc ) ) W ( ( cc ) /\ ( tc ) ) ) ) | ( ( ( go ) /\ ( tc ) ) W ( ( cc ) /\ ( tc ) ) ) | 
Generation Time :0
Accumulated Learning Time :16
CALLs: 240    TIMEOUTs: 0    ERRORs: 0
REEVALUATIONS: 773 OF 2391

GENERATION 31/50
....m.m.<;...i.m.m.<;....m.m.<;....m.m.<;....m.m.<;....m.m.<;......m.m.<;....m.m.<;...i..m.<;....m.m.<;...i..m.<;...i..m.<;....m.m.<;.....m.m.<;...i.m..<;....m.m.<;....m.m.<;....m.m.<;....m.m.<;....m.m.<;....m.m.<;....m.m.<;....m.m.<;...i.m.m.<;....m.m.<;....m.m.<;...i.m..<;...i.m..<;....m.m.<;....m.m.<;.....m.m.<;...i.m..<;....m.m.<;...i..m.<;....m.m.<;......m.m.<;......m.m.<;....m.m.<;....m.m.<;
Fittest value: 2.625 for chromosome ( <> ( ( X ( ( go ) /\ ( tc ) ) ) W ( ( cc ) /\ ( tc ) ) ) )
Solutions (30): ( ( X ( ( go ) /\ ( ta ) ) ) W ( <> ( ( cc ) /\ ( tc ) ) ) ) | ( ( ( go ) /\ ( ta ) ) \/ ( <> ( <> ( ( cc ) /\ ( tc ) ) ) ) ) | ( <> ( ( X ( ( go ) /\ ( ta ) ) ) W ( <> ( ( cc ) /\ ( tc ) ) ) ) ) | ( ( X ( ( go ) /\ ( ta ) ) ) W ( ( cc ) /\ ( tc ) ) ) | ( ( X ( ( go ) /\ ( ta ) ) ) \/ ( <> ( ( cc ) /\ ( tc ) ) ) ) | ( ( <> ( ( go ) /\ ( ta ) ) ) W ( <> ( ( cc ) /\ ( tc ) ) ) ) | ( ( ( go ) /\ ( ta ) ) W ( <> ( ( cc ) /\ ( tc ) ) ) ) | ( ( ( go ) /\ ( ta ) ) W ( ( cc ) /\ ( tc ) ) ) | ( ( [] ( ( go ) /\ ( ta ) ) ) W ( <> ( ( cc ) /\ ( tc ) ) ) ) | ( ( <> ( ( go ) /\ ( ta ) ) ) W ( ( cc ) /\ ( tc ) ) ) | ( ( [] ( ( go ) /\ ( ta ) ) ) W ( ( cc ) /\ ( tc ) ) ) | ( ( X ( ( go ) /\ ( tc ) ) ) W ( ( cc ) /\ ( tc ) ) ) | ( ( ( go ) /\ ( ta ) ) W ( <> ( <> ( ( cc ) /\ ( tc ) ) ) ) ) | ( ( X ( ( go ) /\ ( tc ) ) ) W ( <> ( ( cc ) /\ ( tc ) ) ) ) | ( ( X ( ( go ) /\ ( ta ) ) ) \/ ( ( cc ) /\ ( tc ) ) ) | ( <> ( ( X ( ( go ) /\ ( ta ) ) ) W ( ( cc ) /\ ( tc ) ) ) ) | ( <> ( ( X ( ( go ) /\ ( tc ) ) ) W ( ( cc ) /\ ( tc ) ) ) ) | ( <> ( ( ( go ) /\ ( ta ) ) W ( ( cc ) /\ ( tc ) ) ) ) | ( ( ( go ) /\ ( ta ) ) \/ ( <> ( ( cc ) /\ ( tc ) ) ) ) | ( ( [] ( ( go ) /\ ( ta ) ) ) \/ ( ( cc ) /\ ( tc ) ) ) | ( <> ( ( ( go ) /\ ( ta ) ) W ( <> ( ( cc ) /\ ( tc ) ) ) ) ) | ( <> ( ( [] ( ( go ) /\ ( tc ) ) ) W ( ( cc ) /\ ( tc ) ) ) ) | ( <> ( ( X ( ( go ) /\ ( ta ) ) ) \/ ( ( cc ) /\ ( tc ) ) ) ) | ( <> ( ( [] ( ( go ) /\ ( ta ) ) ) W ( ( cc ) /\ ( tc ) ) ) ) | ( <> ( <> ( ( ( go ) /\ ( ta ) ) W ( ( cc ) /\ ( tc ) ) ) ) ) | ( <> ( <> ( ( X ( ( go ) /\ ( tc ) ) ) W ( ( cc ) /\ ( tc ) ) ) ) ) | ( <> ( <> ( ( ( go ) /\ ( tc ) ) W ( ( cc ) /\ ( tc ) ) ) ) ) | ( <> ( ( ( go ) /\ ( tc ) ) W ( ( cc ) /\ ( tc ) ) ) ) | ( ( ( go ) /\ ( tc ) ) W ( ( cc ) /\ ( tc ) ) ) | ( ( [] ( ( go ) /\ ( tc ) ) ) W ( ( cc ) /\ ( tc ) ) ) | 
Generation Time :0
Accumulated Learning Time :17
CALLs: 242    TIMEOUTs: 0    ERRORs: 0
REEVALUATIONS: 806 OF 2468

GENERATION 32/50
....m.m.<;....m.m.<;....m.m.<;....m.m.<;....m.m.<;....m.m.<;....m.m.<;....m.m.<;....m.m.<;...i..m.<;...i..m.<;....m.m.<;....m.m.<;....m.m.<;...i...<;....m.m.<;....m.m.<;....m.m.<;....m.m.<;....m.m.<;.....i.m.m.<;....m.m.<;....m.m.<;...i..m.<;......m.m.<;...i.m.m.<;...i.m..<;...i.m..<;...i.m..<;
Fittest value: 2.625 for chromosome ( <> ( ( X ( ( go ) /\ ( tc ) ) ) W ( ( cc ) /\ ( tc ) ) ) )
Solutions (30): ( ( X ( ( go ) /\ ( ta ) ) ) W ( <> ( ( cc ) /\ ( tc ) ) ) ) | ( ( ( go ) /\ ( ta ) ) \/ ( <> ( <> ( ( cc ) /\ ( tc ) ) ) ) ) | ( <> ( ( X ( ( go ) /\ ( ta ) ) ) W ( <> ( ( cc ) /\ ( tc ) ) ) ) ) | ( ( X ( ( go ) /\ ( ta ) ) ) W ( ( cc ) /\ ( tc ) ) ) | ( ( X ( ( go ) /\ ( ta ) ) ) \/ ( <> ( ( cc ) /\ ( tc ) ) ) ) | ( ( <> ( ( go ) /\ ( ta ) ) ) W ( <> ( ( cc ) /\ ( tc ) ) ) ) | ( ( ( go ) /\ ( ta ) ) W ( <> ( ( cc ) /\ ( tc ) ) ) ) | ( ( ( go ) /\ ( ta ) ) W ( ( cc ) /\ ( tc ) ) ) | ( ( [] ( ( go ) /\ ( ta ) ) ) W ( <> ( ( cc ) /\ ( tc ) ) ) ) | ( ( <> ( ( go ) /\ ( ta ) ) ) W ( ( cc ) /\ ( tc ) ) ) | ( ( [] ( ( go ) /\ ( ta ) ) ) W ( ( cc ) /\ ( tc ) ) ) | ( ( X ( ( go ) /\ ( tc ) ) ) W ( ( cc ) /\ ( tc ) ) ) | ( ( ( go ) /\ ( ta ) ) W ( <> ( <> ( ( cc ) /\ ( tc ) ) ) ) ) | ( ( X ( ( go ) /\ ( tc ) ) ) W ( <> ( ( cc ) /\ ( tc ) ) ) ) | ( ( X ( ( go ) /\ ( ta ) ) ) \/ ( ( cc ) /\ ( tc ) ) ) | ( <> ( ( X ( ( go ) /\ ( ta ) ) ) W ( ( cc ) /\ ( tc ) ) ) ) | ( <> ( ( X ( ( go ) /\ ( tc ) ) ) W ( ( cc ) /\ ( tc ) ) ) ) | ( <> ( ( ( go ) /\ ( ta ) ) W ( ( cc ) /\ ( tc ) ) ) ) | ( ( ( go ) /\ ( ta ) ) \/ ( <> ( ( cc ) /\ ( tc ) ) ) ) | ( ( [] ( ( go ) /\ ( ta ) ) ) \/ ( ( cc ) /\ ( tc ) ) ) | ( <> ( ( ( go ) /\ ( ta ) ) W ( <> ( ( cc ) /\ ( tc ) ) ) ) ) | ( <> ( ( [] ( ( go ) /\ ( tc ) ) ) W ( ( cc ) /\ ( tc ) ) ) ) | ( <> ( ( X ( ( go ) /\ ( ta ) ) ) \/ ( ( cc ) /\ ( tc ) ) ) ) | ( <> ( ( [] ( ( go ) /\ ( ta ) ) ) W ( ( cc ) /\ ( tc ) ) ) ) | ( <> ( <> ( ( ( go ) /\ ( ta ) ) W ( ( cc ) /\ ( tc ) ) ) ) ) | ( <> ( <> ( ( X ( ( go ) /\ ( tc ) ) ) W ( ( cc ) /\ ( tc ) ) ) ) ) | ( <> ( <> ( ( ( go ) /\ ( tc ) ) W ( ( cc ) /\ ( tc ) ) ) ) ) | ( <> ( ( ( go ) /\ ( tc ) ) W ( ( cc ) /\ ( tc ) ) ) ) | ( ( ( go ) /\ ( tc ) ) W ( ( cc ) /\ ( tc ) ) ) | ( ( [] ( ( go ) /\ ( tc ) ) ) W ( ( cc ) /\ ( tc ) ) ) | 
Generation Time :0
Accumulated Learning Time :17
CALLs: 178    TIMEOUTs: 0    ERRORs: 0
REEVALUATIONS: 851 OF 2544

GENERATION 33/50
...i..m.<;....m.m.<;......m.m.<;....m.m.<;...i.m.m.<;....m.m.<;....m.m.<;...i..m.<;....m.m.<;....m.m.<;....m.m.<;....m.m.<;....m.m.<;....m.m.<;....m.m.<;....m.m.<;....m.m.<;...i..m.<;....m.m.<;....m.m.<;....m.m.<;...i.m.m.<;....m.m.<;....m.m.<;....m.m.<;....m.m.<;....m.m.<;....m.m.<;...i..m.<;...i.m..<;
Fittest value: 2.625 for chromosome ( <> ( ( X ( ( go ) /\ ( tc ) ) ) W ( ( cc ) /\ ( tc ) ) ) )
Solutions (31): ( ( X ( ( go ) /\ ( ta ) ) ) W ( <> ( ( cc ) /\ ( tc ) ) ) ) | ( ( ( go ) /\ ( ta ) ) \/ ( <> ( <> ( ( cc ) /\ ( tc ) ) ) ) ) | ( <> ( ( X ( ( go ) /\ ( ta ) ) ) W ( <> ( ( cc ) /\ ( tc ) ) ) ) ) | ( ( X ( ( go ) /\ ( ta ) ) ) W ( ( cc ) /\ ( tc ) ) ) | ( ( X ( ( go ) /\ ( ta ) ) ) \/ ( <> ( ( cc ) /\ ( tc ) ) ) ) | ( ( <> ( ( go ) /\ ( ta ) ) ) W ( <> ( ( cc ) /\ ( tc ) ) ) ) | ( ( ( go ) /\ ( ta ) ) W ( <> ( ( cc ) /\ ( tc ) ) ) ) | ( ( ( go ) /\ ( ta ) ) W ( ( cc ) /\ ( tc ) ) ) | ( ( [] ( ( go ) /\ ( ta ) ) ) W ( <> ( ( cc ) /\ ( tc ) ) ) ) | ( ( <> ( ( go ) /\ ( ta ) ) ) W ( ( cc ) /\ ( tc ) ) ) | ( ( [] ( ( go ) /\ ( ta ) ) ) W ( ( cc ) /\ ( tc ) ) ) | ( ( X ( ( go ) /\ ( tc ) ) ) W ( ( cc ) /\ ( tc ) ) ) | ( ( ( go ) /\ ( ta ) ) W ( <> ( <> ( ( cc ) /\ ( tc ) ) ) ) ) | ( ( X ( ( go ) /\ ( tc ) ) ) W ( <> ( ( cc ) /\ ( tc ) ) ) ) | ( ( X ( ( go ) /\ ( ta ) ) ) \/ ( ( cc ) /\ ( tc ) ) ) | ( <> ( ( X ( ( go ) /\ ( ta ) ) ) W ( ( cc ) /\ ( tc ) ) ) ) | ( <> ( ( X ( ( go ) /\ ( tc ) ) ) W ( ( cc ) /\ ( tc ) ) ) ) | ( <> ( ( ( go ) /\ ( ta ) ) W ( ( cc ) /\ ( tc ) ) ) ) | ( ( ( go ) /\ ( ta ) ) \/ ( <> ( ( cc ) /\ ( tc ) ) ) ) | ( ( [] ( ( go ) /\ ( ta ) ) ) \/ ( ( cc ) /\ ( tc ) ) ) | ( <> ( ( ( go ) /\ ( ta ) ) W ( <> ( ( cc ) /\ ( tc ) ) ) ) ) | ( <> ( ( [] ( ( go ) /\ ( tc ) ) ) W ( ( cc ) /\ ( tc ) ) ) ) | ( <> ( ( X ( ( go ) /\ ( ta ) ) ) \/ ( ( cc ) /\ ( tc ) ) ) ) | ( <> ( ( [] ( ( go ) /\ ( ta ) ) ) W ( ( cc ) /\ ( tc ) ) ) ) | ( <> ( <> ( ( ( go ) /\ ( ta ) ) W ( ( cc ) /\ ( tc ) ) ) ) ) | ( <> ( <> ( ( X ( ( go ) /\ ( tc ) ) ) W ( ( cc ) /\ ( tc ) ) ) ) ) | ( <> ( <> ( ( ( go ) /\ ( tc ) ) W ( ( cc ) /\ ( tc ) ) ) ) ) | ( <> ( ( ( go ) /\ ( tc ) ) W ( ( cc ) /\ ( tc ) ) ) ) | ( ( ( go ) /\ ( tc ) ) W ( ( cc ) /\ ( tc ) ) ) | ( ( [] ( ( go ) /\ ( tc ) ) ) W ( ( cc ) /\ ( tc ) ) ) | ( <> ( ( [] ( ( go ) /\ ( tc ) ) ) \/ ( ( cc ) /\ ( tc ) ) ) ) | 
Generation Time :0
Accumulated Learning Time :17
CALLs: 182    TIMEOUTs: 0    ERRORs: 0
REEVALUATIONS: 898 OF 2622

GENERATION 34/50
......m.m.<;......m.m.<;....m.m.<;....m.m.<;....m.m.<;.......m.m.<;....m.m.<;....m.m.<;......i...<;....m.m.<;......m.m.<;....m.m.<;....m.m.<;....m.m.<;....m.m.<;....m.m.<;....m.m.<;...i..m.<;....m.m.<;....m.m.<;....m.m.<;....m.m.<;
Fittest value: 2.625 for chromosome ( <> ( ( X ( ( go ) /\ ( tc ) ) ) W ( ( cc ) /\ ( tc ) ) ) )
Solutions (31): ( ( X ( ( go ) /\ ( ta ) ) ) W ( <> ( ( cc ) /\ ( tc ) ) ) ) | ( ( ( go ) /\ ( ta ) ) \/ ( <> ( <> ( ( cc ) /\ ( tc ) ) ) ) ) | ( <> ( ( X ( ( go ) /\ ( ta ) ) ) W ( <> ( ( cc ) /\ ( tc ) ) ) ) ) | ( ( X ( ( go ) /\ ( ta ) ) ) W ( ( cc ) /\ ( tc ) ) ) | ( ( X ( ( go ) /\ ( ta ) ) ) \/ ( <> ( ( cc ) /\ ( tc ) ) ) ) | ( ( <> ( ( go ) /\ ( ta ) ) ) W ( <> ( ( cc ) /\ ( tc ) ) ) ) | ( ( ( go ) /\ ( ta ) ) W ( <> ( ( cc ) /\ ( tc ) ) ) ) | ( ( ( go ) /\ ( ta ) ) W ( ( cc ) /\ ( tc ) ) ) | ( ( [] ( ( go ) /\ ( ta ) ) ) W ( <> ( ( cc ) /\ ( tc ) ) ) ) | ( ( <> ( ( go ) /\ ( ta ) ) ) W ( ( cc ) /\ ( tc ) ) ) | ( ( [] ( ( go ) /\ ( ta ) ) ) W ( ( cc ) /\ ( tc ) ) ) | ( ( X ( ( go ) /\ ( tc ) ) ) W ( ( cc ) /\ ( tc ) ) ) | ( ( ( go ) /\ ( ta ) ) W ( <> ( <> ( ( cc ) /\ ( tc ) ) ) ) ) | ( ( X ( ( go ) /\ ( tc ) ) ) W ( <> ( ( cc ) /\ ( tc ) ) ) ) | ( ( X ( ( go ) /\ ( ta ) ) ) \/ ( ( cc ) /\ ( tc ) ) ) | ( <> ( ( X ( ( go ) /\ ( ta ) ) ) W ( ( cc ) /\ ( tc ) ) ) ) | ( <> ( ( X ( ( go ) /\ ( tc ) ) ) W ( ( cc ) /\ ( tc ) ) ) ) | ( <> ( ( ( go ) /\ ( ta ) ) W ( ( cc ) /\ ( tc ) ) ) ) | ( ( ( go ) /\ ( ta ) ) \/ ( <> ( ( cc ) /\ ( tc ) ) ) ) | ( ( [] ( ( go ) /\ ( ta ) ) ) \/ ( ( cc ) /\ ( tc ) ) ) | ( <> ( ( ( go ) /\ ( ta ) ) W ( <> ( ( cc ) /\ ( tc ) ) ) ) ) | ( <> ( ( [] ( ( go ) /\ ( tc ) ) ) W ( ( cc ) /\ ( tc ) ) ) ) | ( <> ( ( X ( ( go ) /\ ( ta ) ) ) \/ ( ( cc ) /\ ( tc ) ) ) ) | ( <> ( ( [] ( ( go ) /\ ( ta ) ) ) W ( ( cc ) /\ ( tc ) ) ) ) | ( <> ( <> ( ( ( go ) /\ ( ta ) ) W ( ( cc ) /\ ( tc ) ) ) ) ) | ( <> ( <> ( ( X ( ( go ) /\ ( tc ) ) ) W ( ( cc ) /\ ( tc ) ) ) ) ) | ( <> ( <> ( ( ( go ) /\ ( tc ) ) W ( ( cc ) /\ ( tc ) ) ) ) ) | ( <> ( ( ( go ) /\ ( tc ) ) W ( ( cc ) /\ ( tc ) ) ) ) | ( ( ( go ) /\ ( tc ) ) W ( ( cc ) /\ ( tc ) ) ) | ( ( [] ( ( go ) /\ ( tc ) ) ) W ( ( cc ) /\ ( tc ) ) ) | ( <> ( ( [] ( ( go ) /\ ( tc ) ) ) \/ ( ( cc ) /\ ( tc ) ) ) ) | 
Generation Time :0
Accumulated Learning Time :18
CALLs: 144    TIMEOUTs: 0    ERRORs: 0
REEVALUATIONS: 939 OF 2692

GENERATION 35/50
.....m.m.<;.....i.m..<;...i..m.<;....i.m..<;....m.m.<;....m.m.<;......m.m.<;....m.m.<;....m.m.<;....m.m.<;....m.m.<;....m.m.<;....m.m.<;....m.m.<;....m.m.<;....m.m.<;....m.m.<;....m.m.<;.......m.m.<;....m.m.<;....m.m.<;....m.m.<;....m.m.<;....m.m.<;...i..m.<;....m.m.<;....m.m.<;....m.m.<;
Fittest value: 2.625 for chromosome ( <> ( ( X ( ( go ) /\ ( tc ) ) ) W ( ( cc ) /\ ( tc ) ) ) )
Solutions (31): ( ( X ( ( go ) /\ ( ta ) ) ) W ( <> ( ( cc ) /\ ( tc ) ) ) ) | ( ( ( go ) /\ ( ta ) ) \/ ( <> ( <> ( ( cc ) /\ ( tc ) ) ) ) ) | ( <> ( ( X ( ( go ) /\ ( ta ) ) ) W ( <> ( ( cc ) /\ ( tc ) ) ) ) ) | ( ( X ( ( go ) /\ ( ta ) ) ) W ( ( cc ) /\ ( tc ) ) ) | ( ( X ( ( go ) /\ ( ta ) ) ) \/ ( <> ( ( cc ) /\ ( tc ) ) ) ) | ( ( <> ( ( go ) /\ ( ta ) ) ) W ( <> ( ( cc ) /\ ( tc ) ) ) ) | ( ( ( go ) /\ ( ta ) ) W ( <> ( ( cc ) /\ ( tc ) ) ) ) | ( ( ( go ) /\ ( ta ) ) W ( ( cc ) /\ ( tc ) ) ) | ( ( [] ( ( go ) /\ ( ta ) ) ) W ( <> ( ( cc ) /\ ( tc ) ) ) ) | ( ( <> ( ( go ) /\ ( ta ) ) ) W ( ( cc ) /\ ( tc ) ) ) | ( ( [] ( ( go ) /\ ( ta ) ) ) W ( ( cc ) /\ ( tc ) ) ) | ( ( X ( ( go ) /\ ( tc ) ) ) W ( ( cc ) /\ ( tc ) ) ) | ( ( ( go ) /\ ( ta ) ) W ( <> ( <> ( ( cc ) /\ ( tc ) ) ) ) ) | ( ( X ( ( go ) /\ ( tc ) ) ) W ( <> ( ( cc ) /\ ( tc ) ) ) ) | ( ( X ( ( go ) /\ ( ta ) ) ) \/ ( ( cc ) /\ ( tc ) ) ) | ( <> ( ( X ( ( go ) /\ ( ta ) ) ) W ( ( cc ) /\ ( tc ) ) ) ) | ( <> ( ( X ( ( go ) /\ ( tc ) ) ) W ( ( cc ) /\ ( tc ) ) ) ) | ( <> ( ( ( go ) /\ ( ta ) ) W ( ( cc ) /\ ( tc ) ) ) ) | ( ( ( go ) /\ ( ta ) ) \/ ( <> ( ( cc ) /\ ( tc ) ) ) ) | ( ( [] ( ( go ) /\ ( ta ) ) ) \/ ( ( cc ) /\ ( tc ) ) ) | ( <> ( ( ( go ) /\ ( ta ) ) W ( <> ( ( cc ) /\ ( tc ) ) ) ) ) | ( <> ( ( [] ( ( go ) /\ ( tc ) ) ) W ( ( cc ) /\ ( tc ) ) ) ) | ( <> ( ( X ( ( go ) /\ ( ta ) ) ) \/ ( ( cc ) /\ ( tc ) ) ) ) | ( <> ( ( [] ( ( go ) /\ ( ta ) ) ) W ( ( cc ) /\ ( tc ) ) ) ) | ( <> ( <> ( ( ( go ) /\ ( ta ) ) W ( ( cc ) /\ ( tc ) ) ) ) ) | ( <> ( <> ( ( X ( ( go ) /\ ( tc ) ) ) W ( ( cc ) /\ ( tc ) ) ) ) ) | ( <> ( <> ( ( ( go ) /\ ( tc ) ) W ( ( cc ) /\ ( tc ) ) ) ) ) | ( <> ( ( ( go ) /\ ( tc ) ) W ( ( cc ) /\ ( tc ) ) ) ) | ( ( ( go ) /\ ( tc ) ) W ( ( cc ) /\ ( tc ) ) ) | ( ( [] ( ( go ) /\ ( tc ) ) ) W ( ( cc ) /\ ( tc ) ) ) | ( <> ( ( [] ( ( go ) /\ ( tc ) ) ) \/ ( ( cc ) /\ ( tc ) ) ) ) | 
Generation Time :0
Accumulated Learning Time :18
CALLs: 177    TIMEOUTs: 0    ERRORs: 0
REEVALUATIONS: 983 OF 2771

GENERATION 36/50
......m.m.<;....m.m.<;....m.m.<;.....m.m.<;....m.m.;....m.m.<;....m.m.<;....m.m.<;......m.m.<;...i.m..<;....m.m.<;....m.m.<;....m.m.<;...i..m.<;.....m.m.<;....m.m.<;....m.m.<;....m.m.<;....m.m.<;....m.m.<;.....i.m.m.<;....m.m.<;....m.m.<;....m.m.<;....m.m.<;....m.m.<;....m.m.<;......m.m.<;......m.m.<;....m.m.<;...i..m.<;...i..m.<;...i...<;....m.m.<;....m.m.<;...i.m..<;....m.m.<;
Fittest value: 2.625 for chromosome ( <> ( ( X ( ( go ) /\ ( tc ) ) ) W ( ( cc ) /\ ( tc ) ) ) )
Solutions (32): ( ( X ( ( go ) /\ ( ta ) ) ) W ( <> ( ( cc ) /\ ( tc ) ) ) ) | ( ( ( go ) /\ ( ta ) ) \/ ( <> ( <> ( ( cc ) /\ ( tc ) ) ) ) ) | ( <> ( ( X ( ( go ) /\ ( ta ) ) ) W ( <> ( ( cc ) /\ ( tc ) ) ) ) ) | ( ( X ( ( go ) /\ ( ta ) ) ) W ( ( cc ) /\ ( tc ) ) ) | ( ( X ( ( go ) /\ ( ta ) ) ) \/ ( <> ( ( cc ) /\ ( tc ) ) ) ) | ( ( <> ( ( go ) /\ ( ta ) ) ) W ( <> ( ( cc ) /\ ( tc ) ) ) ) | ( ( ( go ) /\ ( ta ) ) W ( <> ( ( cc ) /\ ( tc ) ) ) ) | ( ( ( go ) /\ ( ta ) ) W ( ( cc ) /\ ( tc ) ) ) | ( ( [] ( ( go ) /\ ( ta ) ) ) W ( <> ( ( cc ) /\ ( tc ) ) ) ) | ( ( <> ( ( go ) /\ ( ta ) ) ) W ( ( cc ) /\ ( tc ) ) ) | ( ( [] ( ( go ) /\ ( ta ) ) ) W ( ( cc ) /\ ( tc ) ) ) | ( ( X ( ( go ) /\ ( tc ) ) ) W ( ( cc ) /\ ( tc ) ) ) | ( ( ( go ) /\ ( ta ) ) W ( <> ( <> ( ( cc ) /\ ( tc ) ) ) ) ) | ( ( X ( ( go ) /\ ( tc ) ) ) W ( <> ( ( cc ) /\ ( tc ) ) ) ) | ( ( X ( ( go ) /\ ( ta ) ) ) \/ ( ( cc ) /\ ( tc ) ) ) | ( <> ( ( X ( ( go ) /\ ( ta ) ) ) W ( ( cc ) /\ ( tc ) ) ) ) | ( <> ( ( X ( ( go ) /\ ( tc ) ) ) W ( ( cc ) /\ ( tc ) ) ) ) | ( <> ( ( ( go ) /\ ( ta ) ) W ( ( cc ) /\ ( tc ) ) ) ) | ( ( ( go ) /\ ( ta ) ) \/ ( <> ( ( cc ) /\ ( tc ) ) ) ) | ( ( [] ( ( go ) /\ ( ta ) ) ) \/ ( ( cc ) /\ ( tc ) ) ) | ( <> ( ( ( go ) /\ ( ta ) ) W ( <> ( ( cc ) /\ ( tc ) ) ) ) ) | ( <> ( ( [] ( ( go ) /\ ( tc ) ) ) W ( ( cc ) /\ ( tc ) ) ) ) | ( <> ( ( X ( ( go ) /\ ( ta ) ) ) \/ ( ( cc ) /\ ( tc ) ) ) ) | ( <> ( ( [] ( ( go ) /\ ( ta ) ) ) W ( ( cc ) /\ ( tc ) ) ) ) | ( <> ( <> ( ( ( go ) /\ ( ta ) ) W ( ( cc ) /\ ( tc ) ) ) ) ) | ( <> ( <> ( ( X ( ( go ) /\ ( tc ) ) ) W ( ( cc ) /\ ( tc ) ) ) ) ) | ( <> ( <> ( ( ( go ) /\ ( tc ) ) W ( ( cc ) /\ ( tc ) ) ) ) ) | ( <> ( ( ( go ) /\ ( tc ) ) W ( ( cc ) /\ ( tc ) ) ) ) | ( ( ( go ) /\ ( tc ) ) W ( ( cc ) /\ ( tc ) ) ) | ( ( [] ( ( go ) /\ ( tc ) ) ) W ( ( cc ) /\ ( tc ) ) ) | ( <> ( ( [] ( ( go ) /\ ( tc ) ) ) \/ ( ( cc ) /\ ( tc ) ) ) ) | ( ( [] ( ( go ) /\ ( tc ) ) ) \/ ( ( cc ) /\ ( tc ) ) ) | 
Generation Time :0
Accumulated Learning Time :18
CALLs: 234    TIMEOUTs: 0    ERRORs: 0
REEVALUATIONS: 1015 OF 2847

GENERATION 37/50
......m.m.<;....m.m.<;....m.m.<;......m.m.<;....m.m.<;....m.m.<;....m.m.<;......m.m.<;....m.m.<;....m.m.<;...i..m.<;....m.m.<;....m.m.<;....m.m.<;....m.m.<;....m.m.<;....m.m.<;......m.m.<;....m.m.<;....m.m.<;........m.m.<;....m.m.<;....m.m.<;....m.m.<;...i.m..<;....m.m.<;....m.m.<;...i..m.<;....m.m.<;....m.m.<;....m.m.<;...i..m.<;....m.m.<;....m.m.<;....m.m.<;....m.m.<;....i.m.m.<;...i.m..<;...i.m.m.<;
Fittest value: 2.642857142857143 for chromosome ( ( ( ( go ) /\ ( tc ) ) /\ ( tc ) ) W ( ( cc ) /\ ( tc ) ) )
Solutions (33): ( ( X ( ( go ) /\ ( ta ) ) ) W ( <> ( ( cc ) /\ ( tc ) ) ) ) | ( ( ( go ) /\ ( ta ) ) \/ ( <> ( <> ( ( cc ) /\ ( tc ) ) ) ) ) | ( <> ( ( X ( ( go ) /\ ( ta ) ) ) W ( <> ( ( cc ) /\ ( tc ) ) ) ) ) | ( ( X ( ( go ) /\ ( ta ) ) ) W ( ( cc ) /\ ( tc ) ) ) | ( ( X ( ( go ) /\ ( ta ) ) ) \/ ( <> ( ( cc ) /\ ( tc ) ) ) ) | ( ( <> ( ( go ) /\ ( ta ) ) ) W ( <> ( ( cc ) /\ ( tc ) ) ) ) | ( ( ( go ) /\ ( ta ) ) W ( <> ( ( cc ) /\ ( tc ) ) ) ) | ( ( ( go ) /\ ( ta ) ) W ( ( cc ) /\ ( tc ) ) ) | ( ( [] ( ( go ) /\ ( ta ) ) ) W ( <> ( ( cc ) /\ ( tc ) ) ) ) | ( ( <> ( ( go ) /\ ( ta ) ) ) W ( ( cc ) /\ ( tc ) ) ) | ( ( [] ( ( go ) /\ ( ta ) ) ) W ( ( cc ) /\ ( tc ) ) ) | ( ( X ( ( go ) /\ ( tc ) ) ) W ( ( cc ) /\ ( tc ) ) ) | ( ( ( go ) /\ ( ta ) ) W ( <> ( <> ( ( cc ) /\ ( tc ) ) ) ) ) | ( ( X ( ( go ) /\ ( tc ) ) ) W ( <> ( ( cc ) /\ ( tc ) ) ) ) | ( ( X ( ( go ) /\ ( ta ) ) ) \/ ( ( cc ) /\ ( tc ) ) ) | ( <> ( ( X ( ( go ) /\ ( ta ) ) ) W ( ( cc ) /\ ( tc ) ) ) ) | ( <> ( ( X ( ( go ) /\ ( tc ) ) ) W ( ( cc ) /\ ( tc ) ) ) ) | ( <> ( ( ( go ) /\ ( ta ) ) W ( ( cc ) /\ ( tc ) ) ) ) | ( ( ( go ) /\ ( ta ) ) \/ ( <> ( ( cc ) /\ ( tc ) ) ) ) | ( ( [] ( ( go ) /\ ( ta ) ) ) \/ ( ( cc ) /\ ( tc ) ) ) | ( <> ( ( ( go ) /\ ( ta ) ) W ( <> ( ( cc ) /\ ( tc ) ) ) ) ) | ( <> ( ( [] ( ( go ) /\ ( tc ) ) ) W ( ( cc ) /\ ( tc ) ) ) ) | ( <> ( ( X ( ( go ) /\ ( ta ) ) ) \/ ( ( cc ) /\ ( tc ) ) ) ) | ( <> ( ( [] ( ( go ) /\ ( ta ) ) ) W ( ( cc ) /\ ( tc ) ) ) ) | ( <> ( <> ( ( ( go ) /\ ( ta ) ) W ( ( cc ) /\ ( tc ) ) ) ) ) | ( <> ( <> ( ( X ( ( go ) /\ ( tc ) ) ) W ( ( cc ) /\ ( tc ) ) ) ) ) | ( <> ( <> ( ( ( go ) /\ ( tc ) ) W ( ( cc ) /\ ( tc ) ) ) ) ) | ( <> ( ( ( go ) /\ ( tc ) ) W ( ( cc ) /\ ( tc ) ) ) ) | ( ( ( go ) /\ ( tc ) ) W ( ( cc ) /\ ( tc ) ) ) | ( ( [] ( ( go ) /\ ( tc ) ) ) W ( ( cc ) /\ ( tc ) ) ) | ( <> ( ( [] ( ( go ) /\ ( tc ) ) ) \/ ( ( cc ) /\ ( tc ) ) ) ) | ( ( [] ( ( go ) /\ ( tc ) ) ) \/ ( ( cc ) /\ ( tc ) ) ) | ( ( ( ( go ) /\ ( tc ) ) /\ ( tc ) ) W ( ( cc ) /\ ( tc ) ) ) | 
Generation Time :0
Accumulated Learning Time :19
CALLs: 247    TIMEOUTs: 0    ERRORs: 0
REEVALUATIONS: 1049 OF 2927

GENERATION 38/50
....m.m.<;....m.m.<;....m.m.<;....m.m.<;....m.m.<;......m.m.<;......m.m.<;....m.m.<;....m.m.<;....m.m.<;...i..m.<;....m.m.<;...i..m.<;....m.m.<;....m.m.<;....m.m.<;....m.m.<;....m.m.<;....m.m.<;....m.m.<;....m.m.<;....m.m.<;....m.m.<;....m.m.<;...i..m.<;....m.m.<;....m.m.<;....m.m.<;....m.m.<;....m.m.<;....m.m.<;....m.m.<;....m.m.<;......m.m.<;....m.m.<;...i.m.m.<;
Fittest value: 2.642857142857143 for chromosome ( ( ( ( go ) /\ ( tc ) ) /\ ( tc ) ) W ( ( cc ) /\ ( tc ) ) )
Solutions (33): ( ( X ( ( go ) /\ ( ta ) ) ) W ( <> ( ( cc ) /\ ( tc ) ) ) ) | ( ( ( go ) /\ ( ta ) ) \/ ( <> ( <> ( ( cc ) /\ ( tc ) ) ) ) ) | ( <> ( ( X ( ( go ) /\ ( ta ) ) ) W ( <> ( ( cc ) /\ ( tc ) ) ) ) ) | ( ( X ( ( go ) /\ ( ta ) ) ) W ( ( cc ) /\ ( tc ) ) ) | ( ( X ( ( go ) /\ ( ta ) ) ) \/ ( <> ( ( cc ) /\ ( tc ) ) ) ) | ( ( <> ( ( go ) /\ ( ta ) ) ) W ( <> ( ( cc ) /\ ( tc ) ) ) ) | ( ( ( go ) /\ ( ta ) ) W ( <> ( ( cc ) /\ ( tc ) ) ) ) | ( ( ( go ) /\ ( ta ) ) W ( ( cc ) /\ ( tc ) ) ) | ( ( [] ( ( go ) /\ ( ta ) ) ) W ( <> ( ( cc ) /\ ( tc ) ) ) ) | ( ( <> ( ( go ) /\ ( ta ) ) ) W ( ( cc ) /\ ( tc ) ) ) | ( ( [] ( ( go ) /\ ( ta ) ) ) W ( ( cc ) /\ ( tc ) ) ) | ( ( X ( ( go ) /\ ( tc ) ) ) W ( ( cc ) /\ ( tc ) ) ) | ( ( ( go ) /\ ( ta ) ) W ( <> ( <> ( ( cc ) /\ ( tc ) ) ) ) ) | ( ( X ( ( go ) /\ ( tc ) ) ) W ( <> ( ( cc ) /\ ( tc ) ) ) ) | ( ( X ( ( go ) /\ ( ta ) ) ) \/ ( ( cc ) /\ ( tc ) ) ) | ( <> ( ( X ( ( go ) /\ ( ta ) ) ) W ( ( cc ) /\ ( tc ) ) ) ) | ( <> ( ( X ( ( go ) /\ ( tc ) ) ) W ( ( cc ) /\ ( tc ) ) ) ) | ( <> ( ( ( go ) /\ ( ta ) ) W ( ( cc ) /\ ( tc ) ) ) ) | ( ( ( go ) /\ ( ta ) ) \/ ( <> ( ( cc ) /\ ( tc ) ) ) ) | ( ( [] ( ( go ) /\ ( ta ) ) ) \/ ( ( cc ) /\ ( tc ) ) ) | ( <> ( ( ( go ) /\ ( ta ) ) W ( <> ( ( cc ) /\ ( tc ) ) ) ) ) | ( <> ( ( [] ( ( go ) /\ ( tc ) ) ) W ( ( cc ) /\ ( tc ) ) ) ) | ( <> ( ( X ( ( go ) /\ ( ta ) ) ) \/ ( ( cc ) /\ ( tc ) ) ) ) | ( <> ( ( [] ( ( go ) /\ ( ta ) ) ) W ( ( cc ) /\ ( tc ) ) ) ) | ( <> ( <> ( ( ( go ) /\ ( ta ) ) W ( ( cc ) /\ ( tc ) ) ) ) ) | ( <> ( <> ( ( X ( ( go ) /\ ( tc ) ) ) W ( ( cc ) /\ ( tc ) ) ) ) ) | ( <> ( <> ( ( ( go ) /\ ( tc ) ) W ( ( cc ) /\ ( tc ) ) ) ) ) | ( <> ( ( ( go ) /\ ( tc ) ) W ( ( cc ) /\ ( tc ) ) ) ) | ( ( ( go ) /\ ( tc ) ) W ( ( cc ) /\ ( tc ) ) ) | ( ( [] ( ( go ) /\ ( tc ) ) ) W ( ( cc ) /\ ( tc ) ) ) | ( <> ( ( [] ( ( go ) /\ ( tc ) ) ) \/ ( ( cc ) /\ ( tc ) ) ) ) | ( ( [] ( ( go ) /\ ( tc ) ) ) \/ ( ( cc ) /\ ( tc ) ) ) | ( ( ( ( go ) /\ ( tc ) ) /\ ( tc ) ) W ( ( cc ) /\ ( tc ) ) ) | 
Generation Time :0
Accumulated Learning Time :19
CALLs: 222    TIMEOUTs: 0    ERRORs: 0
REEVALUATIONS: 1095 OF 3012

GENERATION 39/50
....m.m.<;......m.m.<;....m.m.<;....m.m.<;...i..m.<;....m.m.<;...i..m.<;....m.m.<;....m.m.<;....m.m.<;....m.m.<;....m.m.<;....m.m.<;....m.m.<;....m.m.<;....m.m.<;....m.m.<;....m.m.<;....m.m.<;....m.m.<;....m.m.<;......m.m.<;....m.m.<;.....m.m.<;.....i..m.<;....m.m.<;....m.m.<;....m.m.<;....m.m.<;....m.m.<;....m.m.<;....m.m.<;....m.m.<;....m.m.<;.....m.m.<;....m.m.<;...i.m..<;
Fittest value: 2.642857142857143 for chromosome ( ( ( ( go ) /\ ( tc ) ) /\ ( tc ) ) W ( ( cc ) /\ ( tc ) ) )
Solutions (33): ( ( X ( ( go ) /\ ( ta ) ) ) W ( <> ( ( cc ) /\ ( tc ) ) ) ) | ( ( ( go ) /\ ( ta ) ) \/ ( <> ( <> ( ( cc ) /\ ( tc ) ) ) ) ) | ( <> ( ( X ( ( go ) /\ ( ta ) ) ) W ( <> ( ( cc ) /\ ( tc ) ) ) ) ) | ( ( X ( ( go ) /\ ( ta ) ) ) W ( ( cc ) /\ ( tc ) ) ) | ( ( X ( ( go ) /\ ( ta ) ) ) \/ ( <> ( ( cc ) /\ ( tc ) ) ) ) | ( ( <> ( ( go ) /\ ( ta ) ) ) W ( <> ( ( cc ) /\ ( tc ) ) ) ) | ( ( ( go ) /\ ( ta ) ) W ( <> ( ( cc ) /\ ( tc ) ) ) ) | ( ( ( go ) /\ ( ta ) ) W ( ( cc ) /\ ( tc ) ) ) | ( ( [] ( ( go ) /\ ( ta ) ) ) W ( <> ( ( cc ) /\ ( tc ) ) ) ) | ( ( <> ( ( go ) /\ ( ta ) ) ) W ( ( cc ) /\ ( tc ) ) ) | ( ( [] ( ( go ) /\ ( ta ) ) ) W ( ( cc ) /\ ( tc ) ) ) | ( ( X ( ( go ) /\ ( tc ) ) ) W ( ( cc ) /\ ( tc ) ) ) | ( ( ( go ) /\ ( ta ) ) W ( <> ( <> ( ( cc ) /\ ( tc ) ) ) ) ) | ( ( X ( ( go ) /\ ( tc ) ) ) W ( <> ( ( cc ) /\ ( tc ) ) ) ) | ( ( X ( ( go ) /\ ( ta ) ) ) \/ ( ( cc ) /\ ( tc ) ) ) | ( <> ( ( X ( ( go ) /\ ( ta ) ) ) W ( ( cc ) /\ ( tc ) ) ) ) | ( <> ( ( X ( ( go ) /\ ( tc ) ) ) W ( ( cc ) /\ ( tc ) ) ) ) | ( <> ( ( ( go ) /\ ( ta ) ) W ( ( cc ) /\ ( tc ) ) ) ) | ( ( ( go ) /\ ( ta ) ) \/ ( <> ( ( cc ) /\ ( tc ) ) ) ) | ( ( [] ( ( go ) /\ ( ta ) ) ) \/ ( ( cc ) /\ ( tc ) ) ) | ( <> ( ( ( go ) /\ ( ta ) ) W ( <> ( ( cc ) /\ ( tc ) ) ) ) ) | ( <> ( ( [] ( ( go ) /\ ( tc ) ) ) W ( ( cc ) /\ ( tc ) ) ) ) | ( <> ( ( X ( ( go ) /\ ( ta ) ) ) \/ ( ( cc ) /\ ( tc ) ) ) ) | ( <> ( ( [] ( ( go ) /\ ( ta ) ) ) W ( ( cc ) /\ ( tc ) ) ) ) | ( <> ( <> ( ( ( go ) /\ ( ta ) ) W ( ( cc ) /\ ( tc ) ) ) ) ) | ( <> ( <> ( ( X ( ( go ) /\ ( tc ) ) ) W ( ( cc ) /\ ( tc ) ) ) ) ) | ( <> ( <> ( ( ( go ) /\ ( tc ) ) W ( ( cc ) /\ ( tc ) ) ) ) ) | ( <> ( ( ( go ) /\ ( tc ) ) W ( ( cc ) /\ ( tc ) ) ) ) | ( ( ( go ) /\ ( tc ) ) W ( ( cc ) /\ ( tc ) ) ) | ( ( [] ( ( go ) /\ ( tc ) ) ) W ( ( cc ) /\ ( tc ) ) ) | ( <> ( ( [] ( ( go ) /\ ( tc ) ) ) \/ ( ( cc ) /\ ( tc ) ) ) ) | ( ( [] ( ( go ) /\ ( tc ) ) ) \/ ( ( cc ) /\ ( tc ) ) ) | ( ( ( ( go ) /\ ( tc ) ) /\ ( tc ) ) W ( ( cc ) /\ ( tc ) ) ) | 
Generation Time :0
Accumulated Learning Time :19
CALLs: 230    TIMEOUTs: 0    ERRORs: 0
REEVALUATIONS: 1132 OF 3092

GENERATION 40/50
....m.m.<;....m.m.<;....m.m.<;....m.m.<;....m.m.<;....m.m.<;....m.m.<;....m.m.<;....m.m.<;....m.m.<;......m.m.<;....m.m.<;....m.m.<;....m.m.<;....m.m.<;....m.m.<;...i...<;....m.m.<;......m.m.<;....m.m.<;....m.m.<;....m.m.<;....m.m.<;....m.m.<;...i..m.<;...i.m..<;....m.m.<;...i..m.<;....m.m.<;....m.m.<;....m.m.<;....m.m.<;....m.m.<;....m.m.<;....m.m.<;....m.m.<;....m.m.<;....m.m.<;....m.m.<;...i.m.m.<;...i.m.m.<;
Fittest value: 2.642857142857143 for chromosome ( ( ( ( go ) /\ ( tc ) ) /\ ( tc ) ) W ( ( cc ) /\ ( tc ) ) )
Solutions (34): ( ( X ( ( go ) /\ ( ta ) ) ) W ( <> ( ( cc ) /\ ( tc ) ) ) ) | ( ( ( go ) /\ ( ta ) ) \/ ( <> ( <> ( ( cc ) /\ ( tc ) ) ) ) ) | ( <> ( ( X ( ( go ) /\ ( ta ) ) ) W ( <> ( ( cc ) /\ ( tc ) ) ) ) ) | ( ( X ( ( go ) /\ ( ta ) ) ) W ( ( cc ) /\ ( tc ) ) ) | ( ( X ( ( go ) /\ ( ta ) ) ) \/ ( <> ( ( cc ) /\ ( tc ) ) ) ) | ( ( <> ( ( go ) /\ ( ta ) ) ) W ( <> ( ( cc ) /\ ( tc ) ) ) ) | ( ( ( go ) /\ ( ta ) ) W ( <> ( ( cc ) /\ ( tc ) ) ) ) | ( ( ( go ) /\ ( ta ) ) W ( ( cc ) /\ ( tc ) ) ) | ( ( [] ( ( go ) /\ ( ta ) ) ) W ( <> ( ( cc ) /\ ( tc ) ) ) ) | ( ( <> ( ( go ) /\ ( ta ) ) ) W ( ( cc ) /\ ( tc ) ) ) | ( ( [] ( ( go ) /\ ( ta ) ) ) W ( ( cc ) /\ ( tc ) ) ) | ( ( X ( ( go ) /\ ( tc ) ) ) W ( ( cc ) /\ ( tc ) ) ) | ( ( ( go ) /\ ( ta ) ) W ( <> ( <> ( ( cc ) /\ ( tc ) ) ) ) ) | ( ( X ( ( go ) /\ ( tc ) ) ) W ( <> ( ( cc ) /\ ( tc ) ) ) ) | ( ( X ( ( go ) /\ ( ta ) ) ) \/ ( ( cc ) /\ ( tc ) ) ) | ( <> ( ( X ( ( go ) /\ ( ta ) ) ) W ( ( cc ) /\ ( tc ) ) ) ) | ( <> ( ( X ( ( go ) /\ ( tc ) ) ) W ( ( cc ) /\ ( tc ) ) ) ) | ( <> ( ( ( go ) /\ ( ta ) ) W ( ( cc ) /\ ( tc ) ) ) ) | ( ( ( go ) /\ ( ta ) ) \/ ( <> ( ( cc ) /\ ( tc ) ) ) ) | ( ( [] ( ( go ) /\ ( ta ) ) ) \/ ( ( cc ) /\ ( tc ) ) ) | ( <> ( ( ( go ) /\ ( ta ) ) W ( <> ( ( cc ) /\ ( tc ) ) ) ) ) | ( <> ( ( [] ( ( go ) /\ ( tc ) ) ) W ( ( cc ) /\ ( tc ) ) ) ) | ( <> ( ( X ( ( go ) /\ ( ta ) ) ) \/ ( ( cc ) /\ ( tc ) ) ) ) | ( <> ( ( [] ( ( go ) /\ ( ta ) ) ) W ( ( cc ) /\ ( tc ) ) ) ) | ( <> ( <> ( ( ( go ) /\ ( ta ) ) W ( ( cc ) /\ ( tc ) ) ) ) ) | ( <> ( <> ( ( X ( ( go ) /\ ( tc ) ) ) W ( ( cc ) /\ ( tc ) ) ) ) ) | ( <> ( <> ( ( ( go ) /\ ( tc ) ) W ( ( cc ) /\ ( tc ) ) ) ) ) | ( <> ( ( ( go ) /\ ( tc ) ) W ( ( cc ) /\ ( tc ) ) ) ) | ( ( ( go ) /\ ( tc ) ) W ( ( cc ) /\ ( tc ) ) ) | ( ( [] ( ( go ) /\ ( tc ) ) ) W ( ( cc ) /\ ( tc ) ) ) | ( <> ( ( [] ( ( go ) /\ ( tc ) ) ) \/ ( ( cc ) /\ ( tc ) ) ) ) | ( ( [] ( ( go ) /\ ( tc ) ) ) \/ ( ( cc ) /\ ( tc ) ) ) | ( ( ( ( go ) /\ ( tc ) ) /\ ( tc ) ) W ( ( cc ) /\ ( tc ) ) ) | ( <> ( ( ( ( go ) /\ ( tc ) ) /\ ( tc ) ) W ( ( cc ) /\ ( tc ) ) ) ) | 
Generation Time :0
Accumulated Learning Time :20
CALLs: 250    TIMEOUTs: 0    ERRORs: 0
REEVALUATIONS: 1163 OF 3166

GENERATION 41/50
....m.m.<;....m.m.<;....m.m.<;....m.m.<;......m.m.<;...i.m.m.<;....m.m.<;....m.m.<;...i.m..<;....m.m.<;...i..m.<;....m.m.<;....m.m.<;....m.m.<;....m.m.<;....m.m.<;.....m.m.<;....m.m.<;.....m.m.<;........m.m.<;....m.m.<;....m.m.<;....m.m.<;....m.m.<;....m.m.<;...i.m..<;......m.m.<;....m.m.<;....m.m.<;
Fittest value: 2.642857142857143 for chromosome ( ( ( ( go ) /\ ( tc ) ) /\ ( tc ) ) W ( ( cc ) /\ ( tc ) ) )
Solutions (34): ( ( X ( ( go ) /\ ( ta ) ) ) W ( <> ( ( cc ) /\ ( tc ) ) ) ) | ( ( ( go ) /\ ( ta ) ) \/ ( <> ( <> ( ( cc ) /\ ( tc ) ) ) ) ) | ( <> ( ( X ( ( go ) /\ ( ta ) ) ) W ( <> ( ( cc ) /\ ( tc ) ) ) ) ) | ( ( X ( ( go ) /\ ( ta ) ) ) W ( ( cc ) /\ ( tc ) ) ) | ( ( X ( ( go ) /\ ( ta ) ) ) \/ ( <> ( ( cc ) /\ ( tc ) ) ) ) | ( ( <> ( ( go ) /\ ( ta ) ) ) W ( <> ( ( cc ) /\ ( tc ) ) ) ) | ( ( ( go ) /\ ( ta ) ) W ( <> ( ( cc ) /\ ( tc ) ) ) ) | ( ( ( go ) /\ ( ta ) ) W ( ( cc ) /\ ( tc ) ) ) | ( ( [] ( ( go ) /\ ( ta ) ) ) W ( <> ( ( cc ) /\ ( tc ) ) ) ) | ( ( <> ( ( go ) /\ ( ta ) ) ) W ( ( cc ) /\ ( tc ) ) ) | ( ( [] ( ( go ) /\ ( ta ) ) ) W ( ( cc ) /\ ( tc ) ) ) | ( ( X ( ( go ) /\ ( tc ) ) ) W ( ( cc ) /\ ( tc ) ) ) | ( ( ( go ) /\ ( ta ) ) W ( <> ( <> ( ( cc ) /\ ( tc ) ) ) ) ) | ( ( X ( ( go ) /\ ( tc ) ) ) W ( <> ( ( cc ) /\ ( tc ) ) ) ) | ( ( X ( ( go ) /\ ( ta ) ) ) \/ ( ( cc ) /\ ( tc ) ) ) | ( <> ( ( X ( ( go ) /\ ( ta ) ) ) W ( ( cc ) /\ ( tc ) ) ) ) | ( <> ( ( X ( ( go ) /\ ( tc ) ) ) W ( ( cc ) /\ ( tc ) ) ) ) | ( <> ( ( ( go ) /\ ( ta ) ) W ( ( cc ) /\ ( tc ) ) ) ) | ( ( ( go ) /\ ( ta ) ) \/ ( <> ( ( cc ) /\ ( tc ) ) ) ) | ( ( [] ( ( go ) /\ ( ta ) ) ) \/ ( ( cc ) /\ ( tc ) ) ) | ( <> ( ( ( go ) /\ ( ta ) ) W ( <> ( ( cc ) /\ ( tc ) ) ) ) ) | ( <> ( ( [] ( ( go ) /\ ( tc ) ) ) W ( ( cc ) /\ ( tc ) ) ) ) | ( <> ( ( X ( ( go ) /\ ( ta ) ) ) \/ ( ( cc ) /\ ( tc ) ) ) ) | ( <> ( ( [] ( ( go ) /\ ( ta ) ) ) W ( ( cc ) /\ ( tc ) ) ) ) | ( <> ( <> ( ( ( go ) /\ ( ta ) ) W ( ( cc ) /\ ( tc ) ) ) ) ) | ( <> ( <> ( ( X ( ( go ) /\ ( tc ) ) ) W ( ( cc ) /\ ( tc ) ) ) ) ) | ( <> ( <> ( ( ( go ) /\ ( tc ) ) W ( ( cc ) /\ ( tc ) ) ) ) ) | ( <> ( ( ( go ) /\ ( tc ) ) W ( ( cc ) /\ ( tc ) ) ) ) | ( ( ( go ) /\ ( tc ) ) W ( ( cc ) /\ ( tc ) ) ) | ( ( [] ( ( go ) /\ ( tc ) ) ) W ( ( cc ) /\ ( tc ) ) ) | ( <> ( ( [] ( ( go ) /\ ( tc ) ) ) \/ ( ( cc ) /\ ( tc ) ) ) ) | ( ( [] ( ( go ) /\ ( tc ) ) ) \/ ( ( cc ) /\ ( tc ) ) ) | ( ( ( ( go ) /\ ( tc ) ) /\ ( tc ) ) W ( ( cc ) /\ ( tc ) ) ) | ( <> ( ( ( ( go ) /\ ( tc ) ) /\ ( tc ) ) W ( ( cc ) /\ ( tc ) ) ) ) | 
Generation Time :0
Accumulated Learning Time :20
CALLs: 184    TIMEOUTs: 0    ERRORs: 0
REEVALUATIONS: 1203 OF 3241

GENERATION 42/50
......m.m.<;.....i..m.<;....m.m.<;....m.m.<;....m.m.<;....m.m.<;....m.m.<;......m.m.<;....m.m.<;...i.m..<;....m.m.<;....m.m.<;....m.m.<;....m.m.<;...i.m.m.<;....m.m.<;....m.m.<;......m.m.<;....m.m.<;....m.m.<;...i.m..<;.....m.m.<;....m.m.<;....m.m.<;...i.m..<;....m.m.<;
Fittest value: 2.642857142857143 for chromosome ( ( ( ( go ) /\ ( tc ) ) /\ ( tc ) ) W ( ( cc ) /\ ( tc ) ) )
Solutions (34): ( ( X ( ( go ) /\ ( ta ) ) ) W ( <> ( ( cc ) /\ ( tc ) ) ) ) | ( ( ( go ) /\ ( ta ) ) \/ ( <> ( <> ( ( cc ) /\ ( tc ) ) ) ) ) | ( <> ( ( X ( ( go ) /\ ( ta ) ) ) W ( <> ( ( cc ) /\ ( tc ) ) ) ) ) | ( ( X ( ( go ) /\ ( ta ) ) ) W ( ( cc ) /\ ( tc ) ) ) | ( ( X ( ( go ) /\ ( ta ) ) ) \/ ( <> ( ( cc ) /\ ( tc ) ) ) ) | ( ( <> ( ( go ) /\ ( ta ) ) ) W ( <> ( ( cc ) /\ ( tc ) ) ) ) | ( ( ( go ) /\ ( ta ) ) W ( <> ( ( cc ) /\ ( tc ) ) ) ) | ( ( ( go ) /\ ( ta ) ) W ( ( cc ) /\ ( tc ) ) ) | ( ( [] ( ( go ) /\ ( ta ) ) ) W ( <> ( ( cc ) /\ ( tc ) ) ) ) | ( ( <> ( ( go ) /\ ( ta ) ) ) W ( ( cc ) /\ ( tc ) ) ) | ( ( [] ( ( go ) /\ ( ta ) ) ) W ( ( cc ) /\ ( tc ) ) ) | ( ( X ( ( go ) /\ ( tc ) ) ) W ( ( cc ) /\ ( tc ) ) ) | ( ( ( go ) /\ ( ta ) ) W ( <> ( <> ( ( cc ) /\ ( tc ) ) ) ) ) | ( ( X ( ( go ) /\ ( tc ) ) ) W ( <> ( ( cc ) /\ ( tc ) ) ) ) | ( ( X ( ( go ) /\ ( ta ) ) ) \/ ( ( cc ) /\ ( tc ) ) ) | ( <> ( ( X ( ( go ) /\ ( ta ) ) ) W ( ( cc ) /\ ( tc ) ) ) ) | ( <> ( ( X ( ( go ) /\ ( tc ) ) ) W ( ( cc ) /\ ( tc ) ) ) ) | ( <> ( ( ( go ) /\ ( ta ) ) W ( ( cc ) /\ ( tc ) ) ) ) | ( ( ( go ) /\ ( ta ) ) \/ ( <> ( ( cc ) /\ ( tc ) ) ) ) | ( ( [] ( ( go ) /\ ( ta ) ) ) \/ ( ( cc ) /\ ( tc ) ) ) | ( <> ( ( ( go ) /\ ( ta ) ) W ( <> ( ( cc ) /\ ( tc ) ) ) ) ) | ( <> ( ( [] ( ( go ) /\ ( tc ) ) ) W ( ( cc ) /\ ( tc ) ) ) ) | ( <> ( ( X ( ( go ) /\ ( ta ) ) ) \/ ( ( cc ) /\ ( tc ) ) ) ) | ( <> ( ( [] ( ( go ) /\ ( ta ) ) ) W ( ( cc ) /\ ( tc ) ) ) ) | ( <> ( <> ( ( ( go ) /\ ( ta ) ) W ( ( cc ) /\ ( tc ) ) ) ) ) | ( <> ( <> ( ( X ( ( go ) /\ ( tc ) ) ) W ( ( cc ) /\ ( tc ) ) ) ) ) | ( <> ( <> ( ( ( go ) /\ ( tc ) ) W ( ( cc ) /\ ( tc ) ) ) ) ) | ( <> ( ( ( go ) /\ ( tc ) ) W ( ( cc ) /\ ( tc ) ) ) ) | ( ( ( go ) /\ ( tc ) ) W ( ( cc ) /\ ( tc ) ) ) | ( ( [] ( ( go ) /\ ( tc ) ) ) W ( ( cc ) /\ ( tc ) ) ) | ( <> ( ( [] ( ( go ) /\ ( tc ) ) ) \/ ( ( cc ) /\ ( tc ) ) ) ) | ( ( [] ( ( go ) /\ ( tc ) ) ) \/ ( ( cc ) /\ ( tc ) ) ) | ( ( ( ( go ) /\ ( tc ) ) /\ ( tc ) ) W ( ( cc ) /\ ( tc ) ) ) | ( <> ( ( ( ( go ) /\ ( tc ) ) /\ ( tc ) ) W ( ( cc ) /\ ( tc ) ) ) ) | 
Generation Time :0
Accumulated Learning Time :21
CALLs: 165    TIMEOUTs: 0    ERRORs: 0
REEVALUATIONS: 1246 OF 3315

GENERATION 43/50
...i..m.<;....m.m.<;....m.m.<;....m.m.<;....m.m.<;....m.m.<;...i.m.m.<;....m.m.<;......m.m.<;....m.m.<;....m.m.<;...i..m.<;....m.m.<;....m.m.<;....m.m.<;...i..m.<;...i..m.<;....m.m.<;....m.m.;....m.m.<;........m.m.<;....m.m.<;....m.m.<;....m.m.<;.....m.m.<;....i...<;......m.m.<;....m.m.<;.....m.m.<;....m.m.<;....m.m.<;....m.m.<;.....m.m.<;......m.m.<;...i.m..<;...i..m.<;....m.m.<;
Fittest value: 2.642857142857143 for chromosome ( ( ( ( go ) /\ ( tc ) ) /\ ( tc ) ) W ( ( cc ) /\ ( tc ) ) )
Solutions (34): ( ( X ( ( go ) /\ ( ta ) ) ) W ( <> ( ( cc ) /\ ( tc ) ) ) ) | ( ( ( go ) /\ ( ta ) ) \/ ( <> ( <> ( ( cc ) /\ ( tc ) ) ) ) ) | ( <> ( ( X ( ( go ) /\ ( ta ) ) ) W ( <> ( ( cc ) /\ ( tc ) ) ) ) ) | ( ( X ( ( go ) /\ ( ta ) ) ) W ( ( cc ) /\ ( tc ) ) ) | ( ( X ( ( go ) /\ ( ta ) ) ) \/ ( <> ( ( cc ) /\ ( tc ) ) ) ) | ( ( <> ( ( go ) /\ ( ta ) ) ) W ( <> ( ( cc ) /\ ( tc ) ) ) ) | ( ( ( go ) /\ ( ta ) ) W ( <> ( ( cc ) /\ ( tc ) ) ) ) | ( ( ( go ) /\ ( ta ) ) W ( ( cc ) /\ ( tc ) ) ) | ( ( [] ( ( go ) /\ ( ta ) ) ) W ( <> ( ( cc ) /\ ( tc ) ) ) ) | ( ( <> ( ( go ) /\ ( ta ) ) ) W ( ( cc ) /\ ( tc ) ) ) | ( ( [] ( ( go ) /\ ( ta ) ) ) W ( ( cc ) /\ ( tc ) ) ) | ( ( X ( ( go ) /\ ( tc ) ) ) W ( ( cc ) /\ ( tc ) ) ) | ( ( ( go ) /\ ( ta ) ) W ( <> ( <> ( ( cc ) /\ ( tc ) ) ) ) ) | ( ( X ( ( go ) /\ ( tc ) ) ) W ( <> ( ( cc ) /\ ( tc ) ) ) ) | ( ( X ( ( go ) /\ ( ta ) ) ) \/ ( ( cc ) /\ ( tc ) ) ) | ( <> ( ( X ( ( go ) /\ ( ta ) ) ) W ( ( cc ) /\ ( tc ) ) ) ) | ( <> ( ( X ( ( go ) /\ ( tc ) ) ) W ( ( cc ) /\ ( tc ) ) ) ) | ( <> ( ( ( go ) /\ ( ta ) ) W ( ( cc ) /\ ( tc ) ) ) ) | ( ( ( go ) /\ ( ta ) ) \/ ( <> ( ( cc ) /\ ( tc ) ) ) ) | ( ( [] ( ( go ) /\ ( ta ) ) ) \/ ( ( cc ) /\ ( tc ) ) ) | ( <> ( ( ( go ) /\ ( ta ) ) W ( <> ( ( cc ) /\ ( tc ) ) ) ) ) | ( <> ( ( [] ( ( go ) /\ ( tc ) ) ) W ( ( cc ) /\ ( tc ) ) ) ) | ( <> ( ( X ( ( go ) /\ ( ta ) ) ) \/ ( ( cc ) /\ ( tc ) ) ) ) | ( <> ( ( [] ( ( go ) /\ ( ta ) ) ) W ( ( cc ) /\ ( tc ) ) ) ) | ( <> ( <> ( ( ( go ) /\ ( ta ) ) W ( ( cc ) /\ ( tc ) ) ) ) ) | ( <> ( <> ( ( X ( ( go ) /\ ( tc ) ) ) W ( ( cc ) /\ ( tc ) ) ) ) ) | ( <> ( <> ( ( ( go ) /\ ( tc ) ) W ( ( cc ) /\ ( tc ) ) ) ) ) | ( <> ( ( ( go ) /\ ( tc ) ) W ( ( cc ) /\ ( tc ) ) ) ) | ( ( ( go ) /\ ( tc ) ) W ( ( cc ) /\ ( tc ) ) ) | ( ( [] ( ( go ) /\ ( tc ) ) ) W ( ( cc ) /\ ( tc ) ) ) | ( <> ( ( [] ( ( go ) /\ ( tc ) ) ) \/ ( ( cc ) /\ ( tc ) ) ) ) | ( ( [] ( ( go ) /\ ( tc ) ) ) \/ ( ( cc ) /\ ( tc ) ) ) | ( ( ( ( go ) /\ ( tc ) ) /\ ( tc ) ) W ( ( cc ) /\ ( tc ) ) ) | ( <> ( ( ( ( go ) /\ ( tc ) ) /\ ( tc ) ) W ( ( cc ) /\ ( tc ) ) ) ) | 
Generation Time :0
Accumulated Learning Time :21
CALLs: 236    TIMEOUTs: 0    ERRORs: 0
REEVALUATIONS: 1282 OF 3397

GENERATION 44/50
....m.m.<;...i..m.<;....m.m.<;...i.m.m.<;....m.m.<;....m.m.<;....m.m.<;....m.m.<;....m.m.<;.....i..m.<;....m.m.<;....m.m.<;....m.m.<;....m.m.<;......m.m.<;....m.m.<;....m.m.<;....m.m.<;......m.m.<;.....m.m.<;....m.m.<;....m.m.<;.......m.m.<;.....m.m.<;...i...<;...i..m.<;...i.m.m.<;.....m.m.<;...i..m.<;....m.m.<;....m.m.<;....m.m.<;....m.m.<;....m.m.<;....m.m.<;....m.m.<;....m.m.<;....m.m.<;...i.m..<;...i.m.m.<;...i.m..<;
Fittest value: 2.642857142857143 for chromosome ( ( ( ( go ) /\ ( tc ) ) /\ ( tc ) ) W ( ( cc ) /\ ( tc ) ) )
Solutions (34): ( ( X ( ( go ) /\ ( ta ) ) ) W ( <> ( ( cc ) /\ ( tc ) ) ) ) | ( ( ( go ) /\ ( ta ) ) \/ ( <> ( <> ( ( cc ) /\ ( tc ) ) ) ) ) | ( <> ( ( X ( ( go ) /\ ( ta ) ) ) W ( <> ( ( cc ) /\ ( tc ) ) ) ) ) | ( ( X ( ( go ) /\ ( ta ) ) ) W ( ( cc ) /\ ( tc ) ) ) | ( ( X ( ( go ) /\ ( ta ) ) ) \/ ( <> ( ( cc ) /\ ( tc ) ) ) ) | ( ( <> ( ( go ) /\ ( ta ) ) ) W ( <> ( ( cc ) /\ ( tc ) ) ) ) | ( ( ( go ) /\ ( ta ) ) W ( <> ( ( cc ) /\ ( tc ) ) ) ) | ( ( ( go ) /\ ( ta ) ) W ( ( cc ) /\ ( tc ) ) ) | ( ( [] ( ( go ) /\ ( ta ) ) ) W ( <> ( ( cc ) /\ ( tc ) ) ) ) | ( ( <> ( ( go ) /\ ( ta ) ) ) W ( ( cc ) /\ ( tc ) ) ) | ( ( [] ( ( go ) /\ ( ta ) ) ) W ( ( cc ) /\ ( tc ) ) ) | ( ( X ( ( go ) /\ ( tc ) ) ) W ( ( cc ) /\ ( tc ) ) ) | ( ( ( go ) /\ ( ta ) ) W ( <> ( <> ( ( cc ) /\ ( tc ) ) ) ) ) | ( ( X ( ( go ) /\ ( tc ) ) ) W ( <> ( ( cc ) /\ ( tc ) ) ) ) | ( ( X ( ( go ) /\ ( ta ) ) ) \/ ( ( cc ) /\ ( tc ) ) ) | ( <> ( ( X ( ( go ) /\ ( ta ) ) ) W ( ( cc ) /\ ( tc ) ) ) ) | ( <> ( ( X ( ( go ) /\ ( tc ) ) ) W ( ( cc ) /\ ( tc ) ) ) ) | ( <> ( ( ( go ) /\ ( ta ) ) W ( ( cc ) /\ ( tc ) ) ) ) | ( ( ( go ) /\ ( ta ) ) \/ ( <> ( ( cc ) /\ ( tc ) ) ) ) | ( ( [] ( ( go ) /\ ( ta ) ) ) \/ ( ( cc ) /\ ( tc ) ) ) | ( <> ( ( ( go ) /\ ( ta ) ) W ( <> ( ( cc ) /\ ( tc ) ) ) ) ) | ( <> ( ( [] ( ( go ) /\ ( tc ) ) ) W ( ( cc ) /\ ( tc ) ) ) ) | ( <> ( ( X ( ( go ) /\ ( ta ) ) ) \/ ( ( cc ) /\ ( tc ) ) ) ) | ( <> ( ( [] ( ( go ) /\ ( ta ) ) ) W ( ( cc ) /\ ( tc ) ) ) ) | ( <> ( <> ( ( ( go ) /\ ( ta ) ) W ( ( cc ) /\ ( tc ) ) ) ) ) | ( <> ( <> ( ( X ( ( go ) /\ ( tc ) ) ) W ( ( cc ) /\ ( tc ) ) ) ) ) | ( <> ( <> ( ( ( go ) /\ ( tc ) ) W ( ( cc ) /\ ( tc ) ) ) ) ) | ( <> ( ( ( go ) /\ ( tc ) ) W ( ( cc ) /\ ( tc ) ) ) ) | ( ( ( go ) /\ ( tc ) ) W ( ( cc ) /\ ( tc ) ) ) | ( ( [] ( ( go ) /\ ( tc ) ) ) W ( ( cc ) /\ ( tc ) ) ) | ( <> ( ( [] ( ( go ) /\ ( tc ) ) ) \/ ( ( cc ) /\ ( tc ) ) ) ) | ( ( [] ( ( go ) /\ ( tc ) ) ) \/ ( ( cc ) /\ ( tc ) ) ) | ( ( ( ( go ) /\ ( tc ) ) /\ ( tc ) ) W ( ( cc ) /\ ( tc ) ) ) | ( <> ( ( ( ( go ) /\ ( tc ) ) /\ ( tc ) ) W ( ( cc ) /\ ( tc ) ) ) ) | 
Generation Time :0
Accumulated Learning Time :21
CALLs: 258    TIMEOUTs: 0    ERRORs: 0
REEVALUATIONS: 1311 OF 3475

GENERATION 45/50
....m.m.<;....m.m.<;....m.m.<;....m.m.<;.....i..m.<;....m.m.<;....m.m.<;....m.m.<;....m.m.<;....m.m.<;.....m.m.<;....m.m.<;....m.m.<;....m.m.<;......m.m.<;....m.m.<;......m.m.<;....m.m.<;....m.m.<;......m.m.<;....m.m.<;....m.m.<;....m.m.<;....m.m.<;....m.m.<;
Fittest value: 2.642857142857143 for chromosome ( ( ( ( go ) /\ ( tc ) ) /\ ( tc ) ) W ( ( cc ) /\ ( tc ) ) )
Solutions (34): ( ( X ( ( go ) /\ ( ta ) ) ) W ( <> ( ( cc ) /\ ( tc ) ) ) ) | ( ( ( go ) /\ ( ta ) ) \/ ( <> ( <> ( ( cc ) /\ ( tc ) ) ) ) ) | ( <> ( ( X ( ( go ) /\ ( ta ) ) ) W ( <> ( ( cc ) /\ ( tc ) ) ) ) ) | ( ( X ( ( go ) /\ ( ta ) ) ) W ( ( cc ) /\ ( tc ) ) ) | ( ( X ( ( go ) /\ ( ta ) ) ) \/ ( <> ( ( cc ) /\ ( tc ) ) ) ) | ( ( <> ( ( go ) /\ ( ta ) ) ) W ( <> ( ( cc ) /\ ( tc ) ) ) ) | ( ( ( go ) /\ ( ta ) ) W ( <> ( ( cc ) /\ ( tc ) ) ) ) | ( ( ( go ) /\ ( ta ) ) W ( ( cc ) /\ ( tc ) ) ) | ( ( [] ( ( go ) /\ ( ta ) ) ) W ( <> ( ( cc ) /\ ( tc ) ) ) ) | ( ( <> ( ( go ) /\ ( ta ) ) ) W ( ( cc ) /\ ( tc ) ) ) | ( ( [] ( ( go ) /\ ( ta ) ) ) W ( ( cc ) /\ ( tc ) ) ) | ( ( X ( ( go ) /\ ( tc ) ) ) W ( ( cc ) /\ ( tc ) ) ) | ( ( ( go ) /\ ( ta ) ) W ( <> ( <> ( ( cc ) /\ ( tc ) ) ) ) ) | ( ( X ( ( go ) /\ ( tc ) ) ) W ( <> ( ( cc ) /\ ( tc ) ) ) ) | ( ( X ( ( go ) /\ ( ta ) ) ) \/ ( ( cc ) /\ ( tc ) ) ) | ( <> ( ( X ( ( go ) /\ ( ta ) ) ) W ( ( cc ) /\ ( tc ) ) ) ) | ( <> ( ( X ( ( go ) /\ ( tc ) ) ) W ( ( cc ) /\ ( tc ) ) ) ) | ( <> ( ( ( go ) /\ ( ta ) ) W ( ( cc ) /\ ( tc ) ) ) ) | ( ( ( go ) /\ ( ta ) ) \/ ( <> ( ( cc ) /\ ( tc ) ) ) ) | ( ( [] ( ( go ) /\ ( ta ) ) ) \/ ( ( cc ) /\ ( tc ) ) ) | ( <> ( ( ( go ) /\ ( ta ) ) W ( <> ( ( cc ) /\ ( tc ) ) ) ) ) | ( <> ( ( [] ( ( go ) /\ ( tc ) ) ) W ( ( cc ) /\ ( tc ) ) ) ) | ( <> ( ( X ( ( go ) /\ ( ta ) ) ) \/ ( ( cc ) /\ ( tc ) ) ) ) | ( <> ( ( [] ( ( go ) /\ ( ta ) ) ) W ( ( cc ) /\ ( tc ) ) ) ) | ( <> ( <> ( ( ( go ) /\ ( ta ) ) W ( ( cc ) /\ ( tc ) ) ) ) ) | ( <> ( <> ( ( X ( ( go ) /\ ( tc ) ) ) W ( ( cc ) /\ ( tc ) ) ) ) ) | ( <> ( <> ( ( ( go ) /\ ( tc ) ) W ( ( cc ) /\ ( tc ) ) ) ) ) | ( <> ( ( ( go ) /\ ( tc ) ) W ( ( cc ) /\ ( tc ) ) ) ) | ( ( ( go ) /\ ( tc ) ) W ( ( cc ) /\ ( tc ) ) ) | ( ( [] ( ( go ) /\ ( tc ) ) ) W ( ( cc ) /\ ( tc ) ) ) | ( <> ( ( [] ( ( go ) /\ ( tc ) ) ) \/ ( ( cc ) /\ ( tc ) ) ) ) | ( ( [] ( ( go ) /\ ( tc ) ) ) \/ ( ( cc ) /\ ( tc ) ) ) | ( ( ( ( go ) /\ ( tc ) ) /\ ( tc ) ) W ( ( cc ) /\ ( tc ) ) ) | ( <> ( ( ( ( go ) /\ ( tc ) ) /\ ( tc ) ) W ( ( cc ) /\ ( tc ) ) ) ) | 
Generation Time :0
Accumulated Learning Time :22
CALLs: 159    TIMEOUTs: 0    ERRORs: 0
REEVALUATIONS: 1352 OF 3546

GENERATION 46/50
...i..m.<;....m.m.<;....m.m.<;....m.m.<;...i.m..<;....m.m.<;......m.m.<;....m.m.<;....m.m.<;....m.m.<;....m.m.<;....m.m.<;....m.m.<;....m.m.<;....m.m.<;....m.m.<;....m.m.<;....m.m.<;....m.m.<;....m.m.<;.....m.m.<;....m.m.<;...i..m.<;....m.m.<;....m.m.<;....m.m.<;........m.m.<;
Fittest value: 2.642857142857143 for chromosome ( ( ( ( go ) /\ ( tc ) ) /\ ( tc ) ) W ( ( cc ) /\ ( tc ) ) )
Solutions (34): ( ( X ( ( go ) /\ ( ta ) ) ) W ( <> ( ( cc ) /\ ( tc ) ) ) ) | ( ( ( go ) /\ ( ta ) ) \/ ( <> ( <> ( ( cc ) /\ ( tc ) ) ) ) ) | ( <> ( ( X ( ( go ) /\ ( ta ) ) ) W ( <> ( ( cc ) /\ ( tc ) ) ) ) ) | ( ( X ( ( go ) /\ ( ta ) ) ) W ( ( cc ) /\ ( tc ) ) ) | ( ( X ( ( go ) /\ ( ta ) ) ) \/ ( <> ( ( cc ) /\ ( tc ) ) ) ) | ( ( <> ( ( go ) /\ ( ta ) ) ) W ( <> ( ( cc ) /\ ( tc ) ) ) ) | ( ( ( go ) /\ ( ta ) ) W ( <> ( ( cc ) /\ ( tc ) ) ) ) | ( ( ( go ) /\ ( ta ) ) W ( ( cc ) /\ ( tc ) ) ) | ( ( [] ( ( go ) /\ ( ta ) ) ) W ( <> ( ( cc ) /\ ( tc ) ) ) ) | ( ( <> ( ( go ) /\ ( ta ) ) ) W ( ( cc ) /\ ( tc ) ) ) | ( ( [] ( ( go ) /\ ( ta ) ) ) W ( ( cc ) /\ ( tc ) ) ) | ( ( X ( ( go ) /\ ( tc ) ) ) W ( ( cc ) /\ ( tc ) ) ) | ( ( ( go ) /\ ( ta ) ) W ( <> ( <> ( ( cc ) /\ ( tc ) ) ) ) ) | ( ( X ( ( go ) /\ ( tc ) ) ) W ( <> ( ( cc ) /\ ( tc ) ) ) ) | ( ( X ( ( go ) /\ ( ta ) ) ) \/ ( ( cc ) /\ ( tc ) ) ) | ( <> ( ( X ( ( go ) /\ ( ta ) ) ) W ( ( cc ) /\ ( tc ) ) ) ) | ( <> ( ( X ( ( go ) /\ ( tc ) ) ) W ( ( cc ) /\ ( tc ) ) ) ) | ( <> ( ( ( go ) /\ ( ta ) ) W ( ( cc ) /\ ( tc ) ) ) ) | ( ( ( go ) /\ ( ta ) ) \/ ( <> ( ( cc ) /\ ( tc ) ) ) ) | ( ( [] ( ( go ) /\ ( ta ) ) ) \/ ( ( cc ) /\ ( tc ) ) ) | ( <> ( ( ( go ) /\ ( ta ) ) W ( <> ( ( cc ) /\ ( tc ) ) ) ) ) | ( <> ( ( [] ( ( go ) /\ ( tc ) ) ) W ( ( cc ) /\ ( tc ) ) ) ) | ( <> ( ( X ( ( go ) /\ ( ta ) ) ) \/ ( ( cc ) /\ ( tc ) ) ) ) | ( <> ( ( [] ( ( go ) /\ ( ta ) ) ) W ( ( cc ) /\ ( tc ) ) ) ) | ( <> ( <> ( ( ( go ) /\ ( ta ) ) W ( ( cc ) /\ ( tc ) ) ) ) ) | ( <> ( <> ( ( X ( ( go ) /\ ( tc ) ) ) W ( ( cc ) /\ ( tc ) ) ) ) ) | ( <> ( <> ( ( ( go ) /\ ( tc ) ) W ( ( cc ) /\ ( tc ) ) ) ) ) | ( <> ( ( ( go ) /\ ( tc ) ) W ( ( cc ) /\ ( tc ) ) ) ) | ( ( ( go ) /\ ( tc ) ) W ( ( cc ) /\ ( tc ) ) ) | ( ( [] ( ( go ) /\ ( tc ) ) ) W ( ( cc ) /\ ( tc ) ) ) | ( <> ( ( [] ( ( go ) /\ ( tc ) ) ) \/ ( ( cc ) /\ ( tc ) ) ) ) | ( ( [] ( ( go ) /\ ( tc ) ) ) \/ ( ( cc ) /\ ( tc ) ) ) | ( ( ( ( go ) /\ ( tc ) ) /\ ( tc ) ) W ( ( cc ) /\ ( tc ) ) ) | ( <> ( ( ( ( go ) /\ ( tc ) ) /\ ( tc ) ) W ( ( cc ) /\ ( tc ) ) ) ) | 
Generation Time :0
Accumulated Learning Time :22
CALLs: 169    TIMEOUTs: 0    ERRORs: 0
REEVALUATIONS: 1398 OF 3623

GENERATION 47/50
....m.m.<;....m.m.<;....m.m.<;.....m.m.<;....m.m.<;....m.m.<;...i..m.<;....m.m.<;....m.m.<;....m.m.<;....m.m.<;....m.m.<;....m.m.<;....m.m.<;....m.m.<;....m.m.<;...i..m.<;....m.m.<;....m.m.<;....m.m.<;....m.m.<;....m.m.<;...i..m.<;....m.m.<;....m.m.<;....m.m.<;....m.m.<;.....i.m.m.<;...i.m.m.<;
Fittest value: 2.642857142857143 for chromosome ( ( ( ( go ) /\ ( tc ) ) /\ ( tc ) ) W ( ( cc ) /\ ( tc ) ) )
Solutions (34): ( ( X ( ( go ) /\ ( ta ) ) ) W ( <> ( ( cc ) /\ ( tc ) ) ) ) | ( ( ( go ) /\ ( ta ) ) \/ ( <> ( <> ( ( cc ) /\ ( tc ) ) ) ) ) | ( <> ( ( X ( ( go ) /\ ( ta ) ) ) W ( <> ( ( cc ) /\ ( tc ) ) ) ) ) | ( ( X ( ( go ) /\ ( ta ) ) ) W ( ( cc ) /\ ( tc ) ) ) | ( ( X ( ( go ) /\ ( ta ) ) ) \/ ( <> ( ( cc ) /\ ( tc ) ) ) ) | ( ( <> ( ( go ) /\ ( ta ) ) ) W ( <> ( ( cc ) /\ ( tc ) ) ) ) | ( ( ( go ) /\ ( ta ) ) W ( <> ( ( cc ) /\ ( tc ) ) ) ) | ( ( ( go ) /\ ( ta ) ) W ( ( cc ) /\ ( tc ) ) ) | ( ( [] ( ( go ) /\ ( ta ) ) ) W ( <> ( ( cc ) /\ ( tc ) ) ) ) | ( ( <> ( ( go ) /\ ( ta ) ) ) W ( ( cc ) /\ ( tc ) ) ) | ( ( [] ( ( go ) /\ ( ta ) ) ) W ( ( cc ) /\ ( tc ) ) ) | ( ( X ( ( go ) /\ ( tc ) ) ) W ( ( cc ) /\ ( tc ) ) ) | ( ( ( go ) /\ ( ta ) ) W ( <> ( <> ( ( cc ) /\ ( tc ) ) ) ) ) | ( ( X ( ( go ) /\ ( tc ) ) ) W ( <> ( ( cc ) /\ ( tc ) ) ) ) | ( ( X ( ( go ) /\ ( ta ) ) ) \/ ( ( cc ) /\ ( tc ) ) ) | ( <> ( ( X ( ( go ) /\ ( ta ) ) ) W ( ( cc ) /\ ( tc ) ) ) ) | ( <> ( ( X ( ( go ) /\ ( tc ) ) ) W ( ( cc ) /\ ( tc ) ) ) ) | ( <> ( ( ( go ) /\ ( ta ) ) W ( ( cc ) /\ ( tc ) ) ) ) | ( ( ( go ) /\ ( ta ) ) \/ ( <> ( ( cc ) /\ ( tc ) ) ) ) | ( ( [] ( ( go ) /\ ( ta ) ) ) \/ ( ( cc ) /\ ( tc ) ) ) | ( <> ( ( ( go ) /\ ( ta ) ) W ( <> ( ( cc ) /\ ( tc ) ) ) ) ) | ( <> ( ( [] ( ( go ) /\ ( tc ) ) ) W ( ( cc ) /\ ( tc ) ) ) ) | ( <> ( ( X ( ( go ) /\ ( ta ) ) ) \/ ( ( cc ) /\ ( tc ) ) ) ) | ( <> ( ( [] ( ( go ) /\ ( ta ) ) ) W ( ( cc ) /\ ( tc ) ) ) ) | ( <> ( <> ( ( ( go ) /\ ( ta ) ) W ( ( cc ) /\ ( tc ) ) ) ) ) | ( <> ( <> ( ( X ( ( go ) /\ ( tc ) ) ) W ( ( cc ) /\ ( tc ) ) ) ) ) | ( <> ( <> ( ( ( go ) /\ ( tc ) ) W ( ( cc ) /\ ( tc ) ) ) ) ) | ( <> ( ( ( go ) /\ ( tc ) ) W ( ( cc ) /\ ( tc ) ) ) ) | ( ( ( go ) /\ ( tc ) ) W ( ( cc ) /\ ( tc ) ) ) | ( ( [] ( ( go ) /\ ( tc ) ) ) W ( ( cc ) /\ ( tc ) ) ) | ( <> ( ( [] ( ( go ) /\ ( tc ) ) ) \/ ( ( cc ) /\ ( tc ) ) ) ) | ( ( [] ( ( go ) /\ ( tc ) ) ) \/ ( ( cc ) /\ ( tc ) ) ) | ( ( ( ( go ) /\ ( tc ) ) /\ ( tc ) ) W ( ( cc ) /\ ( tc ) ) ) | ( <> ( ( ( ( go ) /\ ( tc ) ) /\ ( tc ) ) W ( ( cc ) /\ ( tc ) ) ) ) | 
Generation Time :0
Accumulated Learning Time :22
CALLs: 177    TIMEOUTs: 0    ERRORs: 0
REEVALUATIONS: 1441 OF 3697

GENERATION 48/50
....m.m.<;...i..m.<;....m.m.<;....m.m.<;......m.m.<;....m.m.<;....m.m.<;...i..m.<;....m.m.<;......m.m.<;....m.m.<;...i..m.<;....m.m.<;....m.m.<;....m.m.<;......m.m.<;......m.m.<;....m.m.<;.....m.m.<;....m.m.<;....m.m.<;....m.m.<;....m.m.<;....m.m.<;....m.m.<;....m.m.<;...i..m.<;....m.m.<;....m.m.<;....m.m.<;...i..m.<;....m.m.<;....m.m.<;....m.m.<;....m.m.<;
Fittest value: 2.642857142857143 for chromosome ( ( ( ( go ) /\ ( tc ) ) /\ ( tc ) ) W ( ( cc ) /\ ( tc ) ) )
Solutions (34): ( ( X ( ( go ) /\ ( ta ) ) ) W ( <> ( ( cc ) /\ ( tc ) ) ) ) | ( ( ( go ) /\ ( ta ) ) \/ ( <> ( <> ( ( cc ) /\ ( tc ) ) ) ) ) | ( <> ( ( X ( ( go ) /\ ( ta ) ) ) W ( <> ( ( cc ) /\ ( tc ) ) ) ) ) | ( ( X ( ( go ) /\ ( ta ) ) ) W ( ( cc ) /\ ( tc ) ) ) | ( ( X ( ( go ) /\ ( ta ) ) ) \/ ( <> ( ( cc ) /\ ( tc ) ) ) ) | ( ( <> ( ( go ) /\ ( ta ) ) ) W ( <> ( ( cc ) /\ ( tc ) ) ) ) | ( ( ( go ) /\ ( ta ) ) W ( <> ( ( cc ) /\ ( tc ) ) ) ) | ( ( ( go ) /\ ( ta ) ) W ( ( cc ) /\ ( tc ) ) ) | ( ( [] ( ( go ) /\ ( ta ) ) ) W ( <> ( ( cc ) /\ ( tc ) ) ) ) | ( ( <> ( ( go ) /\ ( ta ) ) ) W ( ( cc ) /\ ( tc ) ) ) | ( ( [] ( ( go ) /\ ( ta ) ) ) W ( ( cc ) /\ ( tc ) ) ) | ( ( X ( ( go ) /\ ( tc ) ) ) W ( ( cc ) /\ ( tc ) ) ) | ( ( ( go ) /\ ( ta ) ) W ( <> ( <> ( ( cc ) /\ ( tc ) ) ) ) ) | ( ( X ( ( go ) /\ ( tc ) ) ) W ( <> ( ( cc ) /\ ( tc ) ) ) ) | ( ( X ( ( go ) /\ ( ta ) ) ) \/ ( ( cc ) /\ ( tc ) ) ) | ( <> ( ( X ( ( go ) /\ ( ta ) ) ) W ( ( cc ) /\ ( tc ) ) ) ) | ( <> ( ( X ( ( go ) /\ ( tc ) ) ) W ( ( cc ) /\ ( tc ) ) ) ) | ( <> ( ( ( go ) /\ ( ta ) ) W ( ( cc ) /\ ( tc ) ) ) ) | ( ( ( go ) /\ ( ta ) ) \/ ( <> ( ( cc ) /\ ( tc ) ) ) ) | ( ( [] ( ( go ) /\ ( ta ) ) ) \/ ( ( cc ) /\ ( tc ) ) ) | ( <> ( ( ( go ) /\ ( ta ) ) W ( <> ( ( cc ) /\ ( tc ) ) ) ) ) | ( <> ( ( [] ( ( go ) /\ ( tc ) ) ) W ( ( cc ) /\ ( tc ) ) ) ) | ( <> ( ( X ( ( go ) /\ ( ta ) ) ) \/ ( ( cc ) /\ ( tc ) ) ) ) | ( <> ( ( [] ( ( go ) /\ ( ta ) ) ) W ( ( cc ) /\ ( tc ) ) ) ) | ( <> ( <> ( ( ( go ) /\ ( ta ) ) W ( ( cc ) /\ ( tc ) ) ) ) ) | ( <> ( <> ( ( X ( ( go ) /\ ( tc ) ) ) W ( ( cc ) /\ ( tc ) ) ) ) ) | ( <> ( <> ( ( ( go ) /\ ( tc ) ) W ( ( cc ) /\ ( tc ) ) ) ) ) | ( <> ( ( ( go ) /\ ( tc ) ) W ( ( cc ) /\ ( tc ) ) ) ) | ( ( ( go ) /\ ( tc ) ) W ( ( cc ) /\ ( tc ) ) ) | ( ( [] ( ( go ) /\ ( tc ) ) ) W ( ( cc ) /\ ( tc ) ) ) | ( <> ( ( [] ( ( go ) /\ ( tc ) ) ) \/ ( ( cc ) /\ ( tc ) ) ) ) | ( ( [] ( ( go ) /\ ( tc ) ) ) \/ ( ( cc ) /\ ( tc ) ) ) | ( ( ( ( go ) /\ ( tc ) ) /\ ( tc ) ) W ( ( cc ) /\ ( tc ) ) ) | ( <> ( ( ( ( go ) /\ ( tc ) ) /\ ( tc ) ) W ( ( cc ) /\ ( tc ) ) ) ) | 
Generation Time :0
Accumulated Learning Time :23
CALLs: 219    TIMEOUTs: 0    ERRORs: 0
REEVALUATIONS: 1487 OF 3783

GENERATION 49/50
......m.m.<;....m.m.<;....m.m.<;....m.m.<;....m.m.<;....m.m.<;....m.m.<;....m.m.<;....m.m.<;....m.m.<;....m.m.<;....m.m.<;....m.m.<;....m.m.<;...i.m..<;....m.m.<;....m.m.<;....m.m.<;....m.m.<;....m.m.<;....m.m.<;........m.m.<;....m.m.<;......m.m.<;....m.m.<;....m.m.<;....m.m.<;...i.m.m.<;...i.m..<;
Fittest value: 2.642857142857143 for chromosome ( ( ( ( go ) /\ ( tc ) ) /\ ( tc ) ) W ( ( cc ) /\ ( tc ) ) )
Solutions (35): ( ( X ( ( go ) /\ ( ta ) ) ) W ( <> ( ( cc ) /\ ( tc ) ) ) ) | ( ( ( go ) /\ ( ta ) ) \/ ( <> ( <> ( ( cc ) /\ ( tc ) ) ) ) ) | ( <> ( ( X ( ( go ) /\ ( ta ) ) ) W ( <> ( ( cc ) /\ ( tc ) ) ) ) ) | ( ( X ( ( go ) /\ ( ta ) ) ) W ( ( cc ) /\ ( tc ) ) ) | ( ( X ( ( go ) /\ ( ta ) ) ) \/ ( <> ( ( cc ) /\ ( tc ) ) ) ) | ( ( <> ( ( go ) /\ ( ta ) ) ) W ( <> ( ( cc ) /\ ( tc ) ) ) ) | ( ( ( go ) /\ ( ta ) ) W ( <> ( ( cc ) /\ ( tc ) ) ) ) | ( ( ( go ) /\ ( ta ) ) W ( ( cc ) /\ ( tc ) ) ) | ( ( [] ( ( go ) /\ ( ta ) ) ) W ( <> ( ( cc ) /\ ( tc ) ) ) ) | ( ( <> ( ( go ) /\ ( ta ) ) ) W ( ( cc ) /\ ( tc ) ) ) | ( ( [] ( ( go ) /\ ( ta ) ) ) W ( ( cc ) /\ ( tc ) ) ) | ( ( X ( ( go ) /\ ( tc ) ) ) W ( ( cc ) /\ ( tc ) ) ) | ( ( ( go ) /\ ( ta ) ) W ( <> ( <> ( ( cc ) /\ ( tc ) ) ) ) ) | ( ( X ( ( go ) /\ ( tc ) ) ) W ( <> ( ( cc ) /\ ( tc ) ) ) ) | ( ( X ( ( go ) /\ ( ta ) ) ) \/ ( ( cc ) /\ ( tc ) ) ) | ( <> ( ( X ( ( go ) /\ ( ta ) ) ) W ( ( cc ) /\ ( tc ) ) ) ) | ( <> ( ( X ( ( go ) /\ ( tc ) ) ) W ( ( cc ) /\ ( tc ) ) ) ) | ( <> ( ( ( go ) /\ ( ta ) ) W ( ( cc ) /\ ( tc ) ) ) ) | ( ( ( go ) /\ ( ta ) ) \/ ( <> ( ( cc ) /\ ( tc ) ) ) ) | ( ( [] ( ( go ) /\ ( ta ) ) ) \/ ( ( cc ) /\ ( tc ) ) ) | ( <> ( ( ( go ) /\ ( ta ) ) W ( <> ( ( cc ) /\ ( tc ) ) ) ) ) | ( <> ( ( [] ( ( go ) /\ ( tc ) ) ) W ( ( cc ) /\ ( tc ) ) ) ) | ( <> ( ( X ( ( go ) /\ ( ta ) ) ) \/ ( ( cc ) /\ ( tc ) ) ) ) | ( <> ( ( [] ( ( go ) /\ ( ta ) ) ) W ( ( cc ) /\ ( tc ) ) ) ) | ( <> ( <> ( ( ( go ) /\ ( ta ) ) W ( ( cc ) /\ ( tc ) ) ) ) ) | ( <> ( <> ( ( X ( ( go ) /\ ( tc ) ) ) W ( ( cc ) /\ ( tc ) ) ) ) ) | ( <> ( <> ( ( ( go ) /\ ( tc ) ) W ( ( cc ) /\ ( tc ) ) ) ) ) | ( <> ( ( ( go ) /\ ( tc ) ) W ( ( cc ) /\ ( tc ) ) ) ) | ( ( ( go ) /\ ( tc ) ) W ( ( cc ) /\ ( tc ) ) ) | ( ( [] ( ( go ) /\ ( tc ) ) ) W ( ( cc ) /\ ( tc ) ) ) | ( <> ( ( [] ( ( go ) /\ ( tc ) ) ) \/ ( ( cc ) /\ ( tc ) ) ) ) | ( ( [] ( ( go ) /\ ( tc ) ) ) \/ ( ( cc ) /\ ( tc ) ) ) | ( ( ( ( go ) /\ ( tc ) ) /\ ( tc ) ) W ( ( cc ) /\ ( tc ) ) ) | ( <> ( ( ( ( go ) /\ ( tc ) ) /\ ( tc ) ) W ( ( cc ) /\ ( tc ) ) ) ) | ( ( ( ( go ) /\ ( tc ) ) W ( ( cc ) /\ ( tc ) ) ) /\ ( ( ( go ) /\ ( tc ) ) W ( ( cc ) /\ ( tc ) ) ) ) | 
Generation Time :0
Accumulated Learning Time :23
CALLs: 182    TIMEOUTs: 0    ERRORs: 0
REEVALUATIONS: 1523 OF 3852

GENERATION 50/50
....m.m.<;....m.m.<;....m.m.<;....m.m.<;....m.m.<;...i.m.m.<;....m.m.<;....m.m.<;...i..m.<;....m.m.<;...i..m.<;....m.m.<;....m.m.<;....m.m.<;....m.m.<;....m.m.<;....m.m.<;....m.m.<;....m.m.<;....m.m.<;....m.m.<;........m.m.<;....m.m.<;....m.m.<;...i..m.<;...i.m..<;....m.m.<;.....m.m.<;....m.m.<;....m.m.<;.....i..m.<;....m.m.<;....m.m.<;....m.m.<;......m.m.<;......m.m.<;
Fittest value: 2.642857142857143 for chromosome ( ( ( ( go ) /\ ( tc ) ) /\ ( tc ) ) W ( ( cc ) /\ ( tc ) ) )
Solutions (35): ( ( X ( ( go ) /\ ( ta ) ) ) W ( <> ( ( cc ) /\ ( tc ) ) ) ) | ( ( ( go ) /\ ( ta ) ) \/ ( <> ( <> ( ( cc ) /\ ( tc ) ) ) ) ) | ( <> ( ( X ( ( go ) /\ ( ta ) ) ) W ( <> ( ( cc ) /\ ( tc ) ) ) ) ) | ( ( X ( ( go ) /\ ( ta ) ) ) W ( ( cc ) /\ ( tc ) ) ) | ( ( X ( ( go ) /\ ( ta ) ) ) \/ ( <> ( ( cc ) /\ ( tc ) ) ) ) | ( ( <> ( ( go ) /\ ( ta ) ) ) W ( <> ( ( cc ) /\ ( tc ) ) ) ) | ( ( ( go ) /\ ( ta ) ) W ( <> ( ( cc ) /\ ( tc ) ) ) ) | ( ( ( go ) /\ ( ta ) ) W ( ( cc ) /\ ( tc ) ) ) | ( ( [] ( ( go ) /\ ( ta ) ) ) W ( <> ( ( cc ) /\ ( tc ) ) ) ) | ( ( <> ( ( go ) /\ ( ta ) ) ) W ( ( cc ) /\ ( tc ) ) ) | ( ( [] ( ( go ) /\ ( ta ) ) ) W ( ( cc ) /\ ( tc ) ) ) | ( ( X ( ( go ) /\ ( tc ) ) ) W ( ( cc ) /\ ( tc ) ) ) | ( ( ( go ) /\ ( ta ) ) W ( <> ( <> ( ( cc ) /\ ( tc ) ) ) ) ) | ( ( X ( ( go ) /\ ( tc ) ) ) W ( <> ( ( cc ) /\ ( tc ) ) ) ) | ( ( X ( ( go ) /\ ( ta ) ) ) \/ ( ( cc ) /\ ( tc ) ) ) | ( <> ( ( X ( ( go ) /\ ( ta ) ) ) W ( ( cc ) /\ ( tc ) ) ) ) | ( <> ( ( X ( ( go ) /\ ( tc ) ) ) W ( ( cc ) /\ ( tc ) ) ) ) | ( <> ( ( ( go ) /\ ( ta ) ) W ( ( cc ) /\ ( tc ) ) ) ) | ( ( ( go ) /\ ( ta ) ) \/ ( <> ( ( cc ) /\ ( tc ) ) ) ) | ( ( [] ( ( go ) /\ ( ta ) ) ) \/ ( ( cc ) /\ ( tc ) ) ) | ( <> ( ( ( go ) /\ ( ta ) ) W ( <> ( ( cc ) /\ ( tc ) ) ) ) ) | ( <> ( ( [] ( ( go ) /\ ( tc ) ) ) W ( ( cc ) /\ ( tc ) ) ) ) | ( <> ( ( X ( ( go ) /\ ( ta ) ) ) \/ ( ( cc ) /\ ( tc ) ) ) ) | ( <> ( ( [] ( ( go ) /\ ( ta ) ) ) W ( ( cc ) /\ ( tc ) ) ) ) | ( <> ( <> ( ( ( go ) /\ ( ta ) ) W ( ( cc ) /\ ( tc ) ) ) ) ) | ( <> ( <> ( ( X ( ( go ) /\ ( tc ) ) ) W ( ( cc ) /\ ( tc ) ) ) ) ) | ( <> ( <> ( ( ( go ) /\ ( tc ) ) W ( ( cc ) /\ ( tc ) ) ) ) ) | ( <> ( ( ( go ) /\ ( tc ) ) W ( ( cc ) /\ ( tc ) ) ) ) | ( ( ( go ) /\ ( tc ) ) W ( ( cc ) /\ ( tc ) ) ) | ( ( [] ( ( go ) /\ ( tc ) ) ) W ( ( cc ) /\ ( tc ) ) ) | ( <> ( ( [] ( ( go ) /\ ( tc ) ) ) \/ ( ( cc ) /\ ( tc ) ) ) ) | ( ( [] ( ( go ) /\ ( tc ) ) ) \/ ( ( cc ) /\ ( tc ) ) ) | ( ( ( ( go ) /\ ( tc ) ) /\ ( tc ) ) W ( ( cc ) /\ ( tc ) ) ) | ( <> ( ( ( ( go ) /\ ( tc ) ) /\ ( tc ) ) W ( ( cc ) /\ ( tc ) ) ) ) | ( ( ( ( go ) /\ ( tc ) ) W ( ( cc ) /\ ( tc ) ) ) /\ ( ( ( go ) /\ ( tc ) ) W ( ( cc ) /\ ( tc ) ) ) ) | 
Generation Time :0
Accumulated Learning Time :23
CALLs: 227    TIMEOUTs: 0    ERRORs: 0
REEVALUATIONS: 1558 OF 3929


TOTAL Learing Time :23

Solutions: 35
( ( X ( ( go ) /\ ( ta ) ) ) W ( <> ( ( cc ) /\ ( tc ) ) ) )
( ( ( go ) /\ ( ta ) ) \/ ( <> ( <> ( ( cc ) /\ ( tc ) ) ) ) )
( <> ( ( X ( ( go ) /\ ( ta ) ) ) W ( <> ( ( cc ) /\ ( tc ) ) ) ) )
( ( X ( ( go ) /\ ( ta ) ) ) W ( ( cc ) /\ ( tc ) ) )
( ( X ( ( go ) /\ ( ta ) ) ) \/ ( <> ( ( cc ) /\ ( tc ) ) ) )
( ( <> ( ( go ) /\ ( ta ) ) ) W ( <> ( ( cc ) /\ ( tc ) ) ) )
( ( ( go ) /\ ( ta ) ) W ( <> ( ( cc ) /\ ( tc ) ) ) )
( ( ( go ) /\ ( ta ) ) W ( ( cc ) /\ ( tc ) ) )
( ( [] ( ( go ) /\ ( ta ) ) ) W ( <> ( ( cc ) /\ ( tc ) ) ) )
( ( <> ( ( go ) /\ ( ta ) ) ) W ( ( cc ) /\ ( tc ) ) )
( ( [] ( ( go ) /\ ( ta ) ) ) W ( ( cc ) /\ ( tc ) ) )
( ( X ( ( go ) /\ ( tc ) ) ) W ( ( cc ) /\ ( tc ) ) )
( ( ( go ) /\ ( ta ) ) W ( <> ( <> ( ( cc ) /\ ( tc ) ) ) ) )
( ( X ( ( go ) /\ ( tc ) ) ) W ( <> ( ( cc ) /\ ( tc ) ) ) )
( ( X ( ( go ) /\ ( ta ) ) ) \/ ( ( cc ) /\ ( tc ) ) )
( <> ( ( X ( ( go ) /\ ( ta ) ) ) W ( ( cc ) /\ ( tc ) ) ) )
( <> ( ( X ( ( go ) /\ ( tc ) ) ) W ( ( cc ) /\ ( tc ) ) ) )
( <> ( ( ( go ) /\ ( ta ) ) W ( ( cc ) /\ ( tc ) ) ) )
( ( ( go ) /\ ( ta ) ) \/ ( <> ( ( cc ) /\ ( tc ) ) ) )
( ( [] ( ( go ) /\ ( ta ) ) ) \/ ( ( cc ) /\ ( tc ) ) )
( <> ( ( ( go ) /\ ( ta ) ) W ( <> ( ( cc ) /\ ( tc ) ) ) ) )
( <> ( ( [] ( ( go ) /\ ( tc ) ) ) W ( ( cc ) /\ ( tc ) ) ) )
( <> ( ( X ( ( go ) /\ ( ta ) ) ) \/ ( ( cc ) /\ ( tc ) ) ) )
( <> ( ( [] ( ( go ) /\ ( ta ) ) ) W ( ( cc ) /\ ( tc ) ) ) )
( <> ( <> ( ( ( go ) /\ ( ta ) ) W ( ( cc ) /\ ( tc ) ) ) ) )
( <> ( <> ( ( X ( ( go ) /\ ( tc ) ) ) W ( ( cc ) /\ ( tc ) ) ) ) )
( <> ( <> ( ( ( go ) /\ ( tc ) ) W ( ( cc ) /\ ( tc ) ) ) ) )
( <> ( ( ( go ) /\ ( tc ) ) W ( ( cc ) /\ ( tc ) ) ) )
( ( ( go ) /\ ( tc ) ) W ( ( cc ) /\ ( tc ) ) )
( ( [] ( ( go ) /\ ( tc ) ) ) W ( ( cc ) /\ ( tc ) ) )
( <> ( ( [] ( ( go ) /\ ( tc ) ) ) \/ ( ( cc ) /\ ( tc ) ) ) )
( ( [] ( ( go ) /\ ( tc ) ) ) \/ ( ( cc ) /\ ( tc ) ) )
( ( ( ( go ) /\ ( tc ) ) /\ ( tc ) ) W ( ( cc ) /\ ( tc ) ) )
( <> ( ( ( ( go ) /\ ( tc ) ) /\ ( tc ) ) W ( ( cc ) /\ ( tc ) ) ) )
( ( ( ( go ) /\ ( tc ) ) W ( ( cc ) /\ ( tc ) ) ) /\ ( ( ( go ) /\ ( tc ) ) W ( ( cc ) /\ ( tc ) ) ) )

...................................................................................................................................................................................................................................................................................................................................................................................................................................
Non Equivalent Solutions: 17
( ( X ( ( go ) /\ ( ta ) ) ) W ( <> ( ( cc ) /\ ( tc ) ) ) )
( ( X ( ( go ) /\ ( ta ) ) ) W ( ( cc ) /\ ( tc ) ) )
( ( X ( ( go ) /\ ( ta ) ) ) \/ ( <> ( ( cc ) /\ ( tc ) ) ) )
( ( <> ( ( go ) /\ ( ta ) ) ) W ( <> ( ( cc ) /\ ( tc ) ) ) )
( ( ( go ) /\ ( ta ) ) W ( <> ( ( cc ) /\ ( tc ) ) ) )
( ( ( go ) /\ ( ta ) ) W ( ( cc ) /\ ( tc ) ) )
( ( <> ( ( go ) /\ ( ta ) ) ) W ( ( cc ) /\ ( tc ) ) )
( ( [] ( ( go ) /\ ( ta ) ) ) W ( ( cc ) /\ ( tc ) ) )
( ( X ( ( go ) /\ ( tc ) ) ) W ( ( cc ) /\ ( tc ) ) )
( ( X ( ( go ) /\ ( tc ) ) ) W ( <> ( ( cc ) /\ ( tc ) ) ) )
( ( X ( ( go ) /\ ( ta ) ) ) \/ ( ( cc ) /\ ( tc ) ) )
( <> ( ( ( go ) /\ ( ta ) ) W ( ( cc ) /\ ( tc ) ) ) )
( ( ( go ) /\ ( ta ) ) \/ ( <> ( ( cc ) /\ ( tc ) ) ) )
( <> ( ( X ( ( go ) /\ ( ta ) ) ) \/ ( ( cc ) /\ ( tc ) ) ) )
( <> ( ( ( go ) /\ ( tc ) ) W ( ( cc ) /\ ( tc ) ) ) )
( ( ( go ) /\ ( tc ) ) W ( ( cc ) /\ ( tc ) ) )
( ( [] ( ( go ) /\ ( tc ) ) ) W ( ( cc ) /\ ( tc ) ) )
.....................................................................................................................................
Weakest Solutions: 3
( ( ( go ) /\ ( ta ) ) \/ ( <> ( ( cc ) /\ ( tc ) ) ) )
( <> ( ( X ( ( go ) /\ ( ta ) ) ) \/ ( ( cc ) /\ ( tc ) ) ) )
( <> ( ( ( go ) /\ ( tc ) ) W ( ( cc ) /\ ( tc ) ) ) )
TOTAL Time :24
CALLs: 13360    TIMEOUTs: 0    ERRORs: 0
CONFIGURATION
#Population: 100    #Iterations: 50    #ChromSize: 20
REEVALUATIONS: 1558 OF 3929
