0. Min. 22 - Accumulated Learning Time : 95 - Best. 44 Accumulated Learning Time: 145 Total time: 183 Sols: 2425 NonEq. 12

1. Min. 12 - Accumulated Learning Time : 34 - Best. 27 Accumulated Learning Time: 136 Total time: 2796 Sols: 3466 NonEq. 66

2. Min. 13 - Accumulated Learning Time : 52 - Best. 27 Accumulated Learning Time: 155 Total time: 2081 Sols: 3341 NonEq. 103

3. Min. 29 - Accumulated Learning Time : 210 - Best. 45 Accumulated Learning Time: 238 Total time: 256 Sols: 1761 NonEq. 5

4. Min. 17 - Accumulated Learning Time : 137 - Best. 46 Accumulated Learning Time: 275 Total time: 1975 Sols: 3014 NonEq. 81

5. Min. 11 - Accumulated Learning Time : 20 - Best. 26 Accumulated Learning Time: 32 Total time: 52 Sols: 3528 NonEq. 4

6. Min. 11 - Accumulated Learning Time : 32 - Best. 40 Accumulated Learning Time: 111 Total time: 232 Sols: 3514 NonEq. 51

7. NO

8. Min. 37 - Accumulated Learning Time : 185 - Best. 46 Accumulated Learning Time: 209 Total time: 224 Sols: 906 NonEq. 6

9. Min. 45 - Accumulated Learning Time : 71 - Best. 45 Accumulated Learning Time: 71 Total time: 89 Sols: 143 NonEq. 6
